%!PS-Adobe-3.0 EPSF-3.0
%%DocumentNeededResources: font Helvetica
%%+ font Helvetica-Bold
%%+ font Helvetica-Oblique
%%+ font Helvetica-BoldOblique
%%+ font Symbol
%%Title: R Graphics Output
%%Creator: R Software
%%Pages: (atend)
%%BoundingBox: 0 0 458 322
%%EndComments
%%BeginProlog
/bp  { gs sRGB gs } def
% begin .ps.prolog
/gs  { gsave } bind def
/gr  { grestore } bind def
/ep  { showpage gr gr } bind def
/m   { moveto } bind def
/l  { rlineto } bind def
/np  { newpath } bind def
/cp  { closepath } bind def
/f   { fill } bind def
/o   { stroke } bind def
/c   { newpath 0 360 arc } bind def
/r   { 4 2 roll moveto 1 copy 3 -1 roll exch 0 exch rlineto 0 rlineto -1 mul 0 exch rlineto closepath } bind def
/p1  { stroke } bind def
/p2  { gsave bg fill grestore newpath } bind def
/p3  { gsave bg fill grestore stroke } bind def
/p6  { gsave bg eofill grestore newpath } bind def
/p7  { gsave bg eofill grestore stroke } bind def
/t   { 5 -2 roll moveto gsave rotate
       1 index stringwidth pop
       mul neg 0 rmoveto show grestore } bind def
/ta  { 4 -2 roll moveto gsave rotate show } bind def
/tb  { 2 -1 roll 0 rmoveto show } bind def
/cl  { grestore gsave newpath 3 index 3 index moveto 1 index
       4 -1 roll lineto  exch 1 index lineto lineto
       closepath clip newpath } bind def
/rgb { setrgbcolor } bind def
/s   { scalefont setfont } bind def
% end   .ps.prolog
/sRGB { [ /CIEBasedABC
          << /DecodeLMN
               [ { dup 0.03928 le
                        {12.92321 div}
                        {0.055 add 1.055 div 2.4 exp }
                     ifelse
                 } bind dup dup
               ]
             /MatrixLMN [0.412457 0.212673 0.019334
                         0.357576 0.715152 0.119192
                         0.180437 0.072175 0.950301]
             /WhitePoint [0.9505 1.0 1.0890]
           >>
         ] setcolorspace } bind def
/srgb { setcolor } bind def
%%IncludeResource: font Helvetica
/Helvetica findfont
dup length dict begin
  {1 index /FID ne {def} {pop pop} ifelse} forall
  /Encoding ISOLatin1Encoding def
  currentdict
  end
/Font1 exch definefont pop
%%IncludeResource: font Helvetica-Bold
/Helvetica-Bold findfont
dup length dict begin
  {1 index /FID ne {def} {pop pop} ifelse} forall
  /Encoding ISOLatin1Encoding def
  currentdict
  end
/Font2 exch definefont pop
%%IncludeResource: font Helvetica-Oblique
/Helvetica-Oblique findfont
dup length dict begin
  {1 index /FID ne {def} {pop pop} ifelse} forall
  /Encoding ISOLatin1Encoding def
  currentdict
  end
/Font3 exch definefont pop
%%IncludeResource: font Helvetica-BoldOblique
/Helvetica-BoldOblique findfont
dup length dict begin
  {1 index /FID ne {def} {pop pop} ifelse} forall
  /Encoding ISOLatin1Encoding def
  currentdict
  end
/Font4 exch definefont pop
%%IncludeResource: font Symbol
/Symbol findfont
dup length dict begin
  {1 index /FID ne {def} {pop pop} ifelse} forall
  currentdict
  end
/Font5 exch definefont pop
%%EndProlog
%%Page: 1 1
bp
0.00 0.00 458.25 321.75 cl
0.00 0.00 458.25 321.75 cl
0.00 0.00 458.25 321.75 cl
15.82 168.78 237.03 321.75 cl
/bg { 1 1 1 srgb } def
1 1 1 srgb
1.06 setlinewidth
[] 0 setdash
1 setlinecap
1 setlinejoin
10.00 setmiterlimit
15.82 168.78 221.22 152.97 r p3
0.00 0.00 458.25 321.75 cl
0.00 0.00 458.25 321.75 cl
0.00 0.00 458.25 321.75 cl
62.88 206.07 222.63 290.10 cl
/bg { 1 1 1 srgb } def
62.88 206.07 159.75 84.03 r p2
0 0 0 srgb
1.06 setlinewidth
[] 0 setdash
0 setlinecap
1 setlinejoin
1.00 setmiterlimit
np
79.78 248.08 m
3.07 0 l
o
np
81.31 248.08 m
0 0 l
o
np
79.78 248.08 m
3.07 0 l
o
np
110.50 256.48 m
3.07 0 l
o
np
112.03 256.48 m
0 -9.20 l
o
np
110.50 247.28 m
3.07 0 l
o
np
141.22 253.09 m
3.07 0 l
o
np
142.76 253.09 m
0 -5.30 l
o
np
141.22 247.79 m
3.07 0 l
o
np
171.94 253.01 m
3.07 0 l
o
np
173.48 253.01 m
0 -10.46 l
o
np
171.94 242.55 m
3.07 0 l
o
np
202.66 249.66 m
3.08 0 l
o
np
204.20 249.66 m
0 -7.76 l
o
np
202.66 241.90 m
3.08 0 l
o
10.00 setmiterlimit
np
62.88 248.08 m
159.75 0 l
o
/bg { 0 0 0 srgb } def
81.31 248.08 2.13 c p2
112.03 251.88 2.13 c p2
142.76 250.44 2.13 c p2
173.48 247.78 2.13 c p2
204.20 245.78 2.13 c p2
0.00 0.00 458.25 321.75 cl
0.00 0.00 458.25 321.75 cl
0 0 0 srgb
1.06 setlinewidth
[] 0 setdash
0 setlinecap
1 setlinejoin
10.00 setmiterlimit
np
62.88 206.07 m
0 84.03 l
o
0.00 0.00 458.25 321.75 cl
/Font1 findfont 10 s
0 0 0 srgb
55.79 206.30 (-40) 1 0 t
55.79 225.39 (-20) 1 0 t
55.79 244.49 (0) 1 0 t
55.79 263.59 (20) 1 0 t
55.79 282.69 (40) 1 0 t
0.00 0.00 458.25 321.75 cl
0.00 0.00 458.25 321.75 cl
0 0 0 srgb
1.06 setlinewidth
[] 0 setdash
0 setlinecap
1 setlinejoin
10.00 setmiterlimit
np
58.63 209.89 m
4.25 0 l
o
np
58.63 228.98 m
4.25 0 l
o
np
58.63 248.08 m
4.25 0 l
o
np
58.63 267.18 m
4.25 0 l
o
np
58.63 286.28 m
4.25 0 l
o
0.00 0.00 458.25 321.75 cl
0.00 0.00 458.25 321.75 cl
0.00 0.00 458.25 321.75 cl
0.00 0.00 458.25 321.75 cl
0.00 0.00 458.25 321.75 cl
0 0 0 srgb
1.06 setlinewidth
[] 0 setdash
0 setlinecap
1 setlinejoin
10.00 setmiterlimit
np
62.88 206.07 m
159.75 0 l
o
0.00 0.00 458.25 321.75 cl
0 0 0 srgb
1.06 setlinewidth
[] 0 setdash
0 setlinecap
1 setlinejoin
10.00 setmiterlimit
np
81.31 201.81 m
0 4.26 l
o
np
112.03 201.81 m
0 4.26 l
o
np
142.76 201.81 m
0 4.26 l
o
np
173.48 201.81 m
0 4.26 l
o
np
204.20 201.81 m
0 4.26 l
o
0.00 0.00 458.25 321.75 cl
0.00 0.00 458.25 321.75 cl
/Font1 findfont 10 s
0 0 0 srgb
81.31 191.80 (0) .5 0 t
112.03 191.80 (25) .5 0 t
142.76 191.80 (50) .5 0 t
173.48 191.80 (75) .5 0 t
204.20 191.80 (100) .5 0 t
0.00 0.00 458.25 321.75 cl
0.00 0.00 458.25 321.75 cl
0.00 0.00 458.25 321.75 cl
0.00 0.00 458.25 321.75 cl
0.00 0.00 458.25 321.75 cl
/Font1 findfont 12 s
0 0 0 srgb
142.76 179.58 (CT) .5 0 t
0.00 0.00 458.25 321.75 cl
0.00 0.00 458.25 321.75 cl
/Font1 findfont 12 s
0 0 0 srgb
35.23 248.08 (Non-injured) .5 90 t
0.00 0.00 458.25 321.75 cl
0.00 0.00 458.25 321.75 cl
/Font1 findfont 14 s
0 0 0 srgb
142.76 293.70 (Cycling) .5 0 t
0.00 0.00 458.25 321.75 cl
0.00 0.00 458.25 321.75 cl
0.00 0.00 458.25 321.75 cl
0.00 0.00 458.25 321.75 cl
0.00 0.00 458.25 321.75 cl
0.00 0.00 458.25 321.75 cl
237.03 168.78 458.25 321.75 cl
/bg { 1 1 1 srgb } def
1 1 1 srgb
1.06 setlinewidth
[] 0 setdash
1 setlinecap
1 setlinejoin
10.00 setmiterlimit
237.03 168.78 221.22 152.97 r p3
0.00 0.00 458.25 321.75 cl
0.00 0.00 458.25 321.75 cl
0.00 0.00 458.25 321.75 cl
284.10 206.07 443.85 290.10 cl
/bg { 1 1 1 srgb } def
284.10 206.07 159.75 84.03 r p2
0 0 0 srgb
1.06 setlinewidth
[] 0 setdash
0 setlinecap
1 setlinejoin
1.00 setmiterlimit
np
300.99 248.08 m
3.07 0 l
o
np
302.53 248.08 m
0 0 l
o
np
300.99 248.08 m
3.07 0 l
o
np
331.71 253.25 m
3.08 0 l
o
np
333.25 253.25 m
0 -7.85 l
o
np
331.71 245.40 m
3.08 0 l
o
np
362.44 256.85 m
3.07 0 l
o
np
363.97 256.85 m
0 -7.97 l
o
np
362.44 248.88 m
3.07 0 l
o
np
393.16 257.00 m
3.07 0 l
o
np
394.69 257.00 m
0 -6.16 l
o
np
393.16 250.84 m
3.07 0 l
o
np
423.88 261.01 m
3.07 0 l
o
np
425.42 261.01 m
0 -7.07 l
o
np
423.88 253.94 m
3.07 0 l
o
10.00 setmiterlimit
np
284.10 248.08 m
159.75 0 l
o
/bg { 0 0 0 srgb } def
302.53 248.08 2.13 c p2
333.25 249.33 2.13 c p2
363.97 252.87 2.13 c p2
394.69 253.92 2.13 c p2
425.42 257.47 2.13 c p2
0.00 0.00 458.25 321.75 cl
0.00 0.00 458.25 321.75 cl
0 0 0 srgb
1.06 setlinewidth
[] 0 setdash
0 setlinecap
1 setlinejoin
10.00 setmiterlimit
np
284.10 206.07 m
0 84.03 l
o
0.00 0.00 458.25 321.75 cl
/Font1 findfont 10 s
0 0 0 srgb
277.01 206.30 (-40) 1 0 t
277.01 225.39 (-20) 1 0 t
277.01 244.49 (0) 1 0 t
277.01 263.59 (20) 1 0 t
277.01 282.69 (40) 1 0 t
0.00 0.00 458.25 321.75 cl
0.00 0.00 458.25 321.75 cl
0 0 0 srgb
1.06 setlinewidth
[] 0 setdash
0 setlinecap
1 setlinejoin
10.00 setmiterlimit
np
279.84 209.89 m
4.26 0 l
o
np
279.84 228.98 m
4.26 0 l
o
np
279.84 248.08 m
4.26 0 l
o
np
279.84 267.18 m
4.26 0 l
o
np
279.84 286.28 m
4.26 0 l
o
0.00 0.00 458.25 321.75 cl
0.00 0.00 458.25 321.75 cl
0.00 0.00 458.25 321.75 cl
0.00 0.00 458.25 321.75 cl
0.00 0.00 458.25 321.75 cl
0 0 0 srgb
1.06 setlinewidth
[] 0 setdash
0 setlinecap
1 setlinejoin
10.00 setmiterlimit
np
284.10 206.07 m
159.75 0 l
o
0.00 0.00 458.25 321.75 cl
0 0 0 srgb
1.06 setlinewidth
[] 0 setdash
0 setlinecap
1 setlinejoin
10.00 setmiterlimit
np
302.53 201.81 m
0 4.26 l
o
np
333.25 201.81 m
0 4.26 l
o
np
363.97 201.81 m
0 4.26 l
o
np
394.69 201.81 m
0 4.26 l
o
np
425.42 201.81 m
0 4.26 l
o
0.00 0.00 458.25 321.75 cl
0.00 0.00 458.25 321.75 cl
/Font1 findfont 10 s
0 0 0 srgb
302.53 191.80 (0) .5 0 t
333.25 191.80 (25) .5 0 t
363.97 191.80 (50) .5 0 t
394.69 191.80 (75) .5 0 t
425.42 191.80 (100) .5 0 t
0.00 0.00 458.25 321.75 cl
0.00 0.00 458.25 321.75 cl
0.00 0.00 458.25 321.75 cl
0.00 0.00 458.25 321.75 cl
0.00 0.00 458.25 321.75 cl
/Font1 findfont 12 s
0 0 0 srgb
363.97 179.58 (CT) .5 0 t
0.00 0.00 458.25 321.75 cl
0.00 0.00 458.25 321.75 cl
/Font1 findfont 12 s
0 0 0 srgb
256.45 248.08 (Non-injured) .5 90 t
0.00 0.00 458.25 321.75 cl
0.00 0.00 458.25 321.75 cl
/Font1 findfont 14 s
0 0 0 srgb
363.97 293.70 (ES Cycling) .5 0 t
0.00 0.00 458.25 321.75 cl
0.00 0.00 458.25 321.75 cl
0.00 0.00 458.25 321.75 cl
0.00 0.00 458.25 321.75 cl
0.00 0.00 458.25 321.75 cl
0.00 0.00 458.25 321.75 cl
15.82 15.82 237.03 168.78 cl
/bg { 1 1 1 srgb } def
1 1 1 srgb
1.06 setlinewidth
[] 0 setdash
1 setlinecap
1 setlinejoin
10.00 setmiterlimit
15.82 15.82 221.22 152.97 r p3
0.00 0.00 458.25 321.75 cl
0.00 0.00 458.25 321.75 cl
0.00 0.00 458.25 321.75 cl
62.88 53.10 222.63 137.13 cl
/bg { 1 1 1 srgb } def
62.88 53.10 159.75 84.03 r p2
0 0 0 srgb
1.06 setlinewidth
[] 0 setdash
0 setlinecap
1 setlinejoin
1.00 setmiterlimit
np
79.78 95.11 m
3.07 0 l
o
np
81.31 95.11 m
0 0 l
o
np
79.78 95.11 m
3.07 0 l
o
np
110.50 101.67 m
3.07 0 l
o
np
112.03 101.67 m
0 -11.58 l
o
np
110.50 90.09 m
3.07 0 l
o
np
141.22 99.00 m
3.07 0 l
o
np
142.76 99.00 m
0 -8.97 l
o
np
141.22 90.03 m
3.07 0 l
o
np
171.94 102.23 m
3.07 0 l
o
np
173.48 102.23 m
0 -10.91 l
o
np
171.94 91.32 m
3.07 0 l
o
np
202.66 102.68 m
3.08 0 l
o
np
204.20 102.68 m
0 -9.95 l
o
np
202.66 92.73 m
3.08 0 l
o
10.00 setmiterlimit
np
62.88 95.11 m
159.75 0 l
o
/bg { 0 0 0 srgb } def
81.31 95.11 2.13 c p2
112.03 95.88 2.13 c p2
142.76 94.51 2.13 c p2
173.48 96.78 2.13 c p2
204.20 97.70 2.13 c p2
0.00 0.00 458.25 321.75 cl
0.00 0.00 458.25 321.75 cl
0 0 0 srgb
1.06 setlinewidth
[] 0 setdash
0 setlinecap
1 setlinejoin
10.00 setmiterlimit
np
62.88 53.10 m
0 84.03 l
o
0.00 0.00 458.25 321.75 cl
/Font1 findfont 10 s
0 0 0 srgb
55.79 53.33 (-40) 1 0 t
55.79 72.43 (-20) 1 0 t
55.79 91.52 (0) 1 0 t
55.79 110.62 (20) 1 0 t
55.79 129.72 (40) 1 0 t
0.00 0.00 458.25 321.75 cl
0.00 0.00 458.25 321.75 cl
0 0 0 srgb
1.06 setlinewidth
[] 0 setdash
0 setlinecap
1 setlinejoin
10.00 setmiterlimit
np
58.63 56.92 m
4.25 0 l
o
np
58.63 76.02 m
4.25 0 l
o
np
58.63 95.11 m
4.25 0 l
o
np
58.63 114.21 m
4.25 0 l
o
np
58.63 133.31 m
4.25 0 l
o
0.00 0.00 458.25 321.75 cl
0.00 0.00 458.25 321.75 cl
0.00 0.00 458.25 321.75 cl
0.00 0.00 458.25 321.75 cl
0.00 0.00 458.25 321.75 cl
0 0 0 srgb
1.06 setlinewidth
[] 0 setdash
0 setlinecap
1 setlinejoin
10.00 setmiterlimit
np
62.88 53.10 m
159.75 0 l
o
0.00 0.00 458.25 321.75 cl
0 0 0 srgb
1.06 setlinewidth
[] 0 setdash
0 setlinecap
1 setlinejoin
10.00 setmiterlimit
np
81.31 48.85 m
0 4.25 l
o
np
112.03 48.85 m
0 4.25 l
o
np
142.76 48.85 m
0 4.25 l
o
np
173.48 48.85 m
0 4.25 l
o
np
204.20 48.85 m
0 4.25 l
o
0.00 0.00 458.25 321.75 cl
0.00 0.00 458.25 321.75 cl
/Font1 findfont 10 s
0 0 0 srgb
81.31 38.83 (0) .5 0 t
112.03 38.83 (25) .5 0 t
142.76 38.83 (50) .5 0 t
173.48 38.83 (75) .5 0 t
204.20 38.83 (100) .5 0 t
0.00 0.00 458.25 321.75 cl
0.00 0.00 458.25 321.75 cl
0.00 0.00 458.25 321.75 cl
0.00 0.00 458.25 321.75 cl
0.00 0.00 458.25 321.75 cl
/Font1 findfont 12 s
0 0 0 srgb
142.76 26.62 (CT) .5 0 t
0.00 0.00 458.25 321.75 cl
0.00 0.00 458.25 321.75 cl
/Font1 findfont 12 s
0 0 0 srgb
35.23 95.11 (Non-injured) .5 90 t
0.00 0.00 458.25 321.75 cl
0.00 0.00 458.25 321.75 cl
/Font1 findfont 14 s
0 0 0 srgb
142.76 140.73 (Cycling) .5 0 t
0.00 0.00 458.25 321.75 cl
0.00 0.00 458.25 321.75 cl
0.00 0.00 458.25 321.75 cl
0.00 0.00 458.25 321.75 cl
0.00 0.00 458.25 321.75 cl
0.00 0.00 458.25 321.75 cl
237.03 15.82 458.25 168.78 cl
/bg { 1 1 1 srgb } def
1 1 1 srgb
1.06 setlinewidth
[] 0 setdash
1 setlinecap
1 setlinejoin
10.00 setmiterlimit
237.03 15.82 221.22 152.97 r p3
0.00 0.00 458.25 321.75 cl
0.00 0.00 458.25 321.75 cl
0.00 0.00 458.25 321.75 cl
284.10 53.10 443.85 137.13 cl
/bg { 1 1 1 srgb } def
284.10 53.10 159.75 84.03 r p2
0 0 0 srgb
1.06 setlinewidth
[] 0 setdash
0 setlinecap
1 setlinejoin
1.00 setmiterlimit
np
300.99 93.16 m
3.07 0 l
o
np
302.53 93.16 m
0 0 l
o
np
300.99 93.16 m
3.07 0 l
o
np
331.71 107.08 m
3.08 0 l
o
np
333.25 107.08 m
0 -16.87 l
o
np
331.71 90.21 m
3.08 0 l
o
np
362.44 121.81 m
3.07 0 l
o
np
363.97 121.81 m
0 -24.76 l
o
np
362.44 97.05 m
3.07 0 l
o
np
393.16 133.31 m
3.07 0 l
o
np
394.69 133.31 m
0 -34.05 l
o
np
393.16 99.26 m
3.07 0 l
o
np
423.88 101.08 m
3.07 0 l
o
np
425.42 101.08 m
0 -14.11 l
o
np
423.88 86.97 m
3.07 0 l
o
10.00 setmiterlimit
np
284.10 93.16 m
159.75 0 l
o
/bg { 0 0 0 srgb } def
302.53 93.16 2.13 c p2
333.25 98.65 2.13 c p2
363.97 109.43 2.13 c p2
394.69 116.29 2.13 c p2
425.42 94.03 2.13 c p2
0.00 0.00 458.25 321.75 cl
0.00 0.00 458.25 321.75 cl
0 0 0 srgb
1.06 setlinewidth
[] 0 setdash
0 setlinecap
1 setlinejoin
10.00 setmiterlimit
np
284.10 53.10 m
0 84.03 l
o
0.00 0.00 458.25 321.75 cl
/Font1 findfont 10 s
0 0 0 srgb
277.01 66.92 (-25) 1 0 t
277.01 89.57 (0) 1 0 t
277.01 112.22 (25) 1 0 t
0.00 0.00 458.25 321.75 cl
0.00 0.00 458.25 321.75 cl
0 0 0 srgb
1.06 setlinewidth
[] 0 setdash
0 setlinecap
1 setlinejoin
10.00 setmiterlimit
np
279.84 70.51 m
4.26 0 l
o
np
279.84 93.16 m
4.26 0 l
o
np
279.84 115.81 m
4.26 0 l
o
0.00 0.00 458.25 321.75 cl
0.00 0.00 458.25 321.75 cl
0.00 0.00 458.25 321.75 cl
0.00 0.00 458.25 321.75 cl
0.00 0.00 458.25 321.75 cl
0 0 0 srgb
1.06 setlinewidth
[] 0 setdash
0 setlinecap
1 setlinejoin
10.00 setmiterlimit
np
284.10 53.10 m
159.75 0 l
o
0.00 0.00 458.25 321.75 cl
0 0 0 srgb
1.06 setlinewidth
[] 0 setdash
0 setlinecap
1 setlinejoin
10.00 setmiterlimit
np
302.53 48.85 m
0 4.25 l
o
np
333.25 48.85 m
0 4.25 l
o
np
363.97 48.85 m
0 4.25 l
o
np
394.69 48.85 m
0 4.25 l
o
np
425.42 48.85 m
0 4.25 l
o
0.00 0.00 458.25 321.75 cl
0.00 0.00 458.25 321.75 cl
/Font1 findfont 10 s
0 0 0 srgb
302.53 38.83 (0) .5 0 t
333.25 38.83 (25) .5 0 t
363.97 38.83 (50) .5 0 t
394.69 38.83 (75) .5 0 t
425.42 38.83 (100) .5 0 t
0.00 0.00 458.25 321.75 cl
0.00 0.00 458.25 321.75 cl
0.00 0.00 458.25 321.75 cl
0.00 0.00 458.25 321.75 cl
0.00 0.00 458.25 321.75 cl
/Font1 findfont 12 s
0 0 0 srgb
363.97 26.62 (CT) .5 0 t
0.00 0.00 458.25 321.75 cl
0.00 0.00 458.25 321.75 cl
/Font1 findfont 12 s
0 0 0 srgb
256.45 95.11 (Non-injured) .5 90 t
0.00 0.00 458.25 321.75 cl
0.00 0.00 458.25 321.75 cl
/Font1 findfont 14 s
0 0 0 srgb
363.97 140.73 (ES Cycling) .5 0 t
0.00 0.00 458.25 321.75 cl
0.00 0.00 458.25 321.75 cl
0.00 0.00 458.25 321.75 cl
0.00 0.00 458.25 321.75 cl
0.00 0.00 458.25 321.75 cl
/Font1 findfont 12 s
0 0 0 srgb
165.35 3.60 (Inter Stim) 0 ta
-0.120 (ulus Inter) tb
0.360 (v) tb
-0.300 (al \(ms\)) tb gr
0.00 0.00 458.25 321.75 cl
0.00 0.00 458.25 321.75 cl
/Font1 findfont 12 s
0 0 0 srgb
12.22 89.52 (Soleus H Refle) 90 ta
-0.360 (x Amplitude) tb gr
0.00 0.00 458.25 321.75 cl
0.00 0.00 458.25 321.75 cl
ep
%%Trailer
%%Pages: 1
%%EOF
