"","Group","ID","Date","Sex","Lesion.type","Lesion.level","AIS","Lesion.date","Time.since.lesion..m.","Ethiology","Actual.threatments","MB.Flex.cad.D","MB.Flex.cad.I","MB.Ext.Rod.D","MB.Ext.Rod.I","MB.Dorsifl.D","MB.Dorsifl.I","MB.Plantarfl.D","MB.Plantarfl.I","MB.Ext.1.dedo.D","MB.Ext.1.dedo.I","MB.Tot..LEMS..D","MB.Tot..LEMS..I","WISCI.II","TUG..s.","X10m..s.","Hoffer","Sagunto","MAS.Flex.Rod.D","MAS.Flex.Rod.I","MAS.Ext.Rod.D","MAS.Ext.Rod.I","MAS.Flex.tob.D","MAS.Flex.tob.I","MAS.Ext.tob.D","MAS.Ext.tob.I","PENN","Clonus.D","Clonus.I","Flex.D","Flex.I","Ext.D","Ext.I","Age.Y"
"1","isci","I01","17/3/2015","F","Incomplete","C4","C","23/5/2014",9.9,"postquirúrgica","Physio",4,2,4,2,5,4,4,4,2,2,19,14,13,"36.56","57.44",1,2,0,0,0,0,0,0,0,0,3,1,3,1,0,1,0,44.958904109589
"2","isci","I02","10/3/2015","M","Incomplete","C4","D","19/9/2014",5.7,"traumática","Physio",3,2,4,3,5,2,5,2,4,1,21,10,0,"not able","not able",3,1,0,1,0,0,0,0,0,0,1,1,0,1,0,0,0,51.9945205479452
"3","isci","I03","24/3/2015","M","Incomplete","C4","C","5/7/2014",8.7,"traumática","Physio",4,4,2,2,2,3,2,3,2,3,12,15,16,"36.24","24.13",1,2,2,4,0,1,0,2,0,2,2,1,1,0,1,0,0,40.013698630137
"4","isci","I04","26/3/2015","M","Incomplete","C4","D","13/6/2014",9.5,"vascular","Physio + Electro",2,1,2,2,2,1,2,1,2,1,10,6,13,"55.43","44.48",2,1,0,3,0,0,0,0,2,2,1,1,1,2,0,0,0,42.4684931506849
"5","isci","I05","13/4/2015","F","Incomplete","C4","C","8/11/2014",5.2,"infecciosa","Physio + Lioresal 2mgx3",3,4,3,4,2,3,2,4,2,4,12,19,0,"0","0",3,0,4,0,1,0,0,0,2,0,4,3,3,3,3,2,2,34.1917808219178
"6","isci","I06","23/4/2015","F","Incomplete","C4","C","2/9/2014",7.8,"traumática","Physio + Electro + TO",2,3,4,5,3,5,3,5,2,4,14,22,13,"68","65",2,1,1,0,0,0,0,0,0,0,4,3,3,2,2,1,0,65.0794520547945
"7","isci","I07","27/4/2015","M","Incomplete","C4","C","21/8/2014",8.3,"traumática","Physio + Electro",2,2,3,3,3,3,3,3,2,2,13,13,0,"not able","not able",3,0,3,1,3,1,3,1,1,1,2,0,0,1,0,0,0,72.3424657534247
"8","isci","I08","30/4/2015","M","Incomplete","C4","C","3/21/2014",13.5,"inflamatoria","Physio+Electo",0,0,0,0,0,0,0,0,0,0,0,0,0,"not able","not able",0,0,0,0,0,0,0,0,0,0,1,0,0,0,0,0,0,38.2164383561644
"9","isci","I09","4/5/2015","F","Incomplete","C6","D","2/10/2015",2.8,"vascular","Physio",4,4,4,4,3,3,3,4,3,4,17,19,0,"not able","not able",1,1,0,0,2,0,1,0,0,0,1,2,2,2,2,0,0,52.4356164383562
"10","isci","I10","13/5/2015","M","Incomplete","C4","D","2/14/2015",2.9,"vascular","Physio + Lokomat",4,3,4,3,4,4,4,3,4,3,20,16,17,"18.3","14.6",1,2,0,0,0,1,0,0,0,0,0,0,1,0,0,0,0,39.8328767123288
"11","csci","C01","12/5/2015","F","Complete","T8","A","3/9/2014",8.366666667,"vascular","Physio",0,0,0,0,0,0,0,0,0,0,0,0,0,"0","0",0,0,2,2,2,2,2,1,1,1,3,1,1,3,3,1,0,64.6328767123288
"12","csci","C02","18/5/2015","M","Complete","T7","A","3/11/2014",6.533333333,"neoplásica","Physio",0,0,0,0,0,0,0,0,0,0,0,0,0,"0","0",0,0,0,0,0,1,1,1,0,0,1,2,3,0,0,0,0,40.0219178082192
"13","csci","C03","10/5/2015","M","Complete","C4","B","21/11/2014",5.966666667,"traumática","Physio",0,0,0,0,0,0,0,0,0,0,0,0,0,"0","0",0,0,2,3,2,3,1,1,1,1,3,3,3,2,2,0,0,58.8520547945205
"14","csci","C04","21/5/2015","M","Complete","T6","A","3/12/2014",5.633333333,"traumática","Physio+ Lioresal 15mg/día",0,0,0,0,0,0,0,0,0,0,0,0,0,"0","0",0,0,1,1,2,2,2,2,1,1,2,1,1,1,1,0,0,27.172602739726
"15","csci","C05","28/05/2015","F","Complete","T2","B","13/8/2014",9.6,"traumática","Physio",0,0,0,0,0,0,0,0,0,0,0,0,0,"0","0",0,0,0,0,0,1,1,1,0,0,1,3,3,0,0,0,0,49.3808219178082
