UID,Group,H Control Post 25,H Control Post 50,H Control Post 75,H Control Post 100,H Control Pre 25,H Control Pre 50,H Control Pre 75,H Control Pre 100,H Cycling Post 25,H Cycling Post 50,H Cycling Post 75,H Cycling Post 100,H Cycling Pre 25,H Cycling Pre 50,H Cycling Pre 75,H Cycling Pre 100,H ES Cycling Post 25,H ES Cycling Post 50,H ES Cycling Post 75,H ES Cycling Post 100,H ES Cycling Pre 25,H ES Cycling Pre 50,H ES Cycling Pre 75,H ES Cycling Pre 100,H Control changes 25,H Control changes 50,H Control changes 75,H Control changes 100,H Cycling changes 25,H Cycling changes 50,H Cycling changes 75,H Cycling changes 100,H ES Cycling changes 25,H ES Cycling changes 50,H ES Cycling changes 75,H ES Cycling changes 100,10m (s),AIS,Actual threatments,Age,Birthday,Clonus D,Clonus I,Date,Ethiology,Ext D,Ext I,Flex D,Flex I,Hoffer,Lesion date,Lesion level,Lesion type,MAS Ext Rod D,MAS Ext Rod I,MAS Ext tob D,MAS Ext tob I,MAS Flex Rod D,MAS Flex Rod I,MAS Flex tob D,MAS Flex tob I,MAS tob D,MAS tob I,MB Dorsifl D,MB Dorsifl I,MB Ext 1 dedo D,MB Ext 1 dedo I,MB Ext Rod D,MB Ext Rod I,MB Flex cad D,MB Flex cad I,MB Plantarfl D,MB Plantarfl I,MB Tot (LEMS) D,MB Tot (LEMS) I,NHC,Name,PENN,Sagunto,Session 1,Session 2,Sex,Surname,TUG (s),Time since lesion (m),WISCI II
C01,csci,58.4855369798,99.0210691378,90.3119336836,93.9325165955,54.0967310519,86.1012519701,71.9489816064,85.7674753675,100.2113106354,101.0635657625,101.4078963756,103.2785519511,118.9164226518,117.5886945143,139.7337703599,114.2226800939,67.9753574518,102.1414382773,96.777017826,103.3318525106,58.4855369798,99.0210691378,90.3119336836,93.9325165955,8.112885645,15.0053766606,25.5221848415,9.5199738514,-15.729628927,-14.0533312493,-27.4277820498,-9.5813967364,16.2259268907,3.151217379,7.1586155657,10.0064772624,0,1,Physio,64.6328767123,1950-10-09 00:00:00,1,1,2015-05-12 00:00:00,vascular,1,0,3,3,0,2014-09-03 00:00:00,D8,Complete,2,2,1,1,2,2,2,1,3,2,0,0,0,0,0,0,0,0,0,0,0,0,45423,Eulogia,3,0,2015-05-12 00:00:00,2015-05-13 00:00:00,F,Herrero Hernández,0,8.3666666667,0
C02,csci,102.6562817619,115.7831145868,107.823940132,106.6347344521,92.2097798814,98.9676098271,108.1879138881,103.7820740071,95.7107454358,108.1886166569,103.3196808153,103.5813761277,102.6562817619,115.7831145868,107.823940132,106.6347344521,104.2253120782,111.3315135429,108.8061580676,106.8565076681,93.5654868223,100.2667027523,100.1853269874,100.0657341565,11.3290606418,16.9909173204,-0.3364273726,2.7487024829,-6.7658171589,-6.5592448061,-4.1774204423,-2.8633806237,11.3929031076,11.0353791307,8.6048839082,6.7863125862,0,1,Physio,40.0219178082,1975-05-20 00:00:00,2,3,2015-05-18 00:00:00,neoplásica,0,0,0,0,0,2014-11-03 00:00:00,D7,Complete,0,1,0,0,0,0,1,1,1,1,0,0,0,0,0,0,0,0,0,0,0,0,46171,Alberto ,1,0,2015-05-18 00:00:00,2015-05-27 00:00:00,M,Vicente Moreno,0,6.5333333333,0
C03,csci,100.1282308182,98.8585091469,101.8053194452,107.0596483036,97.2462361658,102.3427020838,105.7798059011,103.092311659,96.420773002,96.8743415645,101.9266747998,101.0132777314,100.1282308182,98.8585091469,101.8053194452,107.0596483036,96.9922717855,97.3887687648,98.8284385817,100.8006156511,96.8730461006,108.6454209858,110.0472848848,112.2667264427,2.9636053446,-3.4044371176,-3.7573206171,3.8483341587,-3.7027098011,-2.0070781964,0.1192033533,-5.6476652669,0.123074157,-10.3609080979,-10.1945689208,-10.2132761459,0,2,Physio,58.8520547945,1956-07-17 00:00:00,3,3,2015-05-10 00:00:00,traumática,0,0,2,2,0,2014-11-21 00:00:00,C4,Complete,2,3,1,1,2,3,1,1,2,2,0,0,0,0,0,0,0,0,0,0,0,0,46579,Carlos Eduardo,3,0,2015-05-19 00:00:00,2015-05-26 00:00:00,M,Intriago Dillom,0,5.9666666667,0
C04,csci,97.5052080378,102.1704705059,98.7442961989,97.5343062887,99.2026198123,112.576309562,107.7572539271,110.9843951026,102.7227736253,95.8661999683,94.2595894153,102.6068140987,95.2589926265,111.3458741114,112.3551164535,107.7065664299,109.4717693263,108.526224816,100.6757958056,100.5594726006,97.5052080378,102.1704705059,98.7442961989,97.5343062887,-1.7110553912,-9.2433648754,-8.3641308586,-12.1189008612,7.8352508179,-13.9023329482,-16.1056546505,-4.7348574003,12.2727406354,6.2207350897,1.9560619509,3.1016433367,0,1,Physio+ Lioresal 15mg/día,27.1726027397,1988-03-25 00:00:00,1,1,2015-05-21 00:00:00,traumática,0,0,1,1,0,2014-12-03 00:00:00,D6,Complete,2,2,1,1,1,1,2,2,3,3,0,0,0,0,0,0,0,0,0,0,0,0,-9999,Ivan,2,0,2015-05-21 00:00:00,2015-05-28 00:00:00,M,Heras Pérez,0,5.6333333333,0
C05,csci,111.4310393987,113.2891038374,114.8460839595,106.3884627917,104.5757509321,109.5191537157,109.5214122427,104.8089052115,92.8273914959,94.7219769127,102.0089264516,92.3944166034,88.0701054787,95.5392627396,92.7410891782,88.8638918443,94.7491557544,96.7094471002,95.2785795618,94.2880112475,111.4310393987,113.2891038374,114.8460839595,106.3884627917,6.5553327664,3.4422747016,4.8617632002,1.5070833695,5.4017035534,-0.8554449799,9.9932374695,3.9729576162,-14.9705896439,-14.6348202745,-17.0380249139,-11.3738381275,0,2,Physio,49.3808219178,1966-01-21 00:00:00,3,3,2015-05-28 00:00:00,traumática,0,0,0,0,0,2014-08-13 00:00:00,D2,Complete,0,1,0,0,0,0,1,1,1,1,0,0,0,0,0,0,0,0,0,0,0,0,45544,MªEncarnación,1,0,2015-05-28 00:00:00,2015-05-29 00:00:00,F,Galindo Gónzalez,0,9.6,0
I01,isci,109.6786568701,94.4285371426,95.0991794707,67.1549209367,104.6055370334,97.3500662929,106.2540049356,96.6942758093,96.3270021932,94.9909007424,119.4857639307,87.8143775523,109.6786568701,94.4285371426,95.0991794707,67.1549209367,82.4256953476,75.0926166333,99.9769078749,92.5776834282,84.1269646304,84.6564577112,66.2579591676,68.7667294207,4.8497622407,-3.0010551216,-10.4982635447,-30.5492280958,-12.1734301439,0.5955441193,25.6433174247,30.7638760161,-2.0222639558,-11.2972374896,50.890412459,34.6256892077,57.44,3,Physio,44.9589041096,1970-04-12 00:00:00,1,3,2015-03-17 00:00:00,postquirúrgica,1,0,1,0,1,2014-05-23 00:00:00,C4,Incomplete,0,0,0,0,0,0,0,0,0,0,5,4,2,2,4,2,4,2,4,4,19,14,44581,Milagros,3,2,2015-03-17 00:00:00,2015-03-16 00:00:00,F,Dominguez,36.56,9.9333333333,13
I02,isci,94.8582502116,107.8944557287,102.8096991689,102.0503022161,58.2687116368,78.3800454002,79.3480281169,64.3793003233,73.2007722265,93.5030529071,76.7843267781,74.3714390088,76.1449733282,107.131307562,66.0184612473,61.6289903158,63.013282858,100.6203260852,47.6173676129,46.2745762849,94.8582502116,107.8944557287,102.8096991689,102.0503022161,62.7944870358,37.6555157347,29.5680580965,58.5141523806,-3.8665731605,-12.7210756268,16.3073560446,20.6760627225,-33.5711098218,-6.7418938206,-53.6839734015,-54.6551305777,-9999,4,Physio,51.9945205479,1963-03-25 00:00:00,1,0,2015-03-10 00:00:00,traumática,0,0,1,0,3,2014-09-19 00:00:00,C4,Incomplete,0,0,0,0,0,1,0,0,0,0,5,2,4,1,4,3,3,2,5,2,21,10,45402,Tomas,1,1,2015-03-10 00:00:00,2015-03-11 00:00:00,M, Frances Gomez,-9999,5.7333333333,0
I03,isci,100.7204618427,99.6015907776,100.4211574342,101.1461102489,101.7586783831,103.6270939176,101.3842631817,100.5925001945,101.8686524182,100.4487058548,97.0367593818,100.5443100111,109.6733277766,100.8661648758,96.5744902093,111.6358212632,179.9179584363,230.6640679991,103.4306729947,112.3263415224,100.7204618427,99.6015907776,100.4211574342,101.1461102489,-1.0202732159,-3.8846048729,-0.9499558583,0.550349234,-7.11629301,-0.4138741881,0.4786659204,-9.9354410856,78.6309903118,131.5867308928,2.9968939189,11.0535454562,24.13,3,Physio,40.0136986301,1975-03-29 00:00:00,1,1,2015-03-24 00:00:00,traumática,0,0,0,1,1,2014-07-05 00:00:00,C4,Incomplete,0,1,0,2,2,4,0,2,0,4,2,3,2,3,2,2,4,4,2,3,12,15,44858,Julian,2,2,2015-03-24 00:00:00,2015-03-25 00:00:00,M,Lopez del Cerro,36.24,8.7333333333,16
I04,isci,86.0881918582,103.0069176568,108.4826294578,107.4837214316,80.9817467849,106.106560999,105.3567120327,110.3132686138,91.5605292357,108.0818441139,116.2711740154,119.4521666475,86.0881918582,103.0069176568,108.4826294578,107.4837214316,73.7695993548,113.451268004,128.2384535328,114.4714295175,84.0754884857,103.4542831526,100.218870363,100.7620956053,6.3056741501,-2.9212551166,2.9669846038,-2.5650107351,6.3566643223,4.926782174,7.1795315033,11.1351235856,-12.2578997952,9.6631908769,27.958390539,13.6056458829,44.48,4,Physio + Electro,42.4684931507,1972-10-16 00:00:00,1,1,2015-03-26 00:00:00,vascular,0,0,2,0,2,2014-06-13 00:00:00,C4,Incomplete,0,0,2,2,0,3,0,0,2,2,2,1,2,1,2,2,2,1,2,1,10,6,45025,Manuel,1,1,2015-03-26 00:00:00,2015-03-27 00:00:00,M,Petron Gonzalez,55.43,9.5333333333,13
I05,isci,80.6664963855,102.8367801884,110.7249502958,119.4312708639,106.5961412909,145.9927465642,187.0111403029,124.2547629657,88.2882483428,112.5102819758,144.4554459978,112.7842186073,49.5234731318,88.6186595769,138.9345302338,112.8919838454,71.1401706674,112.0950028297,272.4466652129,105.3701242798,80.6664963855,102.8367801884,110.7249502958,119.4312708639,-24.3251252732,-29.560349669,-40.7923238603,-3.8819373895,78.2755585576,26.960035858,3.9737535044,-0.0954587158,-11.8095196209,9.0028320843,146.0571573843,-11.7734212174,0,3,Physio + Lioresal 2mgx3,34.1917808219,1981-02-10 00:00:00,3,3,2015-04-13 00:00:00,infecciosa,2,2,3,3,3,2014-11-08 00:00:00,C4,Incomplete,1,0,2,0,4,0,0,0,2,0,2,3,2,4,3,4,3,4,2,4,12,19,46287,Veronica,4,0,2015-04-13 00:00:00,2015-04-14 00:00:00,F,Fuentes Pastor,0,5.2,0
I06,isci,90.0372853876,103.9828189144,117.6171590329,106.9084362989,91.4697381797,109.4386616761,112.7060013402,103.4626366195,115.1084602258,105.4909814526,99.860892578,87.1290411402,113.3232256275,129.757410166,143.9831635929,120.4416908274,82.7114091934,86.3555024721,90.5693673812,91.6382997179,90.0372853876,103.9828189144,117.6171590329,106.9084362989,-1.5660401141,-4.9852974061,4.3574943963,3.3304773511,1.5753474969,-18.7013818189,-30.6440488693,-27.6587363216,-8.1364916353,-16.9521432735,-22.9964674152,-14.2833784775,65,3,Physio + Electro + TO,65.0794520548,1950-04-10 00:00:00,3,3,2015-04-23 00:00:00,traumática,1,0,2,2,2,2014-09-02 00:00:00,C4,Incomplete,0,0,0,0,1,0,0,0,0,0,3,5,2,4,4,5,2,3,3,5,14,22,45208,Maria,4,1,2015-04-23 00:00:00,2015-04-14 00:00:00,F,Agudo Plaza,68,7.7666666667,13
I07,isci,144.4553336256,149.2110226721,141.3488299178,115.0631610283,146.1094447801,162.0340076455,119.4917231822,111.2613404397,110.5119820274,130.0503837123,144.0266437113,117.1141675312,144.4553336256,149.2110226721,141.3488299178,115.0631610283,132.3028091478,124.1608272696,117.8873772978,121.1221939707,119.8445246781,113.424255718,98.9745205172,114.4590670409,-1.1321041956,-7.9137615367,18.2917328109,3.4170185022,-23.4974720187,-12.8413026173,1.8944718503,1.7825049169,10.3953722568,9.4658514474,19.1088137449,5.821405942,-9999,3,Physio + Electro,72.3424657534,1943-01-10 00:00:00,0,0,2015-04-27 00:00:00,traumática,0,0,1,0,3,2014-08-21 00:00:00,C4,Incomplete,3,1,1,1,3,1,3,1,4,2,3,3,2,2,3,3,2,2,3,3,13,13,45403,Pedro,2,0,2015-04-27 00:00:00,2015-04-28 00:00:00,M,Muñoz Garcia,-9999,8.3,0
I08,isci,100.1649648378,99.5782720879,98.8370567047,100.6704637393,96.6108396668,97.0347489493,96.405750107,94.0378047759,101.3255894475,99.9366861801,94.9130402495,98.9168034725,100.1649648378,99.5782720879,98.8370567047,100.6704637393,101.8526310407,94.4633725121,99.1653717609,100.2612179626,102.735010105,104.2899948651,101.8155182165,104.2650738198,3.6788057978,2.6212497751,2.5219518493,7.0531835352,1.1587131404,0.359932026,-3.9701874843,-1.7419809164,-0.8588883803,-9.4224017997,-2.6028905044,-3.8400738718,-9999,3,Physio+Electo,38.2164383562,1977-02-19 00:00:00,0,0,2015-04-30 00:00:00,inflamatoria,0,0,0,0,0,2014-03-21 00:00:00,C4,Incomplete,0,0,0,0,0,0,0,0,0,0,0,0,0,0,0,0,0,0,0,0,0,0,47441,Diego ,1,0,2015-04-30 00:00:00,2015-05-06 00:00:00,M,López Carrizo,-9999,13.5,0
I09,isci,90.3024892588,94.1427086504,99.6704939384,83.2463301479,89.9862127238,95.0497499192,94.8777597695,95.7016674659,109.7454204381,108.2893879303,99.6010536691,106.4245702035,90.3024892588,94.1427086504,99.6704939384,83.2463301479,96.0377955847,125.9359110404,142.0360336207,107.2461470142,82.1968281979,91.7826308316,66.6528726852,80.801363867,0.351472215,-0.9542805421,5.0514832776,-13.0147547558,21.5308917161,15.0268453953,-0.0696698357,27.8429571782,16.838809587,37.2110495192,113.0981425085,32.7281395778,-9999,4,Physio,52.6767123288,1962-09-12 00:00:00,2,2,2015-05-04 00:00:00,vascular,0,0,2,2,1,2015-02-10 00:00:00,C6,Incomplete,2,0,0,0,0,0,1,0,1,0,3,3,3,4,4,4,4,4,3,4,17,19,48080,Ángela,1,1,2015-05-04 00:00:00,2015-05-05 00:00:00,F,Heredero Galán,-9999,2.7666666667,0
I10,isci,69.3561883717,85.634941227,74.3579729419,78.8277398525,68.2607715013,77.7727418442,72.9003032117,82.056110769,90.3354624299,101.6949964692,122.5618696567,100.9991537016,90.8843176669,94.540865635,108.632832725,98.2159736026,85.9887454367,114.2505527615,93.6987791803,95.6953973366,69.3561883717,85.634941227,74.3579729419,78.8277398525,1.6047531347,10.1091966111,1.9995386383,-3.9343455182,-0.6039053283,7.5672364391,12.822124382,2.8337346736,23.9813597827,33.415812663,26.0104000595,21.3981239544,14.6,4,Physio + Lokomat,39.8328767123,1975-07-23 00:00:00,0,1,2015-05-13 00:00:00,vascular,0,0,0,0,1,2015-02-14 00:00:00,C4,Incomplete,0,1,0,0,0,0,0,0,0,0,4,4,4,3,4,3,4,3,4,3,20,16,47283,Abdelhadi,0,2,2015-05-13 00:00:00,2015-05-14 00:00:00,M,Salim XX,18.3,2.9333333333,17
