%!PS-Adobe-3.0 EPSF-3.0
%%DocumentNeededResources: font Helvetica
%%+ font Helvetica-Bold
%%+ font Helvetica-Oblique
%%+ font Helvetica-BoldOblique
%%+ font Symbol
%%Title: R Graphics Output
%%Creator: R Software
%%Pages: (atend)
%%BoundingBox: 0 0 534 328
%%EndComments
%%BeginProlog
/bp  { gs sRGB gs } def
% begin .ps.prolog
/gs  { gsave } bind def
/gr  { grestore } bind def
/ep  { showpage gr gr } bind def
/m   { moveto } bind def
/l  { rlineto } bind def
/np  { newpath } bind def
/cp  { closepath } bind def
/f   { fill } bind def
/o   { stroke } bind def
/c   { newpath 0 360 arc } bind def
/r   { 4 2 roll moveto 1 copy 3 -1 roll exch 0 exch rlineto 0 rlineto -1 mul 0 exch rlineto closepath } bind def
/p1  { stroke } bind def
/p2  { gsave bg fill grestore newpath } bind def
/p3  { gsave bg fill grestore stroke } bind def
/p6  { gsave bg eofill grestore newpath } bind def
/p7  { gsave bg eofill grestore stroke } bind def
/t   { 5 -2 roll moveto gsave rotate
       1 index stringwidth pop
       mul neg 0 rmoveto show grestore } bind def
/ta  { 4 -2 roll moveto gsave rotate show } bind def
/tb  { 2 -1 roll 0 rmoveto show } bind def
/cl  { grestore gsave newpath 3 index 3 index moveto 1 index
       4 -1 roll lineto  exch 1 index lineto lineto
       closepath clip newpath } bind def
/rgb { setrgbcolor } bind def
/s   { scalefont setfont } bind def
% end   .ps.prolog
/sRGB { [ /CIEBasedABC
          << /DecodeLMN
               [ { dup 0.03928 le
                        {12.92321 div}
                        {0.055 add 1.055 div 2.4 exp }
                     ifelse
                 } bind dup dup
               ]
             /MatrixLMN [0.412457 0.212673 0.019334
                         0.357576 0.715152 0.119192
                         0.180437 0.072175 0.950301]
             /WhitePoint [0.9505 1.0 1.0890]
           >>
         ] setcolorspace } bind def
/srgb { setcolor } bind def
%%IncludeResource: font Helvetica
/Helvetica findfont
dup length dict begin
  {1 index /FID ne {def} {pop pop} ifelse} forall
  /Encoding ISOLatin1Encoding def
  currentdict
  end
/Font1 exch definefont pop
%%IncludeResource: font Helvetica-Bold
/Helvetica-Bold findfont
dup length dict begin
  {1 index /FID ne {def} {pop pop} ifelse} forall
  /Encoding ISOLatin1Encoding def
  currentdict
  end
/Font2 exch definefont pop
%%IncludeResource: font Helvetica-Oblique
/Helvetica-Oblique findfont
dup length dict begin
  {1 index /FID ne {def} {pop pop} ifelse} forall
  /Encoding ISOLatin1Encoding def
  currentdict
  end
/Font3 exch definefont pop
%%IncludeResource: font Helvetica-BoldOblique
/Helvetica-BoldOblique findfont
dup length dict begin
  {1 index /FID ne {def} {pop pop} ifelse} forall
  /Encoding ISOLatin1Encoding def
  currentdict
  end
/Font4 exch definefont pop
%%IncludeResource: font Symbol
/Symbol findfont
dup length dict begin
  {1 index /FID ne {def} {pop pop} ifelse} forall
  currentdict
  end
/Font5 exch definefont pop
%%EndProlog
%%Page: 1 1
bp
0.00 0.00 534.00 327.75 cl
0.00 0.00 534.00 327.75 cl
0.00 0.00 534.00 327.75 cl
15.82 171.78 274.91 327.75 cl
/bg { 1 1 1 srgb } def
1 1 1 srgb
1.06 setlinewidth
[] 0 setdash
1 setlinecap
1 setlinejoin
10.00 setmiterlimit
15.82 171.78 259.09 155.97 r p3
0.00 0.00 534.00 327.75 cl
0.00 0.00 534.00 327.75 cl
0.00 0.00 534.00 327.75 cl
62.60 209.07 260.51 296.10 cl
/bg { 1 1 1 srgb } def
62.60 209.07 197.91 87.03 r p2
0 0 0 srgb
1.06 setlinewidth
[] 0 setdash
0 setlinecap
1 setlinejoin
1.00 setmiterlimit
np
83.53 253.96 m
3.81 0 l
o
np
85.43 253.96 m
0 -2.75 l
o
np
83.53 251.21 m
3.81 0 l
o
np
121.59 236.59 m
3.81 0 l
o
np
123.49 236.59 m
0 -4.02 l
o
np
121.59 232.57 m
3.81 0 l
o
np
159.65 240.22 m
3.81 0 l
o
np
161.55 240.22 m
0 -3.87 l
o
np
159.65 236.35 m
3.81 0 l
o
np
197.71 265.08 m
3.81 0 l
o
np
199.61 265.08 m
0 -3.83 l
o
np
197.71 261.25 m
3.81 0 l
o
np
235.77 265.18 m
3.81 0 l
o
np
237.67 265.18 m
0 -4.19 l
o
np
235.77 260.99 m
3.81 0 l
o
1.49 setlinewidth
[] 0 setdash
np
85.43 252.58 m
38.06 -18.00 l
38.06 3.70 l
38.06 24.89 l
38.06 -0.09 l
o
/bg { 0 0 0 srgb } def
85.43 252.58 2.13 c p2
123.49 234.58 2.13 c p2
161.55 238.28 2.13 c p2
199.61 263.17 2.13 c p2
237.67 263.08 2.13 c p2
0.00 0.00 534.00 327.75 cl
0.00 0.00 534.00 327.75 cl
0 0 0 srgb
1.06 setlinewidth
[] 0 setdash
0 setlinecap
1 setlinejoin
10.00 setmiterlimit
np
62.60 209.07 m
0 87.03 l
o
0.00 0.00 534.00 327.75 cl
/Font1 findfont 10 s
0 0 0 srgb
55.51 209.43 (60) 1 0 t
55.51 229.21 (80) 1 0 t
55.51 248.99 (100) 1 0 t
55.51 268.77 (120) 1 0 t
55.51 288.55 (140) 1 0 t
0.00 0.00 534.00 327.75 cl
0.00 0.00 534.00 327.75 cl
0.00 0.00 534.00 327.75 cl
0.00 0.00 534.00 327.75 cl
0.00 0.00 534.00 327.75 cl
0.00 0.00 534.00 327.75 cl
0.00 0.00 534.00 327.75 cl
0 0 0 srgb
1.06 setlinewidth
[] 0 setdash
0 setlinecap
1 setlinejoin
10.00 setmiterlimit
np
62.60 209.07 m
197.91 0 l
o
0.00 0.00 534.00 327.75 cl
0.00 0.00 534.00 327.75 cl
0.00 0.00 534.00 327.75 cl
/Font1 findfont 10 s
0 0 0 srgb
85.43 194.80 (0) .5 0 t
123.49 194.80 (25) .5 0 t
161.55 194.80 (50) .5 0 t
199.61 194.80 (75) .5 0 t
237.67 194.80 (100) .5 0 t
0.00 0.00 534.00 327.75 cl
0.00 0.00 534.00 327.75 cl
0.00 0.00 534.00 327.75 cl
0.00 0.00 534.00 327.75 cl
0.00 0.00 534.00 327.75 cl
/Font1 findfont 12 s
0 0 0 srgb
161.55 182.58 ( ) .5 0 t
0.00 0.00 534.00 327.75 cl
0.00 0.00 534.00 327.75 cl
/Font1 findfont 12 s
0 0 0 srgb
35.23 252.58 ( ) .5 90 t
0.00 0.00 534.00 327.75 cl
0.00 0.00 534.00 327.75 cl
/Font1 findfont 14 s
0 0 0 srgb
161.55 299.70 (Cycling) .5 0 t
0.00 0.00 534.00 327.75 cl
0.00 0.00 534.00 327.75 cl
0.00 0.00 534.00 327.75 cl
0.00 0.00 534.00 327.75 cl
0.00 0.00 534.00 327.75 cl
0.00 0.00 534.00 327.75 cl
274.91 171.78 534.00 327.75 cl
/bg { 1 1 1 srgb } def
1 1 1 srgb
1.06 setlinewidth
[] 0 setdash
1 setlinecap
1 setlinejoin
10.00 setmiterlimit
274.91 171.78 259.09 155.97 r p3
0.00 0.00 534.00 327.75 cl
0.00 0.00 534.00 327.75 cl
0.00 0.00 534.00 327.75 cl
321.69 209.07 519.60 296.10 cl
/bg { 1 1 1 srgb } def
321.69 209.07 197.91 87.03 r p2
0 0 0 srgb
1.06 setlinewidth
[] 0 setdash
0 setlinecap
1 setlinejoin
1.00 setmiterlimit
np
342.62 254.40 m
3.81 0 l
o
np
344.53 254.40 m
0 -3.63 l
o
np
342.62 250.77 m
3.81 0 l
o
np
380.68 244.30 m
3.81 0 l
o
np
382.59 244.30 m
0 -4.51 l
o
np
380.68 239.79 m
3.81 0 l
o
np
418.74 246.96 m
3.81 0 l
o
np
420.65 246.96 m
0 -4.26 l
o
np
418.74 242.70 m
3.81 0 l
o
np
456.80 264.63 m
3.81 0 l
o
np
458.71 264.63 m
0 -4.34 l
o
np
456.80 260.29 m
3.81 0 l
o
np
494.86 264.18 m
3.81 0 l
o
np
496.76 264.18 m
0 -4.64 l
o
np
494.86 259.54 m
3.81 0 l
o
1.49 setlinewidth
[] 0 setdash
np
344.53 252.58 m
38.06 -10.53 l
38.06 2.78 l
38.06 17.63 l
38.05 -0.60 l
o
/bg { 0 0 0 srgb } def
344.53 252.58 2.13 c p2
382.59 242.05 2.13 c p2
420.65 244.83 2.13 c p2
458.71 262.46 2.13 c p2
496.76 261.86 2.13 c p2
0.00 0.00 534.00 327.75 cl
0.00 0.00 534.00 327.75 cl
0 0 0 srgb
1.06 setlinewidth
[] 0 setdash
0 setlinecap
1 setlinejoin
10.00 setmiterlimit
np
321.69 209.07 m
0 87.03 l
o
0.00 0.00 534.00 327.75 cl
/Font1 findfont 10 s
0 0 0 srgb
314.60 209.43 (60) 1 0 t
314.60 229.21 (80) 1 0 t
314.60 248.99 (100) 1 0 t
314.60 268.77 (120) 1 0 t
314.60 288.55 (140) 1 0 t
0.00 0.00 534.00 327.75 cl
0.00 0.00 534.00 327.75 cl
0.00 0.00 534.00 327.75 cl
0.00 0.00 534.00 327.75 cl
0.00 0.00 534.00 327.75 cl
0.00 0.00 534.00 327.75 cl
0.00 0.00 534.00 327.75 cl
0 0 0 srgb
1.06 setlinewidth
[] 0 setdash
0 setlinecap
1 setlinejoin
10.00 setmiterlimit
np
321.69 209.07 m
197.91 0 l
o
0.00 0.00 534.00 327.75 cl
0.00 0.00 534.00 327.75 cl
0.00 0.00 534.00 327.75 cl
/Font1 findfont 10 s
0 0 0 srgb
344.53 194.80 (0) .5 0 t
382.59 194.80 (25) .5 0 t
420.65 194.80 (50) .5 0 t
458.71 194.80 (75) .5 0 t
496.76 194.80 (100) .5 0 t
0.00 0.00 534.00 327.75 cl
0.00 0.00 534.00 327.75 cl
0.00 0.00 534.00 327.75 cl
0.00 0.00 534.00 327.75 cl
0.00 0.00 534.00 327.75 cl
/Font1 findfont 12 s
0 0 0 srgb
420.65 182.58 ( ) .5 0 t
0.00 0.00 534.00 327.75 cl
0.00 0.00 534.00 327.75 cl
/Font1 findfont 12 s
0 0 0 srgb
294.32 252.58 ( ) .5 90 t
0.00 0.00 534.00 327.75 cl
0.00 0.00 534.00 327.75 cl
/Font1 findfont 14 s
0 0 0 srgb
420.65 299.70 (ES Cycling) .5 0 t
0.00 0.00 534.00 327.75 cl
0.00 0.00 534.00 327.75 cl
0.00 0.00 534.00 327.75 cl
0.00 0.00 534.00 327.75 cl
0.00 0.00 534.00 327.75 cl
0.00 0.00 534.00 327.75 cl
15.82 15.82 274.91 171.78 cl
/bg { 1 1 1 srgb } def
1 1 1 srgb
1.06 setlinewidth
[] 0 setdash
1 setlinecap
1 setlinejoin
10.00 setmiterlimit
15.82 15.82 259.09 155.97 r p3
0.00 0.00 534.00 327.75 cl
0.00 0.00 534.00 327.75 cl
0.00 0.00 534.00 327.75 cl
62.60 53.10 260.51 140.13 cl
/bg { 1 1 1 srgb } def
62.60 53.10 197.91 87.03 r p2
0 0 0 srgb
1.06 setlinewidth
[] 0 setdash
0 setlinecap
1 setlinejoin
1.00 setmiterlimit
np
83.53 99.16 m
3.81 0 l
o
np
85.43 99.16 m
0 -5.09 l
o
np
83.53 94.07 m
3.81 0 l
o
np
121.59 96.49 m
3.81 0 l
o
np
123.49 96.49 m
0 -5.90 l
o
np
121.59 90.59 m
3.81 0 l
o
np
159.65 105.28 m
3.81 0 l
o
np
161.55 105.28 m
0 -5.82 l
o
np
159.65 99.46 m
3.81 0 l
o
np
197.71 109.52 m
3.81 0 l
o
np
199.61 109.52 m
0 -6.90 l
o
np
197.71 102.62 m
3.81 0 l
o
np
235.77 97.60 m
3.81 0 l
o
np
237.67 97.60 m
0 -6.80 l
o
np
235.77 90.80 m
3.81 0 l
o
1.49 setlinewidth
[] 0 setdash
np
85.43 96.61 m
38.06 -3.07 l
38.06 8.83 l
38.06 3.70 l
38.06 -11.87 l
o
/bg { 0 0 0 srgb } def
85.43 96.61 2.13 c p2
123.49 93.54 2.13 c p2
161.55 102.37 2.13 c p2
199.61 106.07 2.13 c p2
237.67 94.20 2.13 c p2
0.00 0.00 534.00 327.75 cl
0.00 0.00 534.00 327.75 cl
0 0 0 srgb
1.06 setlinewidth
[] 0 setdash
0 setlinecap
1 setlinejoin
10.00 setmiterlimit
np
62.60 53.10 m
0 87.03 l
o
0.00 0.00 534.00 327.75 cl
/Font1 findfont 10 s
0 0 0 srgb
55.51 53.46 (60) 1 0 t
55.51 73.24 (80) 1 0 t
55.51 93.02 (100) 1 0 t
55.51 112.80 (120) 1 0 t
55.51 132.58 (140) 1 0 t
0.00 0.00 534.00 327.75 cl
0.00 0.00 534.00 327.75 cl
0.00 0.00 534.00 327.75 cl
0.00 0.00 534.00 327.75 cl
0.00 0.00 534.00 327.75 cl
0.00 0.00 534.00 327.75 cl
0.00 0.00 534.00 327.75 cl
0 0 0 srgb
1.06 setlinewidth
[] 0 setdash
0 setlinecap
1 setlinejoin
10.00 setmiterlimit
np
62.60 53.10 m
197.91 0 l
o
0.00 0.00 534.00 327.75 cl
0.00 0.00 534.00 327.75 cl
0.00 0.00 534.00 327.75 cl
/Font1 findfont 10 s
0 0 0 srgb
85.43 38.83 (0) .5 0 t
123.49 38.83 (25) .5 0 t
161.55 38.83 (50) .5 0 t
199.61 38.83 (75) .5 0 t
237.67 38.83 (100) .5 0 t
0.00 0.00 534.00 327.75 cl
0.00 0.00 534.00 327.75 cl
0.00 0.00 534.00 327.75 cl
0.00 0.00 534.00 327.75 cl
0.00 0.00 534.00 327.75 cl
/Font1 findfont 12 s
0 0 0 srgb
161.55 26.62 ( ) .5 0 t
0.00 0.00 534.00 327.75 cl
0.00 0.00 534.00 327.75 cl
/Font1 findfont 12 s
0 0 0 srgb
35.23 96.61 ( ) .5 90 t
0.00 0.00 534.00 327.75 cl
0.00 0.00 534.00 327.75 cl
/Font1 findfont 14 s
0 0 0 srgb
161.55 143.73 ( ) .5 0 t
0.00 0.00 534.00 327.75 cl
0.00 0.00 534.00 327.75 cl
0.00 0.00 534.00 327.75 cl
0.00 0.00 534.00 327.75 cl
0.00 0.00 534.00 327.75 cl
0.00 0.00 534.00 327.75 cl
274.91 15.82 534.00 171.78 cl
/bg { 1 1 1 srgb } def
1 1 1 srgb
1.06 setlinewidth
[] 0 setdash
1 setlinecap
1 setlinejoin
10.00 setmiterlimit
274.91 15.82 259.09 155.97 r p3
0.00 0.00 534.00 327.75 cl
0.00 0.00 534.00 327.75 cl
0.00 0.00 534.00 327.75 cl
321.69 53.10 519.60 140.13 cl
/bg { 1 1 1 srgb } def
321.69 53.10 197.91 87.03 r p2
0 0 0 srgb
1.06 setlinewidth
[] 0 setdash
0 setlinecap
1 setlinejoin
1.00 setmiterlimit
np
342.62 98.61 m
3.81 0 l
o
np
344.53 98.61 m
0 -3.99 l
o
np
342.62 94.62 m
3.81 0 l
o
np
380.68 90.00 m
3.81 0 l
o
np
382.59 90.00 m
0 -4.85 l
o
np
380.68 85.15 m
3.81 0 l
o
np
418.74 98.37 m
3.81 0 l
o
np
420.65 98.37 m
0 -3.99 l
o
np
418.74 94.38 m
3.81 0 l
o
np
456.80 92.93 m
3.81 0 l
o
np
458.71 92.93 m
0 -4.53 l
o
np
456.80 88.40 m
3.81 0 l
o
np
494.86 96.68 m
3.81 0 l
o
np
496.76 96.68 m
0 -4.60 l
o
np
494.86 92.08 m
3.81 0 l
o
1.49 setlinewidth
[] 0 setdash
np
344.53 96.61 m
38.06 -9.03 l
38.06 8.79 l
38.06 -5.70 l
38.05 3.71 l
o
/bg { 0 0 0 srgb } def
344.53 96.61 2.13 c p2
382.59 87.58 2.13 c p2
420.65 96.37 2.13 c p2
458.71 90.67 2.13 c p2
496.76 94.38 2.13 c p2
0.00 0.00 534.00 327.75 cl
0.00 0.00 534.00 327.75 cl
0 0 0 srgb
1.06 setlinewidth
[] 0 setdash
0 setlinecap
1 setlinejoin
10.00 setmiterlimit
np
321.69 53.10 m
0 87.03 l
o
0.00 0.00 534.00 327.75 cl
/Font1 findfont 10 s
0 0 0 srgb
314.60 53.46 (60) 1 0 t
314.60 73.24 (80) 1 0 t
314.60 93.02 (100) 1 0 t
314.60 112.80 (120) 1 0 t
314.60 132.58 (140) 1 0 t
0.00 0.00 534.00 327.75 cl
0.00 0.00 534.00 327.75 cl
0.00 0.00 534.00 327.75 cl
0.00 0.00 534.00 327.75 cl
0.00 0.00 534.00 327.75 cl
0.00 0.00 534.00 327.75 cl
0.00 0.00 534.00 327.75 cl
0 0 0 srgb
1.06 setlinewidth
[] 0 setdash
0 setlinecap
1 setlinejoin
10.00 setmiterlimit
np
321.69 53.10 m
197.91 0 l
o
0.00 0.00 534.00 327.75 cl
0.00 0.00 534.00 327.75 cl
0.00 0.00 534.00 327.75 cl
/Font1 findfont 10 s
0 0 0 srgb
344.53 38.83 (0) .5 0 t
382.59 38.83 (25) .5 0 t
420.65 38.83 (50) .5 0 t
458.71 38.83 (75) .5 0 t
496.76 38.83 (100) .5 0 t
0.00 0.00 534.00 327.75 cl
0.00 0.00 534.00 327.75 cl
0.00 0.00 534.00 327.75 cl
0.00 0.00 534.00 327.75 cl
0.00 0.00 534.00 327.75 cl
/Font1 findfont 12 s
0 0 0 srgb
420.65 26.62 ( ) .5 0 t
0.00 0.00 534.00 327.75 cl
0.00 0.00 534.00 327.75 cl
/Font1 findfont 12 s
0 0 0 srgb
294.32 96.61 ( ) .5 90 t
0.00 0.00 534.00 327.75 cl
0.00 0.00 534.00 327.75 cl
/Font1 findfont 14 s
0 0 0 srgb
420.65 143.73 ( ) .5 0 t
0.00 0.00 534.00 327.75 cl
0.00 0.00 534.00 327.75 cl
0.00 0.00 534.00 327.75 cl
0.00 0.00 534.00 327.75 cl
0.00 0.00 534.00 327.75 cl
/Font1 findfont 12 s
0 0 0 srgb
203.23 3.60 (Inter Stim) 0 ta
-0.120 (ulus Inter) tb
0.360 (v) tb
-0.300 (al \(ms\)) tb gr
0.00 0.00 534.00 327.75 cl
0.00 0.00 534.00 327.75 cl
/Font1 findfont 12 s
0 0 0 srgb
12.22 92.52 (Soleus H Refle) 90 ta
-0.360 (x Amplitude) tb gr
0.00 0.00 534.00 327.75 cl
0.00 0.00 534.00 327.75 cl
ep
%%Trailer
%%Pages: 1
%%EOF
