%!PS-Adobe-3.0 EPSF-3.0
%%DocumentNeededResources: font Helvetica
%%+ font Helvetica-Bold
%%+ font Helvetica-Oblique
%%+ font Helvetica-BoldOblique
%%+ font Symbol
%%Title: R Graphics Output
%%Creator: R Software
%%Pages: (atend)
%%BoundingBox: 0 0 534 328
%%EndComments
%%BeginProlog
/bp  { gs sRGB gs } def
% begin .ps.prolog
/gs  { gsave } bind def
/gr  { grestore } bind def
/ep  { showpage gr gr } bind def
/m   { moveto } bind def
/l  { rlineto } bind def
/np  { newpath } bind def
/cp  { closepath } bind def
/f   { fill } bind def
/o   { stroke } bind def
/c   { newpath 0 360 arc } bind def
/r   { 4 2 roll moveto 1 copy 3 -1 roll exch 0 exch rlineto 0 rlineto -1 mul 0 exch rlineto closepath } bind def
/p1  { stroke } bind def
/p2  { gsave bg fill grestore newpath } bind def
/p3  { gsave bg fill grestore stroke } bind def
/p6  { gsave bg eofill grestore newpath } bind def
/p7  { gsave bg eofill grestore stroke } bind def
/t   { 5 -2 roll moveto gsave rotate
       1 index stringwidth pop
       mul neg 0 rmoveto show grestore } bind def
/ta  { 4 -2 roll moveto gsave rotate show } bind def
/tb  { 2 -1 roll 0 rmoveto show } bind def
/cl  { grestore gsave newpath 3 index 3 index moveto 1 index
       4 -1 roll lineto  exch 1 index lineto lineto
       closepath clip newpath } bind def
/rgb { setrgbcolor } bind def
/s   { scalefont setfont } bind def
% end   .ps.prolog
/sRGB { [ /CIEBasedABC
          << /DecodeLMN
               [ { dup 0.03928 le
                        {12.92321 div}
                        {0.055 add 1.055 div 2.4 exp }
                     ifelse
                 } bind dup dup
               ]
             /MatrixLMN [0.412457 0.212673 0.019334
                         0.357576 0.715152 0.119192
                         0.180437 0.072175 0.950301]
             /WhitePoint [0.9505 1.0 1.0890]
           >>
         ] setcolorspace } bind def
/srgb { setcolor } bind def
%%IncludeResource: font Helvetica
/Helvetica findfont
dup length dict begin
  {1 index /FID ne {def} {pop pop} ifelse} forall
  /Encoding ISOLatin1Encoding def
  currentdict
  end
/Font1 exch definefont pop
%%IncludeResource: font Helvetica-Bold
/Helvetica-Bold findfont
dup length dict begin
  {1 index /FID ne {def} {pop pop} ifelse} forall
  /Encoding ISOLatin1Encoding def
  currentdict
  end
/Font2 exch definefont pop
%%IncludeResource: font Helvetica-Oblique
/Helvetica-Oblique findfont
dup length dict begin
  {1 index /FID ne {def} {pop pop} ifelse} forall
  /Encoding ISOLatin1Encoding def
  currentdict
  end
/Font3 exch definefont pop
%%IncludeResource: font Helvetica-BoldOblique
/Helvetica-BoldOblique findfont
dup length dict begin
  {1 index /FID ne {def} {pop pop} ifelse} forall
  /Encoding ISOLatin1Encoding def
  currentdict
  end
/Font4 exch definefont pop
%%IncludeResource: font Symbol
/Symbol findfont
dup length dict begin
  {1 index /FID ne {def} {pop pop} ifelse} forall
  currentdict
  end
/Font5 exch definefont pop
%%EndProlog
%%Page: 1 1
bp
0.00 0.00 534.00 327.75 cl
0.00 0.00 534.00 327.75 cl
0.00 0.00 534.00 327.75 cl
15.82 171.78 274.91 327.75 cl
/bg { 1 1 1 srgb } def
1 1 1 srgb
1.06 setlinewidth
[] 0 setdash
1 setlinecap
1 setlinejoin
10.00 setmiterlimit
15.82 171.78 259.09 155.97 r p3
0.00 0.00 534.00 327.75 cl
0.00 0.00 534.00 327.75 cl
0.00 0.00 534.00 327.75 cl
62.60 209.07 260.51 296.10 cl
/bg { 1 1 1 srgb } def
62.60 209.07 197.91 87.03 r p2
0 0 0 srgb
1.06 setlinewidth
[] 0 setdash
0 setlinecap
1 setlinejoin
1.00 setmiterlimit
np
83.53 254.26 m
3.81 0 l
o
np
85.43 254.26 m
0 -3.36 l
o
np
83.53 250.90 m
3.81 0 l
o
np
121.59 240.58 m
3.81 0 l
o
np
123.49 240.58 m
0 -4.61 l
o
np
121.59 235.97 m
3.81 0 l
o
np
159.65 242.81 m
3.81 0 l
o
np
161.55 242.81 m
0 -4.30 l
o
np
159.65 238.51 m
3.81 0 l
o
np
197.71 264.62 m
3.81 0 l
o
np
199.61 264.62 m
0 -4.33 l
o
np
197.71 260.29 m
3.81 0 l
o
np
235.77 262.92 m
3.81 0 l
o
np
237.67 262.92 m
0 -4.27 l
o
np
235.77 258.65 m
3.81 0 l
o
1.49 setlinewidth
[] 0 setdash
np
85.43 252.58 m
38.06 -14.31 l
38.06 2.39 l
38.06 21.79 l
38.06 -1.67 l
o
/bg { 0 0 0 srgb } def
85.43 252.58 2.13 c p2
123.49 238.27 2.13 c p2
161.55 240.66 2.13 c p2
199.61 262.45 2.13 c p2
237.67 260.78 2.13 c p2
0.00 0.00 534.00 327.75 cl
0.00 0.00 534.00 327.75 cl
0 0 0 srgb
1.06 setlinewidth
[] 0 setdash
0 setlinecap
1 setlinejoin
10.00 setmiterlimit
np
62.60 209.07 m
0 87.03 l
o
0.00 0.00 534.00 327.75 cl
/Font1 findfont 10 s
0 0 0 srgb
55.51 209.43 (60) 1 0 t
55.51 229.21 (80) 1 0 t
55.51 248.99 (100) 1 0 t
55.51 268.77 (120) 1 0 t
55.51 288.55 (140) 1 0 t
0.00 0.00 534.00 327.75 cl
0.00 0.00 534.00 327.75 cl
0.00 0.00 534.00 327.75 cl
0.00 0.00 534.00 327.75 cl
0.00 0.00 534.00 327.75 cl
0.00 0.00 534.00 327.75 cl
0.00 0.00 534.00 327.75 cl
0 0 0 srgb
1.06 setlinewidth
[] 0 setdash
0 setlinecap
1 setlinejoin
10.00 setmiterlimit
np
62.60 209.07 m
197.91 0 l
o
0.00 0.00 534.00 327.75 cl
0.00 0.00 534.00 327.75 cl
0.00 0.00 534.00 327.75 cl
/Font1 findfont 10 s
0 0 0 srgb
85.43 194.80 (0) .5 0 t
123.49 194.80 (25) .5 0 t
161.55 194.80 (50) .5 0 t
199.61 194.80 (75) .5 0 t
237.67 194.80 (100) .5 0 t
0.00 0.00 534.00 327.75 cl
0.00 0.00 534.00 327.75 cl
0.00 0.00 534.00 327.75 cl
0.00 0.00 534.00 327.75 cl
0.00 0.00 534.00 327.75 cl
/Font1 findfont 12 s
0 0 0 srgb
161.55 182.58 ( ) .5 0 t
0.00 0.00 534.00 327.75 cl
0.00 0.00 534.00 327.75 cl
/Font1 findfont 12 s
0 0 0 srgb
35.23 252.58 ( ) .5 90 t
0.00 0.00 534.00 327.75 cl
0.00 0.00 534.00 327.75 cl
/Font1 findfont 14 s
0 0 0 srgb
161.55 299.70 (Cycling) .5 0 t
0.00 0.00 534.00 327.75 cl
0.00 0.00 534.00 327.75 cl
0.00 0.00 534.00 327.75 cl
0.00 0.00 534.00 327.75 cl
0.00 0.00 534.00 327.75 cl
0.00 0.00 534.00 327.75 cl
274.91 171.78 534.00 327.75 cl
/bg { 1 1 1 srgb } def
1 1 1 srgb
1.06 setlinewidth
[] 0 setdash
1 setlinecap
1 setlinejoin
10.00 setmiterlimit
274.91 171.78 259.09 155.97 r p3
0.00 0.00 534.00 327.75 cl
0.00 0.00 534.00 327.75 cl
0.00 0.00 534.00 327.75 cl
321.69 209.07 519.60 296.10 cl
/bg { 1 1 1 srgb } def
321.69 209.07 197.91 87.03 r p2
0 0 0 srgb
1.06 setlinewidth
[] 0 setdash
0 setlinecap
1 setlinejoin
1.00 setmiterlimit
np
342.62 254.54 m
3.81 0 l
o
np
344.53 254.54 m
0 -3.92 l
o
np
342.62 250.62 m
3.81 0 l
o
np
380.68 245.66 m
3.81 0 l
o
np
382.59 245.66 m
0 -4.65 l
o
np
380.68 241.01 m
3.81 0 l
o
np
418.74 251.78 m
3.81 0 l
o
np
420.65 251.78 m
0 -3.97 l
o
np
418.74 247.81 m
3.81 0 l
o
np
456.80 270.73 m
3.81 0 l
o
np
458.71 270.73 m
0 -4.45 l
o
np
456.80 266.28 m
3.81 0 l
o
np
494.86 273.95 m
3.81 0 l
o
np
496.76 273.95 m
0 -4.72 l
o
np
494.86 269.23 m
3.81 0 l
o
1.49 setlinewidth
[] 0 setdash
np
344.53 252.58 m
38.06 -9.24 l
38.06 6.45 l
38.06 18.72 l
38.05 3.08 l
o
/bg { 0 0 0 srgb } def
344.53 252.58 2.13 c p2
382.59 243.34 2.13 c p2
420.65 249.79 2.13 c p2
458.71 268.51 2.13 c p2
496.76 271.59 2.13 c p2
0.00 0.00 534.00 327.75 cl
0.00 0.00 534.00 327.75 cl
0 0 0 srgb
1.06 setlinewidth
[] 0 setdash
0 setlinecap
1 setlinejoin
10.00 setmiterlimit
np
321.69 209.07 m
0 87.03 l
o
0.00 0.00 534.00 327.75 cl
/Font1 findfont 10 s
0 0 0 srgb
314.60 209.43 (60) 1 0 t
314.60 229.21 (80) 1 0 t
314.60 248.99 (100) 1 0 t
314.60 268.77 (120) 1 0 t
314.60 288.55 (140) 1 0 t
0.00 0.00 534.00 327.75 cl
0.00 0.00 534.00 327.75 cl
0.00 0.00 534.00 327.75 cl
0.00 0.00 534.00 327.75 cl
0.00 0.00 534.00 327.75 cl
0.00 0.00 534.00 327.75 cl
0.00 0.00 534.00 327.75 cl
0 0 0 srgb
1.06 setlinewidth
[] 0 setdash
0 setlinecap
1 setlinejoin
10.00 setmiterlimit
np
321.69 209.07 m
197.91 0 l
o
0.00 0.00 534.00 327.75 cl
0.00 0.00 534.00 327.75 cl
0.00 0.00 534.00 327.75 cl
/Font1 findfont 10 s
0 0 0 srgb
344.53 194.80 (0) .5 0 t
382.59 194.80 (25) .5 0 t
420.65 194.80 (50) .5 0 t
458.71 194.80 (75) .5 0 t
496.76 194.80 (100) .5 0 t
0.00 0.00 534.00 327.75 cl
0.00 0.00 534.00 327.75 cl
0.00 0.00 534.00 327.75 cl
0.00 0.00 534.00 327.75 cl
0.00 0.00 534.00 327.75 cl
/Font1 findfont 12 s
0 0 0 srgb
420.65 182.58 ( ) .5 0 t
0.00 0.00 534.00 327.75 cl
0.00 0.00 534.00 327.75 cl
/Font1 findfont 12 s
0 0 0 srgb
294.32 252.58 ( ) .5 90 t
0.00 0.00 534.00 327.75 cl
0.00 0.00 534.00 327.75 cl
/Font1 findfont 14 s
0 0 0 srgb
420.65 299.70 (ES Cycling) .5 0 t
0.00 0.00 534.00 327.75 cl
0.00 0.00 534.00 327.75 cl
0.00 0.00 534.00 327.75 cl
0.00 0.00 534.00 327.75 cl
0.00 0.00 534.00 327.75 cl
0.00 0.00 534.00 327.75 cl
15.82 15.82 274.91 171.78 cl
/bg { 1 1 1 srgb } def
1 1 1 srgb
1.06 setlinewidth
[] 0 setdash
1 setlinecap
1 setlinejoin
10.00 setmiterlimit
15.82 15.82 259.09 155.97 r p3
0.00 0.00 534.00 327.75 cl
0.00 0.00 534.00 327.75 cl
0.00 0.00 534.00 327.75 cl
62.60 53.10 260.51 140.13 cl
/bg { 1 1 1 srgb } def
62.60 53.10 197.91 87.03 r p2
0 0 0 srgb
1.06 setlinewidth
[] 0 setdash
0 setlinecap
1 setlinejoin
1.00 setmiterlimit
np
83.53 99.07 m
3.81 0 l
o
np
85.43 99.07 m
0 -4.91 l
o
np
83.53 94.16 m
3.81 0 l
o
np
121.59 96.56 m
3.81 0 l
o
np
123.49 96.56 m
0 -4.19 l
o
np
121.59 92.37 m
3.81 0 l
o
np
159.65 104.54 m
3.81 0 l
o
np
161.55 104.54 m
0 -4.97 l
o
np
159.65 99.57 m
3.81 0 l
o
np
197.71 110.63 m
3.81 0 l
o
np
199.61 110.63 m
0 -5.28 l
o
np
197.71 105.35 m
3.81 0 l
o
np
235.77 99.69 m
3.81 0 l
o
np
237.67 99.69 m
0 -5.05 l
o
np
235.77 94.64 m
3.81 0 l
o
1.49 setlinewidth
[] 0 setdash
np
85.43 96.61 m
38.06 -2.14 l
38.06 7.58 l
38.06 5.94 l
38.06 -10.83 l
o
/bg { 0 0 0 srgb } def
85.43 96.61 2.13 c p2
123.49 94.47 2.13 c p2
161.55 102.05 2.13 c p2
199.61 107.99 2.13 c p2
237.67 97.16 2.13 c p2
0.00 0.00 534.00 327.75 cl
0.00 0.00 534.00 327.75 cl
0 0 0 srgb
1.06 setlinewidth
[] 0 setdash
0 setlinecap
1 setlinejoin
10.00 setmiterlimit
np
62.60 53.10 m
0 87.03 l
o
0.00 0.00 534.00 327.75 cl
/Font1 findfont 10 s
0 0 0 srgb
55.51 53.46 (60) 1 0 t
55.51 73.24 (80) 1 0 t
55.51 93.02 (100) 1 0 t
55.51 112.80 (120) 1 0 t
55.51 132.58 (140) 1 0 t
0.00 0.00 534.00 327.75 cl
0.00 0.00 534.00 327.75 cl
0.00 0.00 534.00 327.75 cl
0.00 0.00 534.00 327.75 cl
0.00 0.00 534.00 327.75 cl
0.00 0.00 534.00 327.75 cl
0.00 0.00 534.00 327.75 cl
0 0 0 srgb
1.06 setlinewidth
[] 0 setdash
0 setlinecap
1 setlinejoin
10.00 setmiterlimit
np
62.60 53.10 m
197.91 0 l
o
0.00 0.00 534.00 327.75 cl
0.00 0.00 534.00 327.75 cl
0.00 0.00 534.00 327.75 cl
/Font1 findfont 10 s
0 0 0 srgb
85.43 38.83 (0) .5 0 t
123.49 38.83 (25) .5 0 t
161.55 38.83 (50) .5 0 t
199.61 38.83 (75) .5 0 t
237.67 38.83 (100) .5 0 t
0.00 0.00 534.00 327.75 cl
0.00 0.00 534.00 327.75 cl
0.00 0.00 534.00 327.75 cl
0.00 0.00 534.00 327.75 cl
0.00 0.00 534.00 327.75 cl
/Font1 findfont 12 s
0 0 0 srgb
161.55 26.62 ( ) .5 0 t
0.00 0.00 534.00 327.75 cl
0.00 0.00 534.00 327.75 cl
/Font1 findfont 12 s
0 0 0 srgb
35.23 96.61 ( ) .5 90 t
0.00 0.00 534.00 327.75 cl
0.00 0.00 534.00 327.75 cl
/Font1 findfont 14 s
0 0 0 srgb
161.55 143.73 ( ) .5 0 t
0.00 0.00 534.00 327.75 cl
0.00 0.00 534.00 327.75 cl
0.00 0.00 534.00 327.75 cl
0.00 0.00 534.00 327.75 cl
0.00 0.00 534.00 327.75 cl
0.00 0.00 534.00 327.75 cl
274.91 15.82 534.00 171.78 cl
/bg { 1 1 1 srgb } def
1 1 1 srgb
1.06 setlinewidth
[] 0 setdash
1 setlinecap
1 setlinejoin
10.00 setmiterlimit
274.91 15.82 259.09 155.97 r p3
0.00 0.00 534.00 327.75 cl
0.00 0.00 534.00 327.75 cl
0.00 0.00 534.00 327.75 cl
321.69 53.10 519.60 140.13 cl
/bg { 1 1 1 srgb } def
321.69 53.10 197.91 87.03 r p2
0 0 0 srgb
1.06 setlinewidth
[] 0 setdash
0 setlinecap
1 setlinejoin
1.00 setmiterlimit
np
342.62 98.99 m
3.81 0 l
o
np
344.53 98.99 m
0 -4.76 l
o
np
342.62 94.23 m
3.81 0 l
o
np
380.68 97.23 m
3.81 0 l
o
np
382.59 97.23 m
0 -7.67 l
o
np
380.68 89.56 m
3.81 0 l
o
np
418.74 117.59 m
3.81 0 l
o
np
420.65 117.59 m
0 -8.42 l
o
np
418.74 109.17 m
3.81 0 l
o
np
456.80 122.35 m
3.81 0 l
o
np
458.71 122.35 m
0 -10.88 l
o
np
456.80 111.47 m
3.81 0 l
o
np
494.86 98.62 m
3.81 0 l
o
np
496.76 98.62 m
0 -7.13 l
o
np
494.86 91.49 m
3.81 0 l
o
1.49 setlinewidth
[] 0 setdash
np
344.53 96.61 m
38.06 -3.21 l
38.06 19.98 l
38.06 3.53 l
38.05 -21.86 l
o
/bg { 0 0 0 srgb } def
344.53 96.61 2.13 c p2
382.59 93.40 2.13 c p2
420.65 113.38 2.13 c p2
458.71 116.91 2.13 c p2
496.76 95.05 2.13 c p2
0.00 0.00 534.00 327.75 cl
0.00 0.00 534.00 327.75 cl
0 0 0 srgb
1.06 setlinewidth
[] 0 setdash
0 setlinecap
1 setlinejoin
10.00 setmiterlimit
np
321.69 53.10 m
0 87.03 l
o
0.00 0.00 534.00 327.75 cl
/Font1 findfont 10 s
0 0 0 srgb
314.60 53.46 (60) 1 0 t
314.60 73.24 (80) 1 0 t
314.60 93.02 (100) 1 0 t
314.60 112.80 (120) 1 0 t
314.60 132.58 (140) 1 0 t
0.00 0.00 534.00 327.75 cl
0.00 0.00 534.00 327.75 cl
0.00 0.00 534.00 327.75 cl
0.00 0.00 534.00 327.75 cl
0.00 0.00 534.00 327.75 cl
0.00 0.00 534.00 327.75 cl
0.00 0.00 534.00 327.75 cl
0 0 0 srgb
1.06 setlinewidth
[] 0 setdash
0 setlinecap
1 setlinejoin
10.00 setmiterlimit
np
321.69 53.10 m
197.91 0 l
o
0.00 0.00 534.00 327.75 cl
0.00 0.00 534.00 327.75 cl
0.00 0.00 534.00 327.75 cl
/Font1 findfont 10 s
0 0 0 srgb
344.53 38.83 (0) .5 0 t
382.59 38.83 (25) .5 0 t
420.65 38.83 (50) .5 0 t
458.71 38.83 (75) .5 0 t
496.76 38.83 (100) .5 0 t
0.00 0.00 534.00 327.75 cl
0.00 0.00 534.00 327.75 cl
0.00 0.00 534.00 327.75 cl
0.00 0.00 534.00 327.75 cl
0.00 0.00 534.00 327.75 cl
/Font1 findfont 12 s
0 0 0 srgb
420.65 26.62 ( ) .5 0 t
0.00 0.00 534.00 327.75 cl
0.00 0.00 534.00 327.75 cl
/Font1 findfont 12 s
0 0 0 srgb
294.32 96.61 ( ) .5 90 t
0.00 0.00 534.00 327.75 cl
0.00 0.00 534.00 327.75 cl
/Font1 findfont 14 s
0 0 0 srgb
420.65 143.73 ( ) .5 0 t
0.00 0.00 534.00 327.75 cl
0.00 0.00 534.00 327.75 cl
0.00 0.00 534.00 327.75 cl
0.00 0.00 534.00 327.75 cl
0.00 0.00 534.00 327.75 cl
/Font1 findfont 12 s
0 0 0 srgb
203.23 3.60 (Inter Stim) 0 ta
-0.120 (ulus Inter) tb
0.360 (v) tb
-0.300 (al \(ms\)) tb gr
0.00 0.00 534.00 327.75 cl
0.00 0.00 534.00 327.75 cl
/Font1 findfont 12 s
0 0 0 srgb
12.22 92.52 (Soleus H Refle) 90 ta
-0.360 (x Amplitude) tb gr
0.00 0.00 534.00 327.75 cl
0.00 0.00 534.00 327.75 cl
ep
%%Trailer
%%Pages: 1
%%EOF
