%!PS-Adobe-3.0 EPSF-3.0
%%DocumentNeededResources: font Helvetica
%%+ font Helvetica-Bold
%%+ font Helvetica-Oblique
%%+ font Helvetica-BoldOblique
%%+ font Symbol
%%Title: R Graphics Output
%%Creator: R Software
%%Pages: (atend)
%%BoundingBox: 0 0 458 317
%%EndComments
%%BeginProlog
/bp  { gs sRGB gs } def
% begin .ps.prolog
/gs  { gsave } bind def
/gr  { grestore } bind def
/ep  { showpage gr gr } bind def
/m   { moveto } bind def
/l  { rlineto } bind def
/np  { newpath } bind def
/cp  { closepath } bind def
/f   { fill } bind def
/o   { stroke } bind def
/c   { newpath 0 360 arc } bind def
/r   { 4 2 roll moveto 1 copy 3 -1 roll exch 0 exch rlineto 0 rlineto -1 mul 0 exch rlineto closepath } bind def
/p1  { stroke } bind def
/p2  { gsave bg fill grestore newpath } bind def
/p3  { gsave bg fill grestore stroke } bind def
/p6  { gsave bg eofill grestore newpath } bind def
/p7  { gsave bg eofill grestore stroke } bind def
/t   { 5 -2 roll moveto gsave rotate
       1 index stringwidth pop
       mul neg 0 rmoveto show grestore } bind def
/ta  { 4 -2 roll moveto gsave rotate show } bind def
/tb  { 2 -1 roll 0 rmoveto show } bind def
/cl  { grestore gsave newpath 3 index 3 index moveto 1 index
       4 -1 roll lineto  exch 1 index lineto lineto
       closepath clip newpath } bind def
/rgb { setrgbcolor } bind def
/s   { scalefont setfont } bind def
% end   .ps.prolog
/sRGB { [ /CIEBasedABC
          << /DecodeLMN
               [ { dup 0.03928 le
                        {12.92321 div}
                        {0.055 add 1.055 div 2.4 exp }
                     ifelse
                 } bind dup dup
               ]
             /MatrixLMN [0.412457 0.212673 0.019334
                         0.357576 0.715152 0.119192
                         0.180437 0.072175 0.950301]
             /WhitePoint [0.9505 1.0 1.0890]
           >>
         ] setcolorspace } bind def
/srgb { setcolor } bind def
%%IncludeResource: font Helvetica
/Helvetica findfont
dup length dict begin
  {1 index /FID ne {def} {pop pop} ifelse} forall
  /Encoding ISOLatin1Encoding def
  currentdict
  end
/Font1 exch definefont pop
%%IncludeResource: font Helvetica-Bold
/Helvetica-Bold findfont
dup length dict begin
  {1 index /FID ne {def} {pop pop} ifelse} forall
  /Encoding ISOLatin1Encoding def
  currentdict
  end
/Font2 exch definefont pop
%%IncludeResource: font Helvetica-Oblique
/Helvetica-Oblique findfont
dup length dict begin
  {1 index /FID ne {def} {pop pop} ifelse} forall
  /Encoding ISOLatin1Encoding def
  currentdict
  end
/Font3 exch definefont pop
%%IncludeResource: font Helvetica-BoldOblique
/Helvetica-BoldOblique findfont
dup length dict begin
  {1 index /FID ne {def} {pop pop} ifelse} forall
  /Encoding ISOLatin1Encoding def
  currentdict
  end
/Font4 exch definefont pop
%%IncludeResource: font Symbol
/Symbol findfont
dup length dict begin
  {1 index /FID ne {def} {pop pop} ifelse} forall
  currentdict
  end
/Font5 exch definefont pop
%%EndProlog
%%Page: 1 1
bp
0.00 0.00 458.25 317.25 cl
0.00 0.00 458.25 317.25 cl
0.00 0.00 458.25 317.25 cl
15.82 166.53 237.03 317.25 cl
/bg { 1 1 1 srgb } def
1 1 1 srgb
1.06 setlinewidth
[] 0 setdash
1 setlinecap
1 setlinejoin
10.00 setmiterlimit
15.82 166.53 221.22 150.72 r p3
0.00 0.00 458.25 317.25 cl
0.00 0.00 458.25 317.25 cl
0.00 0.00 458.25 317.25 cl
62.60 203.82 222.63 285.60 cl
/bg { 1 1 1 srgb } def
62.60 203.82 160.03 81.78 r p2
0 0 0 srgb
1.06 setlinewidth
[] 0 setdash
0 setlinecap
1 setlinejoin
1.00 setmiterlimit
np
79.53 244.71 m
3.07 0 l
o
np
81.06 244.71 m
0 0 l
o
np
79.53 244.71 m
3.07 0 l
o
np
110.30 232.78 m
3.08 0 l
o
np
111.84 232.78 m
0 -10.43 l
o
np
110.30 222.35 m
3.08 0 l
o
np
141.08 234.72 m
3.07 0 l
o
np
142.62 234.72 m
0 -7.02 l
o
np
141.08 227.70 m
3.07 0 l
o
np
171.85 258.38 m
3.08 0 l
o
np
173.39 258.38 m
0 -8.20 l
o
np
171.85 250.18 m
3.08 0 l
o
np
202.63 258.14 m
3.08 0 l
o
np
204.17 258.14 m
0 -6.97 l
o
np
202.63 251.17 m
3.08 0 l
o
1.49 setlinewidth
[] 0 setdash
np
81.06 244.71 m
30.78 -17.14 l
30.78 3.64 l
30.77 23.07 l
30.78 0.37 l
o
/bg { 0 0 0 srgb } def
81.06 244.71 2.13 c p2
111.84 227.57 2.13 c p2
142.62 231.21 2.13 c p2
173.39 254.28 2.13 c p2
204.17 254.65 2.13 c p2
0.00 0.00 458.25 317.25 cl
0.00 0.00 458.25 317.25 cl
0 0 0 srgb
1.06 setlinewidth
[] 0 setdash
0 setlinecap
1 setlinejoin
10.00 setmiterlimit
np
62.60 203.82 m
0 81.78 l
o
0.00 0.00 458.25 317.25 cl
/Font1 findfont 10 s
0 0 0 srgb
55.51 203.94 (60) 1 0 t
55.51 222.53 (80) 1 0 t
55.51 241.12 (100) 1 0 t
55.51 259.70 (120) 1 0 t
55.51 278.29 (140) 1 0 t
0.00 0.00 458.25 317.25 cl
0.00 0.00 458.25 317.25 cl
0 0 0 srgb
1.06 setlinewidth
[] 0 setdash
0 setlinecap
1 setlinejoin
10.00 setmiterlimit
np
58.35 207.53 m
4.25 0 l
o
np
58.35 226.12 m
4.25 0 l
o
np
58.35 244.71 m
4.25 0 l
o
np
58.35 263.29 m
4.25 0 l
o
np
58.35 281.88 m
4.25 0 l
o
0.00 0.00 458.25 317.25 cl
0.00 0.00 458.25 317.25 cl
0.00 0.00 458.25 317.25 cl
0.00 0.00 458.25 317.25 cl
0.00 0.00 458.25 317.25 cl
0 0 0 srgb
1.06 setlinewidth
[] 0 setdash
0 setlinecap
1 setlinejoin
10.00 setmiterlimit
np
62.60 203.82 m
160.03 0 l
o
0.00 0.00 458.25 317.25 cl
0 0 0 srgb
1.06 setlinewidth
[] 0 setdash
0 setlinecap
1 setlinejoin
10.00 setmiterlimit
np
81.06 199.56 m
0 4.26 l
o
np
111.84 199.56 m
0 4.26 l
o
np
142.62 199.56 m
0 4.26 l
o
np
173.39 199.56 m
0 4.26 l
o
np
204.17 199.56 m
0 4.26 l
o
0.00 0.00 458.25 317.25 cl
0.00 0.00 458.25 317.25 cl
/Font1 findfont 10 s
0 0 0 srgb
81.06 189.55 (0) .5 0 t
111.84 189.55 (25) .5 0 t
142.62 189.55 (50) .5 0 t
173.39 189.55 (75) .5 0 t
204.17 189.55 (100) .5 0 t
0.00 0.00 458.25 317.25 cl
0.00 0.00 458.25 317.25 cl
0.00 0.00 458.25 317.25 cl
0.00 0.00 458.25 317.25 cl
0.00 0.00 458.25 317.25 cl
/Font1 findfont 12 s
0 0 0 srgb
142.62 177.33 ( ) .5 0 t
0.00 0.00 458.25 317.25 cl
0.00 0.00 458.25 317.25 cl
/Font1 findfont 12 s
0 0 0 srgb
35.23 244.71 ( ) .5 90 t
0.00 0.00 458.25 317.25 cl
0.00 0.00 458.25 317.25 cl
/Font1 findfont 14 s
0 0 0 srgb
142.62 289.20 (Cycling) .5 0 t
0.00 0.00 458.25 317.25 cl
0.00 0.00 458.25 317.25 cl
0.00 0.00 458.25 317.25 cl
0.00 0.00 458.25 317.25 cl
0.00 0.00 458.25 317.25 cl
0.00 0.00 458.25 317.25 cl
237.03 166.53 458.25 317.25 cl
/bg { 1 1 1 srgb } def
1 1 1 srgb
1.06 setlinewidth
[] 0 setdash
1 setlinecap
1 setlinejoin
10.00 setmiterlimit
237.03 166.53 221.22 150.72 r p3
0.00 0.00 458.25 317.25 cl
0.00 0.00 458.25 317.25 cl
0.00 0.00 458.25 317.25 cl
283.82 203.82 443.85 285.60 cl
/bg { 1 1 1 srgb } def
283.82 203.82 160.03 81.78 r p2
0 0 0 srgb
1.06 setlinewidth
[] 0 setdash
0 setlinecap
1 setlinejoin
1.00 setmiterlimit
np
300.74 244.71 m
3.08 0 l
o
np
302.28 244.71 m
0 0 l
o
np
300.74 244.71 m
3.08 0 l
o
np
331.52 240.27 m
3.08 0 l
o
np
333.06 240.27 m
0 -10.93 l
o
np
331.52 229.34 m
3.08 0 l
o
np
362.29 240.00 m
3.08 0 l
o
np
363.83 240.00 m
0 -5.16 l
o
np
362.29 234.84 m
3.08 0 l
o
np
393.07 257.71 m
3.08 0 l
o
np
394.61 257.71 m
0 -7.44 l
o
np
393.07 250.27 m
3.08 0 l
o
np
423.85 258.13 m
3.07 0 l
o
np
425.38 258.13 m
0 -9.41 l
o
np
423.85 248.72 m
3.07 0 l
o
1.49 setlinewidth
[] 0 setdash
np
302.28 244.71 m
30.78 -9.90 l
30.77 2.61 l
30.78 16.57 l
30.77 -0.56 l
o
/bg { 0 0 0 srgb } def
302.28 244.71 2.13 c p2
333.06 234.81 2.13 c p2
363.83 237.42 2.13 c p2
394.61 253.99 2.13 c p2
425.38 253.43 2.13 c p2
0.00 0.00 458.25 317.25 cl
0.00 0.00 458.25 317.25 cl
0 0 0 srgb
1.06 setlinewidth
[] 0 setdash
0 setlinecap
1 setlinejoin
10.00 setmiterlimit
np
283.82 203.82 m
0 81.78 l
o
0.00 0.00 458.25 317.25 cl
/Font1 findfont 10 s
0 0 0 srgb
276.73 203.94 (60) 1 0 t
276.73 222.53 (80) 1 0 t
276.73 241.12 (100) 1 0 t
276.73 259.70 (120) 1 0 t
276.73 278.29 (140) 1 0 t
0.00 0.00 458.25 317.25 cl
0.00 0.00 458.25 317.25 cl
0 0 0 srgb
1.06 setlinewidth
[] 0 setdash
0 setlinecap
1 setlinejoin
10.00 setmiterlimit
np
279.56 207.53 m
4.26 0 l
o
np
279.56 226.12 m
4.26 0 l
o
np
279.56 244.71 m
4.26 0 l
o
np
279.56 263.29 m
4.26 0 l
o
np
279.56 281.88 m
4.26 0 l
o
0.00 0.00 458.25 317.25 cl
0.00 0.00 458.25 317.25 cl
0.00 0.00 458.25 317.25 cl
0.00 0.00 458.25 317.25 cl
0.00 0.00 458.25 317.25 cl
0 0 0 srgb
1.06 setlinewidth
[] 0 setdash
0 setlinecap
1 setlinejoin
10.00 setmiterlimit
np
283.82 203.82 m
160.03 0 l
o
0.00 0.00 458.25 317.25 cl
0 0 0 srgb
1.06 setlinewidth
[] 0 setdash
0 setlinecap
1 setlinejoin
10.00 setmiterlimit
np
302.28 199.56 m
0 4.26 l
o
np
333.06 199.56 m
0 4.26 l
o
np
363.83 199.56 m
0 4.26 l
o
np
394.61 199.56 m
0 4.26 l
o
np
425.38 199.56 m
0 4.26 l
o
0.00 0.00 458.25 317.25 cl
0.00 0.00 458.25 317.25 cl
/Font1 findfont 10 s
0 0 0 srgb
302.28 189.55 (0) .5 0 t
333.06 189.55 (25) .5 0 t
363.83 189.55 (50) .5 0 t
394.61 189.55 (75) .5 0 t
425.38 189.55 (100) .5 0 t
0.00 0.00 458.25 317.25 cl
0.00 0.00 458.25 317.25 cl
0.00 0.00 458.25 317.25 cl
0.00 0.00 458.25 317.25 cl
0.00 0.00 458.25 317.25 cl
/Font1 findfont 12 s
0 0 0 srgb
363.83 177.33 ( ) .5 0 t
0.00 0.00 458.25 317.25 cl
0.00 0.00 458.25 317.25 cl
/Font1 findfont 12 s
0 0 0 srgb
256.45 244.71 ( ) .5 90 t
0.00 0.00 458.25 317.25 cl
0.00 0.00 458.25 317.25 cl
/Font1 findfont 14 s
0 0 0 srgb
363.83 289.20 (ES Cycling) .5 0 t
0.00 0.00 458.25 317.25 cl
0.00 0.00 458.25 317.25 cl
0.00 0.00 458.25 317.25 cl
0.00 0.00 458.25 317.25 cl
0.00 0.00 458.25 317.25 cl
0.00 0.00 458.25 317.25 cl
15.82 15.82 237.03 166.53 cl
/bg { 1 1 1 srgb } def
1 1 1 srgb
1.06 setlinewidth
[] 0 setdash
1 setlinecap
1 setlinejoin
10.00 setmiterlimit
15.82 15.82 221.22 150.72 r p3
0.00 0.00 458.25 317.25 cl
0.00 0.00 458.25 317.25 cl
0.00 0.00 458.25 317.25 cl
62.60 53.10 222.63 134.88 cl
/bg { 1 1 1 srgb } def
62.60 53.10 160.03 81.78 r p2
0 0 0 srgb
1.06 setlinewidth
[] 0 setdash
0 setlinecap
1 setlinejoin
1.00 setmiterlimit
np
79.53 93.99 m
3.07 0 l
o
np
81.06 93.99 m
0 0 l
o
np
79.53 93.99 m
3.07 0 l
o
np
110.30 98.65 m
3.08 0 l
o
np
111.84 98.65 m
0 -14.85 l
o
np
110.30 83.80 m
3.08 0 l
o
np
141.08 105.24 m
3.07 0 l
o
np
142.62 105.24 m
0 -11.11 l
o
np
141.08 94.13 m
3.07 0 l
o
np
171.85 110.35 m
3.08 0 l
o
np
173.39 110.35 m
0 -14.59 l
o
np
171.85 95.76 m
3.08 0 l
o
np
202.63 98.02 m
3.08 0 l
o
np
204.17 98.02 m
0 -12.07 l
o
np
202.63 85.95 m
3.08 0 l
o
1.49 setlinewidth
[] 0 setdash
np
81.06 93.99 m
30.78 -2.77 l
30.78 8.47 l
30.77 3.37 l
30.78 -11.07 l
o
/bg { 0 0 0 srgb } def
81.06 93.99 2.13 c p2
111.84 91.22 2.13 c p2
142.62 99.69 2.13 c p2
173.39 103.06 2.13 c p2
204.17 91.99 2.13 c p2
0.00 0.00 458.25 317.25 cl
0.00 0.00 458.25 317.25 cl
0 0 0 srgb
1.06 setlinewidth
[] 0 setdash
0 setlinecap
1 setlinejoin
10.00 setmiterlimit
np
62.60 53.10 m
0 81.78 l
o
0.00 0.00 458.25 317.25 cl
/Font1 findfont 10 s
0 0 0 srgb
55.51 53.23 (60) 1 0 t
55.51 71.81 (80) 1 0 t
55.51 90.40 (100) 1 0 t
55.51 108.99 (120) 1 0 t
55.51 127.57 (140) 1 0 t
0.00 0.00 458.25 317.25 cl
0.00 0.00 458.25 317.25 cl
0 0 0 srgb
1.06 setlinewidth
[] 0 setdash
0 setlinecap
1 setlinejoin
10.00 setmiterlimit
np
58.35 56.82 m
4.25 0 l
o
np
58.35 75.40 m
4.25 0 l
o
np
58.35 93.99 m
4.25 0 l
o
np
58.35 112.58 m
4.25 0 l
o
np
58.35 131.16 m
4.25 0 l
o
0.00 0.00 458.25 317.25 cl
0.00 0.00 458.25 317.25 cl
0.00 0.00 458.25 317.25 cl
0.00 0.00 458.25 317.25 cl
0.00 0.00 458.25 317.25 cl
0 0 0 srgb
1.06 setlinewidth
[] 0 setdash
0 setlinecap
1 setlinejoin
10.00 setmiterlimit
np
62.60 53.10 m
160.03 0 l
o
0.00 0.00 458.25 317.25 cl
0 0 0 srgb
1.06 setlinewidth
[] 0 setdash
0 setlinecap
1 setlinejoin
10.00 setmiterlimit
np
81.06 48.85 m
0 4.25 l
o
np
111.84 48.85 m
0 4.25 l
o
np
142.62 48.85 m
0 4.25 l
o
np
173.39 48.85 m
0 4.25 l
o
np
204.17 48.85 m
0 4.25 l
o
0.00 0.00 458.25 317.25 cl
0.00 0.00 458.25 317.25 cl
/Font1 findfont 10 s
0 0 0 srgb
81.06 38.83 (0) .5 0 t
111.84 38.83 (25) .5 0 t
142.62 38.83 (50) .5 0 t
173.39 38.83 (75) .5 0 t
204.17 38.83 (100) .5 0 t
0.00 0.00 458.25 317.25 cl
0.00 0.00 458.25 317.25 cl
0.00 0.00 458.25 317.25 cl
0.00 0.00 458.25 317.25 cl
0.00 0.00 458.25 317.25 cl
/Font1 findfont 12 s
0 0 0 srgb
142.62 26.62 ( ) .5 0 t
0.00 0.00 458.25 317.25 cl
0.00 0.00 458.25 317.25 cl
/Font1 findfont 12 s
0 0 0 srgb
35.23 93.99 ( ) .5 90 t
0.00 0.00 458.25 317.25 cl
0.00 0.00 458.25 317.25 cl
/Font1 findfont 14 s
0 0 0 srgb
142.62 138.48 ( ) .5 0 t
0.00 0.00 458.25 317.25 cl
0.00 0.00 458.25 317.25 cl
0.00 0.00 458.25 317.25 cl
0.00 0.00 458.25 317.25 cl
0.00 0.00 458.25 317.25 cl
0.00 0.00 458.25 317.25 cl
237.03 15.82 458.25 166.53 cl
/bg { 1 1 1 srgb } def
1 1 1 srgb
1.06 setlinewidth
[] 0 setdash
1 setlinecap
1 setlinejoin
10.00 setmiterlimit
237.03 15.82 221.22 150.72 r p3
0.00 0.00 458.25 317.25 cl
0.00 0.00 458.25 317.25 cl
0.00 0.00 458.25 317.25 cl
283.82 53.10 443.85 134.88 cl
/bg { 1 1 1 srgb } def
283.82 53.10 160.03 81.78 r p2
0 0 0 srgb
1.06 setlinewidth
[] 0 setdash
0 setlinecap
1 setlinejoin
1.00 setmiterlimit
np
300.74 93.99 m
3.08 0 l
o
np
302.28 93.99 m
0 0 l
o
np
300.74 93.99 m
3.08 0 l
o
np
331.52 89.69 m
3.08 0 l
o
np
333.06 89.69 m
0 -8.38 l
o
np
331.52 81.31 m
3.08 0 l
o
np
362.29 96.54 m
3.08 0 l
o
np
363.83 96.54 m
0 -5.56 l
o
np
362.29 90.98 m
3.08 0 l
o
np
393.07 93.75 m
3.08 0 l
o
np
394.61 93.75 m
0 -10.70 l
o
np
393.07 83.05 m
3.08 0 l
o
np
423.85 96.69 m
3.07 0 l
o
np
425.38 96.69 m
0 -9.60 l
o
np
423.85 87.09 m
3.07 0 l
o
1.49 setlinewidth
[] 0 setdash
np
302.28 93.99 m
30.78 -8.49 l
30.77 8.26 l
30.78 -5.36 l
30.77 3.49 l
o
/bg { 0 0 0 srgb } def
302.28 93.99 2.13 c p2
333.06 85.50 2.13 c p2
363.83 93.76 2.13 c p2
394.61 88.40 2.13 c p2
425.38 91.89 2.13 c p2
0.00 0.00 458.25 317.25 cl
0.00 0.00 458.25 317.25 cl
0 0 0 srgb
1.06 setlinewidth
[] 0 setdash
0 setlinecap
1 setlinejoin
10.00 setmiterlimit
np
283.82 53.10 m
0 81.78 l
o
0.00 0.00 458.25 317.25 cl
/Font1 findfont 10 s
0 0 0 srgb
276.73 53.23 (60) 1 0 t
276.73 71.81 (80) 1 0 t
276.73 90.40 (100) 1 0 t
276.73 108.99 (120) 1 0 t
276.73 127.57 (140) 1 0 t
0.00 0.00 458.25 317.25 cl
0.00 0.00 458.25 317.25 cl
0 0 0 srgb
1.06 setlinewidth
[] 0 setdash
0 setlinecap
1 setlinejoin
10.00 setmiterlimit
np
279.56 56.82 m
4.26 0 l
o
np
279.56 75.40 m
4.26 0 l
o
np
279.56 93.99 m
4.26 0 l
o
np
279.56 112.58 m
4.26 0 l
o
np
279.56 131.16 m
4.26 0 l
o
0.00 0.00 458.25 317.25 cl
0.00 0.00 458.25 317.25 cl
0.00 0.00 458.25 317.25 cl
0.00 0.00 458.25 317.25 cl
0.00 0.00 458.25 317.25 cl
0 0 0 srgb
1.06 setlinewidth
[] 0 setdash
0 setlinecap
1 setlinejoin
10.00 setmiterlimit
np
283.82 53.10 m
160.03 0 l
o
0.00 0.00 458.25 317.25 cl
0 0 0 srgb
1.06 setlinewidth
[] 0 setdash
0 setlinecap
1 setlinejoin
10.00 setmiterlimit
np
302.28 48.85 m
0 4.25 l
o
np
333.06 48.85 m
0 4.25 l
o
np
363.83 48.85 m
0 4.25 l
o
np
394.61 48.85 m
0 4.25 l
o
np
425.38 48.85 m
0 4.25 l
o
0.00 0.00 458.25 317.25 cl
0.00 0.00 458.25 317.25 cl
/Font1 findfont 10 s
0 0 0 srgb
302.28 38.83 (0) .5 0 t
333.06 38.83 (25) .5 0 t
363.83 38.83 (50) .5 0 t
394.61 38.83 (75) .5 0 t
425.38 38.83 (100) .5 0 t
0.00 0.00 458.25 317.25 cl
0.00 0.00 458.25 317.25 cl
0.00 0.00 458.25 317.25 cl
0.00 0.00 458.25 317.25 cl
0.00 0.00 458.25 317.25 cl
/Font1 findfont 12 s
0 0 0 srgb
363.83 26.62 ( ) .5 0 t
0.00 0.00 458.25 317.25 cl
0.00 0.00 458.25 317.25 cl
/Font1 findfont 12 s
0 0 0 srgb
256.45 93.99 ( ) .5 90 t
0.00 0.00 458.25 317.25 cl
0.00 0.00 458.25 317.25 cl
/Font1 findfont 14 s
0 0 0 srgb
363.83 138.48 ( ) .5 0 t
0.00 0.00 458.25 317.25 cl
0.00 0.00 458.25 317.25 cl
0.00 0.00 458.25 317.25 cl
0.00 0.00 458.25 317.25 cl
0.00 0.00 458.25 317.25 cl
/Font1 findfont 12 s
0 0 0 srgb
165.35 3.60 (Inter Stim) 0 ta
-0.120 (ulus Inter) tb
0.360 (v) tb
-0.300 (al \(ms\)) tb gr
0.00 0.00 458.25 317.25 cl
0.00 0.00 458.25 317.25 cl
/Font1 findfont 12 s
0 0 0 srgb
12.22 87.27 (Soleus H Refle) 90 ta
-0.360 (x Amplitude) tb gr
0.00 0.00 458.25 317.25 cl
0.00 0.00 458.25 317.25 cl
ep
%%Trailer
%%Pages: 1
%%EOF
