%!PS-Adobe-3.0 EPSF-3.0
%%DocumentNeededResources: font Helvetica
%%+ font Helvetica-Bold
%%+ font Helvetica-Oblique
%%+ font Helvetica-BoldOblique
%%+ font Symbol
%%Title: R Graphics Output
%%Creator: R Software
%%Pages: (atend)
%%BoundingBox: 0 0 554 327
%%EndComments
%%BeginProlog
/bp  { gs sRGB gs } def
% begin .ps.prolog
/gs  { gsave } bind def
/gr  { grestore } bind def
/ep  { showpage gr gr } bind def
/m   { moveto } bind def
/l  { rlineto } bind def
/np  { newpath } bind def
/cp  { closepath } bind def
/f   { fill } bind def
/o   { stroke } bind def
/c   { newpath 0 360 arc } bind def
/r   { 4 2 roll moveto 1 copy 3 -1 roll exch 0 exch rlineto 0 rlineto -1 mul 0 exch rlineto closepath } bind def
/p1  { stroke } bind def
/p2  { gsave bg fill grestore newpath } bind def
/p3  { gsave bg fill grestore stroke } bind def
/p6  { gsave bg eofill grestore newpath } bind def
/p7  { gsave bg eofill grestore stroke } bind def
/t   { 5 -2 roll moveto gsave rotate
       1 index stringwidth pop
       mul neg 0 rmoveto show grestore } bind def
/ta  { 4 -2 roll moveto gsave rotate show } bind def
/tb  { 2 -1 roll 0 rmoveto show } bind def
/cl  { grestore gsave newpath 3 index 3 index moveto 1 index
       4 -1 roll lineto  exch 1 index lineto lineto
       closepath clip newpath } bind def
/rgb { setrgbcolor } bind def
/s   { scalefont setfont } bind def
% end   .ps.prolog
/sRGB { [ /CIEBasedABC
          << /DecodeLMN
               [ { dup 0.03928 le
                        {12.92321 div}
                        {0.055 add 1.055 div 2.4 exp }
                     ifelse
                 } bind dup dup
               ]
             /MatrixLMN [0.412457 0.212673 0.019334
                         0.357576 0.715152 0.119192
                         0.180437 0.072175 0.950301]
             /WhitePoint [0.9505 1.0 1.0890]
           >>
         ] setcolorspace } bind def
/srgb { setcolor } bind def
%%IncludeResource: font Helvetica
/Helvetica findfont
dup length dict begin
  {1 index /FID ne {def} {pop pop} ifelse} forall
  /Encoding ISOLatin1Encoding def
  currentdict
  end
/Font1 exch definefont pop
%%IncludeResource: font Helvetica-Bold
/Helvetica-Bold findfont
dup length dict begin
  {1 index /FID ne {def} {pop pop} ifelse} forall
  /Encoding ISOLatin1Encoding def
  currentdict
  end
/Font2 exch definefont pop
%%IncludeResource: font Helvetica-Oblique
/Helvetica-Oblique findfont
dup length dict begin
  {1 index /FID ne {def} {pop pop} ifelse} forall
  /Encoding ISOLatin1Encoding def
  currentdict
  end
/Font3 exch definefont pop
%%IncludeResource: font Helvetica-BoldOblique
/Helvetica-BoldOblique findfont
dup length dict begin
  {1 index /FID ne {def} {pop pop} ifelse} forall
  /Encoding ISOLatin1Encoding def
  currentdict
  end
/Font4 exch definefont pop
%%IncludeResource: font Symbol
/Symbol findfont
dup length dict begin
  {1 index /FID ne {def} {pop pop} ifelse} forall
  currentdict
  end
/Font5 exch definefont pop
%%EndProlog
%%Page: 1 1
bp
0.00 0.00 554.25 327.00 cl
/Font1 findfont 12 s
0 0 0 srgb
281.43 12.00 (MB.Plantarfl.D) .5 0 t
0.00 0.00 554.25 327.00 cl
/Font1 findfont 12 s
0 0 0 srgb
14.62 153.41 (Hdiff) .5 90 t
0.00 0.00 554.25 327.00 cl
0.00 0.00 554.25 327.00 cl
0.00 0.00 554.25 327.00 cl
54.58 50.80 145.32 100.01 cl
0.00 0.00 554.25 327.00 cl
0.00 0.00 554.25 327.00 cl
0.00 0.00 554.25 327.00 cl
0.00 0.00 554.25 327.00 cl
0 0 0 srgb
0.75 setlinewidth
[] 0 setdash
1 setlinecap
1 setlinejoin
10.00 setmiterlimit
np
54.58 58.59 m
-5.67 0 l
o
np
54.58 67.66 m
-5.67 0 l
o
np
54.58 76.73 m
-5.67 0 l
o
np
54.58 85.79 m
-5.67 0 l
o
np
54.58 94.86 m
-5.67 0 l
o
/Font1 findfont 10 s
43.25 55.00 (-50) 1 0 t
43.25 64.07 (0) 1 0 t
43.25 73.14 (50) 1 0 t
43.25 82.20 (100) 1 0 t
43.25 91.27 (150) 1 0 t
0.00 0.00 554.25 327.00 cl
0.00 0.00 554.25 327.00 cl
0 0 0 srgb
0.75 setlinewidth
[] 0 setdash
1 setlinecap
1 setlinejoin
10.00 setmiterlimit
np
60.16 50.80 m
0 -5.67 l
o
np
76.07 50.80 m
0 -5.67 l
o
np
91.99 50.80 m
0 -5.67 l
o
np
107.91 50.80 m
0 -5.67 l
o
np
123.83 50.80 m
0 -5.67 l
o
np
139.75 50.80 m
0 -5.67 l
o
/Font1 findfont 10 s
60.16 32.29 (0) .5 0 t
76.07 32.29 (1) .5 0 t
91.99 32.29 (2) .5 0 t
107.91 32.29 (3) .5 0 t
123.83 32.29 (4) .5 0 t
139.75 32.29 (5) .5 0 t
0.00 0.00 554.25 327.00 cl
54.58 50.80 145.32 100.01 cl
0 0.5020 1 srgb
0.75 setlinewidth
[] 0 setdash
1 setlinecap
1 setlinejoin
10.00 setmiterlimit
123.83 67.66 2.40 c p1
139.75 67.66 2.40 c p1
91.99 67.66 2.40 c p1
91.99 67.66 2.40 c p1
91.99 67.66 2.40 c p1
107.91 67.66 2.40 c p1
107.91 67.66 2.40 c p1
60.16 67.66 2.40 c p1
107.91 67.66 2.40 c p1
123.83 67.66 2.40 c p1
np
54.58 67.66 m
90.74 0 l
o
0.00 0.00 554.25 327.00 cl
0.00 0.00 554.25 327.00 cl
0 0 0 srgb
0.75 setlinewidth
[] 0 setdash
1 setlinecap
1 setlinejoin
10.00 setmiterlimit
54.58 50.80 90.74 49.20 r p1
0.00 0.00 554.25 327.00 cl
0.00 0.00 554.25 327.00 cl
54.58 100.01 145.32 114.41 cl
/bg { 1 0.8980 0.8000 srgb } def
1 0.8980 0.8000 srgb
0.75 setlinewidth
[] 0 setdash
1 setlinecap
1 setlinejoin
10.00 setmiterlimit
54.58 100.01 90.74 14.40 r p3
/Font1 findfont 12 s
0 0 0 srgb
96.62 102.90 (0) 0 0 t
0.00 0.00 554.25 327.00 cl
0.00 0.00 554.25 327.00 cl
0 0 0 srgb
0.75 setlinewidth
[] 0 setdash
1 setlinecap
1 setlinejoin
10.00 setmiterlimit
54.58 100.01 90.74 14.40 r p1
0.00 0.00 554.25 327.00 cl
54.58 114.41 145.32 128.81 cl
/bg { 0.8000 1 0.8000 srgb } def
0.8000 1 0.8000 srgb
0.75 setlinewidth
[] 0 setdash
1 setlinecap
1 setlinejoin
10.00 setmiterlimit
54.58 114.41 90.74 14.40 r p3
/Font1 findfont 12 s
0 0 0 srgb
87.62 117.30 (Rest) 0 0 t
0.00 0.00 554.25 327.00 cl
0.00 0.00 554.25 327.00 cl
0 0 0 srgb
0.75 setlinewidth
[] 0 setdash
1 setlinecap
1 setlinejoin
10.00 setmiterlimit
54.58 114.41 90.74 14.40 r p1
0.00 0.00 554.25 327.00 cl
0.00 0.00 554.25 327.00 cl
145.32 50.80 236.06 100.01 cl
0.00 0.00 554.25 327.00 cl
0.00 0.00 554.25 327.00 cl
0.00 0.00 554.25 327.00 cl
0.00 0.00 554.25 327.00 cl
0.00 0.00 554.25 327.00 cl
0.00 0.00 554.25 327.00 cl
0 0 0 srgb
0.75 setlinewidth
[] 0 setdash
1 setlinecap
1 setlinejoin
10.00 setmiterlimit
np
150.90 50.80 m
0 -5.67 l
o
np
166.81 50.80 m
0 -5.67 l
o
np
182.73 50.80 m
0 -5.67 l
o
np
198.65 50.80 m
0 -5.67 l
o
np
214.57 50.80 m
0 -5.67 l
o
np
230.49 50.80 m
0 -5.67 l
o
0.00 0.00 554.25 327.00 cl
145.32 50.80 236.06 100.01 cl
0 0.5020 1 srgb
0.75 setlinewidth
[] 0 setdash
1 setlinecap
1 setlinejoin
10.00 setmiterlimit
214.57 68.58 2.40 c p1
230.49 74.29 2.40 c p1
182.73 67.47 2.40 c p1
182.73 68.58 2.40 c p1
182.73 62.96 2.40 c p1
198.65 67.40 2.40 c p1
198.65 67.36 2.40 c p1
150.90 68.30 2.40 c p1
198.65 67.72 2.40 c p1
214.57 67.86 2.40 c p1
np
145.32 64.97 m
90.74 5.57 l
o
0.00 0.00 554.25 327.00 cl
0.00 0.00 554.25 327.00 cl
0 0 0 srgb
0.75 setlinewidth
[] 0 setdash
1 setlinecap
1 setlinejoin
10.00 setmiterlimit
145.32 50.80 90.74 49.20 r p1
0.00 0.00 554.25 327.00 cl
0.00 0.00 554.25 327.00 cl
145.32 100.01 236.06 114.41 cl
/bg { 1 0.8980 0.8000 srgb } def
1 0.8980 0.8000 srgb
0.75 setlinewidth
[] 0 setdash
1 setlinecap
1 setlinejoin
10.00 setmiterlimit
145.32 100.01 90.74 14.40 r p3
/Font1 findfont 12 s
0 0 0 srgb
184.02 102.90 (25) 0 0 t
0.00 0.00 554.25 327.00 cl
0.00 0.00 554.25 327.00 cl
0 0 0 srgb
0.75 setlinewidth
[] 0 setdash
1 setlinecap
1 setlinejoin
10.00 setmiterlimit
145.32 100.01 90.74 14.40 r p1
0.00 0.00 554.25 327.00 cl
145.32 114.41 236.06 128.81 cl
/bg { 0.8000 1 0.8000 srgb } def
0.8000 1 0.8000 srgb
0.75 setlinewidth
[] 0 setdash
1 setlinecap
1 setlinejoin
10.00 setmiterlimit
145.32 114.41 90.74 14.40 r p3
/Font1 findfont 12 s
0 0 0 srgb
178.36 117.30 (Rest) 0 0 t
0.00 0.00 554.25 327.00 cl
0.00 0.00 554.25 327.00 cl
0 0 0 srgb
0.75 setlinewidth
[] 0 setdash
1 setlinecap
1 setlinejoin
10.00 setmiterlimit
145.32 114.41 90.74 14.40 r p1
0.00 0.00 554.25 327.00 cl
0.00 0.00 554.25 327.00 cl
236.06 50.80 326.80 100.01 cl
0.00 0.00 554.25 327.00 cl
0.00 0.00 554.25 327.00 cl
0.00 0.00 554.25 327.00 cl
0.00 0.00 554.25 327.00 cl
0.00 0.00 554.25 327.00 cl
0.00 0.00 554.25 327.00 cl
0 0 0 srgb
0.75 setlinewidth
[] 0 setdash
1 setlinecap
1 setlinejoin
10.00 setmiterlimit
np
241.64 50.80 m
0 -5.67 l
o
np
257.55 50.80 m
0 -5.67 l
o
np
273.47 50.80 m
0 -5.67 l
o
np
289.39 50.80 m
0 -5.67 l
o
np
305.31 50.80 m
0 -5.67 l
o
np
321.23 50.80 m
0 -5.67 l
o
/Font1 findfont 10 s
241.64 32.29 (0) .5 0 t
257.55 32.29 (1) .5 0 t
273.47 32.29 (2) .5 0 t
289.39 32.29 (3) .5 0 t
305.31 32.29 (4) .5 0 t
321.23 32.29 (5) .5 0 t
0.00 0.00 554.25 327.00 cl
236.06 50.80 326.80 100.01 cl
0 0.5020 1 srgb
0.75 setlinewidth
[] 0 setdash
1 setlinecap
1 setlinejoin
10.00 setmiterlimit
305.31 67.13 2.40 c p1
321.23 73.01 2.40 c p1
273.47 66.93 2.40 c p1
273.47 67.10 2.40 c p1
273.47 59.83 2.40 c p1
289.39 66.67 2.40 c p1
289.39 65.33 2.40 c p1
241.64 68.12 2.40 c p1
289.39 67.49 2.40 c p1
305.31 69.08 2.40 c p1
np
236.06 63.82 m
90.74 5.88 l
o
0.00 0.00 554.25 327.00 cl
0.00 0.00 554.25 327.00 cl
0 0 0 srgb
0.75 setlinewidth
[] 0 setdash
1 setlinecap
1 setlinejoin
10.00 setmiterlimit
236.06 50.80 90.74 49.20 r p1
0.00 0.00 554.25 327.00 cl
0.00 0.00 554.25 327.00 cl
236.06 100.01 326.80 114.41 cl
/bg { 1 0.8980 0.8000 srgb } def
1 0.8980 0.8000 srgb
0.75 setlinewidth
[] 0 setdash
1 setlinecap
1 setlinejoin
10.00 setmiterlimit
236.06 100.01 90.74 14.40 r p3
/Font1 findfont 12 s
0 0 0 srgb
274.76 102.90 (50) 0 0 t
0.00 0.00 554.25 327.00 cl
0.00 0.00 554.25 327.00 cl
0 0 0 srgb
0.75 setlinewidth
[] 0 setdash
1 setlinecap
1 setlinejoin
10.00 setmiterlimit
236.06 100.01 90.74 14.40 r p1
0.00 0.00 554.25 327.00 cl
236.06 114.41 326.80 128.81 cl
/bg { 0.8000 1 0.8000 srgb } def
0.8000 1 0.8000 srgb
0.75 setlinewidth
[] 0 setdash
1 setlinecap
1 setlinejoin
10.00 setmiterlimit
236.06 114.41 90.74 14.40 r p3
/Font1 findfont 12 s
0 0 0 srgb
269.10 117.30 (Rest) 0 0 t
0.00 0.00 554.25 327.00 cl
0.00 0.00 554.25 327.00 cl
0 0 0 srgb
0.75 setlinewidth
[] 0 setdash
1 setlinecap
1 setlinejoin
10.00 setmiterlimit
236.06 114.41 90.74 14.40 r p1
0.00 0.00 554.25 327.00 cl
0.00 0.00 554.25 327.00 cl
326.80 50.80 417.54 100.01 cl
0.00 0.00 554.25 327.00 cl
0.00 0.00 554.25 327.00 cl
0.00 0.00 554.25 327.00 cl
0.00 0.00 554.25 327.00 cl
0.00 0.00 554.25 327.00 cl
0.00 0.00 554.25 327.00 cl
0 0 0 srgb
0.75 setlinewidth
[] 0 setdash
1 setlinecap
1 setlinejoin
10.00 setmiterlimit
np
332.37 50.80 m
0 -5.67 l
o
np
348.29 50.80 m
0 -5.67 l
o
np
364.21 50.80 m
0 -5.67 l
o
np
380.13 50.80 m
0 -5.67 l
o
np
396.05 50.80 m
0 -5.67 l
o
np
411.97 50.80 m
0 -5.67 l
o
0.00 0.00 554.25 327.00 cl
326.80 50.80 417.54 100.01 cl
0 0.5020 1 srgb
0.75 setlinewidth
[] 0 setdash
1 setlinecap
1 setlinejoin
10.00 setmiterlimit
396.05 65.64 2.40 c p1
411.97 71.91 2.40 c p1
364.21 67.48 2.40 c p1
364.21 68.23 2.40 c p1
364.21 53.83 2.40 c p1
380.13 68.55 2.40 c p1
380.13 71.62 2.40 c p1
332.37 68.10 2.40 c p1
380.13 68.53 2.40 c p1
396.05 67.92 2.40 c p1
np
326.80 63.97 m
90.74 5.81 l
o
0.00 0.00 554.25 327.00 cl
0.00 0.00 554.25 327.00 cl
0 0 0 srgb
0.75 setlinewidth
[] 0 setdash
1 setlinecap
1 setlinejoin
10.00 setmiterlimit
326.80 50.80 90.74 49.20 r p1
0.00 0.00 554.25 327.00 cl
0.00 0.00 554.25 327.00 cl
326.80 100.01 417.54 114.41 cl
/bg { 1 0.8980 0.8000 srgb } def
1 0.8980 0.8000 srgb
0.75 setlinewidth
[] 0 setdash
1 setlinecap
1 setlinejoin
10.00 setmiterlimit
326.80 100.01 90.74 14.40 r p3
/Font1 findfont 12 s
0 0 0 srgb
365.50 102.90 (75) 0 0 t
0.00 0.00 554.25 327.00 cl
0.00 0.00 554.25 327.00 cl
0 0 0 srgb
0.75 setlinewidth
[] 0 setdash
1 setlinecap
1 setlinejoin
10.00 setmiterlimit
326.80 100.01 90.74 14.40 r p1
0.00 0.00 554.25 327.00 cl
326.80 114.41 417.54 128.81 cl
/bg { 0.8000 1 0.8000 srgb } def
0.8000 1 0.8000 srgb
0.75 setlinewidth
[] 0 setdash
1 setlinecap
1 setlinejoin
10.00 setmiterlimit
326.80 114.41 90.74 14.40 r p3
/Font1 findfont 12 s
0 0 0 srgb
359.84 117.30 (Rest) 0 0 t
0.00 0.00 554.25 327.00 cl
0.00 0.00 554.25 327.00 cl
0 0 0 srgb
0.75 setlinewidth
[] 0 setdash
1 setlinecap
1 setlinejoin
10.00 setmiterlimit
326.80 114.41 90.74 14.40 r p1
0.00 0.00 554.25 327.00 cl
0.00 0.00 554.25 327.00 cl
417.54 50.80 508.28 100.01 cl
0.00 0.00 554.25 327.00 cl
0.00 0.00 554.25 327.00 cl
0.00 0.00 554.25 327.00 cl
0.00 0.00 554.25 327.00 cl
0.00 0.00 554.25 327.00 cl
0.00 0.00 554.25 327.00 cl
0 0 0 srgb
0.75 setlinewidth
[] 0 setdash
1 setlinecap
1 setlinejoin
10.00 setmiterlimit
np
423.11 50.80 m
0 -5.67 l
o
np
439.03 50.80 m
0 -5.67 l
o
np
454.95 50.80 m
0 -5.67 l
o
np
470.87 50.80 m
0 -5.67 l
o
np
486.79 50.80 m
0 -5.67 l
o
np
502.71 50.80 m
0 -5.67 l
o
/Font1 findfont 10 s
423.11 32.29 (0) .5 0 t
439.03 32.29 (1) .5 0 t
454.95 32.29 (2) .5 0 t
470.87 32.29 (3) .5 0 t
486.79 32.29 (4) .5 0 t
502.71 32.29 (5) .5 0 t
np
508.28 58.59 m
5.67 0 l
o
np
508.28 67.66 m
5.67 0 l
o
np
508.28 76.73 m
5.67 0 l
o
np
508.28 85.79 m
5.67 0 l
o
np
508.28 94.86 m
5.67 0 l
o
0.00 0.00 554.25 327.00 cl
417.54 50.80 508.28 100.01 cl
0 0.5020 1 srgb
0.75 setlinewidth
[] 0 setdash
1 setlinecap
1 setlinejoin
10.00 setmiterlimit
486.79 62.30 2.40 c p1
502.71 74.49 2.40 c p1
454.95 67.76 2.40 c p1
454.95 67.15 2.40 c p1
454.95 66.78 2.40 c p1
470.87 68.28 2.40 c p1
470.87 68.35 2.40 c p1
423.11 68.86 2.40 c p1
470.87 65.40 2.40 c p1
486.79 67.07 2.40 c p1
np
417.54 66.68 m
90.74 1.74 l
o
0.00 0.00 554.25 327.00 cl
0.00 0.00 554.25 327.00 cl
0 0 0 srgb
0.75 setlinewidth
[] 0 setdash
1 setlinecap
1 setlinejoin
10.00 setmiterlimit
417.54 50.80 90.74 49.20 r p1
0.00 0.00 554.25 327.00 cl
0.00 0.00 554.25 327.00 cl
417.54 100.01 508.28 114.41 cl
/bg { 1 0.8980 0.8000 srgb } def
1 0.8980 0.8000 srgb
0.75 setlinewidth
[] 0 setdash
1 setlinecap
1 setlinejoin
10.00 setmiterlimit
417.54 100.01 90.74 14.40 r p3
/Font1 findfont 12 s
0 0 0 srgb
452.90 102.90 (100) 0 0 t
0.00 0.00 554.25 327.00 cl
0.00 0.00 554.25 327.00 cl
0 0 0 srgb
0.75 setlinewidth
[] 0 setdash
1 setlinecap
1 setlinejoin
10.00 setmiterlimit
417.54 100.01 90.74 14.40 r p1
0.00 0.00 554.25 327.00 cl
417.54 114.41 508.28 128.81 cl
/bg { 0.8000 1 0.8000 srgb } def
0.8000 1 0.8000 srgb
0.75 setlinewidth
[] 0 setdash
1 setlinecap
1 setlinejoin
10.00 setmiterlimit
417.54 114.41 90.74 14.40 r p3
/Font1 findfont 12 s
0 0 0 srgb
450.58 117.30 (Rest) 0 0 t
0.00 0.00 554.25 327.00 cl
0.00 0.00 554.25 327.00 cl
0 0 0 srgb
0.75 setlinewidth
[] 0 setdash
1 setlinecap
1 setlinejoin
10.00 setmiterlimit
417.54 114.41 90.74 14.40 r p1
0.00 0.00 554.25 327.00 cl
0.00 0.00 554.25 327.00 cl
54.58 128.81 145.32 178.01 cl
0.00 0.00 554.25 327.00 cl
0.00 0.00 554.25 327.00 cl
0.00 0.00 554.25 327.00 cl
0.00 0.00 554.25 327.00 cl
0 0 0 srgb
0.75 setlinewidth
[] 0 setdash
1 setlinecap
1 setlinejoin
10.00 setmiterlimit
np
54.58 136.59 m
-5.67 0 l
o
np
54.58 145.66 m
-5.67 0 l
o
np
54.58 154.73 m
-5.67 0 l
o
np
54.58 163.80 m
-5.67 0 l
o
np
54.58 172.86 m
-5.67 0 l
o
0.00 0.00 554.25 327.00 cl
0.00 0.00 554.25 327.00 cl
0.00 0.00 554.25 327.00 cl
54.58 128.81 145.32 178.01 cl
0 0.5020 1 srgb
0.75 setlinewidth
[] 0 setdash
1 setlinecap
1 setlinejoin
10.00 setmiterlimit
123.83 145.66 2.40 c p1
139.75 145.66 2.40 c p1
91.99 145.66 2.40 c p1
91.99 145.66 2.40 c p1
91.99 145.66 2.40 c p1
107.91 145.66 2.40 c p1
107.91 145.66 2.40 c p1
60.16 145.66 2.40 c p1
107.91 145.66 2.40 c p1
123.83 145.66 2.40 c p1
np
54.58 145.66 m
90.74 0 l
o
0.00 0.00 554.25 327.00 cl
0.00 0.00 554.25 327.00 cl
0 0 0 srgb
0.75 setlinewidth
[] 0 setdash
1 setlinecap
1 setlinejoin
10.00 setmiterlimit
54.58 128.81 90.74 49.20 r p1
0.00 0.00 554.25 327.00 cl
0.00 0.00 554.25 327.00 cl
54.58 178.01 145.32 192.41 cl
/bg { 1 0.8980 0.8000 srgb } def
1 0.8980 0.8000 srgb
0.75 setlinewidth
[] 0 setdash
1 setlinecap
1 setlinejoin
10.00 setmiterlimit
54.58 178.01 90.74 14.40 r p3
/Font1 findfont 12 s
0 0 0 srgb
96.62 180.90 (0) 0 0 t
0.00 0.00 554.25 327.00 cl
0.00 0.00 554.25 327.00 cl
0 0 0 srgb
0.75 setlinewidth
[] 0 setdash
1 setlinecap
1 setlinejoin
10.00 setmiterlimit
54.58 178.01 90.74 14.40 r p1
0.00 0.00 554.25 327.00 cl
54.58 192.41 145.32 206.81 cl
/bg { 0.8000 1 0.8000 srgb } def
0.8000 1 0.8000 srgb
0.75 setlinewidth
[] 0 setdash
1 setlinecap
1 setlinejoin
10.00 setmiterlimit
54.58 192.41 90.74 14.40 r p3
/Font1 findfont 12 s
0 0 0 srgb
80.29 195.30 (Cycling) 0 0 t
0.00 0.00 554.25 327.00 cl
0.00 0.00 554.25 327.00 cl
0 0 0 srgb
0.75 setlinewidth
[] 0 setdash
1 setlinecap
1 setlinejoin
10.00 setmiterlimit
54.58 192.41 90.74 14.40 r p1
0.00 0.00 554.25 327.00 cl
0.00 0.00 554.25 327.00 cl
145.32 128.81 236.06 178.01 cl
0.00 0.00 554.25 327.00 cl
0.00 0.00 554.25 327.00 cl
0.00 0.00 554.25 327.00 cl
0.00 0.00 554.25 327.00 cl
0.00 0.00 554.25 327.00 cl
0.00 0.00 554.25 327.00 cl
0.00 0.00 554.25 327.00 cl
145.32 128.81 236.06 178.01 cl
0 0.5020 1 srgb
0.75 setlinewidth
[] 0 setdash
1 setlinecap
1 setlinejoin
10.00 setmiterlimit
214.57 143.24 2.40 c p1
230.49 145.13 2.40 c p1
182.73 144.25 2.40 c p1
182.73 146.65 2.40 c p1
182.73 152.69 2.40 c p1
198.65 145.99 2.40 c p1
198.65 139.51 2.40 c p1
150.90 145.87 2.40 c p1
198.65 149.19 2.40 c p1
214.57 145.56 2.40 c p1
np
145.32 147.69 m
90.74 -3.41 l
o
0.00 0.00 554.25 327.00 cl
0.00 0.00 554.25 327.00 cl
0 0 0 srgb
0.75 setlinewidth
[] 0 setdash
1 setlinecap
1 setlinejoin
10.00 setmiterlimit
145.32 128.81 90.74 49.20 r p1
0.00 0.00 554.25 327.00 cl
0.00 0.00 554.25 327.00 cl
145.32 178.01 236.06 192.41 cl
/bg { 1 0.8980 0.8000 srgb } def
1 0.8980 0.8000 srgb
0.75 setlinewidth
[] 0 setdash
1 setlinecap
1 setlinejoin
10.00 setmiterlimit
145.32 178.01 90.74 14.40 r p3
/Font1 findfont 12 s
0 0 0 srgb
184.02 180.90 (25) 0 0 t
0.00 0.00 554.25 327.00 cl
0.00 0.00 554.25 327.00 cl
0 0 0 srgb
0.75 setlinewidth
[] 0 setdash
1 setlinecap
1 setlinejoin
10.00 setmiterlimit
145.32 178.01 90.74 14.40 r p1
0.00 0.00 554.25 327.00 cl
145.32 192.41 236.06 206.81 cl
/bg { 0.8000 1 0.8000 srgb } def
0.8000 1 0.8000 srgb
0.75 setlinewidth
[] 0 setdash
1 setlinecap
1 setlinejoin
10.00 setmiterlimit
145.32 192.41 90.74 14.40 r p3
/Font1 findfont 12 s
0 0 0 srgb
171.03 195.30 (Cycling) 0 0 t
0.00 0.00 554.25 327.00 cl
0.00 0.00 554.25 327.00 cl
0 0 0 srgb
0.75 setlinewidth
[] 0 setdash
1 setlinecap
1 setlinejoin
10.00 setmiterlimit
145.32 192.41 90.74 14.40 r p1
0.00 0.00 554.25 327.00 cl
0.00 0.00 554.25 327.00 cl
236.06 128.81 326.80 178.01 cl
0.00 0.00 554.25 327.00 cl
0.00 0.00 554.25 327.00 cl
0.00 0.00 554.25 327.00 cl
0.00 0.00 554.25 327.00 cl
0.00 0.00 554.25 327.00 cl
0.00 0.00 554.25 327.00 cl
0.00 0.00 554.25 327.00 cl
236.06 128.81 326.80 178.01 cl
0 0.5020 1 srgb
0.75 setlinewidth
[] 0 setdash
1 setlinecap
1 setlinejoin
10.00 setmiterlimit
305.31 145.76 2.40 c p1
321.23 143.19 2.40 c p1
273.47 145.59 2.40 c p1
273.47 146.58 2.40 c p1
273.47 149.99 2.40 c p1
289.39 141.26 2.40 c p1
289.39 142.19 2.40 c p1
241.64 145.73 2.40 c p1
289.39 148.23 2.40 c p1
305.31 146.96 2.40 c p1
np
236.06 147.18 m
90.74 -2.96 l
o
0.00 0.00 554.25 327.00 cl
0.00 0.00 554.25 327.00 cl
0 0 0 srgb
0.75 setlinewidth
[] 0 setdash
1 setlinecap
1 setlinejoin
10.00 setmiterlimit
236.06 128.81 90.74 49.20 r p1
0.00 0.00 554.25 327.00 cl
0.00 0.00 554.25 327.00 cl
236.06 178.01 326.80 192.41 cl
/bg { 1 0.8980 0.8000 srgb } def
1 0.8980 0.8000 srgb
0.75 setlinewidth
[] 0 setdash
1 setlinecap
1 setlinejoin
10.00 setmiterlimit
236.06 178.01 90.74 14.40 r p3
/Font1 findfont 12 s
0 0 0 srgb
274.76 180.90 (50) 0 0 t
0.00 0.00 554.25 327.00 cl
0.00 0.00 554.25 327.00 cl
0 0 0 srgb
0.75 setlinewidth
[] 0 setdash
1 setlinecap
1 setlinejoin
10.00 setmiterlimit
236.06 178.01 90.74 14.40 r p1
0.00 0.00 554.25 327.00 cl
236.06 192.41 326.80 206.81 cl
/bg { 0.8000 1 0.8000 srgb } def
0.8000 1 0.8000 srgb
0.75 setlinewidth
[] 0 setdash
1 setlinecap
1 setlinejoin
10.00 setmiterlimit
236.06 192.41 90.74 14.40 r p3
/Font1 findfont 12 s
0 0 0 srgb
261.77 195.30 (Cycling) 0 0 t
0.00 0.00 554.25 327.00 cl
0.00 0.00 554.25 327.00 cl
0 0 0 srgb
0.75 setlinewidth
[] 0 setdash
1 setlinecap
1 setlinejoin
10.00 setmiterlimit
236.06 192.41 90.74 14.40 r p1
0.00 0.00 554.25 327.00 cl
0.00 0.00 554.25 327.00 cl
326.80 128.81 417.54 178.01 cl
0.00 0.00 554.25 327.00 cl
0.00 0.00 554.25 327.00 cl
0.00 0.00 554.25 327.00 cl
0.00 0.00 554.25 327.00 cl
0.00 0.00 554.25 327.00 cl
0.00 0.00 554.25 327.00 cl
0.00 0.00 554.25 327.00 cl
326.80 128.81 417.54 178.01 cl
0 0.5020 1 srgb
0.75 setlinewidth
[] 0 setdash
1 setlinecap
1 setlinejoin
10.00 setmiterlimit
396.05 150.08 2.40 c p1
411.97 147.61 2.40 c p1
364.21 145.75 2.40 c p1
364.21 147.07 2.40 c p1
364.21 146.66 2.40 c p1
380.13 137.66 2.40 c p1
380.13 146.15 2.40 c p1
332.37 144.95 2.40 c p1
380.13 145.65 2.40 c p1
396.05 148.19 2.40 c p1
np
326.80 143.99 m
90.74 3.60 l
o
0.00 0.00 554.25 327.00 cl
0.00 0.00 554.25 327.00 cl
0 0 0 srgb
0.75 setlinewidth
[] 0 setdash
1 setlinecap
1 setlinejoin
10.00 setmiterlimit
326.80 128.81 90.74 49.20 r p1
0.00 0.00 554.25 327.00 cl
0.00 0.00 554.25 327.00 cl
326.80 178.01 417.54 192.41 cl
/bg { 1 0.8980 0.8000 srgb } def
1 0.8980 0.8000 srgb
0.75 setlinewidth
[] 0 setdash
1 setlinecap
1 setlinejoin
10.00 setmiterlimit
326.80 178.01 90.74 14.40 r p3
/Font1 findfont 12 s
0 0 0 srgb
365.50 180.90 (75) 0 0 t
0.00 0.00 554.25 327.00 cl
0.00 0.00 554.25 327.00 cl
0 0 0 srgb
0.75 setlinewidth
[] 0 setdash
1 setlinecap
1 setlinejoin
10.00 setmiterlimit
326.80 178.01 90.74 14.40 r p1
0.00 0.00 554.25 327.00 cl
326.80 192.41 417.54 206.81 cl
/bg { 0.8000 1 0.8000 srgb } def
0.8000 1 0.8000 srgb
0.75 setlinewidth
[] 0 setdash
1 setlinecap
1 setlinejoin
10.00 setmiterlimit
326.80 192.41 90.74 14.40 r p3
/Font1 findfont 12 s
0 0 0 srgb
352.50 195.30 (Cycling) 0 0 t
0.00 0.00 554.25 327.00 cl
0.00 0.00 554.25 327.00 cl
0 0 0 srgb
0.75 setlinewidth
[] 0 setdash
1 setlinecap
1 setlinejoin
10.00 setmiterlimit
326.80 192.41 90.74 14.40 r p1
0.00 0.00 554.25 327.00 cl
0.00 0.00 554.25 327.00 cl
417.54 128.81 508.28 178.01 cl
0.00 0.00 554.25 327.00 cl
0.00 0.00 554.25 327.00 cl
0.00 0.00 554.25 327.00 cl
0.00 0.00 554.25 327.00 cl
0.00 0.00 554.25 327.00 cl
0.00 0.00 554.25 327.00 cl
0 0 0 srgb
0.75 setlinewidth
[] 0 setdash
1 setlinecap
1 setlinejoin
10.00 setmiterlimit
np
508.28 136.59 m
5.67 0 l
o
np
508.28 145.66 m
5.67 0 l
o
np
508.28 154.73 m
5.67 0 l
o
np
508.28 163.80 m
5.67 0 l
o
np
508.28 172.86 m
5.67 0 l
o
/Font1 findfont 10 s
519.62 133.00 (-50) 0 0 t
519.62 142.07 (0) 0 0 t
519.62 151.14 (50) 0 0 t
519.62 160.21 (100) 0 0 t
519.62 169.27 (150) 0 0 t
0.00 0.00 554.25 327.00 cl
417.54 128.81 508.28 178.01 cl
0 0.5020 1 srgb
0.75 setlinewidth
[] 0 setdash
1 setlinecap
1 setlinejoin
10.00 setmiterlimit
486.79 149.41 2.40 c p1
502.71 147.97 2.40 c p1
454.95 143.65 2.40 c p1
454.95 147.83 2.40 c p1
454.95 145.64 2.40 c p1
470.87 139.62 2.40 c p1
470.87 146.03 2.40 c p1
423.11 145.34 2.40 c p1
470.87 149.86 2.40 c p1
486.79 146.17 2.40 c p1
np
417.54 144.24 m
90.74 3.46 l
o
0.00 0.00 554.25 327.00 cl
0.00 0.00 554.25 327.00 cl
0 0 0 srgb
0.75 setlinewidth
[] 0 setdash
1 setlinecap
1 setlinejoin
10.00 setmiterlimit
417.54 128.81 90.74 49.20 r p1
0.00 0.00 554.25 327.00 cl
0.00 0.00 554.25 327.00 cl
417.54 178.01 508.28 192.41 cl
/bg { 1 0.8980 0.8000 srgb } def
1 0.8980 0.8000 srgb
0.75 setlinewidth
[] 0 setdash
1 setlinecap
1 setlinejoin
10.00 setmiterlimit
417.54 178.01 90.74 14.40 r p3
/Font1 findfont 12 s
0 0 0 srgb
452.90 180.90 (100) 0 0 t
0.00 0.00 554.25 327.00 cl
0.00 0.00 554.25 327.00 cl
0 0 0 srgb
0.75 setlinewidth
[] 0 setdash
1 setlinecap
1 setlinejoin
10.00 setmiterlimit
417.54 178.01 90.74 14.40 r p1
0.00 0.00 554.25 327.00 cl
417.54 192.41 508.28 206.81 cl
/bg { 0.8000 1 0.8000 srgb } def
0.8000 1 0.8000 srgb
0.75 setlinewidth
[] 0 setdash
1 setlinecap
1 setlinejoin
10.00 setmiterlimit
417.54 192.41 90.74 14.40 r p3
/Font1 findfont 12 s
0 0 0 srgb
443.24 195.30 (Cycling) 0 0 t
0.00 0.00 554.25 327.00 cl
0.00 0.00 554.25 327.00 cl
0 0 0 srgb
0.75 setlinewidth
[] 0 setdash
1 setlinecap
1 setlinejoin
10.00 setmiterlimit
417.54 192.41 90.74 14.40 r p1
0.00 0.00 554.25 327.00 cl
0.00 0.00 554.25 327.00 cl
54.58 206.81 145.32 256.01 cl
0.00 0.00 554.25 327.00 cl
0.00 0.00 554.25 327.00 cl
0 0 0 srgb
0.75 setlinewidth
[] 0 setdash
1 setlinecap
1 setlinejoin
10.00 setmiterlimit
np
60.16 284.81 m
0 5.67 l
o
np
76.07 284.81 m
0 5.67 l
o
np
91.99 284.81 m
0 5.67 l
o
np
107.91 284.81 m
0 5.67 l
o
np
123.83 284.81 m
0 5.67 l
o
np
139.75 284.81 m
0 5.67 l
o
0.00 0.00 554.25 327.00 cl
0.00 0.00 554.25 327.00 cl
0 0 0 srgb
0.75 setlinewidth
[] 0 setdash
1 setlinecap
1 setlinejoin
10.00 setmiterlimit
np
54.58 214.60 m
-5.67 0 l
o
np
54.58 223.66 m
-5.67 0 l
o
np
54.58 232.73 m
-5.67 0 l
o
np
54.58 241.80 m
-5.67 0 l
o
np
54.58 250.87 m
-5.67 0 l
o
/Font1 findfont 10 s
43.25 211.01 (-50) 1 0 t
43.25 220.07 (0) 1 0 t
43.25 229.14 (50) 1 0 t
43.25 238.21 (100) 1 0 t
43.25 247.28 (150) 1 0 t
0.00 0.00 554.25 327.00 cl
0.00 0.00 554.25 327.00 cl
0.00 0.00 554.25 327.00 cl
54.58 206.81 145.32 256.01 cl
0 0.5020 1 srgb
0.75 setlinewidth
[] 0 setdash
1 setlinecap
1 setlinejoin
10.00 setmiterlimit
123.83 223.66 2.40 c p1
139.75 223.66 2.40 c p1
91.99 223.66 2.40 c p1
91.99 223.66 2.40 c p1
91.99 223.66 2.40 c p1
107.91 223.66 2.40 c p1
107.91 223.66 2.40 c p1
60.16 223.66 2.40 c p1
107.91 223.66 2.40 c p1
123.83 223.66 2.40 c p1
np
54.58 223.66 m
90.74 0 l
o
0.00 0.00 554.25 327.00 cl
0.00 0.00 554.25 327.00 cl
0 0 0 srgb
0.75 setlinewidth
[] 0 setdash
1 setlinecap
1 setlinejoin
10.00 setmiterlimit
54.58 206.81 90.74 49.20 r p1
0.00 0.00 554.25 327.00 cl
0.00 0.00 554.25 327.00 cl
54.58 256.01 145.32 270.41 cl
/bg { 1 0.8980 0.8000 srgb } def
1 0.8980 0.8000 srgb
0.75 setlinewidth
[] 0 setdash
1 setlinecap
1 setlinejoin
10.00 setmiterlimit
54.58 256.01 90.74 14.40 r p3
/Font1 findfont 12 s
0 0 0 srgb
96.62 258.90 (0) 0 0 t
0.00 0.00 554.25 327.00 cl
0.00 0.00 554.25 327.00 cl
0 0 0 srgb
0.75 setlinewidth
[] 0 setdash
1 setlinecap
1 setlinejoin
10.00 setmiterlimit
54.58 256.01 90.74 14.40 r p1
0.00 0.00 554.25 327.00 cl
54.58 270.41 145.32 284.81 cl
/bg { 0.8000 1 0.8000 srgb } def
0.8000 1 0.8000 srgb
0.75 setlinewidth
[] 0 setdash
1 setlinecap
1 setlinejoin
10.00 setmiterlimit
54.58 270.41 90.74 14.40 r p3
/Font1 findfont 12 s
0 0 0 srgb
70.61 273.30 (ES Cycling) 0 0 t
0.00 0.00 554.25 327.00 cl
0.00 0.00 554.25 327.00 cl
0 0 0 srgb
0.75 setlinewidth
[] 0 setdash
1 setlinecap
1 setlinejoin
10.00 setmiterlimit
54.58 270.41 90.74 14.40 r p1
0.00 0.00 554.25 327.00 cl
0.00 0.00 554.25 327.00 cl
145.32 206.81 236.06 256.01 cl
0.00 0.00 554.25 327.00 cl
0.00 0.00 554.25 327.00 cl
0 0 0 srgb
0.75 setlinewidth
[] 0 setdash
1 setlinecap
1 setlinejoin
10.00 setmiterlimit
np
150.90 284.81 m
0 5.67 l
o
np
166.81 284.81 m
0 5.67 l
o
np
182.73 284.81 m
0 5.67 l
o
np
198.65 284.81 m
0 5.67 l
o
np
214.57 284.81 m
0 5.67 l
o
np
230.49 284.81 m
0 5.67 l
o
/Font1 findfont 10 s
150.90 296.15 (0) .5 0 t
166.81 296.15 (1) .5 0 t
182.73 296.15 (2) .5 0 t
198.65 296.15 (3) .5 0 t
214.57 296.15 (4) .5 0 t
230.49 296.15 (5) .5 0 t
0.00 0.00 554.25 327.00 cl
0.00 0.00 554.25 327.00 cl
0.00 0.00 554.25 327.00 cl
0.00 0.00 554.25 327.00 cl
0.00 0.00 554.25 327.00 cl
145.32 206.81 236.06 256.01 cl
0 0.5020 1 srgb
0.75 setlinewidth
[] 0 setdash
1 setlinecap
1 setlinejoin
10.00 setmiterlimit
214.57 223.36 2.40 c p1
230.49 217.89 2.40 c p1
182.73 238.03 2.40 c p1
182.73 221.80 2.40 c p1
182.73 221.94 2.40 c p1
198.65 222.34 2.40 c p1
198.65 225.92 2.40 c p1
150.90 223.50 2.40 c p1
198.65 226.17 2.40 c p1
214.57 226.68 2.40 c p1
np
145.32 227.79 m
90.74 -5.48 l
o
0.00 0.00 554.25 327.00 cl
0.00 0.00 554.25 327.00 cl
0 0 0 srgb
0.75 setlinewidth
[] 0 setdash
1 setlinecap
1 setlinejoin
10.00 setmiterlimit
145.32 206.81 90.74 49.20 r p1
0.00 0.00 554.25 327.00 cl
0.00 0.00 554.25 327.00 cl
145.32 256.01 236.06 270.41 cl
/bg { 1 0.8980 0.8000 srgb } def
1 0.8980 0.8000 srgb
0.75 setlinewidth
[] 0 setdash
1 setlinecap
1 setlinejoin
10.00 setmiterlimit
145.32 256.01 90.74 14.40 r p3
/Font1 findfont 12 s
0 0 0 srgb
184.02 258.90 (25) 0 0 t
0.00 0.00 554.25 327.00 cl
0.00 0.00 554.25 327.00 cl
0 0 0 srgb
0.75 setlinewidth
[] 0 setdash
1 setlinecap
1 setlinejoin
10.00 setmiterlimit
145.32 256.01 90.74 14.40 r p1
0.00 0.00 554.25 327.00 cl
145.32 270.41 236.06 284.81 cl
/bg { 0.8000 1 0.8000 srgb } def
0.8000 1 0.8000 srgb
0.75 setlinewidth
[] 0 setdash
1 setlinecap
1 setlinejoin
10.00 setmiterlimit
145.32 270.41 90.74 14.40 r p3
/Font1 findfont 12 s
0 0 0 srgb
161.35 273.30 (ES Cycling) 0 0 t
0.00 0.00 554.25 327.00 cl
0.00 0.00 554.25 327.00 cl
0 0 0 srgb
0.75 setlinewidth
[] 0 setdash
1 setlinecap
1 setlinejoin
10.00 setmiterlimit
145.32 270.41 90.74 14.40 r p1
0.00 0.00 554.25 327.00 cl
0.00 0.00 554.25 327.00 cl
236.06 206.81 326.80 256.01 cl
0.00 0.00 554.25 327.00 cl
0.00 0.00 554.25 327.00 cl
0 0 0 srgb
0.75 setlinewidth
[] 0 setdash
1 setlinecap
1 setlinejoin
10.00 setmiterlimit
np
241.64 284.81 m
0 5.67 l
o
np
257.55 284.81 m
0 5.67 l
o
np
273.47 284.81 m
0 5.67 l
o
np
289.39 284.81 m
0 5.67 l
o
np
305.31 284.81 m
0 5.67 l
o
np
321.23 284.81 m
0 5.67 l
o
0.00 0.00 554.25 327.00 cl
0.00 0.00 554.25 327.00 cl
0.00 0.00 554.25 327.00 cl
0.00 0.00 554.25 327.00 cl
0.00 0.00 554.25 327.00 cl
236.06 206.81 326.80 256.01 cl
0 0.5020 1 srgb
0.75 setlinewidth
[] 0 setdash
1 setlinecap
1 setlinejoin
10.00 setmiterlimit
305.31 221.93 2.40 c p1
321.23 222.35 2.40 c p1
273.47 247.43 2.40 c p1
273.47 225.48 2.40 c p1
273.47 225.34 2.40 c p1
289.39 220.47 2.40 c p1
289.39 225.61 2.40 c p1
241.64 221.88 2.40 c p1
289.39 229.86 2.40 c p1
305.31 228.85 2.40 c p1
np
236.06 229.53 m
90.74 -4.72 l
o
0.00 0.00 554.25 327.00 cl
0.00 0.00 554.25 327.00 cl
0 0 0 srgb
0.75 setlinewidth
[] 0 setdash
1 setlinecap
1 setlinejoin
10.00 setmiterlimit
236.06 206.81 90.74 49.20 r p1
0.00 0.00 554.25 327.00 cl
0.00 0.00 554.25 327.00 cl
236.06 256.01 326.80 270.41 cl
/bg { 1 0.8980 0.8000 srgb } def
1 0.8980 0.8000 srgb
0.75 setlinewidth
[] 0 setdash
1 setlinecap
1 setlinejoin
10.00 setmiterlimit
236.06 256.01 90.74 14.40 r p3
/Font1 findfont 12 s
0 0 0 srgb
274.76 258.90 (50) 0 0 t
0.00 0.00 554.25 327.00 cl
0.00 0.00 554.25 327.00 cl
0 0 0 srgb
0.75 setlinewidth
[] 0 setdash
1 setlinecap
1 setlinejoin
10.00 setmiterlimit
236.06 256.01 90.74 14.40 r p1
0.00 0.00 554.25 327.00 cl
236.06 270.41 326.80 284.81 cl
/bg { 0.8000 1 0.8000 srgb } def
0.8000 1 0.8000 srgb
0.75 setlinewidth
[] 0 setdash
1 setlinecap
1 setlinejoin
10.00 setmiterlimit
236.06 270.41 90.74 14.40 r p3
/Font1 findfont 12 s
0 0 0 srgb
252.09 273.30 (ES Cycling) 0 0 t
0.00 0.00 554.25 327.00 cl
0.00 0.00 554.25 327.00 cl
0 0 0 srgb
0.75 setlinewidth
[] 0 setdash
1 setlinecap
1 setlinejoin
10.00 setmiterlimit
236.06 270.41 90.74 14.40 r p1
0.00 0.00 554.25 327.00 cl
0.00 0.00 554.25 327.00 cl
326.80 206.81 417.54 256.01 cl
0.00 0.00 554.25 327.00 cl
0.00 0.00 554.25 327.00 cl
0 0 0 srgb
0.75 setlinewidth
[] 0 setdash
1 setlinecap
1 setlinejoin
10.00 setmiterlimit
np
332.37 284.81 m
0 5.67 l
o
np
348.29 284.81 m
0 5.67 l
o
np
364.21 284.81 m
0 5.67 l
o
np
380.13 284.81 m
0 5.67 l
o
np
396.05 284.81 m
0 5.67 l
o
np
411.97 284.81 m
0 5.67 l
o
/Font1 findfont 10 s
332.37 296.15 (0) .5 0 t
348.29 296.15 (1) .5 0 t
364.21 296.15 (2) .5 0 t
380.13 296.15 (3) .5 0 t
396.05 296.15 (4) .5 0 t
411.97 296.15 (5) .5 0 t
0.00 0.00 554.25 327.00 cl
0.00 0.00 554.25 327.00 cl
0.00 0.00 554.25 327.00 cl
0.00 0.00 554.25 327.00 cl
0.00 0.00 554.25 327.00 cl
326.80 206.81 417.54 256.01 cl
0 0.5020 1 srgb
0.75 setlinewidth
[] 0 setdash
1 setlinecap
1 setlinejoin
10.00 setmiterlimit
396.05 229.78 2.40 c p1
411.97 213.66 2.40 c p1
364.21 224.21 2.40 c p1
364.21 228.75 2.40 c p1
364.21 252.99 2.40 c p1
380.13 218.76 2.40 c p1
380.13 227.09 2.40 c p1
332.37 223.18 2.40 c p1
380.13 237.33 2.40 c p1
396.05 227.17 2.40 c p1
np
326.80 234.49 m
90.74 -11.22 l
o
0.00 0.00 554.25 327.00 cl
0.00 0.00 554.25 327.00 cl
0 0 0 srgb
0.75 setlinewidth
[] 0 setdash
1 setlinecap
1 setlinejoin
10.00 setmiterlimit
326.80 206.81 90.74 49.20 r p1
0.00 0.00 554.25 327.00 cl
0.00 0.00 554.25 327.00 cl
326.80 256.01 417.54 270.41 cl
/bg { 1 0.8980 0.8000 srgb } def
1 0.8980 0.8000 srgb
0.75 setlinewidth
[] 0 setdash
1 setlinecap
1 setlinejoin
10.00 setmiterlimit
326.80 256.01 90.74 14.40 r p3
/Font1 findfont 12 s
0 0 0 srgb
365.50 258.90 (75) 0 0 t
0.00 0.00 554.25 327.00 cl
0.00 0.00 554.25 327.00 cl
0 0 0 srgb
0.75 setlinewidth
[] 0 setdash
1 setlinecap
1 setlinejoin
10.00 setmiterlimit
326.80 256.01 90.74 14.40 r p1
0.00 0.00 554.25 327.00 cl
326.80 270.41 417.54 284.81 cl
/bg { 0.8000 1 0.8000 srgb } def
0.8000 1 0.8000 srgb
0.75 setlinewidth
[] 0 setdash
1 setlinecap
1 setlinejoin
10.00 setmiterlimit
326.80 270.41 90.74 14.40 r p3
/Font1 findfont 12 s
0 0 0 srgb
342.83 273.30 (ES Cycling) 0 0 t
0.00 0.00 554.25 327.00 cl
0.00 0.00 554.25 327.00 cl
0 0 0 srgb
0.75 setlinewidth
[] 0 setdash
1 setlinecap
1 setlinejoin
10.00 setmiterlimit
326.80 270.41 90.74 14.40 r p1
0.00 0.00 554.25 327.00 cl
0.00 0.00 554.25 327.00 cl
417.54 206.81 508.28 256.01 cl
0.00 0.00 554.25 327.00 cl
0.00 0.00 554.25 327.00 cl
0 0 0 srgb
0.75 setlinewidth
[] 0 setdash
1 setlinecap
1 setlinejoin
10.00 setmiterlimit
np
423.11 284.81 m
0 5.67 l
o
np
439.03 284.81 m
0 5.67 l
o
np
454.95 284.81 m
0 5.67 l
o
np
470.87 284.81 m
0 5.67 l
o
np
486.79 284.81 m
0 5.67 l
o
np
502.71 284.81 m
0 5.67 l
o
0.00 0.00 554.25 327.00 cl
0.00 0.00 554.25 327.00 cl
0.00 0.00 554.25 327.00 cl
0.00 0.00 554.25 327.00 cl
0 0 0 srgb
0.75 setlinewidth
[] 0 setdash
1 setlinecap
1 setlinejoin
10.00 setmiterlimit
np
508.28 214.60 m
5.67 0 l
o
np
508.28 223.66 m
5.67 0 l
o
np
508.28 232.73 m
5.67 0 l
o
np
508.28 241.80 m
5.67 0 l
o
np
508.28 250.87 m
5.67 0 l
o
0.00 0.00 554.25 327.00 cl
417.54 206.81 508.28 256.01 cl
0 0.5020 1 srgb
0.75 setlinewidth
[] 0 setdash
1 setlinecap
1 setlinejoin
10.00 setmiterlimit
486.79 227.98 2.40 c p1
502.71 213.55 2.40 c p1
454.95 225.69 2.40 c p1
454.95 226.15 2.40 c p1
454.95 221.11 2.40 c p1
470.87 220.90 2.40 c p1
470.87 224.87 2.40 c p1
423.11 222.94 2.40 c p1
470.87 228.46 2.40 c p1
486.79 226.72 2.40 c p1
np
417.54 226.04 m
90.74 -3.98 l
o
0.00 0.00 554.25 327.00 cl
0.00 0.00 554.25 327.00 cl
0 0 0 srgb
0.75 setlinewidth
[] 0 setdash
1 setlinecap
1 setlinejoin
10.00 setmiterlimit
417.54 206.81 90.74 49.20 r p1
0.00 0.00 554.25 327.00 cl
0.00 0.00 554.25 327.00 cl
417.54 256.01 508.28 270.41 cl
/bg { 1 0.8980 0.8000 srgb } def
1 0.8980 0.8000 srgb
0.75 setlinewidth
[] 0 setdash
1 setlinecap
1 setlinejoin
10.00 setmiterlimit
417.54 256.01 90.74 14.40 r p3
/Font1 findfont 12 s
0 0 0 srgb
452.90 258.90 (100) 0 0 t
0.00 0.00 554.25 327.00 cl
0.00 0.00 554.25 327.00 cl
0 0 0 srgb
0.75 setlinewidth
[] 0 setdash
1 setlinecap
1 setlinejoin
10.00 setmiterlimit
417.54 256.01 90.74 14.40 r p1
0.00 0.00 554.25 327.00 cl
417.54 270.41 508.28 284.81 cl
/bg { 0.8000 1 0.8000 srgb } def
0.8000 1 0.8000 srgb
0.75 setlinewidth
[] 0 setdash
1 setlinecap
1 setlinejoin
10.00 setmiterlimit
417.54 270.41 90.74 14.40 r p3
/Font1 findfont 12 s
0 0 0 srgb
433.57 273.30 (ES Cycling) 0 0 t
0.00 0.00 554.25 327.00 cl
0.00 0.00 554.25 327.00 cl
0 0 0 srgb
0.75 setlinewidth
[] 0 setdash
1 setlinecap
1 setlinejoin
10.00 setmiterlimit
417.54 270.41 90.74 14.40 r p1
0.00 0.00 554.25 327.00 cl
0.00 0.00 554.25 327.00 cl
0.00 0.00 554.25 327.00 cl
0.00 0.00 554.25 327.00 cl
ep
%%Trailer
%%Pages: 1
%%EOF
