%!PS-Adobe-3.0 EPSF-3.0
%%DocumentNeededResources: font Helvetica
%%+ font Helvetica-Bold
%%+ font Helvetica-Oblique
%%+ font Helvetica-BoldOblique
%%+ font Symbol
%%Title: R Graphics Output
%%Creator: R Software
%%Pages: (atend)
%%BoundingBox: 0 0 646 196
%%EndComments
%%BeginProlog
/bp  { gs sRGB gs } def
% begin .ps.prolog
/gs  { gsave } bind def
/gr  { grestore } bind def
/ep  { showpage gr gr } bind def
/m   { moveto } bind def
/l  { rlineto } bind def
/np  { newpath } bind def
/cp  { closepath } bind def
/f   { fill } bind def
/o   { stroke } bind def
/c   { newpath 0 360 arc } bind def
/r   { 4 2 roll moveto 1 copy 3 -1 roll exch 0 exch rlineto 0 rlineto -1 mul 0 exch rlineto closepath } bind def
/p1  { stroke } bind def
/p2  { gsave bg fill grestore newpath } bind def
/p3  { gsave bg fill grestore stroke } bind def
/p6  { gsave bg eofill grestore newpath } bind def
/p7  { gsave bg eofill grestore stroke } bind def
/t   { 5 -2 roll moveto gsave rotate
       1 index stringwidth pop
       mul neg 0 rmoveto show grestore } bind def
/ta  { 4 -2 roll moveto gsave rotate show } bind def
/tb  { 2 -1 roll 0 rmoveto show } bind def
/cl  { grestore gsave newpath 3 index 3 index moveto 1 index
       4 -1 roll lineto  exch 1 index lineto lineto
       closepath clip newpath } bind def
/rgb { setrgbcolor } bind def
/s   { scalefont setfont } bind def
% end   .ps.prolog
/sRGB { [ /CIEBasedABC
          << /DecodeLMN
               [ { dup 0.03928 le
                        {12.92321 div}
                        {0.055 add 1.055 div 2.4 exp }
                     ifelse
                 } bind dup dup
               ]
             /MatrixLMN [0.412457 0.212673 0.019334
                         0.357576 0.715152 0.119192
                         0.180437 0.072175 0.950301]
             /WhitePoint [0.9505 1.0 1.0890]
           >>
         ] setcolorspace } bind def
/srgb { setcolor } bind def
%%IncludeResource: font Helvetica
/Helvetica findfont
dup length dict begin
  {1 index /FID ne {def} {pop pop} ifelse} forall
  /Encoding ISOLatin1Encoding def
  currentdict
  end
/Font1 exch definefont pop
%%IncludeResource: font Helvetica-Bold
/Helvetica-Bold findfont
dup length dict begin
  {1 index /FID ne {def} {pop pop} ifelse} forall
  /Encoding ISOLatin1Encoding def
  currentdict
  end
/Font2 exch definefont pop
%%IncludeResource: font Helvetica-Oblique
/Helvetica-Oblique findfont
dup length dict begin
  {1 index /FID ne {def} {pop pop} ifelse} forall
  /Encoding ISOLatin1Encoding def
  currentdict
  end
/Font3 exch definefont pop
%%IncludeResource: font Helvetica-BoldOblique
/Helvetica-BoldOblique findfont
dup length dict begin
  {1 index /FID ne {def} {pop pop} ifelse} forall
  /Encoding ISOLatin1Encoding def
  currentdict
  end
/Font4 exch definefont pop
%%IncludeResource: font Symbol
/Symbol findfont
dup length dict begin
  {1 index /FID ne {def} {pop pop} ifelse} forall
  currentdict
  end
/Font5 exch definefont pop
%%EndProlog
%%Page: 1 1
bp
0.00 0.00 645.75 195.75 cl
/Font1 findfont 12 s
0 0 0 srgb
335.52 12.00 (UID) .5 0 t
0.00 0.00 645.75 195.75 cl
/Font1 findfont 12 s
0 0 0 srgb
14.62 94.98 (Hpost) .5 90 t
0.00 0.00 645.75 195.75 cl
0.00 0.00 645.75 195.75 cl
0.00 0.00 645.75 195.75 cl
54.30 50.80 166.79 139.16 cl
0.00 0.00 645.75 195.75 cl
0.00 0.00 645.75 195.75 cl
0 0 0 srgb
0.75 setlinewidth
[] 0 setdash
1 setlinecap
1 setlinejoin
10.00 setmiterlimit
np
59.42 153.56 m
0 5.67 l
o
np
67.94 153.56 m
0 5.67 l
o
np
76.46 153.56 m
0 5.67 l
o
np
84.98 153.56 m
0 5.67 l
o
np
93.50 153.56 m
0 5.67 l
o
np
102.03 153.56 m
0 5.67 l
o
np
110.55 153.56 m
0 5.67 l
o
np
119.07 153.56 m
0 5.67 l
o
np
127.59 153.56 m
0 5.67 l
o
np
136.11 153.56 m
0 5.67 l
o
np
144.63 153.56 m
0 5.67 l
o
np
153.16 153.56 m
0 5.67 l
o
np
161.68 153.56 m
0 5.67 l
o
0.00 0.00 645.75 195.75 cl
0.00 0.00 645.75 195.75 cl
0 0 0 srgb
0.75 setlinewidth
[] 0 setdash
1 setlinecap
1 setlinejoin
10.00 setmiterlimit
np
54.30 54.20 m
-5.67 0 l
o
np
54.30 71.19 m
-5.67 0 l
o
np
54.30 88.19 m
-5.67 0 l
o
np
54.30 105.18 m
-5.67 0 l
o
np
54.30 122.17 m
-5.67 0 l
o
np
54.30 139.16 m
-5.67 0 l
o
/Font1 findfont 10 s
42.97 50.61 (50) 1 0 t
42.97 67.60 (100) 1 0 t
42.97 84.60 (150) 1 0 t
42.97 101.59 (200) 1 0 t
42.97 118.58 (250) 1 0 t
0.00 0.00 645.75 195.75 cl
0.00 0.00 645.75 195.75 cl
0 0 0 srgb
0.75 setlinewidth
[] 0 setdash
1 setlinecap
1 setlinejoin
10.00 setmiterlimit
np
59.42 50.80 m
0 -5.67 l
o
np
67.94 50.80 m
0 -5.67 l
o
np
76.46 50.80 m
0 -5.67 l
o
np
84.98 50.80 m
0 -5.67 l
o
np
93.50 50.80 m
0 -5.67 l
o
np
102.03 50.80 m
0 -5.67 l
o
np
110.55 50.80 m
0 -5.67 l
o
np
119.07 50.80 m
0 -5.67 l
o
np
127.59 50.80 m
0 -5.67 l
o
np
136.11 50.80 m
0 -5.67 l
o
np
144.63 50.80 m
0 -5.67 l
o
np
153.16 50.80 m
0 -5.67 l
o
np
161.68 50.80 m
0 -5.67 l
o
/Font1 findfont 10 s
59.42 32.29 (S01) .5 0 t
67.94 32.29 (S03) .5 0 t
76.46 32.29 (S04) .5 0 t
84.98 32.29 (S05) .5 0 t
93.50 32.29 (S06) .5 0 t
102.03 32.29 (S07) .5 0 t
110.55 32.29 (S08) .5 0 t
119.07 32.29 (S09) .5 0 t
127.59 32.29 (S10) .5 0 t
136.11 32.29 (S11) .5 0 t
144.63 32.29 (S12) .5 0 t
153.16 32.29 (S13) .5 0 t
161.68 32.29 (S14) .5 0 t
0.00 0.00 645.75 195.75 cl
54.30 50.80 166.79 139.16 cl
0 0.5020 1 srgb
0.75 setlinewidth
[] 0 setdash
1 setlinecap
1 setlinejoin
10.00 setmiterlimit
59.42 71.19 2.40 c p1
67.94 71.19 2.40 c p1
76.46 71.19 2.40 c p1
84.98 71.19 2.40 c p1
93.50 71.19 2.40 c p1
102.03 71.19 2.40 c p1
110.55 71.19 2.40 c p1
119.07 71.19 2.40 c p1
127.59 71.19 2.40 c p1
136.11 71.19 2.40 c p1
144.63 71.19 2.40 c p1
153.16 71.19 2.40 c p1
161.68 71.19 2.40 c p1
0.00 0.00 645.75 195.75 cl
0.00 0.00 645.75 195.75 cl
0 0 0 srgb
0.75 setlinewidth
[] 0 setdash
1 setlinecap
1 setlinejoin
10.00 setmiterlimit
54.30 50.80 112.49 88.36 r p1
0.00 0.00 645.75 195.75 cl
0.00 0.00 645.75 195.75 cl
54.30 139.16 166.79 153.56 cl
/bg { 1 0.8980 0.8000 srgb } def
1 0.8980 0.8000 srgb
0.75 setlinewidth
[] 0 setdash
1 setlinecap
1 setlinejoin
10.00 setmiterlimit
54.30 139.16 112.49 14.40 r p3
/Font1 findfont 12 s
0 0 0 srgb
107.21 142.05 (0) 0 0 t
0.00 0.00 645.75 195.75 cl
0.00 0.00 645.75 195.75 cl
0 0 0 srgb
0.75 setlinewidth
[] 0 setdash
1 setlinecap
1 setlinejoin
10.00 setmiterlimit
54.30 139.16 112.49 14.40 r p1
0.00 0.00 645.75 195.75 cl
0.00 0.00 645.75 195.75 cl
166.79 50.80 279.28 139.16 cl
0.00 0.00 645.75 195.75 cl
0.00 0.00 645.75 195.75 cl
0 0 0 srgb
0.75 setlinewidth
[] 0 setdash
1 setlinecap
1 setlinejoin
10.00 setmiterlimit
np
171.90 153.56 m
0 5.67 l
o
np
180.43 153.56 m
0 5.67 l
o
np
188.95 153.56 m
0 5.67 l
o
np
197.47 153.56 m
0 5.67 l
o
np
205.99 153.56 m
0 5.67 l
o
np
214.51 153.56 m
0 5.67 l
o
np
223.04 153.56 m
0 5.67 l
o
np
231.56 153.56 m
0 5.67 l
o
np
240.08 153.56 m
0 5.67 l
o
np
248.60 153.56 m
0 5.67 l
o
np
257.12 153.56 m
0 5.67 l
o
np
265.64 153.56 m
0 5.67 l
o
np
274.17 153.56 m
0 5.67 l
o
/Font1 findfont 10 s
171.90 164.90 (S01) .5 0 t
180.43 164.90 (S03) .5 0 t
188.95 164.90 (S04) .5 0 t
197.47 164.90 (S05) .5 0 t
205.99 164.90 (S06) .5 0 t
214.51 164.90 (S07) .5 0 t
223.04 164.90 (S08) .5 0 t
231.56 164.90 (S09) .5 0 t
240.08 164.90 (S10) .5 0 t
248.60 164.90 (S11) .5 0 t
257.12 164.90 (S12) .5 0 t
265.64 164.90 (S13) .5 0 t
274.17 164.90 (S14) .5 0 t
0.00 0.00 645.75 195.75 cl
0.00 0.00 645.75 195.75 cl
0.00 0.00 645.75 195.75 cl
0.00 0.00 645.75 195.75 cl
0 0 0 srgb
0.75 setlinewidth
[] 0 setdash
1 setlinecap
1 setlinejoin
10.00 setmiterlimit
np
171.90 50.80 m
0 -5.67 l
o
np
180.43 50.80 m
0 -5.67 l
o
np
188.95 50.80 m
0 -5.67 l
o
np
197.47 50.80 m
0 -5.67 l
o
np
205.99 50.80 m
0 -5.67 l
o
np
214.51 50.80 m
0 -5.67 l
o
np
223.04 50.80 m
0 -5.67 l
o
np
231.56 50.80 m
0 -5.67 l
o
np
240.08 50.80 m
0 -5.67 l
o
np
248.60 50.80 m
0 -5.67 l
o
np
257.12 50.80 m
0 -5.67 l
o
np
265.64 50.80 m
0 -5.67 l
o
np
274.17 50.80 m
0 -5.67 l
o
0.00 0.00 645.75 195.75 cl
166.79 50.80 279.28 139.16 cl
0 0.5020 1 srgb
0.75 setlinewidth
[] 0 setdash
1 setlinecap
1 setlinejoin
10.00 setmiterlimit
171.90 54.53 2.40 c p1
180.43 69.00 2.40 c p1
188.95 73.85 2.40 c p1
197.47 73.16 2.40 c p1
205.99 72.28 2.40 c p1
214.51 73.84 2.40 c p1
223.04 70.54 2.40 c p1
231.56 72.24 2.40 c p1
240.08 53.52 2.40 c p1
248.60 57.23 2.40 c p1
257.12 77.63 2.40 c p1
265.64 68.89 2.40 c p1
274.17 67.53 2.40 c p1
0.00 0.00 645.75 195.75 cl
0.00 0.00 645.75 195.75 cl
0 0 0 srgb
0.75 setlinewidth
[] 0 setdash
1 setlinecap
1 setlinejoin
10.00 setmiterlimit
166.79 50.80 112.49 88.36 r p1
0.00 0.00 645.75 195.75 cl
0.00 0.00 645.75 195.75 cl
166.79 139.16 279.28 153.56 cl
/bg { 1 0.8980 0.8000 srgb } def
1 0.8980 0.8000 srgb
0.75 setlinewidth
[] 0 setdash
1 setlinecap
1 setlinejoin
10.00 setmiterlimit
166.79 139.16 112.49 14.40 r p3
/Font1 findfont 12 s
0 0 0 srgb
216.36 142.05 (25) 0 0 t
0.00 0.00 645.75 195.75 cl
0.00 0.00 645.75 195.75 cl
0 0 0 srgb
0.75 setlinewidth
[] 0 setdash
1 setlinecap
1 setlinejoin
10.00 setmiterlimit
166.79 139.16 112.49 14.40 r p1
0.00 0.00 645.75 195.75 cl
0.00 0.00 645.75 195.75 cl
279.28 50.80 391.77 139.16 cl
0.00 0.00 645.75 195.75 cl
0.00 0.00 645.75 195.75 cl
0 0 0 srgb
0.75 setlinewidth
[] 0 setdash
1 setlinecap
1 setlinejoin
10.00 setmiterlimit
np
284.39 153.56 m
0 5.67 l
o
np
292.91 153.56 m
0 5.67 l
o
np
301.44 153.56 m
0 5.67 l
o
np
309.96 153.56 m
0 5.67 l
o
np
318.48 153.56 m
0 5.67 l
o
np
327.00 153.56 m
0 5.67 l
o
np
335.52 153.56 m
0 5.67 l
o
np
344.04 153.56 m
0 5.67 l
o
np
352.57 153.56 m
0 5.67 l
o
np
361.09 153.56 m
0 5.67 l
o
np
369.61 153.56 m
0 5.67 l
o
np
378.13 153.56 m
0 5.67 l
o
np
386.65 153.56 m
0 5.67 l
o
0.00 0.00 645.75 195.75 cl
0.00 0.00 645.75 195.75 cl
0.00 0.00 645.75 195.75 cl
0.00 0.00 645.75 195.75 cl
0 0 0 srgb
0.75 setlinewidth
[] 0 setdash
1 setlinecap
1 setlinejoin
10.00 setmiterlimit
np
284.39 50.80 m
0 -5.67 l
o
np
292.91 50.80 m
0 -5.67 l
o
np
301.44 50.80 m
0 -5.67 l
o
np
309.96 50.80 m
0 -5.67 l
o
np
318.48 50.80 m
0 -5.67 l
o
np
327.00 50.80 m
0 -5.67 l
o
np
335.52 50.80 m
0 -5.67 l
o
np
344.04 50.80 m
0 -5.67 l
o
np
352.57 50.80 m
0 -5.67 l
o
np
361.09 50.80 m
0 -5.67 l
o
np
369.61 50.80 m
0 -5.67 l
o
np
378.13 50.80 m
0 -5.67 l
o
np
386.65 50.80 m
0 -5.67 l
o
/Font1 findfont 10 s
284.39 32.29 (S01) .5 0 t
292.91 32.29 (S03) .5 0 t
301.44 32.29 (S04) .5 0 t
309.96 32.29 (S05) .5 0 t
318.48 32.29 (S06) .5 0 t
327.00 32.29 (S07) .5 0 t
335.52 32.29 (S08) .5 0 t
344.04 32.29 (S09) .5 0 t
352.57 32.29 (S10) .5 0 t
361.09 32.29 (S11) .5 0 t
369.61 32.29 (S12) .5 0 t
378.13 32.29 (S13) .5 0 t
386.65 32.29 (S14) .5 0 t
0.00 0.00 645.75 195.75 cl
279.28 50.80 391.77 139.16 cl
0 0.5020 1 srgb
0.75 setlinewidth
[] 0 setdash
1 setlinecap
1 setlinejoin
10.00 setmiterlimit
284.39 68.42 2.40 c p1
292.91 73.40 2.40 c p1
301.44 69.65 2.40 c p1
309.96 74.47 2.40 c p1
318.48 73.74 2.40 c p1
327.00 71.99 2.40 c p1
335.52 74.70 2.40 c p1
344.04 66.50 2.40 c p1
352.57 60.76 2.40 c p1
361.09 70.80 2.40 c p1
369.61 70.66 2.40 c p1
378.13 73.83 2.40 c p1
386.65 64.10 2.40 c p1
0.00 0.00 645.75 195.75 cl
0.00 0.00 645.75 195.75 cl
0 0 0 srgb
0.75 setlinewidth
[] 0 setdash
1 setlinecap
1 setlinejoin
10.00 setmiterlimit
279.28 50.80 112.49 88.36 r p1
0.00 0.00 645.75 195.75 cl
0.00 0.00 645.75 195.75 cl
279.28 139.16 391.77 153.56 cl
/bg { 1 0.8980 0.8000 srgb } def
1 0.8980 0.8000 srgb
0.75 setlinewidth
[] 0 setdash
1 setlinecap
1 setlinejoin
10.00 setmiterlimit
279.28 139.16 112.49 14.40 r p3
/Font1 findfont 12 s
0 0 0 srgb
328.85 142.05 (50) 0 0 t
0.00 0.00 645.75 195.75 cl
0.00 0.00 645.75 195.75 cl
0 0 0 srgb
0.75 setlinewidth
[] 0 setdash
1 setlinecap
1 setlinejoin
10.00 setmiterlimit
279.28 139.16 112.49 14.40 r p1
0.00 0.00 645.75 195.75 cl
0.00 0.00 645.75 195.75 cl
391.77 50.80 504.25 139.16 cl
0.00 0.00 645.75 195.75 cl
0.00 0.00 645.75 195.75 cl
0 0 0 srgb
0.75 setlinewidth
[] 0 setdash
1 setlinecap
1 setlinejoin
10.00 setmiterlimit
np
396.88 153.56 m
0 5.67 l
o
np
405.40 153.56 m
0 5.67 l
o
np
413.92 153.56 m
0 5.67 l
o
np
422.45 153.56 m
0 5.67 l
o
np
430.97 153.56 m
0 5.67 l
o
np
439.49 153.56 m
0 5.67 l
o
np
448.01 153.56 m
0 5.67 l
o
np
456.53 153.56 m
0 5.67 l
o
np
465.05 153.56 m
0 5.67 l
o
np
473.58 153.56 m
0 5.67 l
o
np
482.10 153.56 m
0 5.67 l
o
np
490.62 153.56 m
0 5.67 l
o
np
499.14 153.56 m
0 5.67 l
o
/Font1 findfont 10 s
396.88 164.90 (S01) .5 0 t
405.40 164.90 (S03) .5 0 t
413.92 164.90 (S04) .5 0 t
422.45 164.90 (S05) .5 0 t
430.97 164.90 (S06) .5 0 t
439.49 164.90 (S07) .5 0 t
448.01 164.90 (S08) .5 0 t
456.53 164.90 (S09) .5 0 t
465.05 164.90 (S10) .5 0 t
473.58 164.90 (S11) .5 0 t
482.10 164.90 (S12) .5 0 t
490.62 164.90 (S13) .5 0 t
499.14 164.90 (S14) .5 0 t
0.00 0.00 645.75 195.75 cl
0.00 0.00 645.75 195.75 cl
0.00 0.00 645.75 195.75 cl
0.00 0.00 645.75 195.75 cl
0 0 0 srgb
0.75 setlinewidth
[] 0 setdash
1 setlinecap
1 setlinejoin
10.00 setmiterlimit
np
396.88 50.80 m
0 -5.67 l
o
np
405.40 50.80 m
0 -5.67 l
o
np
413.92 50.80 m
0 -5.67 l
o
np
422.45 50.80 m
0 -5.67 l
o
np
430.97 50.80 m
0 -5.67 l
o
np
439.49 50.80 m
0 -5.67 l
o
np
448.01 50.80 m
0 -5.67 l
o
np
456.53 50.80 m
0 -5.67 l
o
np
465.05 50.80 m
0 -5.67 l
o
np
473.58 50.80 m
0 -5.67 l
o
np
482.10 50.80 m
0 -5.67 l
o
np
490.62 50.80 m
0 -5.67 l
o
np
499.14 50.80 m
0 -5.67 l
o
0.00 0.00 645.75 195.75 cl
391.77 50.80 504.25 139.16 cl
0 0.5020 1 srgb
0.75 setlinewidth
[] 0 setdash
1 setlinecap
1 setlinejoin
10.00 setmiterlimit
396.88 86.19 2.40 c p1
405.40 72.73 2.40 c p1
413.92 71.63 2.40 c p1
422.45 80.94 2.40 c p1
430.97 76.69 2.40 c p1
439.49 72.32 2.40 c p1
448.01 77.27 2.40 c p1
456.53 72.67 2.40 c p1
465.05 84.12 2.40 c p1
473.58 71.17 2.40 c p1
482.10 76.82 2.40 c p1
490.62 77.22 2.40 c p1
499.14 76.91 2.40 c p1
0.00 0.00 645.75 195.75 cl
0.00 0.00 645.75 195.75 cl
0 0 0 srgb
0.75 setlinewidth
[] 0 setdash
1 setlinecap
1 setlinejoin
10.00 setmiterlimit
391.77 50.80 112.49 88.36 r p1
0.00 0.00 645.75 195.75 cl
0.00 0.00 645.75 195.75 cl
391.77 139.16 504.25 153.56 cl
/bg { 1 0.8980 0.8000 srgb } def
1 0.8980 0.8000 srgb
0.75 setlinewidth
[] 0 setdash
1 setlinecap
1 setlinejoin
10.00 setmiterlimit
391.77 139.16 112.49 14.40 r p3
/Font1 findfont 12 s
0 0 0 srgb
441.34 142.05 (75) 0 0 t
0.00 0.00 645.75 195.75 cl
0.00 0.00 645.75 195.75 cl
0 0 0 srgb
0.75 setlinewidth
[] 0 setdash
1 setlinecap
1 setlinejoin
10.00 setmiterlimit
391.77 139.16 112.49 14.40 r p1
0.00 0.00 645.75 195.75 cl
0.00 0.00 645.75 195.75 cl
504.25 50.80 616.74 139.16 cl
0.00 0.00 645.75 195.75 cl
0.00 0.00 645.75 195.75 cl
0 0 0 srgb
0.75 setlinewidth
[] 0 setdash
1 setlinecap
1 setlinejoin
10.00 setmiterlimit
np
509.37 153.56 m
0 5.67 l
o
np
517.89 153.56 m
0 5.67 l
o
np
526.41 153.56 m
0 5.67 l
o
np
534.93 153.56 m
0 5.67 l
o
np
543.45 153.56 m
0 5.67 l
o
np
551.98 153.56 m
0 5.67 l
o
np
560.50 153.56 m
0 5.67 l
o
np
569.02 153.56 m
0 5.67 l
o
np
577.54 153.56 m
0 5.67 l
o
np
586.06 153.56 m
0 5.67 l
o
np
594.59 153.56 m
0 5.67 l
o
np
603.11 153.56 m
0 5.67 l
o
np
611.63 153.56 m
0 5.67 l
o
0.00 0.00 645.75 195.75 cl
0.00 0.00 645.75 195.75 cl
0.00 0.00 645.75 195.75 cl
0.00 0.00 645.75 195.75 cl
0 0 0 srgb
0.75 setlinewidth
[] 0 setdash
1 setlinecap
1 setlinejoin
10.00 setmiterlimit
np
509.37 50.80 m
0 -5.67 l
o
np
517.89 50.80 m
0 -5.67 l
o
np
526.41 50.80 m
0 -5.67 l
o
np
534.93 50.80 m
0 -5.67 l
o
np
543.45 50.80 m
0 -5.67 l
o
np
551.98 50.80 m
0 -5.67 l
o
np
560.50 50.80 m
0 -5.67 l
o
np
569.02 50.80 m
0 -5.67 l
o
np
577.54 50.80 m
0 -5.67 l
o
np
586.06 50.80 m
0 -5.67 l
o
np
594.59 50.80 m
0 -5.67 l
o
np
603.11 50.80 m
0 -5.67 l
o
np
611.63 50.80 m
0 -5.67 l
o
/Font1 findfont 10 s
509.37 32.29 (S01) .5 0 t
517.89 32.29 (S03) .5 0 t
526.41 32.29 (S04) .5 0 t
534.93 32.29 (S05) .5 0 t
543.45 32.29 (S06) .5 0 t
551.98 32.29 (S07) .5 0 t
560.50 32.29 (S08) .5 0 t
569.02 32.29 (S09) .5 0 t
577.54 32.29 (S10) .5 0 t
586.06 32.29 (S11) .5 0 t
594.59 32.29 (S12) .5 0 t
603.11 32.29 (S13) .5 0 t
611.63 32.29 (S14) .5 0 t
np
616.74 54.20 m
5.67 0 l
o
np
616.74 71.19 m
5.67 0 l
o
np
616.74 88.19 m
5.67 0 l
o
np
616.74 105.18 m
5.67 0 l
o
np
616.74 122.17 m
5.67 0 l
o
np
616.74 139.16 m
5.67 0 l
o
0.00 0.00 645.75 195.75 cl
504.25 50.80 616.74 139.16 cl
0 0.5020 1 srgb
0.75 setlinewidth
[] 0 setdash
1 setlinecap
1 setlinejoin
10.00 setmiterlimit
509.37 83.30 2.40 c p1
517.89 78.25 2.40 c p1
526.41 68.08 2.40 c p1
534.93 83.18 2.40 c p1
543.45 72.68 2.40 c p1
551.98 79.50 2.40 c p1
560.50 68.39 2.40 c p1
569.02 78.18 2.40 c p1
577.54 83.90 2.40 c p1
586.06 74.36 2.40 c p1
594.59 88.18 2.40 c p1
603.11 78.33 2.40 c p1
611.63 74.09 2.40 c p1
0.00 0.00 645.75 195.75 cl
0.00 0.00 645.75 195.75 cl
0 0 0 srgb
0.75 setlinewidth
[] 0 setdash
1 setlinecap
1 setlinejoin
10.00 setmiterlimit
504.25 50.80 112.49 88.36 r p1
0.00 0.00 645.75 195.75 cl
0.00 0.00 645.75 195.75 cl
504.25 139.16 616.74 153.56 cl
/bg { 1 0.8980 0.8000 srgb } def
1 0.8980 0.8000 srgb
0.75 setlinewidth
[] 0 setdash
1 setlinecap
1 setlinejoin
10.00 setmiterlimit
504.25 139.16 112.49 14.40 r p3
/Font1 findfont 12 s
0 0 0 srgb
550.49 142.05 (100) 0 0 t
0.00 0.00 645.75 195.75 cl
0.00 0.00 645.75 195.75 cl
0 0 0 srgb
0.75 setlinewidth
[] 0 setdash
1 setlinecap
1 setlinejoin
10.00 setmiterlimit
504.25 139.16 112.49 14.40 r p1
0.00 0.00 645.75 195.75 cl
0.00 0.00 645.75 195.75 cl
0.00 0.00 645.75 195.75 cl
0.00 0.00 645.75 195.75 cl
ep
%%Trailer
%%Pages: 1
%%EOF
