%!PS-Adobe-3.0 EPSF-3.0
%%DocumentNeededResources: font Helvetica
%%+ font Helvetica-Bold
%%+ font Helvetica-Oblique
%%+ font Helvetica-BoldOblique
%%+ font Symbol
%%Title: R Graphics Output
%%Creator: R Software
%%Pages: (atend)
%%BoundingBox: 0 0 646 196
%%EndComments
%%BeginProlog
/bp  { gs sRGB gs } def
% begin .ps.prolog
/gs  { gsave } bind def
/gr  { grestore } bind def
/ep  { showpage gr gr } bind def
/m   { moveto } bind def
/l  { rlineto } bind def
/np  { newpath } bind def
/cp  { closepath } bind def
/f   { fill } bind def
/o   { stroke } bind def
/c   { newpath 0 360 arc } bind def
/r   { 4 2 roll moveto 1 copy 3 -1 roll exch 0 exch rlineto 0 rlineto -1 mul 0 exch rlineto closepath } bind def
/p1  { stroke } bind def
/p2  { gsave bg fill grestore newpath } bind def
/p3  { gsave bg fill grestore stroke } bind def
/p6  { gsave bg eofill grestore newpath } bind def
/p7  { gsave bg eofill grestore stroke } bind def
/t   { 5 -2 roll moveto gsave rotate
       1 index stringwidth pop
       mul neg 0 rmoveto show grestore } bind def
/ta  { 4 -2 roll moveto gsave rotate show } bind def
/tb  { 2 -1 roll 0 rmoveto show } bind def
/cl  { grestore gsave newpath 3 index 3 index moveto 1 index
       4 -1 roll lineto  exch 1 index lineto lineto
       closepath clip newpath } bind def
/rgb { setrgbcolor } bind def
/s   { scalefont setfont } bind def
% end   .ps.prolog
/sRGB { [ /CIEBasedABC
          << /DecodeLMN
               [ { dup 0.03928 le
                        {12.92321 div}
                        {0.055 add 1.055 div 2.4 exp }
                     ifelse
                 } bind dup dup
               ]
             /MatrixLMN [0.412457 0.212673 0.019334
                         0.357576 0.715152 0.119192
                         0.180437 0.072175 0.950301]
             /WhitePoint [0.9505 1.0 1.0890]
           >>
         ] setcolorspace } bind def
/srgb { setcolor } bind def
%%IncludeResource: font Helvetica
/Helvetica findfont
dup length dict begin
  {1 index /FID ne {def} {pop pop} ifelse} forall
  /Encoding ISOLatin1Encoding def
  currentdict
  end
/Font1 exch definefont pop
%%IncludeResource: font Helvetica-Bold
/Helvetica-Bold findfont
dup length dict begin
  {1 index /FID ne {def} {pop pop} ifelse} forall
  /Encoding ISOLatin1Encoding def
  currentdict
  end
/Font2 exch definefont pop
%%IncludeResource: font Helvetica-Oblique
/Helvetica-Oblique findfont
dup length dict begin
  {1 index /FID ne {def} {pop pop} ifelse} forall
  /Encoding ISOLatin1Encoding def
  currentdict
  end
/Font3 exch definefont pop
%%IncludeResource: font Helvetica-BoldOblique
/Helvetica-BoldOblique findfont
dup length dict begin
  {1 index /FID ne {def} {pop pop} ifelse} forall
  /Encoding ISOLatin1Encoding def
  currentdict
  end
/Font4 exch definefont pop
%%IncludeResource: font Symbol
/Symbol findfont
dup length dict begin
  {1 index /FID ne {def} {pop pop} ifelse} forall
  currentdict
  end
/Font5 exch definefont pop
%%EndProlog
%%Page: 1 1
bp
0.00 0.00 645.75 195.75 cl
/Font1 findfont 12 s
0 0 0 srgb
335.52 12.00 (UID) .5 0 t
0.00 0.00 645.75 195.75 cl
/Font1 findfont 12 s
0 0 0 srgb
14.62 94.98 (Hpost) .5 90 t
0.00 0.00 645.75 195.75 cl
0.00 0.00 645.75 195.75 cl
0.00 0.00 645.75 195.75 cl
54.30 50.80 166.79 139.16 cl
0.00 0.00 645.75 195.75 cl
0.00 0.00 645.75 195.75 cl
0 0 0 srgb
0.75 setlinewidth
[] 0 setdash
1 setlinecap
1 setlinejoin
10.00 setmiterlimit
np
67.28 153.56 m
0 5.67 l
o
np
88.92 153.56 m
0 5.67 l
o
np
110.55 153.56 m
0 5.67 l
o
np
132.18 153.56 m
0 5.67 l
o
np
153.81 153.56 m
0 5.67 l
o
0.00 0.00 645.75 195.75 cl
0.00 0.00 645.75 195.75 cl
0 0 0 srgb
0.75 setlinewidth
[] 0 setdash
1 setlinecap
1 setlinejoin
10.00 setmiterlimit
np
54.30 54.20 m
-5.67 0 l
o
np
54.30 71.19 m
-5.67 0 l
o
np
54.30 88.19 m
-5.67 0 l
o
np
54.30 105.18 m
-5.67 0 l
o
np
54.30 122.17 m
-5.67 0 l
o
np
54.30 139.16 m
-5.67 0 l
o
/Font1 findfont 10 s
42.97 50.61 (50) 1 0 t
42.97 67.60 (100) 1 0 t
42.97 84.60 (150) 1 0 t
42.97 101.59 (200) 1 0 t
42.97 118.58 (250) 1 0 t
0.00 0.00 645.75 195.75 cl
0.00 0.00 645.75 195.75 cl
0 0 0 srgb
0.75 setlinewidth
[] 0 setdash
1 setlinecap
1 setlinejoin
10.00 setmiterlimit
np
67.28 50.80 m
0 -5.67 l
o
np
88.92 50.80 m
0 -5.67 l
o
np
110.55 50.80 m
0 -5.67 l
o
np
132.18 50.80 m
0 -5.67 l
o
np
153.81 50.80 m
0 -5.67 l
o
/Font1 findfont 10 s
67.28 32.29 (C01) .5 0 t
88.92 32.29 (C02) .5 0 t
110.55 32.29 (C03) .5 0 t
132.18 32.29 (C04) .5 0 t
153.81 32.29 (C05) .5 0 t
0.00 0.00 645.75 195.75 cl
54.30 50.80 166.79 139.16 cl
0 0.5020 1 srgb
0.75 setlinewidth
[] 0 setdash
1 setlinecap
1 setlinejoin
10.00 setmiterlimit
67.28 71.19 2.40 c p1
88.92 71.19 2.40 c p1
110.55 71.19 2.40 c p1
132.18 71.19 2.40 c p1
153.81 71.19 2.40 c p1
0.00 0.00 645.75 195.75 cl
0.00 0.00 645.75 195.75 cl
0 0 0 srgb
0.75 setlinewidth
[] 0 setdash
1 setlinecap
1 setlinejoin
10.00 setmiterlimit
54.30 50.80 112.49 88.36 r p1
0.00 0.00 645.75 195.75 cl
0.00 0.00 645.75 195.75 cl
54.30 139.16 166.79 153.56 cl
/bg { 1 0.8980 0.8000 srgb } def
1 0.8980 0.8000 srgb
0.75 setlinewidth
[] 0 setdash
1 setlinecap
1 setlinejoin
10.00 setmiterlimit
54.30 139.16 112.49 14.40 r p3
/Font1 findfont 12 s
0 0 0 srgb
107.21 142.05 (0) 0 0 t
0.00 0.00 645.75 195.75 cl
0.00 0.00 645.75 195.75 cl
0 0 0 srgb
0.75 setlinewidth
[] 0 setdash
1 setlinecap
1 setlinejoin
10.00 setmiterlimit
54.30 139.16 112.49 14.40 r p1
0.00 0.00 645.75 195.75 cl
0.00 0.00 645.75 195.75 cl
166.79 50.80 279.28 139.16 cl
0.00 0.00 645.75 195.75 cl
0.00 0.00 645.75 195.75 cl
0 0 0 srgb
0.75 setlinewidth
[] 0 setdash
1 setlinecap
1 setlinejoin
10.00 setmiterlimit
np
179.77 153.56 m
0 5.67 l
o
np
201.40 153.56 m
0 5.67 l
o
np
223.04 153.56 m
0 5.67 l
o
np
244.67 153.56 m
0 5.67 l
o
np
266.30 153.56 m
0 5.67 l
o
/Font1 findfont 10 s
179.77 164.90 (C01) .5 0 t
201.40 164.90 (C02) .5 0 t
223.04 164.90 (C03) .5 0 t
244.67 164.90 (C04) .5 0 t
266.30 164.90 (C05) .5 0 t
0.00 0.00 645.75 195.75 cl
0.00 0.00 645.75 195.75 cl
0.00 0.00 645.75 195.75 cl
0.00 0.00 645.75 195.75 cl
0 0 0 srgb
0.75 setlinewidth
[] 0 setdash
1 setlinecap
1 setlinejoin
10.00 setmiterlimit
np
179.77 50.80 m
0 -5.67 l
o
np
201.40 50.80 m
0 -5.67 l
o
np
223.04 50.80 m
0 -5.67 l
o
np
244.67 50.80 m
0 -5.67 l
o
np
266.30 50.80 m
0 -5.67 l
o
0.00 0.00 645.75 195.75 cl
166.79 50.80 279.28 139.16 cl
0 0.5020 1 srgb
0.75 setlinewidth
[] 0 setdash
1 setlinecap
1 setlinejoin
10.00 setmiterlimit
179.77 60.31 2.40 c p1
201.40 72.63 2.40 c p1
223.04 70.17 2.40 c p1
244.67 74.41 2.40 c p1
266.30 69.41 2.40 c p1
0.00 0.00 645.75 195.75 cl
0.00 0.00 645.75 195.75 cl
0 0 0 srgb
0.75 setlinewidth
[] 0 setdash
1 setlinecap
1 setlinejoin
10.00 setmiterlimit
166.79 50.80 112.49 88.36 r p1
0.00 0.00 645.75 195.75 cl
0.00 0.00 645.75 195.75 cl
166.79 139.16 279.28 153.56 cl
/bg { 1 0.8980 0.8000 srgb } def
1 0.8980 0.8000 srgb
0.75 setlinewidth
[] 0 setdash
1 setlinecap
1 setlinejoin
10.00 setmiterlimit
166.79 139.16 112.49 14.40 r p3
/Font1 findfont 12 s
0 0 0 srgb
216.36 142.05 (25) 0 0 t
0.00 0.00 645.75 195.75 cl
0.00 0.00 645.75 195.75 cl
0 0 0 srgb
0.75 setlinewidth
[] 0 setdash
1 setlinecap
1 setlinejoin
10.00 setmiterlimit
166.79 139.16 112.49 14.40 r p1
0.00 0.00 645.75 195.75 cl
0.00 0.00 645.75 195.75 cl
279.28 50.80 391.77 139.16 cl
0.00 0.00 645.75 195.75 cl
0.00 0.00 645.75 195.75 cl
0 0 0 srgb
0.75 setlinewidth
[] 0 setdash
1 setlinecap
1 setlinejoin
10.00 setmiterlimit
np
292.26 153.56 m
0 5.67 l
o
np
313.89 153.56 m
0 5.67 l
o
np
335.52 153.56 m
0 5.67 l
o
np
357.16 153.56 m
0 5.67 l
o
np
378.79 153.56 m
0 5.67 l
o
0.00 0.00 645.75 195.75 cl
0.00 0.00 645.75 195.75 cl
0.00 0.00 645.75 195.75 cl
0.00 0.00 645.75 195.75 cl
0 0 0 srgb
0.75 setlinewidth
[] 0 setdash
1 setlinecap
1 setlinejoin
10.00 setmiterlimit
np
292.26 50.80 m
0 -5.67 l
o
np
313.89 50.80 m
0 -5.67 l
o
np
335.52 50.80 m
0 -5.67 l
o
np
357.16 50.80 m
0 -5.67 l
o
np
378.79 50.80 m
0 -5.67 l
o
/Font1 findfont 10 s
292.26 32.29 (C01) .5 0 t
313.89 32.29 (C02) .5 0 t
335.52 32.29 (C03) .5 0 t
357.16 32.29 (C04) .5 0 t
378.79 32.29 (C05) .5 0 t
0.00 0.00 645.75 195.75 cl
279.28 50.80 391.77 139.16 cl
0 0.5020 1 srgb
0.75 setlinewidth
[] 0 setdash
1 setlinecap
1 setlinejoin
10.00 setmiterlimit
292.26 71.92 2.40 c p1
313.89 75.05 2.40 c p1
335.52 70.31 2.40 c p1
357.16 74.09 2.40 c p1
378.79 70.08 2.40 c p1
0.00 0.00 645.75 195.75 cl
0.00 0.00 645.75 195.75 cl
0 0 0 srgb
0.75 setlinewidth
[] 0 setdash
1 setlinecap
1 setlinejoin
10.00 setmiterlimit
279.28 50.80 112.49 88.36 r p1
0.00 0.00 645.75 195.75 cl
0.00 0.00 645.75 195.75 cl
279.28 139.16 391.77 153.56 cl
/bg { 1 0.8980 0.8000 srgb } def
1 0.8980 0.8000 srgb
0.75 setlinewidth
[] 0 setdash
1 setlinecap
1 setlinejoin
10.00 setmiterlimit
279.28 139.16 112.49 14.40 r p3
/Font1 findfont 12 s
0 0 0 srgb
328.85 142.05 (50) 0 0 t
0.00 0.00 645.75 195.75 cl
0.00 0.00 645.75 195.75 cl
0 0 0 srgb
0.75 setlinewidth
[] 0 setdash
1 setlinecap
1 setlinejoin
10.00 setmiterlimit
279.28 139.16 112.49 14.40 r p1
0.00 0.00 645.75 195.75 cl
0.00 0.00 645.75 195.75 cl
391.77 50.80 504.25 139.16 cl
0.00 0.00 645.75 195.75 cl
0.00 0.00 645.75 195.75 cl
0 0 0 srgb
0.75 setlinewidth
[] 0 setdash
1 setlinecap
1 setlinejoin
10.00 setmiterlimit
np
404.75 153.56 m
0 5.67 l
o
np
426.38 153.56 m
0 5.67 l
o
np
448.01 153.56 m
0 5.67 l
o
np
469.64 153.56 m
0 5.67 l
o
np
491.28 153.56 m
0 5.67 l
o
/Font1 findfont 10 s
404.75 164.90 (C01) .5 0 t
426.38 164.90 (C02) .5 0 t
448.01 164.90 (C03) .5 0 t
469.64 164.90 (C04) .5 0 t
491.28 164.90 (C05) .5 0 t
0.00 0.00 645.75 195.75 cl
0.00 0.00 645.75 195.75 cl
0.00 0.00 645.75 195.75 cl
0.00 0.00 645.75 195.75 cl
0 0 0 srgb
0.75 setlinewidth
[] 0 setdash
1 setlinecap
1 setlinejoin
10.00 setmiterlimit
np
404.75 50.80 m
0 -5.67 l
o
np
426.38 50.80 m
0 -5.67 l
o
np
448.01 50.80 m
0 -5.67 l
o
np
469.64 50.80 m
0 -5.67 l
o
np
491.28 50.80 m
0 -5.67 l
o
0.00 0.00 645.75 195.75 cl
391.77 50.80 504.25 139.16 cl
0 0.5020 1 srgb
0.75 setlinewidth
[] 0 setdash
1 setlinecap
1 setlinejoin
10.00 setmiterlimit
404.75 70.10 2.40 c p1
426.38 74.19 2.40 c p1
448.01 70.80 2.40 c p1
469.64 71.42 2.40 c p1
491.28 69.59 2.40 c p1
0.00 0.00 645.75 195.75 cl
0.00 0.00 645.75 195.75 cl
0 0 0 srgb
0.75 setlinewidth
[] 0 setdash
1 setlinecap
1 setlinejoin
10.00 setmiterlimit
391.77 50.80 112.49 88.36 r p1
0.00 0.00 645.75 195.75 cl
0.00 0.00 645.75 195.75 cl
391.77 139.16 504.25 153.56 cl
/bg { 1 0.8980 0.8000 srgb } def
1 0.8980 0.8000 srgb
0.75 setlinewidth
[] 0 setdash
1 setlinecap
1 setlinejoin
10.00 setmiterlimit
391.77 139.16 112.49 14.40 r p3
/Font1 findfont 12 s
0 0 0 srgb
441.34 142.05 (75) 0 0 t
0.00 0.00 645.75 195.75 cl
0.00 0.00 645.75 195.75 cl
0 0 0 srgb
0.75 setlinewidth
[] 0 setdash
1 setlinecap
1 setlinejoin
10.00 setmiterlimit
391.77 139.16 112.49 14.40 r p1
0.00 0.00 645.75 195.75 cl
0.00 0.00 645.75 195.75 cl
504.25 50.80 616.74 139.16 cl
0.00 0.00 645.75 195.75 cl
0.00 0.00 645.75 195.75 cl
0 0 0 srgb
0.75 setlinewidth
[] 0 setdash
1 setlinecap
1 setlinejoin
10.00 setmiterlimit
np
517.23 153.56 m
0 5.67 l
o
np
538.87 153.56 m
0 5.67 l
o
np
560.50 153.56 m
0 5.67 l
o
np
582.13 153.56 m
0 5.67 l
o
np
603.76 153.56 m
0 5.67 l
o
0.00 0.00 645.75 195.75 cl
0.00 0.00 645.75 195.75 cl
0.00 0.00 645.75 195.75 cl
0.00 0.00 645.75 195.75 cl
0 0 0 srgb
0.75 setlinewidth
[] 0 setdash
1 setlinecap
1 setlinejoin
10.00 setmiterlimit
np
517.23 50.80 m
0 -5.67 l
o
np
538.87 50.80 m
0 -5.67 l
o
np
560.50 50.80 m
0 -5.67 l
o
np
582.13 50.80 m
0 -5.67 l
o
np
603.76 50.80 m
0 -5.67 l
o
/Font1 findfont 10 s
517.23 32.29 (C01) .5 0 t
538.87 32.29 (C02) .5 0 t
560.50 32.29 (C03) .5 0 t
582.13 32.29 (C04) .5 0 t
603.76 32.29 (C05) .5 0 t
np
616.74 54.20 m
5.67 0 l
o
np
616.74 71.19 m
5.67 0 l
o
np
616.74 88.19 m
5.67 0 l
o
np
616.74 105.18 m
5.67 0 l
o
np
616.74 122.17 m
5.67 0 l
o
np
616.74 139.16 m
5.67 0 l
o
0.00 0.00 645.75 195.75 cl
504.25 50.80 616.74 139.16 cl
0 0.5020 1 srgb
0.75 setlinewidth
[] 0 setdash
1 setlinecap
1 setlinejoin
10.00 setmiterlimit
517.23 72.33 2.40 c p1
538.87 73.52 2.40 c p1
560.50 71.47 2.40 c p1
582.13 71.38 2.40 c p1
603.76 69.25 2.40 c p1
0.00 0.00 645.75 195.75 cl
0.00 0.00 645.75 195.75 cl
0 0 0 srgb
0.75 setlinewidth
[] 0 setdash
1 setlinecap
1 setlinejoin
10.00 setmiterlimit
504.25 50.80 112.49 88.36 r p1
0.00 0.00 645.75 195.75 cl
0.00 0.00 645.75 195.75 cl
504.25 139.16 616.74 153.56 cl
/bg { 1 0.8980 0.8000 srgb } def
1 0.8980 0.8000 srgb
0.75 setlinewidth
[] 0 setdash
1 setlinecap
1 setlinejoin
10.00 setmiterlimit
504.25 139.16 112.49 14.40 r p3
/Font1 findfont 12 s
0 0 0 srgb
550.49 142.05 (100) 0 0 t
0.00 0.00 645.75 195.75 cl
0.00 0.00 645.75 195.75 cl
0 0 0 srgb
0.75 setlinewidth
[] 0 setdash
1 setlinecap
1 setlinejoin
10.00 setmiterlimit
504.25 139.16 112.49 14.40 r p1
0.00 0.00 645.75 195.75 cl
0.00 0.00 645.75 195.75 cl
0.00 0.00 645.75 195.75 cl
0.00 0.00 645.75 195.75 cl
ep
%%Trailer
%%Pages: 1
%%EOF
