%!PS-Adobe-3.0 EPSF-3.0
%%DocumentNeededResources: font Helvetica
%%+ font Helvetica-Bold
%%+ font Helvetica-Oblique
%%+ font Helvetica-BoldOblique
%%+ font Symbol
%%Title: R Graphics Output
%%Creator: R Software
%%Pages: (atend)
%%BoundingBox: 0 0 646 196
%%EndComments
%%BeginProlog
/bp  { gs sRGB gs } def
% begin .ps.prolog
/gs  { gsave } bind def
/gr  { grestore } bind def
/ep  { showpage gr gr } bind def
/m   { moveto } bind def
/l  { rlineto } bind def
/np  { newpath } bind def
/cp  { closepath } bind def
/f   { fill } bind def
/o   { stroke } bind def
/c   { newpath 0 360 arc } bind def
/r   { 4 2 roll moveto 1 copy 3 -1 roll exch 0 exch rlineto 0 rlineto -1 mul 0 exch rlineto closepath } bind def
/p1  { stroke } bind def
/p2  { gsave bg fill grestore newpath } bind def
/p3  { gsave bg fill grestore stroke } bind def
/p6  { gsave bg eofill grestore newpath } bind def
/p7  { gsave bg eofill grestore stroke } bind def
/t   { 5 -2 roll moveto gsave rotate
       1 index stringwidth pop
       mul neg 0 rmoveto show grestore } bind def
/ta  { 4 -2 roll moveto gsave rotate show } bind def
/tb  { 2 -1 roll 0 rmoveto show } bind def
/cl  { grestore gsave newpath 3 index 3 index moveto 1 index
       4 -1 roll lineto  exch 1 index lineto lineto
       closepath clip newpath } bind def
/rgb { setrgbcolor } bind def
/s   { scalefont setfont } bind def
% end   .ps.prolog
/sRGB { [ /CIEBasedABC
          << /DecodeLMN
               [ { dup 0.03928 le
                        {12.92321 div}
                        {0.055 add 1.055 div 2.4 exp }
                     ifelse
                 } bind dup dup
               ]
             /MatrixLMN [0.412457 0.212673 0.019334
                         0.357576 0.715152 0.119192
                         0.180437 0.072175 0.950301]
             /WhitePoint [0.9505 1.0 1.0890]
           >>
         ] setcolorspace } bind def
/srgb { setcolor } bind def
%%IncludeResource: font Helvetica
/Helvetica findfont
dup length dict begin
  {1 index /FID ne {def} {pop pop} ifelse} forall
  /Encoding ISOLatin1Encoding def
  currentdict
  end
/Font1 exch definefont pop
%%IncludeResource: font Helvetica-Bold
/Helvetica-Bold findfont
dup length dict begin
  {1 index /FID ne {def} {pop pop} ifelse} forall
  /Encoding ISOLatin1Encoding def
  currentdict
  end
/Font2 exch definefont pop
%%IncludeResource: font Helvetica-Oblique
/Helvetica-Oblique findfont
dup length dict begin
  {1 index /FID ne {def} {pop pop} ifelse} forall
  /Encoding ISOLatin1Encoding def
  currentdict
  end
/Font3 exch definefont pop
%%IncludeResource: font Helvetica-BoldOblique
/Helvetica-BoldOblique findfont
dup length dict begin
  {1 index /FID ne {def} {pop pop} ifelse} forall
  /Encoding ISOLatin1Encoding def
  currentdict
  end
/Font4 exch definefont pop
%%IncludeResource: font Symbol
/Symbol findfont
dup length dict begin
  {1 index /FID ne {def} {pop pop} ifelse} forall
  currentdict
  end
/Font5 exch definefont pop
%%EndProlog
%%Page: 1 1
bp
0.00 0.00 645.75 195.75 cl
/Font1 findfont 12 s
0 0 0 srgb
335.52 12.00 (UID) .5 0 t
0.00 0.00 645.75 195.75 cl
/Font1 findfont 12 s
0 0 0 srgb
14.62 94.98 (Hpost) .5 90 t
0.00 0.00 645.75 195.75 cl
0.00 0.00 645.75 195.75 cl
0.00 0.00 645.75 195.75 cl
54.30 50.80 166.79 139.16 cl
0.00 0.00 645.75 195.75 cl
0.00 0.00 645.75 195.75 cl
0 0 0 srgb
0.75 setlinewidth
[] 0 setdash
1 setlinecap
1 setlinejoin
10.00 setmiterlimit
np
65.19 153.56 m
0 5.67 l
o
np
83.33 153.56 m
0 5.67 l
o
np
101.48 153.56 m
0 5.67 l
o
np
119.62 153.56 m
0 5.67 l
o
np
137.76 153.56 m
0 5.67 l
o
np
155.91 153.56 m
0 5.67 l
o
0.00 0.00 645.75 195.75 cl
0.00 0.00 645.75 195.75 cl
0 0 0 srgb
0.75 setlinewidth
[] 0 setdash
1 setlinecap
1 setlinejoin
10.00 setmiterlimit
np
54.30 54.20 m
-5.67 0 l
o
np
54.30 71.19 m
-5.67 0 l
o
np
54.30 88.19 m
-5.67 0 l
o
np
54.30 105.18 m
-5.67 0 l
o
np
54.30 122.17 m
-5.67 0 l
o
np
54.30 139.16 m
-5.67 0 l
o
/Font1 findfont 10 s
42.97 50.61 (50) 1 0 t
42.97 67.60 (100) 1 0 t
42.97 84.60 (150) 1 0 t
42.97 101.59 (200) 1 0 t
42.97 118.58 (250) 1 0 t
0.00 0.00 645.75 195.75 cl
0.00 0.00 645.75 195.75 cl
0 0 0 srgb
0.75 setlinewidth
[] 0 setdash
1 setlinecap
1 setlinejoin
10.00 setmiterlimit
np
65.19 50.80 m
0 -5.67 l
o
np
83.33 50.80 m
0 -5.67 l
o
np
101.48 50.80 m
0 -5.67 l
o
np
119.62 50.80 m
0 -5.67 l
o
np
137.76 50.80 m
0 -5.67 l
o
np
155.91 50.80 m
0 -5.67 l
o
/Font1 findfont 10 s
65.19 32.29 (I01) .5 0 t
83.33 32.29 (I03) .5 0 t
101.48 32.29 (I04) .5 0 t
119.62 32.29 (I05) .5 0 t
137.76 32.29 (I06) .5 0 t
155.91 32.29 (I10) .5 0 t
0.00 0.00 645.75 195.75 cl
54.30 50.80 166.79 139.16 cl
0 0.5020 1 srgb
0.75 setlinewidth
[] 0 setdash
1 setlinecap
1 setlinejoin
10.00 setmiterlimit
65.19 71.19 2.40 c p1
83.33 71.19 2.40 c p1
101.48 71.19 2.40 c p1
119.62 71.19 2.40 c p1
137.76 71.19 2.40 c p1
155.91 71.19 2.40 c p1
0.00 0.00 645.75 195.75 cl
0.00 0.00 645.75 195.75 cl
0 0 0 srgb
0.75 setlinewidth
[] 0 setdash
1 setlinecap
1 setlinejoin
10.00 setmiterlimit
54.30 50.80 112.49 88.36 r p1
0.00 0.00 645.75 195.75 cl
0.00 0.00 645.75 195.75 cl
54.30 139.16 166.79 153.56 cl
/bg { 1 0.8980 0.8000 srgb } def
1 0.8980 0.8000 srgb
0.75 setlinewidth
[] 0 setdash
1 setlinecap
1 setlinejoin
10.00 setmiterlimit
54.30 139.16 112.49 14.40 r p3
/Font1 findfont 12 s
0 0 0 srgb
107.21 142.05 (0) 0 0 t
0.00 0.00 645.75 195.75 cl
0.00 0.00 645.75 195.75 cl
0 0 0 srgb
0.75 setlinewidth
[] 0 setdash
1 setlinecap
1 setlinejoin
10.00 setmiterlimit
54.30 139.16 112.49 14.40 r p1
0.00 0.00 645.75 195.75 cl
0.00 0.00 645.75 195.75 cl
166.79 50.80 279.28 139.16 cl
0.00 0.00 645.75 195.75 cl
0.00 0.00 645.75 195.75 cl
0 0 0 srgb
0.75 setlinewidth
[] 0 setdash
1 setlinecap
1 setlinejoin
10.00 setmiterlimit
np
177.68 153.56 m
0 5.67 l
o
np
195.82 153.56 m
0 5.67 l
o
np
213.96 153.56 m
0 5.67 l
o
np
232.11 153.56 m
0 5.67 l
o
np
250.25 153.56 m
0 5.67 l
o
np
268.39 153.56 m
0 5.67 l
o
/Font1 findfont 10 s
177.68 164.90 (I01) .5 0 t
195.82 164.90 (I03) .5 0 t
213.96 164.90 (I04) .5 0 t
232.11 164.90 (I05) .5 0 t
250.25 164.90 (I06) .5 0 t
268.39 164.90 (I10) .5 0 t
0.00 0.00 645.75 195.75 cl
0.00 0.00 645.75 195.75 cl
0.00 0.00 645.75 195.75 cl
0.00 0.00 645.75 195.75 cl
0 0 0 srgb
0.75 setlinewidth
[] 0 setdash
1 setlinecap
1 setlinejoin
10.00 setmiterlimit
np
177.68 50.80 m
0 -5.67 l
o
np
195.82 50.80 m
0 -5.67 l
o
np
213.96 50.80 m
0 -5.67 l
o
np
232.11 50.80 m
0 -5.67 l
o
np
250.25 50.80 m
0 -5.67 l
o
np
268.39 50.80 m
0 -5.67 l
o
0.00 0.00 645.75 195.75 cl
166.79 50.80 279.28 139.16 cl
0 0.5020 1 srgb
0.75 setlinewidth
[] 0 setdash
1 setlinecap
1 setlinejoin
10.00 setmiterlimit
177.68 65.22 2.40 c p1
195.82 98.35 2.40 c p1
213.96 62.28 2.40 c p1
232.11 61.39 2.40 c p1
250.25 65.32 2.40 c p1
268.39 66.43 2.40 c p1
0.00 0.00 645.75 195.75 cl
0.00 0.00 645.75 195.75 cl
0 0 0 srgb
0.75 setlinewidth
[] 0 setdash
1 setlinecap
1 setlinejoin
10.00 setmiterlimit
166.79 50.80 112.49 88.36 r p1
0.00 0.00 645.75 195.75 cl
0.00 0.00 645.75 195.75 cl
166.79 139.16 279.28 153.56 cl
/bg { 1 0.8980 0.8000 srgb } def
1 0.8980 0.8000 srgb
0.75 setlinewidth
[] 0 setdash
1 setlinecap
1 setlinejoin
10.00 setmiterlimit
166.79 139.16 112.49 14.40 r p3
/Font1 findfont 12 s
0 0 0 srgb
216.36 142.05 (25) 0 0 t
0.00 0.00 645.75 195.75 cl
0.00 0.00 645.75 195.75 cl
0 0 0 srgb
0.75 setlinewidth
[] 0 setdash
1 setlinecap
1 setlinejoin
10.00 setmiterlimit
166.79 139.16 112.49 14.40 r p1
0.00 0.00 645.75 195.75 cl
0.00 0.00 645.75 195.75 cl
279.28 50.80 391.77 139.16 cl
0.00 0.00 645.75 195.75 cl
0.00 0.00 645.75 195.75 cl
0 0 0 srgb
0.75 setlinewidth
[] 0 setdash
1 setlinecap
1 setlinejoin
10.00 setmiterlimit
np
290.17 153.56 m
0 5.67 l
o
np
308.31 153.56 m
0 5.67 l
o
np
326.45 153.56 m
0 5.67 l
o
np
344.59 153.56 m
0 5.67 l
o
np
362.74 153.56 m
0 5.67 l
o
np
380.88 153.56 m
0 5.67 l
o
0.00 0.00 645.75 195.75 cl
0.00 0.00 645.75 195.75 cl
0.00 0.00 645.75 195.75 cl
0.00 0.00 645.75 195.75 cl
0 0 0 srgb
0.75 setlinewidth
[] 0 setdash
1 setlinecap
1 setlinejoin
10.00 setmiterlimit
np
290.17 50.80 m
0 -5.67 l
o
np
308.31 50.80 m
0 -5.67 l
o
np
326.45 50.80 m
0 -5.67 l
o
np
344.59 50.80 m
0 -5.67 l
o
np
362.74 50.80 m
0 -5.67 l
o
np
380.88 50.80 m
0 -5.67 l
o
/Font1 findfont 10 s
290.17 32.29 (I01) .5 0 t
308.31 32.29 (I03) .5 0 t
326.45 32.29 (I04) .5 0 t
344.59 32.29 (I05) .5 0 t
362.74 32.29 (I06) .5 0 t
380.88 32.29 (I10) .5 0 t
0.00 0.00 645.75 195.75 cl
279.28 50.80 391.77 139.16 cl
0 0.5020 1 srgb
0.75 setlinewidth
[] 0 setdash
1 setlinecap
1 setlinejoin
10.00 setmiterlimit
290.17 62.73 2.40 c p1
308.31 115.60 2.40 c p1
326.45 75.77 2.40 c p1
344.59 75.30 2.40 c p1
362.74 66.56 2.40 c p1
380.88 76.04 2.40 c p1
0.00 0.00 645.75 195.75 cl
0.00 0.00 645.75 195.75 cl
0 0 0 srgb
0.75 setlinewidth
[] 0 setdash
1 setlinecap
1 setlinejoin
10.00 setmiterlimit
279.28 50.80 112.49 88.36 r p1
0.00 0.00 645.75 195.75 cl
0.00 0.00 645.75 195.75 cl
279.28 139.16 391.77 153.56 cl
/bg { 1 0.8980 0.8000 srgb } def
1 0.8980 0.8000 srgb
0.75 setlinewidth
[] 0 setdash
1 setlinecap
1 setlinejoin
10.00 setmiterlimit
279.28 139.16 112.49 14.40 r p3
/Font1 findfont 12 s
0 0 0 srgb
328.85 142.05 (50) 0 0 t
0.00 0.00 645.75 195.75 cl
0.00 0.00 645.75 195.75 cl
0 0 0 srgb
0.75 setlinewidth
[] 0 setdash
1 setlinecap
1 setlinejoin
10.00 setmiterlimit
279.28 139.16 112.49 14.40 r p1
0.00 0.00 645.75 195.75 cl
0.00 0.00 645.75 195.75 cl
391.77 50.80 504.25 139.16 cl
0.00 0.00 645.75 195.75 cl
0.00 0.00 645.75 195.75 cl
0 0 0 srgb
0.75 setlinewidth
[] 0 setdash
1 setlinecap
1 setlinejoin
10.00 setmiterlimit
np
402.65 153.56 m
0 5.67 l
o
np
420.80 153.56 m
0 5.67 l
o
np
438.94 153.56 m
0 5.67 l
o
np
457.08 153.56 m
0 5.67 l
o
np
475.23 153.56 m
0 5.67 l
o
np
493.37 153.56 m
0 5.67 l
o
/Font1 findfont 10 s
402.65 164.90 (I01) .5 0 t
420.80 164.90 (I03) .5 0 t
438.94 164.90 (I04) .5 0 t
457.08 164.90 (I05) .5 0 t
475.23 164.90 (I06) .5 0 t
493.37 164.90 (I10) .5 0 t
0.00 0.00 645.75 195.75 cl
0.00 0.00 645.75 195.75 cl
0.00 0.00 645.75 195.75 cl
0.00 0.00 645.75 195.75 cl
0 0 0 srgb
0.75 setlinewidth
[] 0 setdash
1 setlinecap
1 setlinejoin
10.00 setmiterlimit
np
402.65 50.80 m
0 -5.67 l
o
np
420.80 50.80 m
0 -5.67 l
o
np
438.94 50.80 m
0 -5.67 l
o
np
457.08 50.80 m
0 -5.67 l
o
np
475.23 50.80 m
0 -5.67 l
o
np
493.37 50.80 m
0 -5.67 l
o
0.00 0.00 645.75 195.75 cl
391.77 50.80 504.25 139.16 cl
0 0.5020 1 srgb
0.75 setlinewidth
[] 0 setdash
1 setlinecap
1 setlinejoin
10.00 setmiterlimit
402.65 71.19 2.40 c p1
420.80 72.36 2.40 c p1
438.94 80.79 2.40 c p1
457.08 129.80 2.40 c p1
475.23 67.99 2.40 c p1
493.37 69.05 2.40 c p1
0.00 0.00 645.75 195.75 cl
0.00 0.00 645.75 195.75 cl
0 0 0 srgb
0.75 setlinewidth
[] 0 setdash
1 setlinecap
1 setlinejoin
10.00 setmiterlimit
391.77 50.80 112.49 88.36 r p1
0.00 0.00 645.75 195.75 cl
0.00 0.00 645.75 195.75 cl
391.77 139.16 504.25 153.56 cl
/bg { 1 0.8980 0.8000 srgb } def
1 0.8980 0.8000 srgb
0.75 setlinewidth
[] 0 setdash
1 setlinecap
1 setlinejoin
10.00 setmiterlimit
391.77 139.16 112.49 14.40 r p3
/Font1 findfont 12 s
0 0 0 srgb
441.34 142.05 (75) 0 0 t
0.00 0.00 645.75 195.75 cl
0.00 0.00 645.75 195.75 cl
0 0 0 srgb
0.75 setlinewidth
[] 0 setdash
1 setlinecap
1 setlinejoin
10.00 setmiterlimit
391.77 139.16 112.49 14.40 r p1
0.00 0.00 645.75 195.75 cl
0.00 0.00 645.75 195.75 cl
504.25 50.80 616.74 139.16 cl
0.00 0.00 645.75 195.75 cl
0.00 0.00 645.75 195.75 cl
0 0 0 srgb
0.75 setlinewidth
[] 0 setdash
1 setlinecap
1 setlinejoin
10.00 setmiterlimit
np
515.14 153.56 m
0 5.67 l
o
np
533.28 153.56 m
0 5.67 l
o
np
551.43 153.56 m
0 5.67 l
o
np
569.57 153.56 m
0 5.67 l
o
np
587.71 153.56 m
0 5.67 l
o
np
605.86 153.56 m
0 5.67 l
o
0.00 0.00 645.75 195.75 cl
0.00 0.00 645.75 195.75 cl
0.00 0.00 645.75 195.75 cl
0.00 0.00 645.75 195.75 cl
0 0 0 srgb
0.75 setlinewidth
[] 0 setdash
1 setlinecap
1 setlinejoin
10.00 setmiterlimit
np
515.14 50.80 m
0 -5.67 l
o
np
533.28 50.80 m
0 -5.67 l
o
np
551.43 50.80 m
0 -5.67 l
o
np
569.57 50.80 m
0 -5.67 l
o
np
587.71 50.80 m
0 -5.67 l
o
np
605.86 50.80 m
0 -5.67 l
o
/Font1 findfont 10 s
515.14 32.29 (I01) .5 0 t
533.28 32.29 (I03) .5 0 t
551.43 32.29 (I04) .5 0 t
569.57 32.29 (I05) .5 0 t
587.71 32.29 (I06) .5 0 t
605.86 32.29 (I10) .5 0 t
np
616.74 54.20 m
5.67 0 l
o
np
616.74 71.19 m
5.67 0 l
o
np
616.74 88.19 m
5.67 0 l
o
np
616.74 105.18 m
5.67 0 l
o
np
616.74 122.17 m
5.67 0 l
o
np
616.74 139.16 m
5.67 0 l
o
0.00 0.00 645.75 195.75 cl
504.25 50.80 616.74 139.16 cl
0 0.5020 1 srgb
0.75 setlinewidth
[] 0 setdash
1 setlinecap
1 setlinejoin
10.00 setmiterlimit
515.14 68.67 2.40 c p1
533.28 75.38 2.40 c p1
551.43 76.11 2.40 c p1
569.57 73.02 2.40 c p1
587.71 68.35 2.40 c p1
605.86 69.73 2.40 c p1
0.00 0.00 645.75 195.75 cl
0.00 0.00 645.75 195.75 cl
0 0 0 srgb
0.75 setlinewidth
[] 0 setdash
1 setlinecap
1 setlinejoin
10.00 setmiterlimit
504.25 50.80 112.49 88.36 r p1
0.00 0.00 645.75 195.75 cl
0.00 0.00 645.75 195.75 cl
504.25 139.16 616.74 153.56 cl
/bg { 1 0.8980 0.8000 srgb } def
1 0.8980 0.8000 srgb
0.75 setlinewidth
[] 0 setdash
1 setlinecap
1 setlinejoin
10.00 setmiterlimit
504.25 139.16 112.49 14.40 r p3
/Font1 findfont 12 s
0 0 0 srgb
550.49 142.05 (100) 0 0 t
0.00 0.00 645.75 195.75 cl
0.00 0.00 645.75 195.75 cl
0 0 0 srgb
0.75 setlinewidth
[] 0 setdash
1 setlinecap
1 setlinejoin
10.00 setmiterlimit
504.25 139.16 112.49 14.40 r p1
0.00 0.00 645.75 195.75 cl
0.00 0.00 645.75 195.75 cl
0.00 0.00 645.75 195.75 cl
0.00 0.00 645.75 195.75 cl
ep
%%Trailer
%%Pages: 1
%%EOF
