%!PS-Adobe-3.0 EPSF-3.0
%%DocumentNeededResources: font Helvetica
%%+ font Helvetica-Bold
%%+ font Helvetica-Oblique
%%+ font Helvetica-BoldOblique
%%+ font Symbol
%%Title: R Graphics Output
%%Creator: R Software
%%Pages: (atend)
%%BoundingBox: 0 0 646 196
%%EndComments
%%BeginProlog
/bp  { gs sRGB gs } def
% begin .ps.prolog
/gs  { gsave } bind def
/gr  { grestore } bind def
/ep  { showpage gr gr } bind def
/m   { moveto } bind def
/l  { rlineto } bind def
/np  { newpath } bind def
/cp  { closepath } bind def
/f   { fill } bind def
/o   { stroke } bind def
/c   { newpath 0 360 arc } bind def
/r   { 4 2 roll moveto 1 copy 3 -1 roll exch 0 exch rlineto 0 rlineto -1 mul 0 exch rlineto closepath } bind def
/p1  { stroke } bind def
/p2  { gsave bg fill grestore newpath } bind def
/p3  { gsave bg fill grestore stroke } bind def
/p6  { gsave bg eofill grestore newpath } bind def
/p7  { gsave bg eofill grestore stroke } bind def
/t   { 5 -2 roll moveto gsave rotate
       1 index stringwidth pop
       mul neg 0 rmoveto show grestore } bind def
/ta  { 4 -2 roll moveto gsave rotate show } bind def
/tb  { 2 -1 roll 0 rmoveto show } bind def
/cl  { grestore gsave newpath 3 index 3 index moveto 1 index
       4 -1 roll lineto  exch 1 index lineto lineto
       closepath clip newpath } bind def
/rgb { setrgbcolor } bind def
/s   { scalefont setfont } bind def
% end   .ps.prolog
/sRGB { [ /CIEBasedABC
          << /DecodeLMN
               [ { dup 0.03928 le
                        {12.92321 div}
                        {0.055 add 1.055 div 2.4 exp }
                     ifelse
                 } bind dup dup
               ]
             /MatrixLMN [0.412457 0.212673 0.019334
                         0.357576 0.715152 0.119192
                         0.180437 0.072175 0.950301]
             /WhitePoint [0.9505 1.0 1.0890]
           >>
         ] setcolorspace } bind def
/srgb { setcolor } bind def
%%IncludeResource: font Helvetica
/Helvetica findfont
dup length dict begin
  {1 index /FID ne {def} {pop pop} ifelse} forall
  /Encoding ISOLatin1Encoding def
  currentdict
  end
/Font1 exch definefont pop
%%IncludeResource: font Helvetica-Bold
/Helvetica-Bold findfont
dup length dict begin
  {1 index /FID ne {def} {pop pop} ifelse} forall
  /Encoding ISOLatin1Encoding def
  currentdict
  end
/Font2 exch definefont pop
%%IncludeResource: font Helvetica-Oblique
/Helvetica-Oblique findfont
dup length dict begin
  {1 index /FID ne {def} {pop pop} ifelse} forall
  /Encoding ISOLatin1Encoding def
  currentdict
  end
/Font3 exch definefont pop
%%IncludeResource: font Helvetica-BoldOblique
/Helvetica-BoldOblique findfont
dup length dict begin
  {1 index /FID ne {def} {pop pop} ifelse} forall
  /Encoding ISOLatin1Encoding def
  currentdict
  end
/Font4 exch definefont pop
%%IncludeResource: font Symbol
/Symbol findfont
dup length dict begin
  {1 index /FID ne {def} {pop pop} ifelse} forall
  currentdict
  end
/Font5 exch definefont pop
%%EndProlog
%%Page: 1 1
bp
0.00 0.00 645.75 195.75 cl
/Font1 findfont 12 s
0 0 0 srgb
335.52 12.00 (UID) .5 0 t
0.00 0.00 645.75 195.75 cl
/Font1 findfont 12 s
0 0 0 srgb
14.62 94.98 (Hpost) .5 90 t
0.00 0.00 645.75 195.75 cl
0.00 0.00 645.75 195.75 cl
0.00 0.00 645.75 195.75 cl
54.30 50.80 166.79 139.16 cl
0.00 0.00 645.75 195.75 cl
0.00 0.00 645.75 195.75 cl
0 0 0 srgb
0.75 setlinewidth
[] 0 setdash
1 setlinecap
1 setlinejoin
10.00 setmiterlimit
np
70.37 153.56 m
0 5.67 l
o
np
97.16 153.56 m
0 5.67 l
o
np
123.94 153.56 m
0 5.67 l
o
np
150.72 153.56 m
0 5.67 l
o
0.00 0.00 645.75 195.75 cl
0.00 0.00 645.75 195.75 cl
0 0 0 srgb
0.75 setlinewidth
[] 0 setdash
1 setlinecap
1 setlinejoin
10.00 setmiterlimit
np
54.30 54.20 m
-5.67 0 l
o
np
54.30 71.19 m
-5.67 0 l
o
np
54.30 88.19 m
-5.67 0 l
o
np
54.30 105.18 m
-5.67 0 l
o
np
54.30 122.17 m
-5.67 0 l
o
np
54.30 139.16 m
-5.67 0 l
o
/Font1 findfont 10 s
42.97 50.61 (50) 1 0 t
42.97 67.60 (100) 1 0 t
42.97 84.60 (150) 1 0 t
42.97 101.59 (200) 1 0 t
42.97 118.58 (250) 1 0 t
0.00 0.00 645.75 195.75 cl
0.00 0.00 645.75 195.75 cl
0 0 0 srgb
0.75 setlinewidth
[] 0 setdash
1 setlinecap
1 setlinejoin
10.00 setmiterlimit
np
70.37 50.80 m
0 -5.67 l
o
np
97.16 50.80 m
0 -5.67 l
o
np
123.94 50.80 m
0 -5.67 l
o
np
150.72 50.80 m
0 -5.67 l
o
/Font1 findfont 10 s
70.37 32.29 (I02) .5 0 t
97.16 32.29 (I07) .5 0 t
123.94 32.29 (I08) .5 0 t
150.72 32.29 (I09) .5 0 t
0.00 0.00 645.75 195.75 cl
54.30 50.80 166.79 139.16 cl
0 0.5020 1 srgb
0.75 setlinewidth
[] 0 setdash
1 setlinecap
1 setlinejoin
10.00 setmiterlimit
70.37 71.19 2.40 c p1
97.16 71.19 2.40 c p1
123.94 71.19 2.40 c p1
150.72 71.19 2.40 c p1
0.00 0.00 645.75 195.75 cl
0.00 0.00 645.75 195.75 cl
0 0 0 srgb
0.75 setlinewidth
[] 0 setdash
1 setlinecap
1 setlinejoin
10.00 setmiterlimit
54.30 50.80 112.49 88.36 r p1
0.00 0.00 645.75 195.75 cl
0.00 0.00 645.75 195.75 cl
54.30 139.16 166.79 153.56 cl
/bg { 1 0.8980 0.8000 srgb } def
1 0.8980 0.8000 srgb
0.75 setlinewidth
[] 0 setdash
1 setlinecap
1 setlinejoin
10.00 setmiterlimit
54.30 139.16 112.49 14.40 r p3
/Font1 findfont 12 s
0 0 0 srgb
107.21 142.05 (0) 0 0 t
0.00 0.00 645.75 195.75 cl
0.00 0.00 645.75 195.75 cl
0 0 0 srgb
0.75 setlinewidth
[] 0 setdash
1 setlinecap
1 setlinejoin
10.00 setmiterlimit
54.30 139.16 112.49 14.40 r p1
0.00 0.00 645.75 195.75 cl
0.00 0.00 645.75 195.75 cl
166.79 50.80 279.28 139.16 cl
0.00 0.00 645.75 195.75 cl
0.00 0.00 645.75 195.75 cl
0 0 0 srgb
0.75 setlinewidth
[] 0 setdash
1 setlinecap
1 setlinejoin
10.00 setmiterlimit
np
182.86 153.56 m
0 5.67 l
o
np
209.64 153.56 m
0 5.67 l
o
np
236.43 153.56 m
0 5.67 l
o
np
263.21 153.56 m
0 5.67 l
o
/Font1 findfont 10 s
182.86 164.90 (I02) .5 0 t
209.64 164.90 (I07) .5 0 t
236.43 164.90 (I08) .5 0 t
263.21 164.90 (I09) .5 0 t
0.00 0.00 645.75 195.75 cl
0.00 0.00 645.75 195.75 cl
0.00 0.00 645.75 195.75 cl
0.00 0.00 645.75 195.75 cl
0 0 0 srgb
0.75 setlinewidth
[] 0 setdash
1 setlinecap
1 setlinejoin
10.00 setmiterlimit
np
182.86 50.80 m
0 -5.67 l
o
np
209.64 50.80 m
0 -5.67 l
o
np
236.43 50.80 m
0 -5.67 l
o
np
263.21 50.80 m
0 -5.67 l
o
0.00 0.00 645.75 195.75 cl
166.79 50.80 279.28 139.16 cl
0 0.5020 1 srgb
0.75 setlinewidth
[] 0 setdash
1 setlinecap
1 setlinejoin
10.00 setmiterlimit
182.86 58.62 2.40 c p1
209.64 82.17 2.40 c p1
236.43 71.82 2.40 c p1
263.21 69.85 2.40 c p1
0.00 0.00 645.75 195.75 cl
0.00 0.00 645.75 195.75 cl
0 0 0 srgb
0.75 setlinewidth
[] 0 setdash
1 setlinecap
1 setlinejoin
10.00 setmiterlimit
166.79 50.80 112.49 88.36 r p1
0.00 0.00 645.75 195.75 cl
0.00 0.00 645.75 195.75 cl
166.79 139.16 279.28 153.56 cl
/bg { 1 0.8980 0.8000 srgb } def
1 0.8980 0.8000 srgb
0.75 setlinewidth
[] 0 setdash
1 setlinecap
1 setlinejoin
10.00 setmiterlimit
166.79 139.16 112.49 14.40 r p3
/Font1 findfont 12 s
0 0 0 srgb
216.36 142.05 (25) 0 0 t
0.00 0.00 645.75 195.75 cl
0.00 0.00 645.75 195.75 cl
0 0 0 srgb
0.75 setlinewidth
[] 0 setdash
1 setlinecap
1 setlinejoin
10.00 setmiterlimit
166.79 139.16 112.49 14.40 r p1
0.00 0.00 645.75 195.75 cl
0.00 0.00 645.75 195.75 cl
279.28 50.80 391.77 139.16 cl
0.00 0.00 645.75 195.75 cl
0.00 0.00 645.75 195.75 cl
0 0 0 srgb
0.75 setlinewidth
[] 0 setdash
1 setlinecap
1 setlinejoin
10.00 setmiterlimit
np
295.35 153.56 m
0 5.67 l
o
np
322.13 153.56 m
0 5.67 l
o
np
348.91 153.56 m
0 5.67 l
o
np
375.70 153.56 m
0 5.67 l
o
0.00 0.00 645.75 195.75 cl
0.00 0.00 645.75 195.75 cl
0.00 0.00 645.75 195.75 cl
0.00 0.00 645.75 195.75 cl
0 0 0 srgb
0.75 setlinewidth
[] 0 setdash
1 setlinecap
1 setlinejoin
10.00 setmiterlimit
np
295.35 50.80 m
0 -5.67 l
o
np
322.13 50.80 m
0 -5.67 l
o
np
348.91 50.80 m
0 -5.67 l
o
np
375.70 50.80 m
0 -5.67 l
o
/Font1 findfont 10 s
295.35 32.29 (I02) .5 0 t
322.13 32.29 (I07) .5 0 t
348.91 32.29 (I08) .5 0 t
375.70 32.29 (I09) .5 0 t
0.00 0.00 645.75 195.75 cl
279.28 50.80 391.77 139.16 cl
0 0.5020 1 srgb
0.75 setlinewidth
[] 0 setdash
1 setlinecap
1 setlinejoin
10.00 setmiterlimit
295.35 71.41 2.40 c p1
322.13 79.41 2.40 c p1
348.91 69.31 2.40 c p1
375.70 80.01 2.40 c p1
0.00 0.00 645.75 195.75 cl
0.00 0.00 645.75 195.75 cl
0 0 0 srgb
0.75 setlinewidth
[] 0 setdash
1 setlinecap
1 setlinejoin
10.00 setmiterlimit
279.28 50.80 112.49 88.36 r p1
0.00 0.00 645.75 195.75 cl
0.00 0.00 645.75 195.75 cl
279.28 139.16 391.77 153.56 cl
/bg { 1 0.8980 0.8000 srgb } def
1 0.8980 0.8000 srgb
0.75 setlinewidth
[] 0 setdash
1 setlinecap
1 setlinejoin
10.00 setmiterlimit
279.28 139.16 112.49 14.40 r p3
/Font1 findfont 12 s
0 0 0 srgb
328.85 142.05 (50) 0 0 t
0.00 0.00 645.75 195.75 cl
0.00 0.00 645.75 195.75 cl
0 0 0 srgb
0.75 setlinewidth
[] 0 setdash
1 setlinecap
1 setlinejoin
10.00 setmiterlimit
279.28 139.16 112.49 14.40 r p1
0.00 0.00 645.75 195.75 cl
0.00 0.00 645.75 195.75 cl
391.77 50.80 504.25 139.16 cl
0.00 0.00 645.75 195.75 cl
0.00 0.00 645.75 195.75 cl
0 0 0 srgb
0.75 setlinewidth
[] 0 setdash
1 setlinecap
1 setlinejoin
10.00 setmiterlimit
np
407.84 153.56 m
0 5.67 l
o
np
434.62 153.56 m
0 5.67 l
o
np
461.40 153.56 m
0 5.67 l
o
np
488.18 153.56 m
0 5.67 l
o
/Font1 findfont 10 s
407.84 164.90 (I02) .5 0 t
434.62 164.90 (I07) .5 0 t
461.40 164.90 (I08) .5 0 t
488.18 164.90 (I09) .5 0 t
0.00 0.00 645.75 195.75 cl
0.00 0.00 645.75 195.75 cl
0.00 0.00 645.75 195.75 cl
0.00 0.00 645.75 195.75 cl
0 0 0 srgb
0.75 setlinewidth
[] 0 setdash
1 setlinecap
1 setlinejoin
10.00 setmiterlimit
np
407.84 50.80 m
0 -5.67 l
o
np
434.62 50.80 m
0 -5.67 l
o
np
461.40 50.80 m
0 -5.67 l
o
np
488.18 50.80 m
0 -5.67 l
o
0.00 0.00 645.75 195.75 cl
391.77 50.80 504.25 139.16 cl
0 0.5020 1 srgb
0.75 setlinewidth
[] 0 setdash
1 setlinecap
1 setlinejoin
10.00 setmiterlimit
407.84 53.39 2.40 c p1
434.62 77.27 2.40 c p1
461.40 70.91 2.40 c p1
488.18 85.48 2.40 c p1
0.00 0.00 645.75 195.75 cl
0.00 0.00 645.75 195.75 cl
0 0 0 srgb
0.75 setlinewidth
[] 0 setdash
1 setlinecap
1 setlinejoin
10.00 setmiterlimit
391.77 50.80 112.49 88.36 r p1
0.00 0.00 645.75 195.75 cl
0.00 0.00 645.75 195.75 cl
391.77 139.16 504.25 153.56 cl
/bg { 1 0.8980 0.8000 srgb } def
1 0.8980 0.8000 srgb
0.75 setlinewidth
[] 0 setdash
1 setlinecap
1 setlinejoin
10.00 setmiterlimit
391.77 139.16 112.49 14.40 r p3
/Font1 findfont 12 s
0 0 0 srgb
441.34 142.05 (75) 0 0 t
0.00 0.00 645.75 195.75 cl
0.00 0.00 645.75 195.75 cl
0 0 0 srgb
0.75 setlinewidth
[] 0 setdash
1 setlinecap
1 setlinejoin
10.00 setmiterlimit
391.77 139.16 112.49 14.40 r p1
0.00 0.00 645.75 195.75 cl
0.00 0.00 645.75 195.75 cl
504.25 50.80 616.74 139.16 cl
0.00 0.00 645.75 195.75 cl
0.00 0.00 645.75 195.75 cl
0 0 0 srgb
0.75 setlinewidth
[] 0 setdash
1 setlinecap
1 setlinejoin
10.00 setmiterlimit
np
520.32 153.56 m
0 5.67 l
o
np
547.11 153.56 m
0 5.67 l
o
np
573.89 153.56 m
0 5.67 l
o
np
600.67 153.56 m
0 5.67 l
o
0.00 0.00 645.75 195.75 cl
0.00 0.00 645.75 195.75 cl
0.00 0.00 645.75 195.75 cl
0.00 0.00 645.75 195.75 cl
0 0 0 srgb
0.75 setlinewidth
[] 0 setdash
1 setlinecap
1 setlinejoin
10.00 setmiterlimit
np
520.32 50.80 m
0 -5.67 l
o
np
547.11 50.80 m
0 -5.67 l
o
np
573.89 50.80 m
0 -5.67 l
o
np
600.67 50.80 m
0 -5.67 l
o
/Font1 findfont 10 s
520.32 32.29 (I02) .5 0 t
547.11 32.29 (I07) .5 0 t
573.89 32.29 (I08) .5 0 t
600.67 32.29 (I09) .5 0 t
np
616.74 54.20 m
5.67 0 l
o
np
616.74 71.19 m
5.67 0 l
o
np
616.74 88.19 m
5.67 0 l
o
np
616.74 105.18 m
5.67 0 l
o
np
616.74 122.17 m
5.67 0 l
o
np
616.74 139.16 m
5.67 0 l
o
0.00 0.00 645.75 195.75 cl
504.25 50.80 616.74 139.16 cl
0 0.5020 1 srgb
0.75 setlinewidth
[] 0 setdash
1 setlinecap
1 setlinejoin
10.00 setmiterlimit
520.32 52.94 2.40 c p1
547.11 78.37 2.40 c p1
573.89 71.28 2.40 c p1
600.67 73.66 2.40 c p1
0.00 0.00 645.75 195.75 cl
0.00 0.00 645.75 195.75 cl
0 0 0 srgb
0.75 setlinewidth
[] 0 setdash
1 setlinecap
1 setlinejoin
10.00 setmiterlimit
504.25 50.80 112.49 88.36 r p1
0.00 0.00 645.75 195.75 cl
0.00 0.00 645.75 195.75 cl
504.25 139.16 616.74 153.56 cl
/bg { 1 0.8980 0.8000 srgb } def
1 0.8980 0.8000 srgb
0.75 setlinewidth
[] 0 setdash
1 setlinecap
1 setlinejoin
10.00 setmiterlimit
504.25 139.16 112.49 14.40 r p3
/Font1 findfont 12 s
0 0 0 srgb
550.49 142.05 (100) 0 0 t
0.00 0.00 645.75 195.75 cl
0.00 0.00 645.75 195.75 cl
0 0 0 srgb
0.75 setlinewidth
[] 0 setdash
1 setlinecap
1 setlinejoin
10.00 setmiterlimit
504.25 139.16 112.49 14.40 r p1
0.00 0.00 645.75 195.75 cl
0.00 0.00 645.75 195.75 cl
0.00 0.00 645.75 195.75 cl
0.00 0.00 645.75 195.75 cl
ep
%%Trailer
%%Pages: 1
%%EOF
