%!PS-Adobe-3.0 EPSF-3.0
%%DocumentNeededResources: font Helvetica
%%+ font Helvetica-Bold
%%+ font Helvetica-Oblique
%%+ font Helvetica-BoldOblique
%%+ font Symbol
%%Title: R Graphics Output
%%Creator: R Software
%%Pages: (atend)
%%BoundingBox: 0 0 364 533
%%EndComments
%%BeginProlog
/bp  { gs sRGB gs } def
% begin .ps.prolog
/gs  { gsave } bind def
/gr  { grestore } bind def
/ep  { showpage gr gr } bind def
/m   { moveto } bind def
/l  { rlineto } bind def
/np  { newpath } bind def
/cp  { closepath } bind def
/f   { fill } bind def
/o   { stroke } bind def
/c   { newpath 0 360 arc } bind def
/r   { 4 2 roll moveto 1 copy 3 -1 roll exch 0 exch rlineto 0 rlineto -1 mul 0 exch rlineto closepath } bind def
/p1  { stroke } bind def
/p2  { gsave bg fill grestore newpath } bind def
/p3  { gsave bg fill grestore stroke } bind def
/p6  { gsave bg eofill grestore newpath } bind def
/p7  { gsave bg eofill grestore stroke } bind def
/t   { 5 -2 roll moveto gsave rotate
       1 index stringwidth pop
       mul neg 0 rmoveto show grestore } bind def
/ta  { 4 -2 roll moveto gsave rotate show } bind def
/tb  { 2 -1 roll 0 rmoveto show } bind def
/cl  { grestore gsave newpath 3 index 3 index moveto 1 index
       4 -1 roll lineto  exch 1 index lineto lineto
       closepath clip newpath } bind def
/rgb { setrgbcolor } bind def
/s   { scalefont setfont } bind def
% end   .ps.prolog
/sRGB { [ /CIEBasedABC
          << /DecodeLMN
               [ { dup 0.03928 le
                        {12.92321 div}
                        {0.055 add 1.055 div 2.4 exp }
                     ifelse
                 } bind dup dup
               ]
             /MatrixLMN [0.412457 0.212673 0.019334
                         0.357576 0.715152 0.119192
                         0.180437 0.072175 0.950301]
             /WhitePoint [0.9505 1.0 1.0890]
           >>
         ] setcolorspace } bind def
/srgb { setcolor } bind def
%%IncludeResource: font Helvetica
/Helvetica findfont
dup length dict begin
  {1 index /FID ne {def} {pop pop} ifelse} forall
  /Encoding ISOLatin1Encoding def
  currentdict
  end
/Font1 exch definefont pop
%%IncludeResource: font Helvetica-Bold
/Helvetica-Bold findfont
dup length dict begin
  {1 index /FID ne {def} {pop pop} ifelse} forall
  /Encoding ISOLatin1Encoding def
  currentdict
  end
/Font2 exch definefont pop
%%IncludeResource: font Helvetica-Oblique
/Helvetica-Oblique findfont
dup length dict begin
  {1 index /FID ne {def} {pop pop} ifelse} forall
  /Encoding ISOLatin1Encoding def
  currentdict
  end
/Font3 exch definefont pop
%%IncludeResource: font Helvetica-BoldOblique
/Helvetica-BoldOblique findfont
dup length dict begin
  {1 index /FID ne {def} {pop pop} ifelse} forall
  /Encoding ISOLatin1Encoding def
  currentdict
  end
/Font4 exch definefont pop
%%IncludeResource: font Symbol
/Symbol findfont
dup length dict begin
  {1 index /FID ne {def} {pop pop} ifelse} forall
  currentdict
  end
/Font5 exch definefont pop
%%EndProlog
%%Page: 1 1
bp
0.00 0.00 363.75 533.25 cl
0.00 0.00 363.75 533.25 cl
0.00 0.00 363.75 533.25 cl
15.82 403.89 189.78 533.25 cl
/bg { 1 1 1 srgb } def
1 1 1 srgb
1.06 setlinewidth
[] 0 setdash
1 setlinecap
1 setlinejoin
10.00 setmiterlimit
15.82 403.89 173.97 129.36 r p3
0.00 0.00 363.75 533.25 cl
0.00 0.00 363.75 533.25 cl
0.00 0.00 363.75 533.25 cl
62.60 441.17 175.38 501.60 cl
/bg { 1 1 1 srgb } def
62.60 441.17 112.78 60.42 r p2
0 0 0 srgb
1.06 setlinewidth
[] 0 setdash
0 setlinecap
1 setlinejoin
1.00 setmiterlimit
np
74.53 459.18 m
2.17 0 l
o
np
75.61 459.18 m
0 0 l
o
np
74.53 459.18 m
2.17 0 l
o
np
96.22 451.35 m
2.17 0 l
o
np
97.30 451.35 m
0 -6.85 l
o
np
96.22 444.50 m
2.17 0 l
o
np
117.91 452.62 m
2.17 0 l
o
np
118.99 452.62 m
0 -4.61 l
o
np
117.91 448.01 m
2.17 0 l
o
np
139.60 468.16 m
2.16 0 l
o
np
140.68 468.16 m
0 -5.39 l
o
np
139.60 462.77 m
2.16 0 l
o
np
161.28 468.00 m
2.17 0 l
o
np
162.37 468.00 m
0 -4.58 l
o
np
161.28 463.42 m
2.17 0 l
o
1.49 setlinewidth
[] 0 setdash
np
75.61 459.18 m
21.69 -11.26 l
21.69 2.40 l
21.69 15.15 l
21.69 0.24 l
o
/bg { 0 0 0 srgb } def
75.61 459.18 2.13 c p2
97.30 447.92 2.13 c p2
118.99 450.32 2.13 c p2
140.68 465.47 2.13 c p2
162.37 465.71 2.13 c p2
0.00 0.00 363.75 533.25 cl
0.00 0.00 363.75 533.25 cl
0 0 0 srgb
1.06 setlinewidth
[] 0 setdash
0 setlinecap
1 setlinejoin
10.00 setmiterlimit
np
62.60 441.17 m
0 60.43 l
o
0.00 0.00 363.75 533.25 cl
/Font1 findfont 10 s
0 0 0 srgb
55.51 440.33 (75) 1 0 t
55.51 455.59 (100) 1 0 t
55.51 470.85 (125) 1 0 t
55.51 486.11 (150) 1 0 t
0.00 0.00 363.75 533.25 cl
0.00 0.00 363.75 533.25 cl
0 0 0 srgb
1.06 setlinewidth
[] 0 setdash
0 setlinecap
1 setlinejoin
10.00 setmiterlimit
np
58.35 443.92 m
4.25 0 l
o
np
58.35 459.18 m
4.25 0 l
o
np
58.35 474.44 m
4.25 0 l
o
np
58.35 489.70 m
4.25 0 l
o
0.00 0.00 363.75 533.25 cl
0.00 0.00 363.75 533.25 cl
0.00 0.00 363.75 533.25 cl
0.00 0.00 363.75 533.25 cl
0.00 0.00 363.75 533.25 cl
0 0 0 srgb
1.06 setlinewidth
[] 0 setdash
0 setlinecap
1 setlinejoin
10.00 setmiterlimit
np
62.60 441.17 m
112.78 0 l
o
0.00 0.00 363.75 533.25 cl
0 0 0 srgb
1.06 setlinewidth
[] 0 setdash
0 setlinecap
1 setlinejoin
10.00 setmiterlimit
np
75.61 436.92 m
0 4.25 l
o
np
97.30 436.92 m
0 4.25 l
o
np
118.99 436.92 m
0 4.25 l
o
np
140.68 436.92 m
0 4.25 l
o
np
162.37 436.92 m
0 4.25 l
o
0.00 0.00 363.75 533.25 cl
0.00 0.00 363.75 533.25 cl
/Font1 findfont 10 s
0 0 0 srgb
75.61 426.91 (0) .5 0 t
97.30 426.91 (25) .5 0 t
118.99 426.91 (50) .5 0 t
140.68 426.91 (75) .5 0 t
162.37 426.91 (100) .5 0 t
0.00 0.00 363.75 533.25 cl
0.00 0.00 363.75 533.25 cl
0.00 0.00 363.75 533.25 cl
0.00 0.00 363.75 533.25 cl
0.00 0.00 363.75 533.25 cl
/Font1 findfont 12 s
0 0 0 srgb
118.99 414.69 ( ) .5 0 t
0.00 0.00 363.75 533.25 cl
0.00 0.00 363.75 533.25 cl
/Font1 findfont 12 s
0 0 0 srgb
35.23 471.39 ( ) .5 90 t
0.00 0.00 363.75 533.25 cl
0.00 0.00 363.75 533.25 cl
/Font1 findfont 14 s
0 0 0 srgb
118.99 505.20 (Cycling) .5 0 t
0.00 0.00 363.75 533.25 cl
0.00 0.00 363.75 533.25 cl
0.00 0.00 363.75 533.25 cl
0.00 0.00 363.75 533.25 cl
0.00 0.00 363.75 533.25 cl
0.00 0.00 363.75 533.25 cl
189.78 403.89 363.75 533.25 cl
/bg { 1 1 1 srgb } def
1 1 1 srgb
1.06 setlinewidth
[] 0 setdash
1 setlinecap
1 setlinejoin
10.00 setmiterlimit
189.78 403.89 173.97 129.36 r p3
0.00 0.00 363.75 533.25 cl
0.00 0.00 363.75 533.25 cl
0.00 0.00 363.75 533.25 cl
236.57 441.17 349.35 501.60 cl
/bg { 1 1 1 srgb } def
236.57 441.17 112.78 60.42 r p2
0 0 0 srgb
1.06 setlinewidth
[] 0 setdash
0 setlinecap
1 setlinejoin
1.00 setmiterlimit
np
248.49 459.18 m
2.17 0 l
o
np
249.58 459.18 m
0 0 l
o
np
248.49 459.18 m
2.17 0 l
o
np
270.18 456.27 m
2.17 0 l
o
np
271.27 456.27 m
0 -7.18 l
o
np
270.18 449.09 m
2.17 0 l
o
np
291.87 456.09 m
2.17 0 l
o
np
292.96 456.09 m
0 -3.39 l
o
np
291.87 452.70 m
2.17 0 l
o
np
313.56 467.72 m
2.17 0 l
o
np
314.65 467.72 m
0 -4.89 l
o
np
313.56 462.83 m
2.17 0 l
o
np
335.25 467.99 m
2.17 0 l
o
np
336.34 467.99 m
0 -6.17 l
o
np
335.25 461.82 m
2.17 0 l
o
1.49 setlinewidth
[] 0 setdash
np
249.58 459.18 m
21.69 -6.50 l
21.69 1.71 l
21.69 10.89 l
21.69 -0.37 l
o
/bg { 0 0 0 srgb } def
249.58 459.18 2.13 c p2
271.27 452.68 2.13 c p2
292.96 454.39 2.13 c p2
314.65 465.28 2.13 c p2
336.34 464.91 2.13 c p2
0.00 0.00 363.75 533.25 cl
0.00 0.00 363.75 533.25 cl
0 0 0 srgb
1.06 setlinewidth
[] 0 setdash
0 setlinecap
1 setlinejoin
10.00 setmiterlimit
np
236.57 441.17 m
0 60.43 l
o
0.00 0.00 363.75 533.25 cl
/Font1 findfont 10 s
0 0 0 srgb
229.48 440.33 (75) 1 0 t
229.48 455.59 (100) 1 0 t
229.48 470.85 (125) 1 0 t
229.48 486.11 (150) 1 0 t
0.00 0.00 363.75 533.25 cl
0.00 0.00 363.75 533.25 cl
0 0 0 srgb
1.06 setlinewidth
[] 0 setdash
0 setlinecap
1 setlinejoin
10.00 setmiterlimit
np
232.31 443.92 m
4.26 0 l
o
np
232.31 459.18 m
4.26 0 l
o
np
232.31 474.44 m
4.26 0 l
o
np
232.31 489.70 m
4.26 0 l
o
0.00 0.00 363.75 533.25 cl
0.00 0.00 363.75 533.25 cl
0.00 0.00 363.75 533.25 cl
0.00 0.00 363.75 533.25 cl
0.00 0.00 363.75 533.25 cl
0 0 0 srgb
1.06 setlinewidth
[] 0 setdash
0 setlinecap
1 setlinejoin
10.00 setmiterlimit
np
236.57 441.17 m
112.78 0 l
o
0.00 0.00 363.75 533.25 cl
0 0 0 srgb
1.06 setlinewidth
[] 0 setdash
0 setlinecap
1 setlinejoin
10.00 setmiterlimit
np
249.58 436.92 m
0 4.25 l
o
np
271.27 436.92 m
0 4.25 l
o
np
292.96 436.92 m
0 4.25 l
o
np
314.65 436.92 m
0 4.25 l
o
np
336.34 436.92 m
0 4.25 l
o
0.00 0.00 363.75 533.25 cl
0.00 0.00 363.75 533.25 cl
/Font1 findfont 10 s
0 0 0 srgb
249.58 426.91 (0) .5 0 t
271.27 426.91 (25) .5 0 t
292.96 426.91 (50) .5 0 t
314.65 426.91 (75) .5 0 t
336.34 426.91 (100) .5 0 t
0.00 0.00 363.75 533.25 cl
0.00 0.00 363.75 533.25 cl
0.00 0.00 363.75 533.25 cl
0.00 0.00 363.75 533.25 cl
0.00 0.00 363.75 533.25 cl
/Font1 findfont 12 s
0 0 0 srgb
292.96 414.69 ( ) .5 0 t
0.00 0.00 363.75 533.25 cl
0.00 0.00 363.75 533.25 cl
/Font1 findfont 12 s
0 0 0 srgb
209.20 471.39 ( ) .5 90 t
0.00 0.00 363.75 533.25 cl
0.00 0.00 363.75 533.25 cl
/Font1 findfont 14 s
0 0 0 srgb
292.96 505.20 (ES Cycling) .5 0 t
0.00 0.00 363.75 533.25 cl
0.00 0.00 363.75 533.25 cl
0.00 0.00 363.75 533.25 cl
0.00 0.00 363.75 533.25 cl
0.00 0.00 363.75 533.25 cl
0.00 0.00 363.75 533.25 cl
15.82 274.53 189.78 403.89 cl
/bg { 1 1 1 srgb } def
1 1 1 srgb
1.06 setlinewidth
[] 0 setdash
1 setlinecap
1 setlinejoin
10.00 setmiterlimit
15.82 274.53 173.97 129.36 r p3
0.00 0.00 363.75 533.25 cl
0.00 0.00 363.75 533.25 cl
0.00 0.00 363.75 533.25 cl
62.60 311.82 175.38 372.24 cl
/bg { 1 1 1 srgb } def
62.60 311.82 112.78 60.42 r p2
0 0 0 srgb
1.06 setlinewidth
[] 0 setdash
0 setlinecap
1 setlinejoin
1.00 setmiterlimit
np
74.53 329.82 m
2.17 0 l
o
np
75.61 329.82 m
0 0 l
o
np
74.53 329.82 m
2.17 0 l
o
np
96.22 331.68 m
2.17 0 l
o
np
97.30 331.68 m
0 -12.03 l
o
np
96.22 319.65 m
2.17 0 l
o
np
117.91 334.60 m
2.17 0 l
o
np
118.99 334.60 m
0 -7.27 l
o
np
117.91 327.33 m
2.17 0 l
o
np
139.60 344.41 m
2.16 0 l
o
np
140.68 344.41 m
0 -10.52 l
o
np
139.60 333.89 m
2.16 0 l
o
np
161.28 336.37 m
2.17 0 l
o
np
162.37 336.37 m
0 -9.47 l
o
np
161.28 326.90 m
2.17 0 l
o
1.49 setlinewidth
[] 0 setdash
np
75.61 329.82 m
21.69 -4.15 l
21.69 5.29 l
21.69 8.19 l
21.69 -7.52 l
o
/bg { 0 0 0 srgb } def
75.61 329.82 2.13 c p2
97.30 325.67 2.13 c p2
118.99 330.96 2.13 c p2
140.68 339.15 2.13 c p2
162.37 331.63 2.13 c p2
0.00 0.00 363.75 533.25 cl
0.00 0.00 363.75 533.25 cl
0 0 0 srgb
1.06 setlinewidth
[] 0 setdash
0 setlinecap
1 setlinejoin
10.00 setmiterlimit
np
62.60 311.82 m
0 60.42 l
o
0.00 0.00 363.75 533.25 cl
/Font1 findfont 10 s
0 0 0 srgb
55.51 310.97 (75) 1 0 t
55.51 326.23 (100) 1 0 t
55.51 341.49 (125) 1 0 t
55.51 356.75 (150) 1 0 t
0.00 0.00 363.75 533.25 cl
0.00 0.00 363.75 533.25 cl
0 0 0 srgb
1.06 setlinewidth
[] 0 setdash
0 setlinecap
1 setlinejoin
10.00 setmiterlimit
np
58.35 314.56 m
4.25 0 l
o
np
58.35 329.82 m
4.25 0 l
o
np
58.35 345.08 m
4.25 0 l
o
np
58.35 360.34 m
4.25 0 l
o
0.00 0.00 363.75 533.25 cl
0.00 0.00 363.75 533.25 cl
0.00 0.00 363.75 533.25 cl
0.00 0.00 363.75 533.25 cl
0.00 0.00 363.75 533.25 cl
0 0 0 srgb
1.06 setlinewidth
[] 0 setdash
0 setlinecap
1 setlinejoin
10.00 setmiterlimit
np
62.60 311.82 m
112.78 0 l
o
0.00 0.00 363.75 533.25 cl
0 0 0 srgb
1.06 setlinewidth
[] 0 setdash
0 setlinecap
1 setlinejoin
10.00 setmiterlimit
np
75.61 307.56 m
0 4.26 l
o
np
97.30 307.56 m
0 4.26 l
o
np
118.99 307.56 m
0 4.26 l
o
np
140.68 307.56 m
0 4.26 l
o
np
162.37 307.56 m
0 4.26 l
o
0.00 0.00 363.75 533.25 cl
0.00 0.00 363.75 533.25 cl
/Font1 findfont 10 s
0 0 0 srgb
75.61 297.55 (0) .5 0 t
97.30 297.55 (25) .5 0 t
118.99 297.55 (50) .5 0 t
140.68 297.55 (75) .5 0 t
162.37 297.55 (100) .5 0 t
0.00 0.00 363.75 533.25 cl
0.00 0.00 363.75 533.25 cl
0.00 0.00 363.75 533.25 cl
0.00 0.00 363.75 533.25 cl
0.00 0.00 363.75 533.25 cl
/Font1 findfont 12 s
0 0 0 srgb
118.99 285.33 ( ) .5 0 t
0.00 0.00 363.75 533.25 cl
0.00 0.00 363.75 533.25 cl
/Font1 findfont 12 s
0 0 0 srgb
35.23 342.03 ( ) .5 90 t
0.00 0.00 363.75 533.25 cl
0.00 0.00 363.75 533.25 cl
/Font1 findfont 14 s
0 0 0 srgb
118.99 375.84 ( ) .5 0 t
0.00 0.00 363.75 533.25 cl
0.00 0.00 363.75 533.25 cl
0.00 0.00 363.75 533.25 cl
0.00 0.00 363.75 533.25 cl
0.00 0.00 363.75 533.25 cl
0.00 0.00 363.75 533.25 cl
189.78 274.53 363.75 403.89 cl
/bg { 1 1 1 srgb } def
1 1 1 srgb
1.06 setlinewidth
[] 0 setdash
1 setlinecap
1 setlinejoin
10.00 setmiterlimit
189.78 274.53 173.97 129.36 r p3
0.00 0.00 363.75 533.25 cl
0.00 0.00 363.75 533.25 cl
0.00 0.00 363.75 533.25 cl
236.57 311.82 349.35 372.24 cl
/bg { 1 1 1 srgb } def
236.57 311.82 112.78 60.42 r p2
0 0 0 srgb
1.06 setlinewidth
[] 0 setdash
0 setlinecap
1 setlinejoin
1.00 setmiterlimit
np
248.49 329.82 m
2.17 0 l
o
np
249.58 329.82 m
0 0 l
o
np
248.49 329.82 m
2.17 0 l
o
np
270.18 323.15 m
2.17 0 l
o
np
271.27 323.15 m
0 -5.17 l
o
np
270.18 317.98 m
2.17 0 l
o
np
291.87 330.07 m
2.17 0 l
o
np
292.96 330.07 m
0 -4.53 l
o
np
291.87 325.54 m
2.17 0 l
o
np
313.56 331.80 m
2.17 0 l
o
np
314.65 331.80 m
0 -10.14 l
o
np
313.56 321.66 m
2.17 0 l
o
np
335.25 332.03 m
2.17 0 l
o
np
336.34 332.03 m
0 -9.33 l
o
np
335.25 322.70 m
2.17 0 l
o
1.49 setlinewidth
[] 0 setdash
np
249.58 329.82 m
21.69 -9.26 l
21.69 7.24 l
21.69 -1.07 l
21.69 0.63 l
o
/bg { 0 0 0 srgb } def
249.58 329.82 2.13 c p2
271.27 320.56 2.13 c p2
292.96 327.80 2.13 c p2
314.65 326.73 2.13 c p2
336.34 327.36 2.13 c p2
0.00 0.00 363.75 533.25 cl
0.00 0.00 363.75 533.25 cl
0 0 0 srgb
1.06 setlinewidth
[] 0 setdash
0 setlinecap
1 setlinejoin
10.00 setmiterlimit
np
236.57 311.82 m
0 60.42 l
o
0.00 0.00 363.75 533.25 cl
/Font1 findfont 10 s
0 0 0 srgb
229.48 310.97 (75) 1 0 t
229.48 326.23 (100) 1 0 t
229.48 341.49 (125) 1 0 t
229.48 356.75 (150) 1 0 t
0.00 0.00 363.75 533.25 cl
0.00 0.00 363.75 533.25 cl
0 0 0 srgb
1.06 setlinewidth
[] 0 setdash
0 setlinecap
1 setlinejoin
10.00 setmiterlimit
np
232.31 314.56 m
4.26 0 l
o
np
232.31 329.82 m
4.26 0 l
o
np
232.31 345.08 m
4.26 0 l
o
np
232.31 360.34 m
4.26 0 l
o
0.00 0.00 363.75 533.25 cl
0.00 0.00 363.75 533.25 cl
0.00 0.00 363.75 533.25 cl
0.00 0.00 363.75 533.25 cl
0.00 0.00 363.75 533.25 cl
0 0 0 srgb
1.06 setlinewidth
[] 0 setdash
0 setlinecap
1 setlinejoin
10.00 setmiterlimit
np
236.57 311.82 m
112.78 0 l
o
0.00 0.00 363.75 533.25 cl
0 0 0 srgb
1.06 setlinewidth
[] 0 setdash
0 setlinecap
1 setlinejoin
10.00 setmiterlimit
np
249.58 307.56 m
0 4.26 l
o
np
271.27 307.56 m
0 4.26 l
o
np
292.96 307.56 m
0 4.26 l
o
np
314.65 307.56 m
0 4.26 l
o
np
336.34 307.56 m
0 4.26 l
o
0.00 0.00 363.75 533.25 cl
0.00 0.00 363.75 533.25 cl
/Font1 findfont 10 s
0 0 0 srgb
249.58 297.55 (0) .5 0 t
271.27 297.55 (25) .5 0 t
292.96 297.55 (50) .5 0 t
314.65 297.55 (75) .5 0 t
336.34 297.55 (100) .5 0 t
0.00 0.00 363.75 533.25 cl
0.00 0.00 363.75 533.25 cl
0.00 0.00 363.75 533.25 cl
0.00 0.00 363.75 533.25 cl
0.00 0.00 363.75 533.25 cl
/Font1 findfont 12 s
0 0 0 srgb
292.96 285.33 ( ) .5 0 t
0.00 0.00 363.75 533.25 cl
0.00 0.00 363.75 533.25 cl
/Font1 findfont 12 s
0 0 0 srgb
209.20 342.03 ( ) .5 90 t
0.00 0.00 363.75 533.25 cl
0.00 0.00 363.75 533.25 cl
/Font1 findfont 14 s
0 0 0 srgb
292.96 375.84 ( ) .5 0 t
0.00 0.00 363.75 533.25 cl
0.00 0.00 363.75 533.25 cl
0.00 0.00 363.75 533.25 cl
0.00 0.00 363.75 533.25 cl
0.00 0.00 363.75 533.25 cl
0.00 0.00 363.75 533.25 cl
15.82 145.17 189.78 274.53 cl
/bg { 1 1 1 srgb } def
1 1 1 srgb
1.06 setlinewidth
[] 0 setdash
1 setlinecap
1 setlinejoin
10.00 setmiterlimit
15.82 145.17 173.97 129.36 r p3
0.00 0.00 363.75 533.25 cl
0.00 0.00 363.75 533.25 cl
0.00 0.00 363.75 533.25 cl
62.60 182.46 175.38 242.88 cl
/bg { 1 1 1 srgb } def
62.60 182.46 112.78 60.42 r p2
0 0 0 srgb
1.06 setlinewidth
[] 0 setdash
0 setlinecap
1 setlinejoin
1.00 setmiterlimit
np
74.53 200.46 m
2.17 0 l
o
np
75.61 200.46 m
0 0 l
o
np
74.53 200.46 m
2.17 0 l
o
np
96.22 211.15 m
2.17 0 l
o
np
97.30 211.15 m
0 -18.00 l
o
np
96.22 193.15 m
2.17 0 l
o
np
117.91 215.74 m
2.17 0 l
o
np
118.99 215.74 m
0 -15.28 l
o
np
117.91 200.46 m
2.17 0 l
o
np
139.60 210.78 m
2.16 0 l
o
np
140.68 210.78 m
0 -18.84 l
o
np
139.60 191.94 m
2.16 0 l
o
np
161.28 201.48 m
2.17 0 l
o
np
162.37 201.48 m
0 -14.06 l
o
np
161.28 187.42 m
2.17 0 l
o
1.49 setlinewidth
[] 0 setdash
np
75.61 200.46 m
21.69 1.69 l
21.69 5.95 l
21.69 -6.74 l
21.69 -6.91 l
o
/bg { 0 0 0 srgb } def
75.61 200.46 2.13 c p2
97.30 202.15 2.13 c p2
118.99 208.10 2.13 c p2
140.68 201.36 2.13 c p2
162.37 194.45 2.13 c p2
0.00 0.00 363.75 533.25 cl
0.00 0.00 363.75 533.25 cl
0 0 0 srgb
1.06 setlinewidth
[] 0 setdash
0 setlinecap
1 setlinejoin
10.00 setmiterlimit
np
62.60 182.46 m
0 60.42 l
o
0.00 0.00 363.75 533.25 cl
/Font1 findfont 10 s
0 0 0 srgb
55.51 181.61 (75) 1 0 t
55.51 196.87 (100) 1 0 t
55.51 212.13 (125) 1 0 t
55.51 227.39 (150) 1 0 t
0.00 0.00 363.75 533.25 cl
0.00 0.00 363.75 533.25 cl
0 0 0 srgb
1.06 setlinewidth
[] 0 setdash
0 setlinecap
1 setlinejoin
10.00 setmiterlimit
np
58.35 185.20 m
4.25 0 l
o
np
58.35 200.46 m
4.25 0 l
o
np
58.35 215.72 m
4.25 0 l
o
np
58.35 230.98 m
4.25 0 l
o
0.00 0.00 363.75 533.25 cl
0.00 0.00 363.75 533.25 cl
0.00 0.00 363.75 533.25 cl
0.00 0.00 363.75 533.25 cl
0.00 0.00 363.75 533.25 cl
0 0 0 srgb
1.06 setlinewidth
[] 0 setdash
0 setlinecap
1 setlinejoin
10.00 setmiterlimit
np
62.60 182.46 m
112.78 0 l
o
0.00 0.00 363.75 533.25 cl
0 0 0 srgb
1.06 setlinewidth
[] 0 setdash
0 setlinecap
1 setlinejoin
10.00 setmiterlimit
np
75.61 178.21 m
0 4.25 l
o
np
97.30 178.21 m
0 4.25 l
o
np
118.99 178.21 m
0 4.25 l
o
np
140.68 178.21 m
0 4.25 l
o
np
162.37 178.21 m
0 4.25 l
o
0.00 0.00 363.75 533.25 cl
0.00 0.00 363.75 533.25 cl
/Font1 findfont 10 s
0 0 0 srgb
75.61 168.19 (0) .5 0 t
97.30 168.19 (25) .5 0 t
118.99 168.19 (50) .5 0 t
140.68 168.19 (75) .5 0 t
162.37 168.19 (100) .5 0 t
0.00 0.00 363.75 533.25 cl
0.00 0.00 363.75 533.25 cl
0.00 0.00 363.75 533.25 cl
0.00 0.00 363.75 533.25 cl
0.00 0.00 363.75 533.25 cl
/Font1 findfont 12 s
0 0 0 srgb
118.99 155.97 ( ) .5 0 t
0.00 0.00 363.75 533.25 cl
0.00 0.00 363.75 533.25 cl
/Font1 findfont 12 s
0 0 0 srgb
35.23 212.67 ( ) .5 90 t
0.00 0.00 363.75 533.25 cl
0.00 0.00 363.75 533.25 cl
/Font1 findfont 14 s
0 0 0 srgb
118.99 246.48 ( ) .5 0 t
0.00 0.00 363.75 533.25 cl
0.00 0.00 363.75 533.25 cl
0.00 0.00 363.75 533.25 cl
0.00 0.00 363.75 533.25 cl
0.00 0.00 363.75 533.25 cl
0.00 0.00 363.75 533.25 cl
189.78 145.17 363.75 274.53 cl
/bg { 1 1 1 srgb } def
1 1 1 srgb
1.06 setlinewidth
[] 0 setdash
1 setlinecap
1 setlinejoin
10.00 setmiterlimit
189.78 145.17 173.97 129.36 r p3
0.00 0.00 363.75 533.25 cl
0.00 0.00 363.75 533.25 cl
0.00 0.00 363.75 533.25 cl
236.57 182.46 349.35 242.88 cl
/bg { 1 1 1 srgb } def
236.57 182.46 112.78 60.42 r p2
0 0 0 srgb
1.06 setlinewidth
[] 0 setdash
0 setlinecap
1 setlinejoin
1.00 setmiterlimit
np
248.49 200.46 m
2.17 0 l
o
np
249.58 200.46 m
0 0 l
o
np
248.49 200.46 m
2.17 0 l
o
np
270.18 205.21 m
2.17 0 l
o
np
271.27 205.21 m
0 -9.61 l
o
np
270.18 195.60 m
2.17 0 l
o
np
291.87 205.92 m
2.17 0 l
o
np
292.96 205.92 m
0 -5.61 l
o
np
291.87 200.31 m
2.17 0 l
o
np
313.56 201.22 m
2.17 0 l
o
np
314.65 201.22 m
0 -10.59 l
o
np
313.56 190.63 m
2.17 0 l
o
np
335.25 205.02 m
2.17 0 l
o
np
336.34 205.02 m
0 -8.63 l
o
np
335.25 196.39 m
2.17 0 l
o
1.49 setlinewidth
[] 0 setdash
np
249.58 200.46 m
21.69 -0.05 l
21.69 2.71 l
21.69 -7.20 l
21.69 4.78 l
o
/bg { 0 0 0 srgb } def
249.58 200.46 2.13 c p2
271.27 200.41 2.13 c p2
292.96 203.12 2.13 c p2
314.65 195.92 2.13 c p2
336.34 200.70 2.13 c p2
0.00 0.00 363.75 533.25 cl
0.00 0.00 363.75 533.25 cl
0 0 0 srgb
1.06 setlinewidth
[] 0 setdash
0 setlinecap
1 setlinejoin
10.00 setmiterlimit
np
236.57 182.46 m
0 60.42 l
o
0.00 0.00 363.75 533.25 cl
/Font1 findfont 10 s
0 0 0 srgb
229.48 181.61 (75) 1 0 t
229.48 196.87 (100) 1 0 t
229.48 212.13 (125) 1 0 t
229.48 227.39 (150) 1 0 t
0.00 0.00 363.75 533.25 cl
0.00 0.00 363.75 533.25 cl
0 0 0 srgb
1.06 setlinewidth
[] 0 setdash
0 setlinecap
1 setlinejoin
10.00 setmiterlimit
np
232.31 185.20 m
4.26 0 l
o
np
232.31 200.46 m
4.26 0 l
o
np
232.31 215.72 m
4.26 0 l
o
np
232.31 230.98 m
4.26 0 l
o
0.00 0.00 363.75 533.25 cl
0.00 0.00 363.75 533.25 cl
0.00 0.00 363.75 533.25 cl
0.00 0.00 363.75 533.25 cl
0.00 0.00 363.75 533.25 cl
0 0 0 srgb
1.06 setlinewidth
[] 0 setdash
0 setlinecap
1 setlinejoin
10.00 setmiterlimit
np
236.57 182.46 m
112.78 0 l
o
0.00 0.00 363.75 533.25 cl
0 0 0 srgb
1.06 setlinewidth
[] 0 setdash
0 setlinecap
1 setlinejoin
10.00 setmiterlimit
np
249.58 178.21 m
0 4.25 l
o
np
271.27 178.21 m
0 4.25 l
o
np
292.96 178.21 m
0 4.25 l
o
np
314.65 178.21 m
0 4.25 l
o
np
336.34 178.21 m
0 4.25 l
o
0.00 0.00 363.75 533.25 cl
0.00 0.00 363.75 533.25 cl
/Font1 findfont 10 s
0 0 0 srgb
249.58 168.19 (0) .5 0 t
271.27 168.19 (25) .5 0 t
292.96 168.19 (50) .5 0 t
314.65 168.19 (75) .5 0 t
336.34 168.19 (100) .5 0 t
0.00 0.00 363.75 533.25 cl
0.00 0.00 363.75 533.25 cl
0.00 0.00 363.75 533.25 cl
0.00 0.00 363.75 533.25 cl
0.00 0.00 363.75 533.25 cl
/Font1 findfont 12 s
0 0 0 srgb
292.96 155.97 ( ) .5 0 t
0.00 0.00 363.75 533.25 cl
0.00 0.00 363.75 533.25 cl
/Font1 findfont 12 s
0 0 0 srgb
209.20 212.67 ( ) .5 90 t
0.00 0.00 363.75 533.25 cl
0.00 0.00 363.75 533.25 cl
/Font1 findfont 14 s
0 0 0 srgb
292.96 246.48 ( ) .5 0 t
0.00 0.00 363.75 533.25 cl
0.00 0.00 363.75 533.25 cl
0.00 0.00 363.75 533.25 cl
0.00 0.00 363.75 533.25 cl
0.00 0.00 363.75 533.25 cl
0.00 0.00 363.75 533.25 cl
15.82 15.82 189.78 145.17 cl
/bg { 1 1 1 srgb } def
1 1 1 srgb
1.06 setlinewidth
[] 0 setdash
1 setlinecap
1 setlinejoin
10.00 setmiterlimit
15.82 15.82 173.97 129.36 r p3
0.00 0.00 363.75 533.25 cl
0.00 0.00 363.75 533.25 cl
0.00 0.00 363.75 533.25 cl
62.60 53.10 175.38 113.52 cl
/bg { 1 1 1 srgb } def
62.60 53.10 112.78 60.42 r p2
0 0 0 srgb
1.06 setlinewidth
[] 0 setdash
0 setlinecap
1 setlinejoin
1.00 setmiterlimit
np
74.53 71.10 m
2.17 0 l
o
np
75.61 71.10 m
0 0 l
o
np
74.53 71.10 m
2.17 0 l
o
np
96.22 74.84 m
2.17 0 l
o
np
97.30 74.84 m
0 -6.25 l
o
np
96.22 68.59 m
2.17 0 l
o
np
117.91 78.62 m
2.17 0 l
o
np
118.99 78.62 m
0 -5.48 l
o
np
117.91 73.14 m
2.17 0 l
o
np
139.60 82.59 m
2.16 0 l
o
np
140.68 82.59 m
0 -9.67 l
o
np
139.60 72.92 m
2.16 0 l
o
np
161.28 76.68 m
2.17 0 l
o
np
162.37 76.68 m
0 -5.18 l
o
np
161.28 71.50 m
2.17 0 l
o
1.49 setlinewidth
[] 0 setdash
np
75.61 71.10 m
21.69 0.62 l
21.69 4.16 l
21.69 1.87 l
21.69 -3.66 l
o
/bg { 0 0 0 srgb } def
75.61 71.10 2.13 c p2
97.30 71.72 2.13 c p2
118.99 75.88 2.13 c p2
140.68 77.75 2.13 c p2
162.37 74.09 2.13 c p2
0.00 0.00 363.75 533.25 cl
0.00 0.00 363.75 533.25 cl
0 0 0 srgb
1.06 setlinewidth
[] 0 setdash
0 setlinecap
1 setlinejoin
10.00 setmiterlimit
np
62.60 53.10 m
0 60.42 l
o
0.00 0.00 363.75 533.25 cl
/Font1 findfont 10 s
0 0 0 srgb
55.51 52.26 (75) 1 0 t
55.51 67.51 (100) 1 0 t
55.51 82.77 (125) 1 0 t
55.51 98.03 (150) 1 0 t
0.00 0.00 363.75 533.25 cl
0.00 0.00 363.75 533.25 cl
0 0 0 srgb
1.06 setlinewidth
[] 0 setdash
0 setlinecap
1 setlinejoin
10.00 setmiterlimit
np
58.35 55.85 m
4.25 0 l
o
np
58.35 71.10 m
4.25 0 l
o
np
58.35 86.36 m
4.25 0 l
o
np
58.35 101.62 m
4.25 0 l
o
0.00 0.00 363.75 533.25 cl
0.00 0.00 363.75 533.25 cl
0.00 0.00 363.75 533.25 cl
0.00 0.00 363.75 533.25 cl
0.00 0.00 363.75 533.25 cl
0 0 0 srgb
1.06 setlinewidth
[] 0 setdash
0 setlinecap
1 setlinejoin
10.00 setmiterlimit
np
62.60 53.10 m
112.78 0 l
o
0.00 0.00 363.75 533.25 cl
0 0 0 srgb
1.06 setlinewidth
[] 0 setdash
0 setlinecap
1 setlinejoin
10.00 setmiterlimit
np
75.61 48.85 m
0 4.25 l
o
np
97.30 48.85 m
0 4.25 l
o
np
118.99 48.85 m
0 4.25 l
o
np
140.68 48.85 m
0 4.25 l
o
np
162.37 48.85 m
0 4.25 l
o
0.00 0.00 363.75 533.25 cl
0.00 0.00 363.75 533.25 cl
/Font1 findfont 10 s
0 0 0 srgb
75.61 38.83 (0) .5 0 t
97.30 38.83 (25) .5 0 t
118.99 38.83 (50) .5 0 t
140.68 38.83 (75) .5 0 t
162.37 38.83 (100) .5 0 t
0.00 0.00 363.75 533.25 cl
0.00 0.00 363.75 533.25 cl
0.00 0.00 363.75 533.25 cl
0.00 0.00 363.75 533.25 cl
0.00 0.00 363.75 533.25 cl
/Font1 findfont 12 s
0 0 0 srgb
118.99 26.62 ( ) .5 0 t
0.00 0.00 363.75 533.25 cl
0.00 0.00 363.75 533.25 cl
/Font1 findfont 12 s
0 0 0 srgb
35.23 83.31 ( ) .5 90 t
0.00 0.00 363.75 533.25 cl
0.00 0.00 363.75 533.25 cl
/Font1 findfont 14 s
0 0 0 srgb
118.99 117.12 ( ) .5 0 t
0.00 0.00 363.75 533.25 cl
0.00 0.00 363.75 533.25 cl
0.00 0.00 363.75 533.25 cl
0.00 0.00 363.75 533.25 cl
0.00 0.00 363.75 533.25 cl
0.00 0.00 363.75 533.25 cl
189.78 15.82 363.75 145.17 cl
/bg { 1 1 1 srgb } def
1 1 1 srgb
1.06 setlinewidth
[] 0 setdash
1 setlinecap
1 setlinejoin
10.00 setmiterlimit
189.78 15.82 173.97 129.36 r p3
0.00 0.00 363.75 533.25 cl
0.00 0.00 363.75 533.25 cl
0.00 0.00 363.75 533.25 cl
236.57 53.10 349.35 113.52 cl
/bg { 1 1 1 srgb } def
236.57 53.10 112.78 60.42 r p2
0 0 0 srgb
1.06 setlinewidth
[] 0 setdash
0 setlinecap
1 setlinejoin
1.00 setmiterlimit
np
248.49 71.10 m
2.17 0 l
o
np
249.58 71.10 m
0 0 l
o
np
248.49 71.10 m
2.17 0 l
o
np
270.18 71.34 m
2.17 0 l
o
np
271.27 71.34 m
0 -10.76 l
o
np
270.18 60.58 m
2.17 0 l
o
np
291.87 75.62 m
2.17 0 l
o
np
292.96 75.62 m
0 -3.32 l
o
np
291.87 72.30 m
2.17 0 l
o
np
313.56 75.48 m
2.17 0 l
o
np
314.65 75.48 m
0 -5.30 l
o
np
313.56 70.18 m
2.17 0 l
o
np
335.25 74.34 m
2.17 0 l
o
np
336.34 74.34 m
0 -3.99 l
o
np
335.25 70.35 m
2.17 0 l
o
1.49 setlinewidth
[] 0 setdash
np
249.58 71.10 m
21.69 -5.14 l
21.69 8.00 l
21.69 -1.13 l
21.69 -0.48 l
o
/bg { 0 0 0 srgb } def
249.58 71.10 2.13 c p2
271.27 65.96 2.13 c p2
292.96 73.96 2.13 c p2
314.65 72.83 2.13 c p2
336.34 72.35 2.13 c p2
0.00 0.00 363.75 533.25 cl
0.00 0.00 363.75 533.25 cl
0 0 0 srgb
1.06 setlinewidth
[] 0 setdash
0 setlinecap
1 setlinejoin
10.00 setmiterlimit
np
236.57 53.10 m
0 60.42 l
o
0.00 0.00 363.75 533.25 cl
/Font1 findfont 10 s
0 0 0 srgb
229.48 52.26 (75) 1 0 t
229.48 67.51 (100) 1 0 t
229.48 82.77 (125) 1 0 t
229.48 98.03 (150) 1 0 t
0.00 0.00 363.75 533.25 cl
0.00 0.00 363.75 533.25 cl
0 0 0 srgb
1.06 setlinewidth
[] 0 setdash
0 setlinecap
1 setlinejoin
10.00 setmiterlimit
np
232.31 55.85 m
4.26 0 l
o
np
232.31 71.10 m
4.26 0 l
o
np
232.31 86.36 m
4.26 0 l
o
np
232.31 101.62 m
4.26 0 l
o
0.00 0.00 363.75 533.25 cl
0.00 0.00 363.75 533.25 cl
0.00 0.00 363.75 533.25 cl
0.00 0.00 363.75 533.25 cl
0.00 0.00 363.75 533.25 cl
0 0 0 srgb
1.06 setlinewidth
[] 0 setdash
0 setlinecap
1 setlinejoin
10.00 setmiterlimit
np
236.57 53.10 m
112.78 0 l
o
0.00 0.00 363.75 533.25 cl
0 0 0 srgb
1.06 setlinewidth
[] 0 setdash
0 setlinecap
1 setlinejoin
10.00 setmiterlimit
np
249.58 48.85 m
0 4.25 l
o
np
271.27 48.85 m
0 4.25 l
o
np
292.96 48.85 m
0 4.25 l
o
np
314.65 48.85 m
0 4.25 l
o
np
336.34 48.85 m
0 4.25 l
o
0.00 0.00 363.75 533.25 cl
0.00 0.00 363.75 533.25 cl
/Font1 findfont 10 s
0 0 0 srgb
249.58 38.83 (0) .5 0 t
271.27 38.83 (25) .5 0 t
292.96 38.83 (50) .5 0 t
314.65 38.83 (75) .5 0 t
336.34 38.83 (100) .5 0 t
0.00 0.00 363.75 533.25 cl
0.00 0.00 363.75 533.25 cl
0.00 0.00 363.75 533.25 cl
0.00 0.00 363.75 533.25 cl
0.00 0.00 363.75 533.25 cl
/Font1 findfont 12 s
0 0 0 srgb
292.96 26.62 ( ) .5 0 t
0.00 0.00 363.75 533.25 cl
0.00 0.00 363.75 533.25 cl
/Font1 findfont 12 s
0 0 0 srgb
209.20 83.31 ( ) .5 90 t
0.00 0.00 363.75 533.25 cl
0.00 0.00 363.75 533.25 cl
/Font1 findfont 14 s
0 0 0 srgb
292.96 117.12 ( ) .5 0 t
0.00 0.00 363.75 533.25 cl
0.00 0.00 363.75 533.25 cl
0.00 0.00 363.75 533.25 cl
0.00 0.00 363.75 533.25 cl
0.00 0.00 363.75 533.25 cl
/Font1 findfont 12 s
0 0 0 srgb
118.10 3.60 (Inter Stim) 0 ta
-0.120 (ulus Inter) tb
0.360 (v) tb
-0.300 (al \(ms\)) tb gr
0.00 0.00 363.75 533.25 cl
0.00 0.00 363.75 533.25 cl
/Font1 findfont 12 s
0 0 0 srgb
12.22 195.27 (Soleus H Refle) 90 ta
-0.360 (x Amplitude) tb gr
0.00 0.00 363.75 533.25 cl
0.00 0.00 363.75 533.25 cl
ep
%%Trailer
%%Pages: 1
%%EOF
