%!PS-Adobe-3.0 EPSF-3.0
%%DocumentNeededResources: font Helvetica
%%+ font Helvetica-Bold
%%+ font Helvetica-Oblique
%%+ font Helvetica-BoldOblique
%%+ font Symbol
%%Title: R Graphics Output
%%Creator: R Software
%%Pages: (atend)
%%BoundingBox: 0 0 323 400
%%EndComments
%%BeginProlog
/bp  { gs sRGB gs } def
% begin .ps.prolog
/gs  { gsave } bind def
/gr  { grestore } bind def
/ep  { showpage gr gr } bind def
/m   { moveto } bind def
/l  { rlineto } bind def
/np  { newpath } bind def
/cp  { closepath } bind def
/f   { fill } bind def
/o   { stroke } bind def
/c   { newpath 0 360 arc } bind def
/r   { 4 2 roll moveto 1 copy 3 -1 roll exch 0 exch rlineto 0 rlineto -1 mul 0 exch rlineto closepath } bind def
/p1  { stroke } bind def
/p2  { gsave bg fill grestore newpath } bind def
/p3  { gsave bg fill grestore stroke } bind def
/p6  { gsave bg eofill grestore newpath } bind def
/p7  { gsave bg eofill grestore stroke } bind def
/t   { 5 -2 roll moveto gsave rotate
       1 index stringwidth pop
       mul neg 0 rmoveto show grestore } bind def
/ta  { 4 -2 roll moveto gsave rotate show } bind def
/tb  { 2 -1 roll 0 rmoveto show } bind def
/cl  { grestore gsave newpath 3 index 3 index moveto 1 index
       4 -1 roll lineto  exch 1 index lineto lineto
       closepath clip newpath } bind def
/rgb { setrgbcolor } bind def
/s   { scalefont setfont } bind def
% end   .ps.prolog
/sRGB { [ /CIEBasedABC
          << /DecodeLMN
               [ { dup 0.03928 le
                        {12.92321 div}
                        {0.055 add 1.055 div 2.4 exp }
                     ifelse
                 } bind dup dup
               ]
             /MatrixLMN [0.412457 0.212673 0.019334
                         0.357576 0.715152 0.119192
                         0.180437 0.072175 0.950301]
             /WhitePoint [0.9505 1.0 1.0890]
           >>
         ] setcolorspace } bind def
/srgb { setcolor } bind def
%%IncludeResource: font Helvetica
/Helvetica findfont
dup length dict begin
  {1 index /FID ne {def} {pop pop} ifelse} forall
  /Encoding ISOLatin1Encoding def
  currentdict
  end
/Font1 exch definefont pop
%%IncludeResource: font Helvetica-Bold
/Helvetica-Bold findfont
dup length dict begin
  {1 index /FID ne {def} {pop pop} ifelse} forall
  /Encoding ISOLatin1Encoding def
  currentdict
  end
/Font2 exch definefont pop
%%IncludeResource: font Helvetica-Oblique
/Helvetica-Oblique findfont
dup length dict begin
  {1 index /FID ne {def} {pop pop} ifelse} forall
  /Encoding ISOLatin1Encoding def
  currentdict
  end
/Font3 exch definefont pop
%%IncludeResource: font Helvetica-BoldOblique
/Helvetica-BoldOblique findfont
dup length dict begin
  {1 index /FID ne {def} {pop pop} ifelse} forall
  /Encoding ISOLatin1Encoding def
  currentdict
  end
/Font4 exch definefont pop
%%IncludeResource: font Symbol
/Symbol findfont
dup length dict begin
  {1 index /FID ne {def} {pop pop} ifelse} forall
  currentdict
  end
/Font5 exch definefont pop
%%EndProlog
%%Page: 1 1
bp
0.00 0.00 323.25 400.50 cl
0.00 0.00 323.25 400.50 cl
0.00 0.00 323.25 400.50 cl
15.82 272.27 169.53 400.50 cl
/bg { 1 1 1 srgb } def
1 1 1 srgb
1.06 setlinewidth
[] 0 setdash
1 setlinecap
1 setlinejoin
10.00 setmiterlimit
15.82 272.27 153.72 128.23 r p3
0.00 0.00 323.25 400.50 cl
0.00 0.00 323.25 400.50 cl
0.00 0.00 323.25 400.50 cl
62.60 309.55 155.13 368.85 cl
/bg { 1 1 1 srgb } def
62.60 309.55 92.53 59.29 r p2
0 0 0 srgb
1.06 setlinewidth
[] 0 setdash
0 setlinecap
1 setlinejoin
1.00 setmiterlimit
np
72.39 340.14 m
1.78 0 l
o
np
73.28 340.14 m
0 -1.88 l
o
np
72.39 338.26 m
1.78 0 l
o
np
90.18 328.30 m
1.78 0 l
o
np
91.07 328.30 m
0 -2.73 l
o
np
90.18 325.57 m
1.78 0 l
o
np
107.98 330.78 m
1.78 0 l
o
np
108.87 330.78 m
0 -2.64 l
o
np
107.98 328.14 m
1.78 0 l
o
np
125.77 347.72 m
1.78 0 l
o
np
126.66 347.72 m
0 -2.61 l
o
np
125.77 345.11 m
1.78 0 l
o
np
143.57 347.78 m
1.78 0 l
o
np
144.46 347.78 m
0 -2.85 l
o
np
143.57 344.93 m
1.78 0 l
o
1.49 setlinewidth
[] 0 setdash
np
73.28 339.20 m
17.79 -12.26 l
17.80 2.52 l
17.79 16.95 l
17.80 -0.05 l
o
/bg { 0 0 0 srgb } def
73.28 339.20 2.13 c p2
91.07 326.94 2.13 c p2
108.87 329.46 2.13 c p2
126.66 346.41 2.13 c p2
144.46 346.36 2.13 c p2
0.00 0.00 323.25 400.50 cl
0.00 0.00 323.25 400.50 cl
0 0 0 srgb
1.06 setlinewidth
[] 0 setdash
0 setlinecap
1 setlinejoin
10.00 setmiterlimit
np
62.60 309.55 m
0 59.30 l
o
0.00 0.00 323.25 400.50 cl
/Font1 findfont 10 s
0 0 0 srgb
55.51 308.66 (60) 1 0 t
55.51 322.14 (80) 1 0 t
55.51 335.61 (100) 1 0 t
55.51 349.09 (120) 1 0 t
55.51 362.56 (140) 1 0 t
0.00 0.00 323.25 400.50 cl
0.00 0.00 323.25 400.50 cl
0 0 0 srgb
1.06 setlinewidth
[] 0 setdash
0 setlinecap
1 setlinejoin
10.00 setmiterlimit
np
58.35 312.25 m
4.25 0 l
o
np
58.35 325.73 m
4.25 0 l
o
np
58.35 339.20 m
4.25 0 l
o
np
58.35 352.68 m
4.25 0 l
o
np
58.35 366.15 m
4.25 0 l
o
0.00 0.00 323.25 400.50 cl
0.00 0.00 323.25 400.50 cl
0.00 0.00 323.25 400.50 cl
0.00 0.00 323.25 400.50 cl
0.00 0.00 323.25 400.50 cl
0 0 0 srgb
1.06 setlinewidth
[] 0 setdash
0 setlinecap
1 setlinejoin
10.00 setmiterlimit
np
62.60 309.55 m
92.53 0 l
o
0.00 0.00 323.25 400.50 cl
0 0 0 srgb
1.06 setlinewidth
[] 0 setdash
0 setlinecap
1 setlinejoin
10.00 setmiterlimit
np
73.28 305.30 m
0 4.25 l
o
np
91.07 305.30 m
0 4.25 l
o
np
108.87 305.30 m
0 4.25 l
o
np
126.66 305.30 m
0 4.25 l
o
np
144.46 305.30 m
0 4.25 l
o
0.00 0.00 323.25 400.50 cl
0.00 0.00 323.25 400.50 cl
/Font1 findfont 10 s
0 0 0 srgb
73.28 295.29 (0) .5 0 t
91.07 295.29 (25) .5 0 t
108.87 295.29 (50) .5 0 t
126.66 295.29 (75) .5 0 t
144.46 295.29 (100) .5 0 t
0.00 0.00 323.25 400.50 cl
0.00 0.00 323.25 400.50 cl
0.00 0.00 323.25 400.50 cl
0.00 0.00 323.25 400.50 cl
0.00 0.00 323.25 400.50 cl
/Font1 findfont 12 s
0 0 0 srgb
108.87 283.07 ( ) .5 0 t
0.00 0.00 323.25 400.50 cl
0.00 0.00 323.25 400.50 cl
/Font1 findfont 12 s
0 0 0 srgb
35.23 339.20 ( ) .5 90 t
0.00 0.00 323.25 400.50 cl
0.00 0.00 323.25 400.50 cl
/Font1 findfont 14 s
0 0 0 srgb
108.87 372.45 (Cycling) .5 0 t
0.00 0.00 323.25 400.50 cl
0.00 0.00 323.25 400.50 cl
0.00 0.00 323.25 400.50 cl
0.00 0.00 323.25 400.50 cl
0.00 0.00 323.25 400.50 cl
0.00 0.00 323.25 400.50 cl
169.53 272.27 323.25 400.50 cl
/bg { 1 1 1 srgb } def
1 1 1 srgb
1.06 setlinewidth
[] 0 setdash
1 setlinecap
1 setlinejoin
10.00 setmiterlimit
169.53 272.27 153.72 128.23 r p3
0.00 0.00 323.25 400.50 cl
0.00 0.00 323.25 400.50 cl
0.00 0.00 323.25 400.50 cl
216.32 309.55 308.85 368.85 cl
/bg { 1 1 1 srgb } def
216.32 309.55 92.53 59.29 r p2
0 0 0 srgb
1.06 setlinewidth
[] 0 setdash
0 setlinecap
1 setlinejoin
1.00 setmiterlimit
np
226.10 340.44 m
1.78 0 l
o
np
226.99 340.44 m
0 -2.48 l
o
np
226.10 337.96 m
1.78 0 l
o
np
243.90 333.56 m
1.78 0 l
o
np
244.79 333.56 m
0 -3.07 l
o
np
243.90 330.49 m
1.78 0 l
o
np
261.69 335.37 m
1.78 0 l
o
np
262.58 335.37 m
0 -2.90 l
o
np
261.69 332.47 m
1.78 0 l
o
np
279.49 347.41 m
1.78 0 l
o
np
280.38 347.41 m
0 -2.96 l
o
np
279.49 344.45 m
1.78 0 l
o
np
297.28 347.10 m
1.78 0 l
o
np
298.17 347.10 m
0 -3.16 l
o
np
297.28 343.94 m
1.78 0 l
o
1.49 setlinewidth
[] 0 setdash
np
226.99 339.20 m
17.80 -7.17 l
17.79 1.89 l
17.80 12.01 l
17.79 -0.41 l
o
/bg { 0 0 0 srgb } def
226.99 339.20 2.13 c p2
244.79 332.03 2.13 c p2
262.58 333.92 2.13 c p2
280.38 345.93 2.13 c p2
298.17 345.52 2.13 c p2
0.00 0.00 323.25 400.50 cl
0.00 0.00 323.25 400.50 cl
0 0 0 srgb
1.06 setlinewidth
[] 0 setdash
0 setlinecap
1 setlinejoin
10.00 setmiterlimit
np
216.32 309.55 m
0 59.30 l
o
0.00 0.00 323.25 400.50 cl
/Font1 findfont 10 s
0 0 0 srgb
209.23 308.66 (60) 1 0 t
209.23 322.14 (80) 1 0 t
209.23 335.61 (100) 1 0 t
209.23 349.09 (120) 1 0 t
209.23 362.56 (140) 1 0 t
0.00 0.00 323.25 400.50 cl
0.00 0.00 323.25 400.50 cl
0 0 0 srgb
1.06 setlinewidth
[] 0 setdash
0 setlinecap
1 setlinejoin
10.00 setmiterlimit
np
212.06 312.25 m
4.26 0 l
o
np
212.06 325.73 m
4.26 0 l
o
np
212.06 339.20 m
4.26 0 l
o
np
212.06 352.68 m
4.26 0 l
o
np
212.06 366.15 m
4.26 0 l
o
0.00 0.00 323.25 400.50 cl
0.00 0.00 323.25 400.50 cl
0.00 0.00 323.25 400.50 cl
0.00 0.00 323.25 400.50 cl
0.00 0.00 323.25 400.50 cl
0 0 0 srgb
1.06 setlinewidth
[] 0 setdash
0 setlinecap
1 setlinejoin
10.00 setmiterlimit
np
216.32 309.55 m
92.53 0 l
o
0.00 0.00 323.25 400.50 cl
0 0 0 srgb
1.06 setlinewidth
[] 0 setdash
0 setlinecap
1 setlinejoin
10.00 setmiterlimit
np
226.99 305.30 m
0 4.25 l
o
np
244.79 305.30 m
0 4.25 l
o
np
262.58 305.30 m
0 4.25 l
o
np
280.38 305.30 m
0 4.25 l
o
np
298.17 305.30 m
0 4.25 l
o
0.00 0.00 323.25 400.50 cl
0.00 0.00 323.25 400.50 cl
/Font1 findfont 10 s
0 0 0 srgb
226.99 295.29 (0) .5 0 t
244.79 295.29 (25) .5 0 t
262.58 295.29 (50) .5 0 t
280.38 295.29 (75) .5 0 t
298.17 295.29 (100) .5 0 t
0.00 0.00 323.25 400.50 cl
0.00 0.00 323.25 400.50 cl
0.00 0.00 323.25 400.50 cl
0.00 0.00 323.25 400.50 cl
0.00 0.00 323.25 400.50 cl
/Font1 findfont 12 s
0 0 0 srgb
262.58 283.07 ( ) .5 0 t
0.00 0.00 323.25 400.50 cl
0.00 0.00 323.25 400.50 cl
/Font1 findfont 12 s
0 0 0 srgb
188.95 339.20 ( ) .5 90 t
0.00 0.00 323.25 400.50 cl
0.00 0.00 323.25 400.50 cl
/Font1 findfont 14 s
0 0 0 srgb
262.58 372.45 (ES Cycling) .5 0 t
0.00 0.00 323.25 400.50 cl
0.00 0.00 323.25 400.50 cl
0.00 0.00 323.25 400.50 cl
0.00 0.00 323.25 400.50 cl
0.00 0.00 323.25 400.50 cl
0.00 0.00 323.25 400.50 cl
15.82 144.04 169.53 272.27 cl
/bg { 1 1 1 srgb } def
1 1 1 srgb
1.06 setlinewidth
[] 0 setdash
1 setlinecap
1 setlinejoin
10.00 setmiterlimit
15.82 144.04 153.72 128.23 r p3
0.00 0.00 323.25 400.50 cl
0.00 0.00 323.25 400.50 cl
0.00 0.00 323.25 400.50 cl
62.60 181.33 155.13 240.62 cl
/bg { 1 1 1 srgb } def
62.60 181.33 92.53 59.29 r p2
0 0 0 srgb
1.06 setlinewidth
[] 0 setdash
0 setlinecap
1 setlinejoin
1.00 setmiterlimit
np
72.39 212.70 m
1.78 0 l
o
np
73.28 212.70 m
0 -3.46 l
o
np
72.39 209.24 m
1.78 0 l
o
np
90.18 210.89 m
1.78 0 l
o
np
91.07 210.89 m
0 -4.02 l
o
np
90.18 206.87 m
1.78 0 l
o
np
107.98 216.88 m
1.78 0 l
o
np
108.87 216.88 m
0 -3.97 l
o
np
107.98 212.91 m
1.78 0 l
o
np
125.77 219.77 m
1.78 0 l
o
np
126.66 219.77 m
0 -4.71 l
o
np
125.77 215.06 m
1.78 0 l
o
np
143.57 211.64 m
1.78 0 l
o
np
144.46 211.64 m
0 -4.63 l
o
np
143.57 207.01 m
1.78 0 l
o
1.49 setlinewidth
[] 0 setdash
np
73.28 210.97 m
17.79 -2.09 l
17.80 6.01 l
17.79 2.52 l
17.80 -8.08 l
o
/bg { 0 0 0 srgb } def
73.28 210.97 2.13 c p2
91.07 208.88 2.13 c p2
108.87 214.89 2.13 c p2
126.66 217.41 2.13 c p2
144.46 209.33 2.13 c p2
0.00 0.00 323.25 400.50 cl
0.00 0.00 323.25 400.50 cl
0 0 0 srgb
1.06 setlinewidth
[] 0 setdash
0 setlinecap
1 setlinejoin
10.00 setmiterlimit
np
62.60 181.33 m
0 59.29 l
o
0.00 0.00 323.25 400.50 cl
/Font1 findfont 10 s
0 0 0 srgb
55.51 180.43 (60) 1 0 t
55.51 193.91 (80) 1 0 t
55.51 207.38 (100) 1 0 t
55.51 220.86 (120) 1 0 t
55.51 234.33 (140) 1 0 t
0.00 0.00 323.25 400.50 cl
0.00 0.00 323.25 400.50 cl
0 0 0 srgb
1.06 setlinewidth
[] 0 setdash
0 setlinecap
1 setlinejoin
10.00 setmiterlimit
np
58.35 184.02 m
4.25 0 l
o
np
58.35 197.50 m
4.25 0 l
o
np
58.35 210.97 m
4.25 0 l
o
np
58.35 224.45 m
4.25 0 l
o
np
58.35 237.92 m
4.25 0 l
o
0.00 0.00 323.25 400.50 cl
0.00 0.00 323.25 400.50 cl
0.00 0.00 323.25 400.50 cl
0.00 0.00 323.25 400.50 cl
0.00 0.00 323.25 400.50 cl
0 0 0 srgb
1.06 setlinewidth
[] 0 setdash
0 setlinecap
1 setlinejoin
10.00 setmiterlimit
np
62.60 181.33 m
92.53 0 l
o
0.00 0.00 323.25 400.50 cl
0 0 0 srgb
1.06 setlinewidth
[] 0 setdash
0 setlinecap
1 setlinejoin
10.00 setmiterlimit
np
73.28 177.07 m
0 4.26 l
o
np
91.07 177.07 m
0 4.26 l
o
np
108.87 177.07 m
0 4.26 l
o
np
126.66 177.07 m
0 4.26 l
o
np
144.46 177.07 m
0 4.26 l
o
0.00 0.00 323.25 400.50 cl
0.00 0.00 323.25 400.50 cl
/Font1 findfont 10 s
0 0 0 srgb
73.28 167.06 (0) .5 0 t
91.07 167.06 (25) .5 0 t
108.87 167.06 (50) .5 0 t
126.66 167.06 (75) .5 0 t
144.46 167.06 (100) .5 0 t
0.00 0.00 323.25 400.50 cl
0.00 0.00 323.25 400.50 cl
0.00 0.00 323.25 400.50 cl
0.00 0.00 323.25 400.50 cl
0.00 0.00 323.25 400.50 cl
/Font1 findfont 12 s
0 0 0 srgb
108.87 154.84 ( ) .5 0 t
0.00 0.00 323.25 400.50 cl
0.00 0.00 323.25 400.50 cl
/Font1 findfont 12 s
0 0 0 srgb
35.23 210.97 ( ) .5 90 t
0.00 0.00 323.25 400.50 cl
0.00 0.00 323.25 400.50 cl
/Font1 findfont 14 s
0 0 0 srgb
108.87 244.22 ( ) .5 0 t
0.00 0.00 323.25 400.50 cl
0.00 0.00 323.25 400.50 cl
0.00 0.00 323.25 400.50 cl
0.00 0.00 323.25 400.50 cl
0.00 0.00 323.25 400.50 cl
0.00 0.00 323.25 400.50 cl
169.53 144.04 323.25 272.27 cl
/bg { 1 1 1 srgb } def
1 1 1 srgb
1.06 setlinewidth
[] 0 setdash
1 setlinecap
1 setlinejoin
10.00 setmiterlimit
169.53 144.04 153.72 128.23 r p3
0.00 0.00 323.25 400.50 cl
0.00 0.00 323.25 400.50 cl
0.00 0.00 323.25 400.50 cl
216.32 181.33 308.85 240.62 cl
/bg { 1 1 1 srgb } def
216.32 181.33 92.53 59.29 r p2
0 0 0 srgb
1.06 setlinewidth
[] 0 setdash
0 setlinecap
1 setlinejoin
1.00 setmiterlimit
np
226.10 212.33 m
1.78 0 l
o
np
226.99 212.33 m
0 -2.71 l
o
np
226.10 209.62 m
1.78 0 l
o
np
243.90 206.47 m
1.78 0 l
o
np
244.79 206.47 m
0 -3.31 l
o
np
243.90 203.16 m
1.78 0 l
o
np
261.69 212.17 m
1.78 0 l
o
np
262.58 212.17 m
0 -2.72 l
o
np
261.69 209.45 m
1.78 0 l
o
np
279.49 208.47 m
1.78 0 l
o
np
280.38 208.47 m
0 -3.09 l
o
np
279.49 205.38 m
1.78 0 l
o
np
297.28 211.02 m
1.78 0 l
o
np
298.17 211.02 m
0 -3.13 l
o
np
297.28 207.89 m
1.78 0 l
o
1.49 setlinewidth
[] 0 setdash
np
226.99 210.97 m
17.80 -6.15 l
17.79 5.99 l
17.80 -3.89 l
17.79 2.53 l
o
/bg { 0 0 0 srgb } def
226.99 210.97 2.13 c p2
244.79 204.82 2.13 c p2
262.58 210.81 2.13 c p2
280.38 206.92 2.13 c p2
298.17 209.45 2.13 c p2
0.00 0.00 323.25 400.50 cl
0.00 0.00 323.25 400.50 cl
0 0 0 srgb
1.06 setlinewidth
[] 0 setdash
0 setlinecap
1 setlinejoin
10.00 setmiterlimit
np
216.32 181.33 m
0 59.29 l
o
0.00 0.00 323.25 400.50 cl
/Font1 findfont 10 s
0 0 0 srgb
209.23 180.43 (60) 1 0 t
209.23 193.91 (80) 1 0 t
209.23 207.38 (100) 1 0 t
209.23 220.86 (120) 1 0 t
209.23 234.33 (140) 1 0 t
0.00 0.00 323.25 400.50 cl
0.00 0.00 323.25 400.50 cl
0 0 0 srgb
1.06 setlinewidth
[] 0 setdash
0 setlinecap
1 setlinejoin
10.00 setmiterlimit
np
212.06 184.02 m
4.26 0 l
o
np
212.06 197.50 m
4.26 0 l
o
np
212.06 210.97 m
4.26 0 l
o
np
212.06 224.45 m
4.26 0 l
o
np
212.06 237.92 m
4.26 0 l
o
0.00 0.00 323.25 400.50 cl
0.00 0.00 323.25 400.50 cl
0.00 0.00 323.25 400.50 cl
0.00 0.00 323.25 400.50 cl
0.00 0.00 323.25 400.50 cl
0 0 0 srgb
1.06 setlinewidth
[] 0 setdash
0 setlinecap
1 setlinejoin
10.00 setmiterlimit
np
216.32 181.33 m
92.53 0 l
o
0.00 0.00 323.25 400.50 cl
0 0 0 srgb
1.06 setlinewidth
[] 0 setdash
0 setlinecap
1 setlinejoin
10.00 setmiterlimit
np
226.99 177.07 m
0 4.26 l
o
np
244.79 177.07 m
0 4.26 l
o
np
262.58 177.07 m
0 4.26 l
o
np
280.38 177.07 m
0 4.26 l
o
np
298.17 177.07 m
0 4.26 l
o
0.00 0.00 323.25 400.50 cl
0.00 0.00 323.25 400.50 cl
/Font1 findfont 10 s
0 0 0 srgb
226.99 167.06 (0) .5 0 t
244.79 167.06 (25) .5 0 t
262.58 167.06 (50) .5 0 t
280.38 167.06 (75) .5 0 t
298.17 167.06 (100) .5 0 t
0.00 0.00 323.25 400.50 cl
0.00 0.00 323.25 400.50 cl
0.00 0.00 323.25 400.50 cl
0.00 0.00 323.25 400.50 cl
0.00 0.00 323.25 400.50 cl
/Font1 findfont 12 s
0 0 0 srgb
262.58 154.84 ( ) .5 0 t
0.00 0.00 323.25 400.50 cl
0.00 0.00 323.25 400.50 cl
/Font1 findfont 12 s
0 0 0 srgb
188.95 210.97 ( ) .5 90 t
0.00 0.00 323.25 400.50 cl
0.00 0.00 323.25 400.50 cl
/Font1 findfont 14 s
0 0 0 srgb
262.58 244.22 ( ) .5 0 t
0.00 0.00 323.25 400.50 cl
0.00 0.00 323.25 400.50 cl
0.00 0.00 323.25 400.50 cl
0.00 0.00 323.25 400.50 cl
0.00 0.00 323.25 400.50 cl
0.00 0.00 323.25 400.50 cl
15.82 15.82 169.53 144.04 cl
/bg { 1 1 1 srgb } def
1 1 1 srgb
1.06 setlinewidth
[] 0 setdash
1 setlinecap
1 setlinejoin
10.00 setmiterlimit
15.82 15.82 153.72 128.23 r p3
0.00 0.00 323.25 400.50 cl
0.00 0.00 323.25 400.50 cl
0.00 0.00 323.25 400.50 cl
62.60 53.10 155.13 112.39 cl
/bg { 1 1 1 srgb } def
62.60 53.10 92.53 59.29 r p2
0 0 0 srgb
1.06 setlinewidth
[] 0 setdash
0 setlinecap
1 setlinejoin
1.00 setmiterlimit
np
72.39 84.63 m
1.78 0 l
o
np
73.28 84.63 m
0 -3.77 l
o
np
72.39 80.86 m
1.78 0 l
o
np
90.18 85.79 m
1.78 0 l
o
np
91.07 85.79 m
0 -4.73 l
o
np
90.18 81.06 m
1.78 0 l
o
np
107.98 90.15 m
1.78 0 l
o
np
108.87 90.15 m
0 -4.26 l
o
np
107.98 85.89 m
1.78 0 l
o
np
125.77 91.95 m
1.78 0 l
o
np
126.66 91.95 m
0 -3.73 l
o
np
125.77 88.22 m
1.78 0 l
o
np
143.57 87.89 m
1.78 0 l
o
np
144.46 87.89 m
0 -3.69 l
o
np
143.57 84.20 m
1.78 0 l
o
1.49 setlinewidth
[] 0 setdash
np
73.28 82.75 m
17.79 0.67 l
17.80 4.60 l
17.79 2.06 l
17.80 -4.03 l
o
/bg { 0 0 0 srgb } def
73.28 82.75 2.13 c p2
91.07 83.42 2.13 c p2
108.87 88.02 2.13 c p2
126.66 90.08 2.13 c p2
144.46 86.05 2.13 c p2
0.00 0.00 323.25 400.50 cl
0.00 0.00 323.25 400.50 cl
0 0 0 srgb
1.06 setlinewidth
[] 0 setdash
0 setlinecap
1 setlinejoin
10.00 setmiterlimit
np
62.60 53.10 m
0 59.29 l
o
0.00 0.00 323.25 400.50 cl
/Font1 findfont 10 s
0 0 0 srgb
55.51 52.20 (60) 1 0 t
55.51 65.68 (80) 1 0 t
55.51 79.16 (100) 1 0 t
55.51 92.63 (120) 1 0 t
55.51 106.11 (140) 1 0 t
0.00 0.00 323.25 400.50 cl
0.00 0.00 323.25 400.50 cl
0 0 0 srgb
1.06 setlinewidth
[] 0 setdash
0 setlinecap
1 setlinejoin
10.00 setmiterlimit
np
58.35 55.79 m
4.25 0 l
o
np
58.35 69.27 m
4.25 0 l
o
np
58.35 82.75 m
4.25 0 l
o
np
58.35 96.22 m
4.25 0 l
o
np
58.35 109.70 m
4.25 0 l
o
0.00 0.00 323.25 400.50 cl
0.00 0.00 323.25 400.50 cl
0.00 0.00 323.25 400.50 cl
0.00 0.00 323.25 400.50 cl
0.00 0.00 323.25 400.50 cl
0 0 0 srgb
1.06 setlinewidth
[] 0 setdash
0 setlinecap
1 setlinejoin
10.00 setmiterlimit
np
62.60 53.10 m
92.53 0 l
o
0.00 0.00 323.25 400.50 cl
0 0 0 srgb
1.06 setlinewidth
[] 0 setdash
0 setlinecap
1 setlinejoin
10.00 setmiterlimit
np
73.28 48.85 m
0 4.25 l
o
np
91.07 48.85 m
0 4.25 l
o
np
108.87 48.85 m
0 4.25 l
o
np
126.66 48.85 m
0 4.25 l
o
np
144.46 48.85 m
0 4.25 l
o
0.00 0.00 323.25 400.50 cl
0.00 0.00 323.25 400.50 cl
/Font1 findfont 10 s
0 0 0 srgb
73.28 38.83 (0) .5 0 t
91.07 38.83 (25) .5 0 t
108.87 38.83 (50) .5 0 t
126.66 38.83 (75) .5 0 t
144.46 38.83 (100) .5 0 t
0.00 0.00 323.25 400.50 cl
0.00 0.00 323.25 400.50 cl
0.00 0.00 323.25 400.50 cl
0.00 0.00 323.25 400.50 cl
0.00 0.00 323.25 400.50 cl
/Font1 findfont 12 s
0 0 0 srgb
108.87 26.62 ( ) .5 0 t
0.00 0.00 323.25 400.50 cl
0.00 0.00 323.25 400.50 cl
/Font1 findfont 12 s
0 0 0 srgb
35.23 82.75 ( ) .5 90 t
0.00 0.00 323.25 400.50 cl
0.00 0.00 323.25 400.50 cl
/Font1 findfont 14 s
0 0 0 srgb
108.87 115.99 ( ) .5 0 t
0.00 0.00 323.25 400.50 cl
0.00 0.00 323.25 400.50 cl
0.00 0.00 323.25 400.50 cl
0.00 0.00 323.25 400.50 cl
0.00 0.00 323.25 400.50 cl
0.00 0.00 323.25 400.50 cl
169.53 15.82 323.25 144.04 cl
/bg { 1 1 1 srgb } def
1 1 1 srgb
1.06 setlinewidth
[] 0 setdash
1 setlinecap
1 setlinejoin
10.00 setmiterlimit
169.53 15.82 153.72 128.23 r p3
0.00 0.00 323.25 400.50 cl
0.00 0.00 323.25 400.50 cl
0.00 0.00 323.25 400.50 cl
216.32 53.10 308.85 112.39 cl
/bg { 1 1 1 srgb } def
216.32 53.10 92.53 59.29 r p2
0 0 0 srgb
1.06 setlinewidth
[] 0 setdash
0 setlinecap
1 setlinejoin
1.00 setmiterlimit
np
226.10 83.64 m
1.78 0 l
o
np
226.99 83.64 m
0 -1.79 l
o
np
226.10 81.85 m
1.78 0 l
o
np
243.90 78.67 m
1.78 0 l
o
np
244.79 78.67 m
0 -3.21 l
o
np
243.90 75.46 m
1.78 0 l
o
np
261.69 86.76 m
1.78 0 l
o
np
262.58 86.76 m
0 -1.73 l
o
np
261.69 85.03 m
1.78 0 l
o
np
279.49 85.82 m
1.78 0 l
o
np
280.38 85.82 m
0 -2.34 l
o
np
279.49 83.48 m
1.78 0 l
o
np
297.28 85.10 m
1.78 0 l
o
np
298.17 85.10 m
0 -1.96 l
o
np
297.28 83.14 m
1.78 0 l
o
1.49 setlinewidth
[] 0 setdash
np
226.99 82.75 m
17.80 -5.68 l
17.79 8.83 l
17.80 -1.25 l
17.79 -0.53 l
o
/bg { 0 0 0 srgb } def
226.99 82.75 2.13 c p2
244.79 77.07 2.13 c p2
262.58 85.90 2.13 c p2
280.38 84.65 2.13 c p2
298.17 84.12 2.13 c p2
0.00 0.00 323.25 400.50 cl
0.00 0.00 323.25 400.50 cl
0 0 0 srgb
1.06 setlinewidth
[] 0 setdash
0 setlinecap
1 setlinejoin
10.00 setmiterlimit
np
216.32 53.10 m
0 59.29 l
o
0.00 0.00 323.25 400.50 cl
/Font1 findfont 10 s
0 0 0 srgb
209.23 52.20 (60) 1 0 t
209.23 65.68 (80) 1 0 t
209.23 79.16 (100) 1 0 t
209.23 92.63 (120) 1 0 t
209.23 106.11 (140) 1 0 t
0.00 0.00 323.25 400.50 cl
0.00 0.00 323.25 400.50 cl
0 0 0 srgb
1.06 setlinewidth
[] 0 setdash
0 setlinecap
1 setlinejoin
10.00 setmiterlimit
np
212.06 55.79 m
4.26 0 l
o
np
212.06 69.27 m
4.26 0 l
o
np
212.06 82.75 m
4.26 0 l
o
np
212.06 96.22 m
4.26 0 l
o
np
212.06 109.70 m
4.26 0 l
o
0.00 0.00 323.25 400.50 cl
0.00 0.00 323.25 400.50 cl
0.00 0.00 323.25 400.50 cl
0.00 0.00 323.25 400.50 cl
0.00 0.00 323.25 400.50 cl
0 0 0 srgb
1.06 setlinewidth
[] 0 setdash
0 setlinecap
1 setlinejoin
10.00 setmiterlimit
np
216.32 53.10 m
92.53 0 l
o
0.00 0.00 323.25 400.50 cl
0 0 0 srgb
1.06 setlinewidth
[] 0 setdash
0 setlinecap
1 setlinejoin
10.00 setmiterlimit
np
226.99 48.85 m
0 4.25 l
o
np
244.79 48.85 m
0 4.25 l
o
np
262.58 48.85 m
0 4.25 l
o
np
280.38 48.85 m
0 4.25 l
o
np
298.17 48.85 m
0 4.25 l
o
0.00 0.00 323.25 400.50 cl
0.00 0.00 323.25 400.50 cl
/Font1 findfont 10 s
0 0 0 srgb
226.99 38.83 (0) .5 0 t
244.79 38.83 (25) .5 0 t
262.58 38.83 (50) .5 0 t
280.38 38.83 (75) .5 0 t
298.17 38.83 (100) .5 0 t
0.00 0.00 323.25 400.50 cl
0.00 0.00 323.25 400.50 cl
0.00 0.00 323.25 400.50 cl
0.00 0.00 323.25 400.50 cl
0.00 0.00 323.25 400.50 cl
/Font1 findfont 12 s
0 0 0 srgb
262.58 26.62 ( ) .5 0 t
0.00 0.00 323.25 400.50 cl
0.00 0.00 323.25 400.50 cl
/Font1 findfont 12 s
0 0 0 srgb
188.95 82.75 ( ) .5 90 t
0.00 0.00 323.25 400.50 cl
0.00 0.00 323.25 400.50 cl
/Font1 findfont 14 s
0 0 0 srgb
262.58 115.99 ( ) .5 0 t
0.00 0.00 323.25 400.50 cl
0.00 0.00 323.25 400.50 cl
0.00 0.00 323.25 400.50 cl
0.00 0.00 323.25 400.50 cl
0.00 0.00 323.25 400.50 cl
/Font1 findfont 12 s
0 0 0 srgb
97.85 3.60 (Inter Stim) 0 ta
-0.120 (ulus Inter) tb
0.360 (v) tb
-0.300 (al \(ms\)) tb gr
0.00 0.00 323.25 400.50 cl
0.00 0.00 323.25 400.50 cl
/Font1 findfont 12 s
0 0 0 srgb
12.22 128.89 (Soleus H Refle) 90 ta
-0.360 (x Amplitude) tb gr
0.00 0.00 323.25 400.50 cl
0.00 0.00 323.25 400.50 cl
ep
%%Trailer
%%Pages: 1
%%EOF
