%!PS-Adobe-3.0 EPSF-3.0
%%DocumentNeededResources: font Helvetica
%%+ font Helvetica-Bold
%%+ font Helvetica-Oblique
%%+ font Helvetica-BoldOblique
%%+ font Symbol
%%Title: R Graphics Output
%%Creator: R Software
%%Pages: (atend)
%%BoundingBox: 0 0 86 106
%%EndComments
%%BeginProlog
/bp  { gs sRGB gs } def
% begin .ps.prolog
/gs  { gsave } bind def
/gr  { grestore } bind def
/ep  { showpage gr gr } bind def
/m   { moveto } bind def
/l  { rlineto } bind def
/np  { newpath } bind def
/cp  { closepath } bind def
/f   { fill } bind def
/o   { stroke } bind def
/c   { newpath 0 360 arc } bind def
/r   { 4 2 roll moveto 1 copy 3 -1 roll exch 0 exch rlineto 0 rlineto -1 mul 0 exch rlineto closepath } bind def
/p1  { stroke } bind def
/p2  { gsave bg fill grestore newpath } bind def
/p3  { gsave bg fill grestore stroke } bind def
/p6  { gsave bg eofill grestore newpath } bind def
/p7  { gsave bg eofill grestore stroke } bind def
/t   { 5 -2 roll moveto gsave rotate
       1 index stringwidth pop
       mul neg 0 rmoveto show grestore } bind def
/ta  { 4 -2 roll moveto gsave rotate show } bind def
/tb  { 2 -1 roll 0 rmoveto show } bind def
/cl  { grestore gsave newpath 3 index 3 index moveto 1 index
       4 -1 roll lineto  exch 1 index lineto lineto
       closepath clip newpath } bind def
/rgb { setrgbcolor } bind def
/s   { scalefont setfont } bind def
% end   .ps.prolog
/sRGB { [ /CIEBasedABC
          << /DecodeLMN
               [ { dup 0.03928 le
                        {12.92321 div}
                        {0.055 add 1.055 div 2.4 exp }
                     ifelse
                 } bind dup dup
               ]
             /MatrixLMN [0.412457 0.212673 0.019334
                         0.357576 0.715152 0.119192
                         0.180437 0.072175 0.950301]
             /WhitePoint [0.9505 1.0 1.0890]
           >>
         ] setcolorspace } bind def
/srgb { setcolor } bind def
%%IncludeResource: font Helvetica
/Helvetica findfont
dup length dict begin
  {1 index /FID ne {def} {pop pop} ifelse} forall
  /Encoding ISOLatin1Encoding def
  currentdict
  end
/Font1 exch definefont pop
%%IncludeResource: font Helvetica-Bold
/Helvetica-Bold findfont
dup length dict begin
  {1 index /FID ne {def} {pop pop} ifelse} forall
  /Encoding ISOLatin1Encoding def
  currentdict
  end
/Font2 exch definefont pop
%%IncludeResource: font Helvetica-Oblique
/Helvetica-Oblique findfont
dup length dict begin
  {1 index /FID ne {def} {pop pop} ifelse} forall
  /Encoding ISOLatin1Encoding def
  currentdict
  end
/Font3 exch definefont pop
%%IncludeResource: font Helvetica-BoldOblique
/Helvetica-BoldOblique findfont
dup length dict begin
  {1 index /FID ne {def} {pop pop} ifelse} forall
  /Encoding ISOLatin1Encoding def
  currentdict
  end
/Font4 exch definefont pop
%%IncludeResource: font Symbol
/Symbol findfont
dup length dict begin
  {1 index /FID ne {def} {pop pop} ifelse} forall
  currentdict
  end
/Font5 exch definefont pop
%%EndProlog
%%Page: 1 1
bp
0.00 0.00 85.50 105.75 cl
0.00 0.00 85.50 105.75 cl
0.00 0.00 85.50 105.75 cl
2.65 56.29 63.83 105.75 cl
/bg { 1 1 1 srgb } def
1 1 1 srgb
1.06 setlinewidth
[] 0 setdash
1 setlinecap
1 setlinejoin
10.00 setmiterlimit
2.65 56.29 61.18 68.93 r p3
0.00 0.00 85.50 105.75 cl
0.00 0.00 85.50 105.75 cl
0.00 0.00 85.50 105.75 cl
49.43 93.58 49.43 93.58 cl
/bg { 1 1 1 srgb } def
49.43 93.58 0.00 0.00 r p2
0 0 0 srgb
1.06 setlinewidth
[] 0 setdash
0 setlinecap
1 setlinejoin
1.00 setmiterlimit
np
49.43 93.58 m
0 0 l
o
np
49.43 93.58 m
0 0 l
o
np
49.43 93.58 m
0 0 l
o
np
49.43 93.58 m
0 0 l
o
np
49.43 93.58 m
0 0 l
o
np
49.43 93.58 m
0 0 l
o
np
49.43 93.58 m
0 0 l
o
np
49.43 93.58 m
0 0 l
o
np
49.43 93.58 m
0 0 l
o
np
49.43 93.58 m
0 0 l
o
np
49.43 93.58 m
0 0 l
o
np
49.43 93.58 m
0 0 l
o
np
49.43 93.58 m
0 0 l
o
np
49.43 93.58 m
0 0 l
o
np
49.43 93.58 m
0 0 l
o
1.49 setlinewidth
[] 0 setdash
np
49.43 93.58 m
0 0 l
0 0 l
0 0 l
0 0 l
o
/bg { 0 0 0 srgb } def
49.43 93.58 2.13 c p2
49.43 93.58 2.13 c p2
49.43 93.58 2.13 c p2
49.43 93.58 2.13 c p2
49.43 93.58 2.13 c p2
0.00 0.00 85.50 105.75 cl
0.00 0.00 85.50 105.75 cl
0 0 0 srgb
1.06 setlinewidth
[] 0 setdash
0 setlinecap
1 setlinejoin
10.00 setmiterlimit
np
49.43 93.58 m
0 0 l
o
0.00 0.00 85.50 105.75 cl
/Font1 findfont 10 s
0 0 0 srgb
42.34 89.99 (60) 1 0 t
42.34 89.99 (80) 1 0 t
42.34 89.99 (100) 1 0 t
42.34 89.99 (120) 1 0 t
42.34 89.99 (140) 1 0 t
0.00 0.00 85.50 105.75 cl
0.00 0.00 85.50 105.75 cl
0 0 0 srgb
1.06 setlinewidth
[] 0 setdash
0 setlinecap
1 setlinejoin
10.00 setmiterlimit
np
45.18 93.58 m
4.25 0 l
o
np
45.18 93.58 m
4.25 0 l
o
np
45.18 93.58 m
4.25 0 l
o
np
45.18 93.58 m
4.25 0 l
o
np
45.18 93.58 m
4.25 0 l
o
0.00 0.00 85.50 105.75 cl
0.00 0.00 85.50 105.75 cl
0.00 0.00 85.50 105.75 cl
0.00 0.00 85.50 105.75 cl
0.00 0.00 85.50 105.75 cl
0 0 0 srgb
1.06 setlinewidth
[] 0 setdash
0 setlinecap
1 setlinejoin
10.00 setmiterlimit
np
49.43 93.58 m
0 0 l
o
0.00 0.00 85.50 105.75 cl
0 0 0 srgb
1.06 setlinewidth
[] 0 setdash
0 setlinecap
1 setlinejoin
10.00 setmiterlimit
np
49.43 89.32 m
0 4.26 l
o
np
49.43 89.32 m
0 4.26 l
o
np
49.43 89.32 m
0 4.26 l
o
np
49.43 89.32 m
0 4.26 l
o
np
49.43 89.32 m
0 4.26 l
o
0.00 0.00 85.50 105.75 cl
0.00 0.00 85.50 105.75 cl
/Font1 findfont 10 s
0 0 0 srgb
49.43 79.31 (0) .5 0 t
49.43 79.31 (25) .5 0 t
49.43 79.31 (50) .5 0 t
49.43 79.31 (75) .5 0 t
49.43 79.31 (100) .5 0 t
0.00 0.00 85.50 105.75 cl
0.00 0.00 85.50 105.75 cl
0.00 0.00 85.50 105.75 cl
0.00 0.00 85.50 105.75 cl
0.00 0.00 85.50 105.75 cl
/Font1 findfont 12 s
0 0 0 srgb
49.43 67.09 ( ) .5 0 t
0.00 0.00 85.50 105.75 cl
0.00 0.00 85.50 105.75 cl
/Font1 findfont 12 s
0 0 0 srgb
22.06 93.58 ( ) .5 90 t
0.00 0.00 85.50 105.75 cl
0.00 0.00 85.50 105.75 cl
/Font1 findfont 14 s
0 0 0 srgb
49.43 97.18 (Cycling) .5 0 t
0.00 0.00 85.50 105.75 cl
0.00 0.00 85.50 105.75 cl
0.00 0.00 85.50 105.75 cl
0.00 0.00 85.50 105.75 cl
0.00 0.00 85.50 105.75 cl
0.00 0.00 85.50 105.75 cl
37.49 56.29 85.50 105.75 cl
/bg { 1 1 1 srgb } def
1 1 1 srgb
1.06 setlinewidth
[] 0 setdash
1 setlinecap
1 setlinejoin
10.00 setmiterlimit
37.49 56.29 61.18 68.93 r p3
0.00 0.00 85.50 105.75 cl
0.00 0.00 85.50 105.75 cl
0.00 0.00 85.50 105.75 cl
84.27 93.58 84.27 93.58 cl
/bg { 1 1 1 srgb } def
84.27 93.58 0.00 0.00 r p2
0 0 0 srgb
1.06 setlinewidth
[] 0 setdash
0 setlinecap
1 setlinejoin
1.00 setmiterlimit
np
84.27 93.58 m
0 0 l
o
np
84.27 93.58 m
0 0 l
o
np
84.27 93.58 m
0 0 l
o
np
84.27 93.58 m
0 0 l
o
np
84.27 93.58 m
0 0 l
o
np
84.27 93.58 m
0 0 l
o
np
84.27 93.58 m
0 0 l
o
np
84.27 93.58 m
0 0 l
o
np
84.27 93.58 m
0 0 l
o
np
84.27 93.58 m
0 0 l
o
np
84.27 93.58 m
0 0 l
o
np
84.27 93.58 m
0 0 l
o
np
84.27 93.58 m
0 0 l
o
np
84.27 93.58 m
0 0 l
o
np
84.27 93.58 m
0 0 l
o
1.49 setlinewidth
[] 0 setdash
np
84.27 93.58 m
0 0 l
0 0 l
0 0 l
0 0 l
o
/bg { 0 0 0 srgb } def
84.27 93.58 2.13 c p2
84.27 93.58 2.13 c p2
84.27 93.58 2.13 c p2
84.27 93.58 2.13 c p2
84.27 93.58 2.13 c p2
0.00 0.00 85.50 105.75 cl
0.00 0.00 85.50 105.75 cl
0 0 0 srgb
1.06 setlinewidth
[] 0 setdash
0 setlinecap
1 setlinejoin
10.00 setmiterlimit
np
84.27 93.58 m
0 0 l
o
0.00 0.00 85.50 105.75 cl
/Font1 findfont 10 s
0 0 0 srgb
77.18 89.99 (60) 1 0 t
77.18 89.99 (80) 1 0 t
77.18 89.99 (100) 1 0 t
77.18 89.99 (120) 1 0 t
77.18 89.99 (140) 1 0 t
0.00 0.00 85.50 105.75 cl
0.00 0.00 85.50 105.75 cl
0 0 0 srgb
1.06 setlinewidth
[] 0 setdash
0 setlinecap
1 setlinejoin
10.00 setmiterlimit
np
80.02 93.58 m
4.25 0 l
o
np
80.02 93.58 m
4.25 0 l
o
np
80.02 93.58 m
4.25 0 l
o
np
80.02 93.58 m
4.25 0 l
o
np
80.02 93.58 m
4.25 0 l
o
0.00 0.00 85.50 105.75 cl
0.00 0.00 85.50 105.75 cl
0.00 0.00 85.50 105.75 cl
0.00 0.00 85.50 105.75 cl
0.00 0.00 85.50 105.75 cl
0 0 0 srgb
1.06 setlinewidth
[] 0 setdash
0 setlinecap
1 setlinejoin
10.00 setmiterlimit
np
84.27 93.58 m
0 0 l
o
0.00 0.00 85.50 105.75 cl
0 0 0 srgb
1.06 setlinewidth
[] 0 setdash
0 setlinecap
1 setlinejoin
10.00 setmiterlimit
np
84.27 89.32 m
0 4.26 l
o
np
84.27 89.32 m
0 4.26 l
o
np
84.27 89.32 m
0 4.26 l
o
np
84.27 89.32 m
0 4.26 l
o
np
84.27 89.32 m
0 4.26 l
o
0.00 0.00 85.50 105.75 cl
0.00 0.00 85.50 105.75 cl
/Font1 findfont 10 s
0 0 0 srgb
84.27 79.31 (0) .5 0 t
84.27 79.31 (25) .5 0 t
84.27 79.31 (50) .5 0 t
84.27 79.31 (75) .5 0 t
84.27 79.31 (100) .5 0 t
0.00 0.00 85.50 105.75 cl
0.00 0.00 85.50 105.75 cl
0.00 0.00 85.50 105.75 cl
0.00 0.00 85.50 105.75 cl
0.00 0.00 85.50 105.75 cl
/Font1 findfont 12 s
0 0 0 srgb
84.27 67.09 ( ) .5 0 t
0.00 0.00 85.50 105.75 cl
0.00 0.00 85.50 105.75 cl
/Font1 findfont 12 s
0 0 0 srgb
56.90 93.58 ( ) .5 90 t
0.00 0.00 85.50 105.75 cl
0.00 0.00 85.50 105.75 cl
/Font1 findfont 14 s
0 0 0 srgb
84.27 97.18 (ES Cycling) .5 0 t
0.00 0.00 85.50 105.75 cl
0.00 0.00 85.50 105.75 cl
0.00 0.00 85.50 105.75 cl
0.00 0.00 85.50 105.75 cl
0.00 0.00 85.50 105.75 cl
0.00 0.00 85.50 105.75 cl
2.65 26.32 63.83 95.25 cl
/bg { 1 1 1 srgb } def
1 1 1 srgb
1.06 setlinewidth
[] 0 setdash
1 setlinecap
1 setlinejoin
10.00 setmiterlimit
2.65 26.32 61.18 68.93 r p3
0.00 0.00 85.50 105.75 cl
0.00 0.00 85.50 105.75 cl
0.00 0.00 85.50 105.75 cl
49.43 63.60 49.43 63.60 cl
/bg { 1 1 1 srgb } def
49.43 63.60 0.00 0.00 r p2
0 0 0 srgb
1.06 setlinewidth
[] 0 setdash
0 setlinecap
1 setlinejoin
1.00 setmiterlimit
np
49.43 63.60 m
0 0 l
o
np
49.43 63.60 m
0 0 l
o
np
49.43 63.60 m
0 0 l
o
np
49.43 63.60 m
0 0 l
o
np
49.43 63.60 m
0 0 l
o
np
49.43 63.60 m
0 0 l
o
np
49.43 63.60 m
0 0 l
o
np
49.43 63.60 m
0 0 l
o
np
49.43 63.60 m
0 0 l
o
np
49.43 63.60 m
0 0 l
o
np
49.43 63.60 m
0 0 l
o
np
49.43 63.60 m
0 0 l
o
np
49.43 63.60 m
0 0 l
o
np
49.43 63.60 m
0 0 l
o
np
49.43 63.60 m
0 0 l
o
1.49 setlinewidth
[] 0 setdash
np
49.43 63.60 m
0 0 l
0 0 l
0 0 l
0 0 l
o
/bg { 0 0 0 srgb } def
49.43 63.60 2.13 c p2
49.43 63.60 2.13 c p2
49.43 63.60 2.13 c p2
49.43 63.60 2.13 c p2
49.43 63.60 2.13 c p2
0.00 0.00 85.50 105.75 cl
0.00 0.00 85.50 105.75 cl
0 0 0 srgb
1.06 setlinewidth
[] 0 setdash
0 setlinecap
1 setlinejoin
10.00 setmiterlimit
np
49.43 63.60 m
0 0 l
o
0.00 0.00 85.50 105.75 cl
/Font1 findfont 10 s
0 0 0 srgb
42.34 60.01 (60) 1 0 t
42.34 60.01 (80) 1 0 t
42.34 60.01 (100) 1 0 t
42.34 60.01 (120) 1 0 t
42.34 60.01 (140) 1 0 t
0.00 0.00 85.50 105.75 cl
0.00 0.00 85.50 105.75 cl
0 0 0 srgb
1.06 setlinewidth
[] 0 setdash
0 setlinecap
1 setlinejoin
10.00 setmiterlimit
np
45.18 63.60 m
4.25 0 l
o
np
45.18 63.60 m
4.25 0 l
o
np
45.18 63.60 m
4.25 0 l
o
np
45.18 63.60 m
4.25 0 l
o
np
45.18 63.60 m
4.25 0 l
o
0.00 0.00 85.50 105.75 cl
0.00 0.00 85.50 105.75 cl
0.00 0.00 85.50 105.75 cl
0.00 0.00 85.50 105.75 cl
0.00 0.00 85.50 105.75 cl
0 0 0 srgb
1.06 setlinewidth
[] 0 setdash
0 setlinecap
1 setlinejoin
10.00 setmiterlimit
np
49.43 63.60 m
0 0 l
o
0.00 0.00 85.50 105.75 cl
0 0 0 srgb
1.06 setlinewidth
[] 0 setdash
0 setlinecap
1 setlinejoin
10.00 setmiterlimit
np
49.43 59.35 m
0 4.25 l
o
np
49.43 59.35 m
0 4.25 l
o
np
49.43 59.35 m
0 4.25 l
o
np
49.43 59.35 m
0 4.25 l
o
np
49.43 59.35 m
0 4.25 l
o
0.00 0.00 85.50 105.75 cl
0.00 0.00 85.50 105.75 cl
/Font1 findfont 10 s
0 0 0 srgb
49.43 49.33 (0) .5 0 t
49.43 49.33 (25) .5 0 t
49.43 49.33 (50) .5 0 t
49.43 49.33 (75) .5 0 t
49.43 49.33 (100) .5 0 t
0.00 0.00 85.50 105.75 cl
0.00 0.00 85.50 105.75 cl
0.00 0.00 85.50 105.75 cl
0.00 0.00 85.50 105.75 cl
0.00 0.00 85.50 105.75 cl
/Font1 findfont 12 s
0 0 0 srgb
49.43 37.12 ( ) .5 0 t
0.00 0.00 85.50 105.75 cl
0.00 0.00 85.50 105.75 cl
/Font1 findfont 12 s
0 0 0 srgb
22.06 63.60 ( ) .5 90 t
0.00 0.00 85.50 105.75 cl
0.00 0.00 85.50 105.75 cl
/Font1 findfont 14 s
0 0 0 srgb
49.43 67.20 ( ) .5 0 t
0.00 0.00 85.50 105.75 cl
0.00 0.00 85.50 105.75 cl
0.00 0.00 85.50 105.75 cl
0.00 0.00 85.50 105.75 cl
0.00 0.00 85.50 105.75 cl
0.00 0.00 85.50 105.75 cl
37.49 26.32 85.50 95.25 cl
/bg { 1 1 1 srgb } def
1 1 1 srgb
1.06 setlinewidth
[] 0 setdash
1 setlinecap
1 setlinejoin
10.00 setmiterlimit
37.49 26.32 61.18 68.93 r p3
0.00 0.00 85.50 105.75 cl
0.00 0.00 85.50 105.75 cl
0.00 0.00 85.50 105.75 cl
84.27 63.60 84.27 63.60 cl
/bg { 1 1 1 srgb } def
84.27 63.60 0.00 0.00 r p2
0 0 0 srgb
1.06 setlinewidth
[] 0 setdash
0 setlinecap
1 setlinejoin
1.00 setmiterlimit
np
84.27 63.60 m
0 0 l
o
np
84.27 63.60 m
0 0 l
o
np
84.27 63.60 m
0 0 l
o
np
84.27 63.60 m
0 0 l
o
np
84.27 63.60 m
0 0 l
o
np
84.27 63.60 m
0 0 l
o
np
84.27 63.60 m
0 0 l
o
np
84.27 63.60 m
0 0 l
o
np
84.27 63.60 m
0 0 l
o
np
84.27 63.60 m
0 0 l
o
np
84.27 63.60 m
0 0 l
o
np
84.27 63.60 m
0 0 l
o
np
84.27 63.60 m
0 0 l
o
np
84.27 63.60 m
0 0 l
o
np
84.27 63.60 m
0 0 l
o
1.49 setlinewidth
[] 0 setdash
np
84.27 63.60 m
0 0 l
0 0 l
0 0 l
0 0 l
o
/bg { 0 0 0 srgb } def
84.27 63.60 2.13 c p2
84.27 63.60 2.13 c p2
84.27 63.60 2.13 c p2
84.27 63.60 2.13 c p2
84.27 63.60 2.13 c p2
0.00 0.00 85.50 105.75 cl
0.00 0.00 85.50 105.75 cl
0 0 0 srgb
1.06 setlinewidth
[] 0 setdash
0 setlinecap
1 setlinejoin
10.00 setmiterlimit
np
84.27 63.60 m
0 0 l
o
0.00 0.00 85.50 105.75 cl
/Font1 findfont 10 s
0 0 0 srgb
77.18 60.01 (60) 1 0 t
77.18 60.01 (80) 1 0 t
77.18 60.01 (100) 1 0 t
77.18 60.01 (120) 1 0 t
77.18 60.01 (140) 1 0 t
0.00 0.00 85.50 105.75 cl
0.00 0.00 85.50 105.75 cl
0 0 0 srgb
1.06 setlinewidth
[] 0 setdash
0 setlinecap
1 setlinejoin
10.00 setmiterlimit
np
80.02 63.60 m
4.25 0 l
o
np
80.02 63.60 m
4.25 0 l
o
np
80.02 63.60 m
4.25 0 l
o
np
80.02 63.60 m
4.25 0 l
o
np
80.02 63.60 m
4.25 0 l
o
0.00 0.00 85.50 105.75 cl
0.00 0.00 85.50 105.75 cl
0.00 0.00 85.50 105.75 cl
0.00 0.00 85.50 105.75 cl
0.00 0.00 85.50 105.75 cl
0 0 0 srgb
1.06 setlinewidth
[] 0 setdash
0 setlinecap
1 setlinejoin
10.00 setmiterlimit
np
84.27 63.60 m
0 0 l
o
0.00 0.00 85.50 105.75 cl
0 0 0 srgb
1.06 setlinewidth
[] 0 setdash
0 setlinecap
1 setlinejoin
10.00 setmiterlimit
np
84.27 59.35 m
0 4.25 l
o
np
84.27 59.35 m
0 4.25 l
o
np
84.27 59.35 m
0 4.25 l
o
np
84.27 59.35 m
0 4.25 l
o
np
84.27 59.35 m
0 4.25 l
o
0.00 0.00 85.50 105.75 cl
0.00 0.00 85.50 105.75 cl
/Font1 findfont 10 s
0 0 0 srgb
84.27 49.33 (0) .5 0 t
84.27 49.33 (25) .5 0 t
84.27 49.33 (50) .5 0 t
84.27 49.33 (75) .5 0 t
84.27 49.33 (100) .5 0 t
0.00 0.00 85.50 105.75 cl
0.00 0.00 85.50 105.75 cl
0.00 0.00 85.50 105.75 cl
0.00 0.00 85.50 105.75 cl
0.00 0.00 85.50 105.75 cl
/Font1 findfont 12 s
0 0 0 srgb
84.27 37.12 ( ) .5 0 t
0.00 0.00 85.50 105.75 cl
0.00 0.00 85.50 105.75 cl
/Font1 findfont 12 s
0 0 0 srgb
56.90 63.60 ( ) .5 90 t
0.00 0.00 85.50 105.75 cl
0.00 0.00 85.50 105.75 cl
/Font1 findfont 14 s
0 0 0 srgb
84.27 67.20 ( ) .5 0 t
0.00 0.00 85.50 105.75 cl
0.00 0.00 85.50 105.75 cl
0.00 0.00 85.50 105.75 cl
0.00 0.00 85.50 105.75 cl
0.00 0.00 85.50 105.75 cl
0.00 0.00 85.50 105.75 cl
2.65 0.00 63.83 65.27 cl
/bg { 1 1 1 srgb } def
1 1 1 srgb
1.06 setlinewidth
[] 0 setdash
1 setlinecap
1 setlinejoin
10.00 setmiterlimit
2.65 -3.66 61.18 68.93 r p3
0.00 0.00 85.50 105.75 cl
0.00 0.00 85.50 105.75 cl
0.00 0.00 85.50 105.75 cl
49.43 33.62 49.43 33.62 cl
/bg { 1 1 1 srgb } def
49.43 33.62 0.00 0.00 r p2
0 0 0 srgb
1.06 setlinewidth
[] 0 setdash
0 setlinecap
1 setlinejoin
1.00 setmiterlimit
np
49.43 33.62 m
0 0 l
o
np
49.43 33.62 m
0 0 l
o
np
49.43 33.62 m
0 0 l
o
np
49.43 33.62 m
0 0 l
o
np
49.43 33.62 m
0 0 l
o
np
49.43 33.62 m
0 0 l
o
np
49.43 33.62 m
0 0 l
o
np
49.43 33.62 m
0 0 l
o
np
49.43 33.62 m
0 0 l
o
np
49.43 33.62 m
0 0 l
o
np
49.43 33.62 m
0 0 l
o
np
49.43 33.62 m
0 0 l
o
np
49.43 33.62 m
0 0 l
o
np
49.43 33.62 m
0 0 l
o
np
49.43 33.62 m
0 0 l
o
1.49 setlinewidth
[] 0 setdash
np
49.43 33.62 m
0 0 l
0 0 l
0 0 l
0 0 l
o
/bg { 0 0 0 srgb } def
49.43 33.62 2.13 c p2
49.43 33.62 2.13 c p2
49.43 33.62 2.13 c p2
49.43 33.62 2.13 c p2
49.43 33.62 2.13 c p2
0.00 0.00 85.50 105.75 cl
0.00 0.00 85.50 105.75 cl
0 0 0 srgb
1.06 setlinewidth
[] 0 setdash
0 setlinecap
1 setlinejoin
10.00 setmiterlimit
np
49.43 33.62 m
0 0 l
o
0.00 0.00 85.50 105.75 cl
/Font1 findfont 10 s
0 0 0 srgb
42.34 30.03 (60) 1 0 t
42.34 30.03 (80) 1 0 t
42.34 30.03 (100) 1 0 t
42.34 30.03 (120) 1 0 t
42.34 30.03 (140) 1 0 t
0.00 0.00 85.50 105.75 cl
0.00 0.00 85.50 105.75 cl
0 0 0 srgb
1.06 setlinewidth
[] 0 setdash
0 setlinecap
1 setlinejoin
10.00 setmiterlimit
np
45.18 33.62 m
4.25 0 l
o
np
45.18 33.62 m
4.25 0 l
o
np
45.18 33.62 m
4.25 0 l
o
np
45.18 33.62 m
4.25 0 l
o
np
45.18 33.62 m
4.25 0 l
o
0.00 0.00 85.50 105.75 cl
0.00 0.00 85.50 105.75 cl
0.00 0.00 85.50 105.75 cl
0.00 0.00 85.50 105.75 cl
0.00 0.00 85.50 105.75 cl
0 0 0 srgb
1.06 setlinewidth
[] 0 setdash
0 setlinecap
1 setlinejoin
10.00 setmiterlimit
np
49.43 33.62 m
0 0 l
o
0.00 0.00 85.50 105.75 cl
0 0 0 srgb
1.06 setlinewidth
[] 0 setdash
0 setlinecap
1 setlinejoin
10.00 setmiterlimit
np
49.43 29.37 m
0 4.25 l
o
np
49.43 29.37 m
0 4.25 l
o
np
49.43 29.37 m
0 4.25 l
o
np
49.43 29.37 m
0 4.25 l
o
np
49.43 29.37 m
0 4.25 l
o
0.00 0.00 85.50 105.75 cl
0.00 0.00 85.50 105.75 cl
/Font1 findfont 10 s
0 0 0 srgb
49.43 19.35 (0) .5 0 t
49.43 19.35 (25) .5 0 t
49.43 19.35 (50) .5 0 t
49.43 19.35 (75) .5 0 t
49.43 19.35 (100) .5 0 t
0.00 0.00 85.50 105.75 cl
0.00 0.00 85.50 105.75 cl
0.00 0.00 85.50 105.75 cl
0.00 0.00 85.50 105.75 cl
0.00 0.00 85.50 105.75 cl
/Font1 findfont 12 s
0 0 0 srgb
49.43 7.14 ( ) .5 0 t
0.00 0.00 85.50 105.75 cl
0.00 0.00 85.50 105.75 cl
/Font1 findfont 12 s
0 0 0 srgb
22.06 33.62 ( ) .5 90 t
0.00 0.00 85.50 105.75 cl
0.00 0.00 85.50 105.75 cl
/Font1 findfont 14 s
0 0 0 srgb
49.43 37.22 ( ) .5 0 t
0.00 0.00 85.50 105.75 cl
0.00 0.00 85.50 105.75 cl
0.00 0.00 85.50 105.75 cl
0.00 0.00 85.50 105.75 cl
0.00 0.00 85.50 105.75 cl
0.00 0.00 85.50 105.75 cl
37.49 0.00 85.50 65.27 cl
/bg { 1 1 1 srgb } def
1 1 1 srgb
1.06 setlinewidth
[] 0 setdash
1 setlinecap
1 setlinejoin
10.00 setmiterlimit
37.49 -3.66 61.18 68.93 r p3
0.00 0.00 85.50 105.75 cl
0.00 0.00 85.50 105.75 cl
0.00 0.00 85.50 105.75 cl
84.27 33.62 84.27 33.62 cl
/bg { 1 1 1 srgb } def
84.27 33.62 0.00 0.00 r p2
0 0 0 srgb
1.06 setlinewidth
[] 0 setdash
0 setlinecap
1 setlinejoin
1.00 setmiterlimit
np
84.27 33.62 m
0 0 l
o
np
84.27 33.62 m
0 0 l
o
np
84.27 33.62 m
0 0 l
o
np
84.27 33.62 m
0 0 l
o
np
84.27 33.62 m
0 0 l
o
np
84.27 33.62 m
0 0 l
o
np
84.27 33.62 m
0 0 l
o
np
84.27 33.62 m
0 0 l
o
np
84.27 33.62 m
0 0 l
o
np
84.27 33.62 m
0 0 l
o
np
84.27 33.62 m
0 0 l
o
np
84.27 33.62 m
0 0 l
o
np
84.27 33.62 m
0 0 l
o
np
84.27 33.62 m
0 0 l
o
np
84.27 33.62 m
0 0 l
o
1.49 setlinewidth
[] 0 setdash
np
84.27 33.62 m
0 0 l
0 0 l
0 0 l
0 0 l
o
/bg { 0 0 0 srgb } def
84.27 33.62 2.13 c p2
84.27 33.62 2.13 c p2
84.27 33.62 2.13 c p2
84.27 33.62 2.13 c p2
84.27 33.62 2.13 c p2
0.00 0.00 85.50 105.75 cl
0.00 0.00 85.50 105.75 cl
0 0 0 srgb
1.06 setlinewidth
[] 0 setdash
0 setlinecap
1 setlinejoin
10.00 setmiterlimit
np
84.27 33.62 m
0 0 l
o
0.00 0.00 85.50 105.75 cl
/Font1 findfont 10 s
0 0 0 srgb
77.18 30.03 (60) 1 0 t
77.18 30.03 (80) 1 0 t
77.18 30.03 (100) 1 0 t
77.18 30.03 (120) 1 0 t
77.18 30.03 (140) 1 0 t
0.00 0.00 85.50 105.75 cl
0.00 0.00 85.50 105.75 cl
0 0 0 srgb
1.06 setlinewidth
[] 0 setdash
0 setlinecap
1 setlinejoin
10.00 setmiterlimit
np
80.02 33.62 m
4.25 0 l
o
np
80.02 33.62 m
4.25 0 l
o
np
80.02 33.62 m
4.25 0 l
o
np
80.02 33.62 m
4.25 0 l
o
np
80.02 33.62 m
4.25 0 l
o
0.00 0.00 85.50 105.75 cl
0.00 0.00 85.50 105.75 cl
0.00 0.00 85.50 105.75 cl
0.00 0.00 85.50 105.75 cl
0.00 0.00 85.50 105.75 cl
0 0 0 srgb
1.06 setlinewidth
[] 0 setdash
0 setlinecap
1 setlinejoin
10.00 setmiterlimit
np
84.27 33.62 m
0 0 l
o
0.00 0.00 85.50 105.75 cl
0 0 0 srgb
1.06 setlinewidth
[] 0 setdash
0 setlinecap
1 setlinejoin
10.00 setmiterlimit
np
84.27 29.37 m
0 4.25 l
o
np
84.27 29.37 m
0 4.25 l
o
np
84.27 29.37 m
0 4.25 l
o
np
84.27 29.37 m
0 4.25 l
o
np
84.27 29.37 m
0 4.25 l
o
0.00 0.00 85.50 105.75 cl
0.00 0.00 85.50 105.75 cl
/Font1 findfont 10 s
0 0 0 srgb
84.27 19.35 (0) .5 0 t
84.27 19.35 (25) .5 0 t
84.27 19.35 (50) .5 0 t
84.27 19.35 (75) .5 0 t
84.27 19.35 (100) .5 0 t
0.00 0.00 85.50 105.75 cl
0.00 0.00 85.50 105.75 cl
0.00 0.00 85.50 105.75 cl
0.00 0.00 85.50 105.75 cl
0.00 0.00 85.50 105.75 cl
/Font1 findfont 12 s
0 0 0 srgb
84.27 7.14 ( ) .5 0 t
0.00 0.00 85.50 105.75 cl
0.00 0.00 85.50 105.75 cl
/Font1 findfont 12 s
0 0 0 srgb
56.90 33.62 ( ) .5 90 t
0.00 0.00 85.50 105.75 cl
0.00 0.00 85.50 105.75 cl
/Font1 findfont 14 s
0 0 0 srgb
84.27 37.22 ( ) .5 0 t
0.00 0.00 85.50 105.75 cl
0.00 0.00 85.50 105.75 cl
0.00 0.00 85.50 105.75 cl
0.00 0.00 85.50 105.75 cl
0.00 0.00 85.50 105.75 cl
/Font1 findfont 12 s
0 0 0 srgb
-21.02 3.60 (Inter Stim) 0 ta
-0.120 (ulus Inter) tb
0.360 (v) tb
-0.300 (al \(ms\)) tb gr
0.00 0.00 85.50 105.75 cl
0.00 0.00 85.50 105.75 cl
/Font1 findfont 12 s
0 0 0 srgb
12.22 -18.48 (Soleus H Refle) 90 ta
-0.360 (x Amplitude) tb gr
0.00 0.00 85.50 105.75 cl
0.00 0.00 85.50 105.75 cl
ep
%%Trailer
%%Pages: 1
%%EOF
