%!PS-Adobe-3.0 EPSF-3.0
%%DocumentNeededResources: font Helvetica
%%+ font Helvetica-Bold
%%+ font Helvetica-Oblique
%%+ font Helvetica-BoldOblique
%%+ font Symbol
%%Title: R Graphics Output
%%Creator: R Software
%%Pages: (atend)
%%BoundingBox: 0 0 353 887
%%EndComments
%%BeginProlog
/bp  { gs sRGB gs } def
% begin .ps.prolog
/gs  { gsave } bind def
/gr  { grestore } bind def
/ep  { showpage gr gr } bind def
/m   { moveto } bind def
/l  { rlineto } bind def
/np  { newpath } bind def
/cp  { closepath } bind def
/f   { fill } bind def
/o   { stroke } bind def
/c   { newpath 0 360 arc } bind def
/r   { 4 2 roll moveto 1 copy 3 -1 roll exch 0 exch rlineto 0 rlineto -1 mul 0 exch rlineto closepath } bind def
/p1  { stroke } bind def
/p2  { gsave bg fill grestore newpath } bind def
/p3  { gsave bg fill grestore stroke } bind def
/p6  { gsave bg eofill grestore newpath } bind def
/p7  { gsave bg eofill grestore stroke } bind def
/t   { 5 -2 roll moveto gsave rotate
       1 index stringwidth pop
       mul neg 0 rmoveto show grestore } bind def
/ta  { 4 -2 roll moveto gsave rotate show } bind def
/tb  { 2 -1 roll 0 rmoveto show } bind def
/cl  { grestore gsave newpath 3 index 3 index moveto 1 index
       4 -1 roll lineto  exch 1 index lineto lineto
       closepath clip newpath } bind def
/rgb { setrgbcolor } bind def
/s   { scalefont setfont } bind def
% end   .ps.prolog
/sRGB { [ /CIEBasedABC
          << /DecodeLMN
               [ { dup 0.03928 le
                        {12.92321 div}
                        {0.055 add 1.055 div 2.4 exp }
                     ifelse
                 } bind dup dup
               ]
             /MatrixLMN [0.412457 0.212673 0.019334
                         0.357576 0.715152 0.119192
                         0.180437 0.072175 0.950301]
             /WhitePoint [0.9505 1.0 1.0890]
           >>
         ] setcolorspace } bind def
/srgb { setcolor } bind def
%%IncludeResource: font Helvetica
/Helvetica findfont
dup length dict begin
  {1 index /FID ne {def} {pop pop} ifelse} forall
  /Encoding ISOLatin1Encoding def
  currentdict
  end
/Font1 exch definefont pop
%%IncludeResource: font Helvetica-Bold
/Helvetica-Bold findfont
dup length dict begin
  {1 index /FID ne {def} {pop pop} ifelse} forall
  /Encoding ISOLatin1Encoding def
  currentdict
  end
/Font2 exch definefont pop
%%IncludeResource: font Helvetica-Oblique
/Helvetica-Oblique findfont
dup length dict begin
  {1 index /FID ne {def} {pop pop} ifelse} forall
  /Encoding ISOLatin1Encoding def
  currentdict
  end
/Font3 exch definefont pop
%%IncludeResource: font Helvetica-BoldOblique
/Helvetica-BoldOblique findfont
dup length dict begin
  {1 index /FID ne {def} {pop pop} ifelse} forall
  /Encoding ISOLatin1Encoding def
  currentdict
  end
/Font4 exch definefont pop
%%IncludeResource: font Symbol
/Symbol findfont
dup length dict begin
  {1 index /FID ne {def} {pop pop} ifelse} forall
  currentdict
  end
/Font5 exch definefont pop
%%EndProlog
%%Page: 1 1
bp
0.00 0.00 353.25 887.25 cl
0.00 0.00 353.25 887.25 cl
0.00 0.00 353.25 887.25 cl
15.82 669.39 353.25 887.25 cl
/bg { 1 1 1 srgb } def
1 1 1 srgb
1.06 setlinewidth
[] 0 setdash
1 setlinecap
1 setlinejoin
10.00 setmiterlimit
15.82 669.39 337.43 217.86 r p3
0.00 0.00 353.25 887.25 cl
0.00 0.00 353.25 887.25 cl
0.00 0.00 353.25 887.25 cl
62.88 706.67 338.85 872.85 cl
/bg { 1 1 1 srgb } def
62.88 706.67 275.97 166.18 r p2
0 0 0 srgb
1.06 setlinewidth
[] 0 setdash
0 setlinecap
1 setlinejoin
1.00 setmiterlimit
np
92.07 756.19 m
5.31 0 l
o
np
94.72 756.19 m
0 0 l
o
np
92.07 756.19 m
5.31 0 l
o
np
145.14 759.26 m
5.31 0 l
o
np
147.79 759.26 m
0 -1.77 l
o
np
145.14 757.49 m
5.31 0 l
o
np
198.21 765.83 m
5.31 0 l
o
np
200.86 765.83 m
0 -2.45 l
o
np
198.21 763.38 m
5.31 0 l
o
np
251.28 766.25 m
5.31 0 l
o
np
253.94 766.25 m
0 0.40 l
o
np
251.28 766.65 m
5.31 0 l
o
np
304.35 772.53 m
5.31 0 l
o
np
307.01 772.53 m
0 0.34 l
o
np
304.35 772.87 m
5.31 0 l
o
1.49 setlinewidth
[] 0 setdash
np
94.72 756.19 m
53.07 2.19 l
53.07 6.22 l
53.08 1.85 l
53.07 6.25 l
o
/bg { 0 0 0 srgb } def
94.72 756.19 2.13 c p2
147.79 758.38 2.13 c p2
200.86 764.60 2.13 c p2
253.94 766.45 2.13 c p2
307.01 772.70 2.13 c p2
0.00 0.00 353.25 887.25 cl
0.00 0.00 353.25 887.25 cl
0 0 0 srgb
1.06 setlinewidth
[] 0 setdash
0 setlinecap
1 setlinejoin
10.00 setmiterlimit
np
62.88 706.67 m
0 166.18 l
o
0.00 0.00 353.25 887.25 cl
/Font1 findfont 10 s
0 0 0 srgb
55.79 710.64 (-25) 1 0 t
55.79 752.60 (0) 1 0 t
55.79 794.56 (25) 1 0 t
55.79 836.53 (50) 1 0 t
0.00 0.00 353.25 887.25 cl
0.00 0.00 353.25 887.25 cl
0 0 0 srgb
1.06 setlinewidth
[] 0 setdash
0 setlinecap
1 setlinejoin
10.00 setmiterlimit
np
58.63 714.23 m
4.25 0 l
o
np
58.63 756.19 m
4.25 0 l
o
np
58.63 798.15 m
4.25 0 l
o
np
58.63 840.12 m
4.25 0 l
o
0.00 0.00 353.25 887.25 cl
0.00 0.00 353.25 887.25 cl
0.00 0.00 353.25 887.25 cl
0.00 0.00 353.25 887.25 cl
0.00 0.00 353.25 887.25 cl
0 0 0 srgb
1.06 setlinewidth
[] 0 setdash
0 setlinecap
1 setlinejoin
10.00 setmiterlimit
np
62.88 706.67 m
275.97 0 l
o
0.00 0.00 353.25 887.25 cl
0 0 0 srgb
1.06 setlinewidth
[] 0 setdash
0 setlinecap
1 setlinejoin
10.00 setmiterlimit
np
94.72 702.42 m
0 4.25 l
o
np
147.79 702.42 m
0 4.25 l
o
np
200.86 702.42 m
0 4.25 l
o
np
253.94 702.42 m
0 4.25 l
o
np
307.01 702.42 m
0 4.25 l
o
0.00 0.00 353.25 887.25 cl
0.00 0.00 353.25 887.25 cl
/Font1 findfont 10 s
0 0 0 srgb
94.72 692.41 (0) .5 0 t
147.79 692.41 (25) .5 0 t
200.86 692.41 (50) .5 0 t
253.94 692.41 (75) .5 0 t
307.01 692.41 (100) .5 0 t
0.00 0.00 353.25 887.25 cl
0.00 0.00 353.25 887.25 cl
0.00 0.00 353.25 887.25 cl
0.00 0.00 353.25 887.25 cl
0.00 0.00 353.25 887.25 cl
/Font1 findfont 12 s
0 0 0 srgb
200.86 680.19 ( ) .5 0 t
0.00 0.00 353.25 887.25 cl
0.00 0.00 353.25 887.25 cl
/Font1 findfont 12 s
0 0 0 srgb
35.23 789.76 ( ) .5 90 t
0.00 0.00 353.25 887.25 cl
0.00 0.00 353.25 887.25 cl
0.00 0.00 353.25 887.25 cl
0.00 0.00 353.25 887.25 cl
0.00 0.00 353.25 887.25 cl
0.00 0.00 353.25 887.25 cl
0.00 0.00 353.25 887.25 cl
0.00 0.00 353.25 887.25 cl
15.82 451.53 353.25 669.39 cl
/bg { 1 1 1 srgb } def
1 1 1 srgb
1.06 setlinewidth
[] 0 setdash
1 setlinecap
1 setlinejoin
10.00 setmiterlimit
15.82 451.53 337.43 217.86 r p3
0.00 0.00 353.25 887.25 cl
0.00 0.00 353.25 887.25 cl
0.00 0.00 353.25 887.25 cl
62.88 488.82 338.85 654.99 cl
/bg { 1 1 1 srgb } def
62.88 488.82 275.97 166.18 r p2
0 0 0 srgb
1.06 setlinewidth
[] 0 setdash
0 setlinecap
1 setlinejoin
1.00 setmiterlimit
np
92.07 538.33 m
5.31 0 l
o
np
94.72 538.33 m
0 0 l
o
np
92.07 538.33 m
5.31 0 l
o
np
145.14 578.41 m
5.31 0 l
o
np
147.79 578.41 m
0 -42.68 l
o
np
145.14 535.73 m
5.31 0 l
o
np
198.21 612.73 m
5.31 0 l
o
np
200.86 612.73 m
0 -63.89 l
o
np
198.21 548.84 m
5.31 0 l
o
np
251.28 633.82 m
5.31 0 l
o
np
253.94 633.82 m
0 -68.58 l
o
np
251.28 565.24 m
5.31 0 l
o
np
304.35 542.55 m
5.31 0 l
o
np
307.01 542.55 m
0 11.84 l
o
np
304.35 554.39 m
5.31 0 l
o
1.49 setlinewidth
[] 0 setdash
np
94.72 538.33 m
53.07 18.74 l
53.07 23.71 l
53.08 18.75 l
53.07 -51.06 l
o
/bg { 0 0 0 srgb } def
94.72 538.33 2.13 c p2
147.79 557.07 2.13 c p2
200.86 580.78 2.13 c p2
253.94 599.53 2.13 c p2
307.01 548.47 2.13 c p2
0.00 0.00 353.25 887.25 cl
0.00 0.00 353.25 887.25 cl
0 0 0 srgb
1.06 setlinewidth
[] 0 setdash
0 setlinecap
1 setlinejoin
10.00 setmiterlimit
np
62.88 488.82 m
0 166.17 l
o
0.00 0.00 353.25 887.25 cl
/Font1 findfont 10 s
0 0 0 srgb
55.79 492.78 (-25) 1 0 t
55.79 534.74 (0) 1 0 t
55.79 576.71 (25) 1 0 t
55.79 618.67 (50) 1 0 t
0.00 0.00 353.25 887.25 cl
0.00 0.00 353.25 887.25 cl
0 0 0 srgb
1.06 setlinewidth
[] 0 setdash
0 setlinecap
1 setlinejoin
10.00 setmiterlimit
np
58.63 496.37 m
4.25 0 l
o
np
58.63 538.33 m
4.25 0 l
o
np
58.63 580.30 m
4.25 0 l
o
np
58.63 622.26 m
4.25 0 l
o
0.00 0.00 353.25 887.25 cl
0.00 0.00 353.25 887.25 cl
0.00 0.00 353.25 887.25 cl
0.00 0.00 353.25 887.25 cl
0.00 0.00 353.25 887.25 cl
0 0 0 srgb
1.06 setlinewidth
[] 0 setdash
0 setlinecap
1 setlinejoin
10.00 setmiterlimit
np
62.88 488.82 m
275.97 0 l
o
0.00 0.00 353.25 887.25 cl
0 0 0 srgb
1.06 setlinewidth
[] 0 setdash
0 setlinecap
1 setlinejoin
10.00 setmiterlimit
np
94.72 484.56 m
0 4.26 l
o
np
147.79 484.56 m
0 4.26 l
o
np
200.86 484.56 m
0 4.26 l
o
np
253.94 484.56 m
0 4.26 l
o
np
307.01 484.56 m
0 4.26 l
o
0.00 0.00 353.25 887.25 cl
0.00 0.00 353.25 887.25 cl
/Font1 findfont 10 s
0 0 0 srgb
94.72 474.55 (0) .5 0 t
147.79 474.55 (25) .5 0 t
200.86 474.55 (50) .5 0 t
253.94 474.55 (75) .5 0 t
307.01 474.55 (100) .5 0 t
0.00 0.00 353.25 887.25 cl
0.00 0.00 353.25 887.25 cl
0.00 0.00 353.25 887.25 cl
0.00 0.00 353.25 887.25 cl
0.00 0.00 353.25 887.25 cl
/Font1 findfont 12 s
0 0 0 srgb
200.86 462.33 ( ) .5 0 t
0.00 0.00 353.25 887.25 cl
0.00 0.00 353.25 887.25 cl
/Font1 findfont 12 s
0 0 0 srgb
35.23 571.90 ( ) .5 90 t
0.00 0.00 353.25 887.25 cl
0.00 0.00 353.25 887.25 cl
0.00 0.00 353.25 887.25 cl
0.00 0.00 353.25 887.25 cl
0.00 0.00 353.25 887.25 cl
0.00 0.00 353.25 887.25 cl
0.00 0.00 353.25 887.25 cl
0.00 0.00 353.25 887.25 cl
15.82 233.67 353.25 451.53 cl
/bg { 1 1 1 srgb } def
1 1 1 srgb
1.06 setlinewidth
[] 0 setdash
1 setlinecap
1 setlinejoin
10.00 setmiterlimit
15.82 233.67 337.43 217.86 r p3
0.00 0.00 353.25 887.25 cl
0.00 0.00 353.25 887.25 cl
0.00 0.00 353.25 887.25 cl
62.88 270.96 338.85 437.13 cl
/bg { 1 1 1 srgb } def
62.88 270.96 275.97 166.18 r p2
0 0 0 srgb
1.06 setlinewidth
[] 0 setdash
0 setlinecap
1 setlinejoin
1.00 setmiterlimit
np
92.07 320.47 m
5.31 0 l
o
np
94.72 320.47 m
0 0 l
o
np
92.07 320.47 m
5.31 0 l
o
np
145.14 328.39 m
5.31 0 l
o
np
147.79 328.39 m
0 -21.22 l
o
np
145.14 307.17 m
5.31 0 l
o
np
198.21 337.94 m
5.31 0 l
o
np
200.86 337.94 m
0 -11.61 l
o
np
198.21 326.33 m
5.31 0 l
o
np
251.28 354.85 m
5.31 0 l
o
np
253.94 354.85 m
0 -38.16 l
o
np
251.28 316.69 m
5.31 0 l
o
np
304.35 324.95 m
5.31 0 l
o
np
307.01 324.95 m
0 -31.33 l
o
np
304.35 293.62 m
5.31 0 l
o
1.49 setlinewidth
[] 0 setdash
np
94.72 320.47 m
53.07 -2.69 l
53.07 14.36 l
53.08 3.63 l
53.07 -26.49 l
o
/bg { 0 0 0 srgb } def
94.72 320.47 2.13 c p2
147.79 317.78 2.13 c p2
200.86 332.14 2.13 c p2
253.94 335.77 2.13 c p2
307.01 309.28 2.13 c p2
0.00 0.00 353.25 887.25 cl
0.00 0.00 353.25 887.25 cl
0 0 0 srgb
1.06 setlinewidth
[] 0 setdash
0 setlinecap
1 setlinejoin
10.00 setmiterlimit
np
62.88 270.96 m
0 166.17 l
o
0.00 0.00 353.25 887.25 cl
/Font1 findfont 10 s
0 0 0 srgb
55.79 274.92 (-25) 1 0 t
55.79 316.88 (0) 1 0 t
55.79 358.85 (25) 1 0 t
55.79 400.81 (50) 1 0 t
0.00 0.00 353.25 887.25 cl
0.00 0.00 353.25 887.25 cl
0 0 0 srgb
1.06 setlinewidth
[] 0 setdash
0 setlinecap
1 setlinejoin
10.00 setmiterlimit
np
58.63 278.51 m
4.25 0 l
o
np
58.63 320.47 m
4.25 0 l
o
np
58.63 362.44 m
4.25 0 l
o
np
58.63 404.40 m
4.25 0 l
o
0.00 0.00 353.25 887.25 cl
0.00 0.00 353.25 887.25 cl
0.00 0.00 353.25 887.25 cl
0.00 0.00 353.25 887.25 cl
0.00 0.00 353.25 887.25 cl
0 0 0 srgb
1.06 setlinewidth
[] 0 setdash
0 setlinecap
1 setlinejoin
10.00 setmiterlimit
np
62.88 270.96 m
275.97 0 l
o
0.00 0.00 353.25 887.25 cl
0 0 0 srgb
1.06 setlinewidth
[] 0 setdash
0 setlinecap
1 setlinejoin
10.00 setmiterlimit
np
94.72 266.70 m
0 4.26 l
o
np
147.79 266.70 m
0 4.26 l
o
np
200.86 266.70 m
0 4.26 l
o
np
253.94 266.70 m
0 4.26 l
o
np
307.01 266.70 m
0 4.26 l
o
0.00 0.00 353.25 887.25 cl
0.00 0.00 353.25 887.25 cl
/Font1 findfont 10 s
0 0 0 srgb
94.72 256.69 (0) .5 0 t
147.79 256.69 (25) .5 0 t
200.86 256.69 (50) .5 0 t
253.94 256.69 (75) .5 0 t
307.01 256.69 (100) .5 0 t
0.00 0.00 353.25 887.25 cl
0.00 0.00 353.25 887.25 cl
0.00 0.00 353.25 887.25 cl
0.00 0.00 353.25 887.25 cl
0.00 0.00 353.25 887.25 cl
/Font1 findfont 12 s
0 0 0 srgb
200.86 244.47 ( ) .5 0 t
0.00 0.00 353.25 887.25 cl
0.00 0.00 353.25 887.25 cl
/Font1 findfont 12 s
0 0 0 srgb
35.23 354.04 ( ) .5 90 t
0.00 0.00 353.25 887.25 cl
0.00 0.00 353.25 887.25 cl
0.00 0.00 353.25 887.25 cl
0.00 0.00 353.25 887.25 cl
0.00 0.00 353.25 887.25 cl
0.00 0.00 353.25 887.25 cl
0.00 0.00 353.25 887.25 cl
0.00 0.00 353.25 887.25 cl
15.82 15.82 353.25 233.67 cl
/bg { 1 1 1 srgb } def
1 1 1 srgb
1.06 setlinewidth
[] 0 setdash
1 setlinecap
1 setlinejoin
10.00 setmiterlimit
15.82 15.82 337.43 217.86 r p3
0.00 0.00 353.25 887.25 cl
0.00 0.00 353.25 887.25 cl
0.00 0.00 353.25 887.25 cl
62.88 53.10 338.85 219.27 cl
/bg { 1 1 1 srgb } def
62.88 53.10 275.97 166.18 r p2
0 0 0 srgb
1.06 setlinewidth
[] 0 setdash
0 setlinecap
1 setlinejoin
1.00 setmiterlimit
np
92.07 102.62 m
5.31 0 l
o
np
94.72 102.62 m
0 0 l
o
np
92.07 102.62 m
5.31 0 l
o
np
145.14 105.07 m
5.31 0 l
o
np
147.79 105.07 m
0 5.54 l
o
np
145.14 110.61 m
5.31 0 l
o
np
198.21 100.52 m
5.31 0 l
o
np
200.86 100.52 m
0 -0.71 l
o
np
198.21 99.81 m
5.31 0 l
o
np
251.28 94.68 m
5.31 0 l
o
np
253.94 94.68 m
0 6.63 l
o
np
251.28 101.31 m
5.31 0 l
o
np
304.35 99.13 m
5.31 0 l
o
np
307.01 99.13 m
0 4.05 l
o
np
304.35 103.18 m
5.31 0 l
o
1.49 setlinewidth
[] 0 setdash
np
94.72 102.62 m
53.07 5.22 l
53.07 -7.67 l
53.08 -2.18 l
53.07 3.16 l
o
/bg { 0 0 0 srgb } def
94.72 102.62 2.13 c p2
147.79 107.84 2.13 c p2
200.86 100.17 2.13 c p2
253.94 97.99 2.13 c p2
307.01 101.15 2.13 c p2
0.00 0.00 353.25 887.25 cl
0.00 0.00 353.25 887.25 cl
0 0 0 srgb
1.06 setlinewidth
[] 0 setdash
0 setlinecap
1 setlinejoin
10.00 setmiterlimit
np
62.88 53.10 m
0 166.17 l
o
0.00 0.00 353.25 887.25 cl
/Font1 findfont 10 s
0 0 0 srgb
55.79 57.06 (-25) 1 0 t
55.79 99.03 (0) 1 0 t
55.79 140.99 (25) 1 0 t
55.79 182.95 (50) 1 0 t
0.00 0.00 353.25 887.25 cl
0.00 0.00 353.25 887.25 cl
0 0 0 srgb
1.06 setlinewidth
[] 0 setdash
0 setlinecap
1 setlinejoin
10.00 setmiterlimit
np
58.63 60.65 m
4.25 0 l
o
np
58.63 102.62 m
4.25 0 l
o
np
58.63 144.58 m
4.25 0 l
o
np
58.63 186.54 m
4.25 0 l
o
0.00 0.00 353.25 887.25 cl
0.00 0.00 353.25 887.25 cl
0.00 0.00 353.25 887.25 cl
0.00 0.00 353.25 887.25 cl
0.00 0.00 353.25 887.25 cl
0 0 0 srgb
1.06 setlinewidth
[] 0 setdash
0 setlinecap
1 setlinejoin
10.00 setmiterlimit
np
62.88 53.10 m
275.97 0 l
o
0.00 0.00 353.25 887.25 cl
0 0 0 srgb
1.06 setlinewidth
[] 0 setdash
0 setlinecap
1 setlinejoin
10.00 setmiterlimit
np
94.72 48.85 m
0 4.25 l
o
np
147.79 48.85 m
0 4.25 l
o
np
200.86 48.85 m
0 4.25 l
o
np
253.94 48.85 m
0 4.25 l
o
np
307.01 48.85 m
0 4.25 l
o
0.00 0.00 353.25 887.25 cl
0.00 0.00 353.25 887.25 cl
/Font1 findfont 10 s
0 0 0 srgb
94.72 38.83 (0) .5 0 t
147.79 38.83 (25) .5 0 t
200.86 38.83 (50) .5 0 t
253.94 38.83 (75) .5 0 t
307.01 38.83 (100) .5 0 t
0.00 0.00 353.25 887.25 cl
0.00 0.00 353.25 887.25 cl
0.00 0.00 353.25 887.25 cl
0.00 0.00 353.25 887.25 cl
0.00 0.00 353.25 887.25 cl
/Font1 findfont 12 s
0 0 0 srgb
200.86 26.62 ( ) .5 0 t
0.00 0.00 353.25 887.25 cl
0.00 0.00 353.25 887.25 cl
/Font1 findfont 12 s
0 0 0 srgb
35.23 136.19 ( ) .5 90 t
0.00 0.00 353.25 887.25 cl
0.00 0.00 353.25 887.25 cl
0.00 0.00 353.25 887.25 cl
0.00 0.00 353.25 887.25 cl
0.00 0.00 353.25 887.25 cl
0.00 0.00 353.25 887.25 cl
0.00 0.00 353.25 887.25 cl
/Font1 findfont 12 s
0 0 0 srgb
112.85 3.60 (Inter Stim) 0 ta
-0.120 (ulus Inter) tb
0.360 (v) tb
-0.300 (al \(ms\)) tb gr
0.00 0.00 353.25 887.25 cl
0.00 0.00 353.25 887.25 cl
/Font1 findfont 12 s
0 0 0 srgb
12.22 372.27 (Soleus H Refle) 90 ta
-0.360 (x Amplitude) tb gr
0.00 0.00 353.25 887.25 cl
0.00 0.00 353.25 887.25 cl
ep
%%Trailer
%%Pages: 1
%%EOF
