%!PS-Adobe-3.0 EPSF-3.0
%%DocumentNeededResources: font Helvetica
%%+ font Helvetica-Bold
%%+ font Helvetica-Oblique
%%+ font Helvetica-BoldOblique
%%+ font Symbol
%%Title: R Graphics Output
%%Creator: R Software
%%Pages: (atend)
%%BoundingBox: 0 0 611 311
%%EndComments
%%BeginProlog
/bp  { gs sRGB gs } def
% begin .ps.prolog
/gs  { gsave } bind def
/gr  { grestore } bind def
/ep  { showpage gr gr } bind def
/m   { moveto } bind def
/l  { rlineto } bind def
/np  { newpath } bind def
/cp  { closepath } bind def
/f   { fill } bind def
/o   { stroke } bind def
/c   { newpath 0 360 arc } bind def
/r   { 4 2 roll moveto 1 copy 3 -1 roll exch 0 exch rlineto 0 rlineto -1 mul 0 exch rlineto closepath } bind def
/p1  { stroke } bind def
/p2  { gsave bg fill grestore newpath } bind def
/p3  { gsave bg fill grestore stroke } bind def
/p6  { gsave bg eofill grestore newpath } bind def
/p7  { gsave bg eofill grestore stroke } bind def
/t   { 5 -2 roll moveto gsave rotate
       1 index stringwidth pop
       mul neg 0 rmoveto show grestore } bind def
/ta  { 4 -2 roll moveto gsave rotate show } bind def
/tb  { 2 -1 roll 0 rmoveto show } bind def
/cl  { grestore gsave newpath 3 index 3 index moveto 1 index
       4 -1 roll lineto  exch 1 index lineto lineto
       closepath clip newpath } bind def
/rgb { setrgbcolor } bind def
/s   { scalefont setfont } bind def
% end   .ps.prolog
/sRGB { [ /CIEBasedABC
          << /DecodeLMN
               [ { dup 0.03928 le
                        {12.92321 div}
                        {0.055 add 1.055 div 2.4 exp }
                     ifelse
                 } bind dup dup
               ]
             /MatrixLMN [0.412457 0.212673 0.019334
                         0.357576 0.715152 0.119192
                         0.180437 0.072175 0.950301]
             /WhitePoint [0.9505 1.0 1.0890]
           >>
         ] setcolorspace } bind def
/srgb { setcolor } bind def
%%IncludeResource: font Helvetica
/Helvetica findfont
dup length dict begin
  {1 index /FID ne {def} {pop pop} ifelse} forall
  /Encoding ISOLatin1Encoding def
  currentdict
  end
/Font1 exch definefont pop
%%IncludeResource: font Helvetica-Bold
/Helvetica-Bold findfont
dup length dict begin
  {1 index /FID ne {def} {pop pop} ifelse} forall
  /Encoding ISOLatin1Encoding def
  currentdict
  end
/Font2 exch definefont pop
%%IncludeResource: font Helvetica-Oblique
/Helvetica-Oblique findfont
dup length dict begin
  {1 index /FID ne {def} {pop pop} ifelse} forall
  /Encoding ISOLatin1Encoding def
  currentdict
  end
/Font3 exch definefont pop
%%IncludeResource: font Helvetica-BoldOblique
/Helvetica-BoldOblique findfont
dup length dict begin
  {1 index /FID ne {def} {pop pop} ifelse} forall
  /Encoding ISOLatin1Encoding def
  currentdict
  end
/Font4 exch definefont pop
%%IncludeResource: font Symbol
/Symbol findfont
dup length dict begin
  {1 index /FID ne {def} {pop pop} ifelse} forall
  currentdict
  end
/Font5 exch definefont pop
%%EndProlog
%%Page: 1 1
bp
0.00 0.00 610.50 311.25 cl
0.00 0.00 610.50 311.25 cl
0.00 0.00 610.50 311.25 cl
15.82 163.53 313.16 311.25 cl
/bg { 1 1 1 srgb } def
1 1 1 srgb
1.06 setlinewidth
[] 0 setdash
1 setlinecap
1 setlinejoin
10.00 setmiterlimit
15.82 163.53 297.34 147.72 r p3
0.00 0.00 610.50 311.25 cl
0.00 0.00 610.50 311.25 cl
0.00 0.00 610.50 311.25 cl
62.88 200.82 218.49 279.60 cl
/bg { 1 1 1 srgb } def
62.88 200.82 155.62 78.78 r p2
0 0 0 srgb
1.06 setlinewidth
[] 0 setdash
0 setlinecap
1 setlinejoin
1.00 setmiterlimit
np
79.34 240.21 m
2.99 0 l
o
np
80.83 240.21 m
0 0 l
o
np
79.34 240.21 m
2.99 0 l
o
np
109.26 248.08 m
3.00 0 l
o
np
110.76 248.08 m
0 -8.62 l
o
np
109.26 239.46 m
3.00 0 l
o
np
139.19 244.91 m
2.99 0 l
o
np
140.69 244.91 m
0 -4.98 l
o
np
139.19 239.93 m
2.99 0 l
o
np
169.12 244.82 m
2.99 0 l
o
np
170.61 244.82 m
0 -9.80 l
o
np
169.12 235.02 m
2.99 0 l
o
np
199.04 241.69 m
3.00 0 l
o
np
200.54 241.69 m
0 -7.28 l
o
np
199.04 234.41 m
3.00 0 l
o
2.13 setlinewidth
[] 0 setdash
np
80.83 240.21 m
29.93 3.56 l
29.93 -1.35 l
29.92 -2.50 l
29.93 -1.87 l
o
1.06 setlinewidth
[] 0 setdash
10.00 setmiterlimit
np
62.88 240.21 m
155.61 0 l
o
/bg { 0 0 0 srgb } def
80.83 240.21 2.13 c p2
110.76 243.77 2.13 c p2
140.69 242.42 2.13 c p2
170.61 239.92 2.13 c p2
200.54 238.05 2.13 c p2
0.00 0.00 610.50 311.25 cl
0.00 0.00 610.50 311.25 cl
0 0 0 srgb
1.06 setlinewidth
[] 0 setdash
0 setlinecap
1 setlinejoin
10.00 setmiterlimit
np
62.88 200.82 m
0 78.78 l
o
0.00 0.00 610.50 311.25 cl
/Font1 findfont 10 s
0 0 0 srgb
55.79 200.81 (-40) 1 0 t
55.79 218.71 (-20) 1 0 t
55.79 236.62 (0) 1 0 t
55.79 254.52 (20) 1 0 t
55.79 272.43 (40) 1 0 t
0.00 0.00 610.50 311.25 cl
0.00 0.00 610.50 311.25 cl
0 0 0 srgb
1.06 setlinewidth
[] 0 setdash
0 setlinecap
1 setlinejoin
10.00 setmiterlimit
np
58.63 204.40 m
4.25 0 l
o
np
58.63 222.30 m
4.25 0 l
o
np
58.63 240.21 m
4.25 0 l
o
np
58.63 258.11 m
4.25 0 l
o
np
58.63 276.02 m
4.25 0 l
o
0.00 0.00 610.50 311.25 cl
0.00 0.00 610.50 311.25 cl
0.00 0.00 610.50 311.25 cl
0.00 0.00 610.50 311.25 cl
0.00 0.00 610.50 311.25 cl
0 0 0 srgb
1.06 setlinewidth
[] 0 setdash
0 setlinecap
1 setlinejoin
10.00 setmiterlimit
np
62.88 200.82 m
155.61 0 l
o
0.00 0.00 610.50 311.25 cl
0 0 0 srgb
1.06 setlinewidth
[] 0 setdash
0 setlinecap
1 setlinejoin
10.00 setmiterlimit
np
80.83 196.56 m
0 4.26 l
o
np
110.76 196.56 m
0 4.26 l
o
np
140.69 196.56 m
0 4.26 l
o
np
170.61 196.56 m
0 4.26 l
o
np
200.54 196.56 m
0 4.26 l
o
0.00 0.00 610.50 311.25 cl
0.00 0.00 610.50 311.25 cl
/Font1 findfont 10 s
0 0 0 srgb
80.83 186.55 (0) .5 0 t
110.76 186.55 (25) .5 0 t
140.69 186.55 (50) .5 0 t
170.61 186.55 (75) .5 0 t
200.54 186.55 (100) .5 0 t
0.00 0.00 610.50 311.25 cl
0.00 0.00 610.50 311.25 cl
0.00 0.00 610.50 311.25 cl
0.00 0.00 610.50 311.25 cl
0.00 0.00 610.50 311.25 cl
/Font1 findfont 12 s
0 0 0 srgb
140.69 174.33 (CT) .5 0 t
0.00 0.00 610.50 311.25 cl
0.00 0.00 610.50 311.25 cl
/Font1 findfont 12 s
0 0 0 srgb
35.23 240.21 (Non-injured) .5 90 t
0.00 0.00 610.50 311.25 cl
0.00 0.00 610.50 311.25 cl
0.00 0.00 610.50 311.25 cl
0.00 0.00 610.50 311.25 cl
0.00 0.00 610.50 311.25 cl
0.00 0.00 610.50 311.25 cl
/bg { 1 1 1 srgb } def
228.53 221.78 60.19 36.85 r p2
0.00 0.00 610.50 311.25 cl
0.00 0.00 610.50 311.25 cl
/Font2 findfont 10 s
0 0 0 srgb
232.78 247.42 (Time) 0 0 t
0.00 0.00 610.50 311.25 cl
0.00 0.00 610.50 311.25 cl
0.00 0.00 610.50 311.25 cl
0.00 0.00 610.50 311.25 cl
0 0 0 srgb
2.13 setlinewidth
[] 0 setdash
0 setlinecap
1 setlinejoin
10.00 setmiterlimit
np
234.51 234.67 m
13.82 0 l
o
0.00 0.00 610.50 311.25 cl
0.00 0.00 610.50 311.25 cl
/Font1 findfont 10 s
0 0 0 srgb
252.22 231.08 (Bef) 0 ta
-0.300 (ore) tb gr
0.00 0.00 610.50 311.25 cl
0.00 0.00 610.50 311.25 cl
0.00 0.00 610.50 311.25 cl
0.00 0.00 610.50 311.25 cl
0.00 0.00 610.50 311.25 cl
0.00 0.00 610.50 311.25 cl
0.00 0.00 610.50 311.25 cl
0.00 0.00 610.50 311.25 cl
0.00 0.00 610.50 311.25 cl
0.00 0.00 610.50 311.25 cl
/Font1 findfont 14 s
0 0 0 srgb
140.69 283.20 (Cycling) .5 0 t
0.00 0.00 610.50 311.25 cl
0.00 0.00 610.50 311.25 cl
0.00 0.00 610.50 311.25 cl
0.00 0.00 610.50 311.25 cl
0.00 0.00 610.50 311.25 cl
0.00 0.00 610.50 311.25 cl
313.16 163.53 610.50 311.25 cl
/bg { 1 1 1 srgb } def
1 1 1 srgb
1.06 setlinewidth
[] 0 setdash
1 setlinecap
1 setlinejoin
10.00 setmiterlimit
313.16 163.53 297.34 147.72 r p3
0.00 0.00 610.50 311.25 cl
0.00 0.00 610.50 311.25 cl
0.00 0.00 610.50 311.25 cl
360.22 200.82 515.84 279.60 cl
/bg { 1 1 1 srgb } def
360.22 200.82 155.62 78.78 r p2
0 0 0 srgb
1.06 setlinewidth
[] 0 setdash
0 setlinecap
1 setlinejoin
1.00 setmiterlimit
np
376.68 240.21 m
2.99 0 l
o
np
378.18 240.21 m
0 0 l
o
np
376.68 240.21 m
2.99 0 l
o
np
406.61 245.05 m
2.99 0 l
o
np
408.10 245.05 m
0 -7.36 l
o
np
406.61 237.69 m
2.99 0 l
o
np
436.53 248.43 m
3.00 0 l
o
np
438.03 248.43 m
0 -7.47 l
o
np
436.53 240.96 m
3.00 0 l
o
np
466.46 248.57 m
2.99 0 l
o
np
467.96 248.57 m
0 -5.78 l
o
np
466.46 242.79 m
2.99 0 l
o
np
496.38 252.33 m
3.00 0 l
o
np
497.88 252.33 m
0 -6.63 l
o
np
496.38 245.70 m
3.00 0 l
o
2.13 setlinewidth
[] 0 setdash
np
378.18 240.21 m
29.92 1.16 l
29.93 3.32 l
29.93 0.99 l
29.92 3.33 l
o
1.06 setlinewidth
[] 0 setdash
10.00 setmiterlimit
np
360.22 240.21 m
155.62 0 l
o
/bg { 0 0 0 srgb } def
378.18 240.21 2.13 c p2
408.10 241.37 2.13 c p2
438.03 244.69 2.13 c p2
467.96 245.68 2.13 c p2
497.88 249.01 2.13 c p2
0.00 0.00 610.50 311.25 cl
0.00 0.00 610.50 311.25 cl
0 0 0 srgb
1.06 setlinewidth
[] 0 setdash
0 setlinecap
1 setlinejoin
10.00 setmiterlimit
np
360.22 200.82 m
0 78.78 l
o
0.00 0.00 610.50 311.25 cl
/Font1 findfont 10 s
0 0 0 srgb
353.13 200.81 (-40) 1 0 t
353.13 218.71 (-20) 1 0 t
353.13 236.62 (0) 1 0 t
353.13 254.52 (20) 1 0 t
353.13 272.43 (40) 1 0 t
0.00 0.00 610.50 311.25 cl
0.00 0.00 610.50 311.25 cl
0 0 0 srgb
1.06 setlinewidth
[] 0 setdash
0 setlinecap
1 setlinejoin
10.00 setmiterlimit
np
355.97 204.40 m
4.25 0 l
o
np
355.97 222.30 m
4.25 0 l
o
np
355.97 240.21 m
4.25 0 l
o
np
355.97 258.11 m
4.25 0 l
o
np
355.97 276.02 m
4.25 0 l
o
0.00 0.00 610.50 311.25 cl
0.00 0.00 610.50 311.25 cl
0.00 0.00 610.50 311.25 cl
0.00 0.00 610.50 311.25 cl
0.00 0.00 610.50 311.25 cl
0 0 0 srgb
1.06 setlinewidth
[] 0 setdash
0 setlinecap
1 setlinejoin
10.00 setmiterlimit
np
360.22 200.82 m
155.62 0 l
o
0.00 0.00 610.50 311.25 cl
0 0 0 srgb
1.06 setlinewidth
[] 0 setdash
0 setlinecap
1 setlinejoin
10.00 setmiterlimit
np
378.18 196.56 m
0 4.26 l
o
np
408.10 196.56 m
0 4.26 l
o
np
438.03 196.56 m
0 4.26 l
o
np
467.96 196.56 m
0 4.26 l
o
np
497.88 196.56 m
0 4.26 l
o
0.00 0.00 610.50 311.25 cl
0.00 0.00 610.50 311.25 cl
/Font1 findfont 10 s
0 0 0 srgb
378.18 186.55 (0) .5 0 t
408.10 186.55 (25) .5 0 t
438.03 186.55 (50) .5 0 t
467.96 186.55 (75) .5 0 t
497.88 186.55 (100) .5 0 t
0.00 0.00 610.50 311.25 cl
0.00 0.00 610.50 311.25 cl
0.00 0.00 610.50 311.25 cl
0.00 0.00 610.50 311.25 cl
0.00 0.00 610.50 311.25 cl
/Font1 findfont 12 s
0 0 0 srgb
438.03 174.33 (CT) .5 0 t
0.00 0.00 610.50 311.25 cl
0.00 0.00 610.50 311.25 cl
/Font1 findfont 12 s
0 0 0 srgb
332.57 240.21 (Non-injured) .5 90 t
0.00 0.00 610.50 311.25 cl
0.00 0.00 610.50 311.25 cl
0.00 0.00 610.50 311.25 cl
0.00 0.00 610.50 311.25 cl
0.00 0.00 610.50 311.25 cl
0.00 0.00 610.50 311.25 cl
/bg { 1 1 1 srgb } def
525.87 221.78 60.19 36.85 r p2
0.00 0.00 610.50 311.25 cl
0.00 0.00 610.50 311.25 cl
/Font2 findfont 10 s
0 0 0 srgb
530.12 247.42 (Time) 0 0 t
0.00 0.00 610.50 311.25 cl
0.00 0.00 610.50 311.25 cl
0.00 0.00 610.50 311.25 cl
0.00 0.00 610.50 311.25 cl
0 0 0 srgb
2.13 setlinewidth
[] 0 setdash
0 setlinecap
1 setlinejoin
10.00 setmiterlimit
np
531.85 234.67 m
13.83 0 l
o
0.00 0.00 610.50 311.25 cl
0.00 0.00 610.50 311.25 cl
/Font1 findfont 10 s
0 0 0 srgb
549.56 231.08 (Bef) 0 ta
-0.300 (ore) tb gr
0.00 0.00 610.50 311.25 cl
0.00 0.00 610.50 311.25 cl
0.00 0.00 610.50 311.25 cl
0.00 0.00 610.50 311.25 cl
0.00 0.00 610.50 311.25 cl
0.00 0.00 610.50 311.25 cl
0.00 0.00 610.50 311.25 cl
0.00 0.00 610.50 311.25 cl
0.00 0.00 610.50 311.25 cl
0.00 0.00 610.50 311.25 cl
/Font1 findfont 14 s
0 0 0 srgb
438.03 283.20 (ES Cycling) .5 0 t
0.00 0.00 610.50 311.25 cl
0.00 0.00 610.50 311.25 cl
0.00 0.00 610.50 311.25 cl
0.00 0.00 610.50 311.25 cl
0.00 0.00 610.50 311.25 cl
0.00 0.00 610.50 311.25 cl
15.82 15.82 313.16 163.53 cl
/bg { 1 1 1 srgb } def
1 1 1 srgb
1.06 setlinewidth
[] 0 setdash
1 setlinecap
1 setlinejoin
10.00 setmiterlimit
15.82 15.82 297.34 147.72 r p3
0.00 0.00 610.50 311.25 cl
0.00 0.00 610.50 311.25 cl
0.00 0.00 610.50 311.25 cl
62.88 53.10 218.49 131.88 cl
/bg { 1 1 1 srgb } def
62.88 53.10 155.62 78.78 r p2
0 0 0 srgb
1.06 setlinewidth
[] 0 setdash
0 setlinecap
1 setlinejoin
1.00 setmiterlimit
np
79.34 92.49 m
2.99 0 l
o
np
80.83 92.49 m
0 0 l
o
np
79.34 92.49 m
2.99 0 l
o
np
109.26 98.64 m
3.00 0 l
o
np
110.76 98.64 m
0 -10.86 l
o
np
109.26 87.78 m
3.00 0 l
o
np
139.19 96.13 m
2.99 0 l
o
np
140.69 96.13 m
0 -8.41 l
o
np
139.19 87.72 m
2.99 0 l
o
np
169.12 99.16 m
2.99 0 l
o
np
170.61 99.16 m
0 -10.22 l
o
np
169.12 88.94 m
2.99 0 l
o
np
199.04 99.58 m
3.00 0 l
o
np
200.54 99.58 m
0 -9.33 l
o
np
199.04 90.25 m
3.00 0 l
o
2.13 setlinewidth
[] 0 setdash
np
80.83 92.49 m
29.93 0.72 l
29.93 -1.28 l
29.92 2.12 l
29.93 0.87 l
o
1.06 setlinewidth
[] 0 setdash
10.00 setmiterlimit
np
62.88 92.49 m
155.61 0 l
o
/bg { 0 0 0 srgb } def
80.83 92.49 2.13 c p2
110.76 93.21 2.13 c p2
140.69 91.93 2.13 c p2
170.61 94.05 2.13 c p2
200.54 94.92 2.13 c p2
0.00 0.00 610.50 311.25 cl
0.00 0.00 610.50 311.25 cl
0 0 0 srgb
1.06 setlinewidth
[] 0 setdash
0 setlinecap
1 setlinejoin
10.00 setmiterlimit
np
62.88 53.10 m
0 78.78 l
o
0.00 0.00 610.50 311.25 cl
/Font1 findfont 10 s
0 0 0 srgb
55.79 53.09 (-40) 1 0 t
55.79 70.99 (-20) 1 0 t
55.79 88.90 (0) 1 0 t
55.79 106.80 (20) 1 0 t
55.79 124.71 (40) 1 0 t
0.00 0.00 610.50 311.25 cl
0.00 0.00 610.50 311.25 cl
0 0 0 srgb
1.06 setlinewidth
[] 0 setdash
0 setlinecap
1 setlinejoin
10.00 setmiterlimit
np
58.63 56.68 m
4.25 0 l
o
np
58.63 74.58 m
4.25 0 l
o
np
58.63 92.49 m
4.25 0 l
o
np
58.63 110.39 m
4.25 0 l
o
np
58.63 128.30 m
4.25 0 l
o
0.00 0.00 610.50 311.25 cl
0.00 0.00 610.50 311.25 cl
0.00 0.00 610.50 311.25 cl
0.00 0.00 610.50 311.25 cl
0.00 0.00 610.50 311.25 cl
0 0 0 srgb
1.06 setlinewidth
[] 0 setdash
0 setlinecap
1 setlinejoin
10.00 setmiterlimit
np
62.88 53.10 m
155.61 0 l
o
0.00 0.00 610.50 311.25 cl
0 0 0 srgb
1.06 setlinewidth
[] 0 setdash
0 setlinecap
1 setlinejoin
10.00 setmiterlimit
np
80.83 48.85 m
0 4.25 l
o
np
110.76 48.85 m
0 4.25 l
o
np
140.69 48.85 m
0 4.25 l
o
np
170.61 48.85 m
0 4.25 l
o
np
200.54 48.85 m
0 4.25 l
o
0.00 0.00 610.50 311.25 cl
0.00 0.00 610.50 311.25 cl
/Font1 findfont 10 s
0 0 0 srgb
80.83 38.83 (0) .5 0 t
110.76 38.83 (25) .5 0 t
140.69 38.83 (50) .5 0 t
170.61 38.83 (75) .5 0 t
200.54 38.83 (100) .5 0 t
0.00 0.00 610.50 311.25 cl
0.00 0.00 610.50 311.25 cl
0.00 0.00 610.50 311.25 cl
0.00 0.00 610.50 311.25 cl
0.00 0.00 610.50 311.25 cl
/Font1 findfont 12 s
0 0 0 srgb
140.69 26.62 (CT) .5 0 t
0.00 0.00 610.50 311.25 cl
0.00 0.00 610.50 311.25 cl
/Font1 findfont 12 s
0 0 0 srgb
35.23 92.49 (Non-injured) .5 90 t
0.00 0.00 610.50 311.25 cl
0.00 0.00 610.50 311.25 cl
0.00 0.00 610.50 311.25 cl
0.00 0.00 610.50 311.25 cl
0.00 0.00 610.50 311.25 cl
0.00 0.00 610.50 311.25 cl
/bg { 1 1 1 srgb } def
228.53 74.06 60.19 36.85 r p2
0.00 0.00 610.50 311.25 cl
0.00 0.00 610.50 311.25 cl
/Font2 findfont 10 s
0 0 0 srgb
232.78 99.70 (Time) 0 0 t
0.00 0.00 610.50 311.25 cl
0.00 0.00 610.50 311.25 cl
0.00 0.00 610.50 311.25 cl
0.00 0.00 610.50 311.25 cl
0 0 0 srgb
2.13 setlinewidth
[] 0 setdash
0 setlinecap
1 setlinejoin
10.00 setmiterlimit
np
234.51 86.95 m
13.82 0 l
o
0.00 0.00 610.50 311.25 cl
0.00 0.00 610.50 311.25 cl
/Font1 findfont 10 s
0 0 0 srgb
252.22 83.36 (Bef) 0 ta
-0.300 (ore) tb gr
0.00 0.00 610.50 311.25 cl
0.00 0.00 610.50 311.25 cl
0.00 0.00 610.50 311.25 cl
0.00 0.00 610.50 311.25 cl
0.00 0.00 610.50 311.25 cl
0.00 0.00 610.50 311.25 cl
0.00 0.00 610.50 311.25 cl
0.00 0.00 610.50 311.25 cl
0.00 0.00 610.50 311.25 cl
0.00 0.00 610.50 311.25 cl
/Font1 findfont 14 s
0 0 0 srgb
140.69 135.48 (Cycling) .5 0 t
0.00 0.00 610.50 311.25 cl
0.00 0.00 610.50 311.25 cl
0.00 0.00 610.50 311.25 cl
0.00 0.00 610.50 311.25 cl
0.00 0.00 610.50 311.25 cl
0.00 0.00 610.50 311.25 cl
313.16 15.82 610.50 163.53 cl
/bg { 1 1 1 srgb } def
1 1 1 srgb
1.06 setlinewidth
[] 0 setdash
1 setlinecap
1 setlinejoin
10.00 setmiterlimit
313.16 15.82 297.34 147.72 r p3
0.00 0.00 610.50 311.25 cl
0.00 0.00 610.50 311.25 cl
0.00 0.00 610.50 311.25 cl
360.22 53.10 515.84 131.88 cl
/bg { 1 1 1 srgb } def
360.22 53.10 155.62 78.78 r p2
0 0 0 srgb
1.06 setlinewidth
[] 0 setdash
0 setlinecap
1 setlinejoin
1.00 setmiterlimit
np
376.68 90.66 m
2.99 0 l
o
np
378.18 90.66 m
0 0 l
o
np
376.68 90.66 m
2.99 0 l
o
np
406.61 103.71 m
2.99 0 l
o
np
408.10 103.71 m
0 -15.81 l
o
np
406.61 87.90 m
2.99 0 l
o
np
436.53 117.51 m
3.00 0 l
o
np
438.03 117.51 m
0 -23.20 l
o
np
436.53 94.31 m
3.00 0 l
o
np
466.46 128.30 m
2.99 0 l
o
np
467.96 128.30 m
0 -31.92 l
o
np
466.46 96.38 m
2.99 0 l
o
np
496.38 98.09 m
3.00 0 l
o
np
497.88 98.09 m
0 -13.23 l
o
np
496.38 84.86 m
3.00 0 l
o
2.13 setlinewidth
[] 0 setdash
np
378.18 90.66 m
29.92 5.14 l
29.93 10.11 l
29.93 6.43 l
29.92 -20.87 l
o
1.06 setlinewidth
[] 0 setdash
10.00 setmiterlimit
np
360.22 90.66 m
155.62 0 l
o
/bg { 0 0 0 srgb } def
378.18 90.66 2.13 c p2
408.10 95.80 2.13 c p2
438.03 105.91 2.13 c p2
467.96 112.34 2.13 c p2
497.88 91.47 2.13 c p2
0.00 0.00 610.50 311.25 cl
0.00 0.00 610.50 311.25 cl
0 0 0 srgb
1.06 setlinewidth
[] 0 setdash
0 setlinecap
1 setlinejoin
10.00 setmiterlimit
np
360.22 53.10 m
0 78.78 l
o
0.00 0.00 610.50 311.25 cl
/Font1 findfont 10 s
0 0 0 srgb
353.13 65.83 (-25) 1 0 t
353.13 87.07 (0) 1 0 t
353.13 108.31 (25) 1 0 t
0.00 0.00 610.50 311.25 cl
0.00 0.00 610.50 311.25 cl
0 0 0 srgb
1.06 setlinewidth
[] 0 setdash
0 setlinecap
1 setlinejoin
10.00 setmiterlimit
np
355.97 69.42 m
4.25 0 l
o
np
355.97 90.66 m
4.25 0 l
o
np
355.97 111.90 m
4.25 0 l
o
0.00 0.00 610.50 311.25 cl
0.00 0.00 610.50 311.25 cl
0.00 0.00 610.50 311.25 cl
0.00 0.00 610.50 311.25 cl
0.00 0.00 610.50 311.25 cl
0 0 0 srgb
1.06 setlinewidth
[] 0 setdash
0 setlinecap
1 setlinejoin
10.00 setmiterlimit
np
360.22 53.10 m
155.62 0 l
o
0.00 0.00 610.50 311.25 cl
0 0 0 srgb
1.06 setlinewidth
[] 0 setdash
0 setlinecap
1 setlinejoin
10.00 setmiterlimit
np
378.18 48.85 m
0 4.25 l
o
np
408.10 48.85 m
0 4.25 l
o
np
438.03 48.85 m
0 4.25 l
o
np
467.96 48.85 m
0 4.25 l
o
np
497.88 48.85 m
0 4.25 l
o
0.00 0.00 610.50 311.25 cl
0.00 0.00 610.50 311.25 cl
/Font1 findfont 10 s
0 0 0 srgb
378.18 38.83 (0) .5 0 t
408.10 38.83 (25) .5 0 t
438.03 38.83 (50) .5 0 t
467.96 38.83 (75) .5 0 t
497.88 38.83 (100) .5 0 t
0.00 0.00 610.50 311.25 cl
0.00 0.00 610.50 311.25 cl
0.00 0.00 610.50 311.25 cl
0.00 0.00 610.50 311.25 cl
0.00 0.00 610.50 311.25 cl
/Font1 findfont 12 s
0 0 0 srgb
438.03 26.62 (CT) .5 0 t
0.00 0.00 610.50 311.25 cl
0.00 0.00 610.50 311.25 cl
/Font1 findfont 12 s
0 0 0 srgb
332.57 92.49 (Non-injured) .5 90 t
0.00 0.00 610.50 311.25 cl
0.00 0.00 610.50 311.25 cl
0.00 0.00 610.50 311.25 cl
0.00 0.00 610.50 311.25 cl
0.00 0.00 610.50 311.25 cl
0.00 0.00 610.50 311.25 cl
/bg { 1 1 1 srgb } def
525.87 74.06 60.19 36.85 r p2
0.00 0.00 610.50 311.25 cl
0.00 0.00 610.50 311.25 cl
/Font2 findfont 10 s
0 0 0 srgb
530.12 99.70 (Time) 0 0 t
0.00 0.00 610.50 311.25 cl
0.00 0.00 610.50 311.25 cl
0.00 0.00 610.50 311.25 cl
0.00 0.00 610.50 311.25 cl
0 0 0 srgb
2.13 setlinewidth
[] 0 setdash
0 setlinecap
1 setlinejoin
10.00 setmiterlimit
np
531.85 86.95 m
13.83 0 l
o
0.00 0.00 610.50 311.25 cl
0.00 0.00 610.50 311.25 cl
/Font1 findfont 10 s
0 0 0 srgb
549.56 83.36 (Bef) 0 ta
-0.300 (ore) tb gr
0.00 0.00 610.50 311.25 cl
0.00 0.00 610.50 311.25 cl
0.00 0.00 610.50 311.25 cl
0.00 0.00 610.50 311.25 cl
0.00 0.00 610.50 311.25 cl
0.00 0.00 610.50 311.25 cl
0.00 0.00 610.50 311.25 cl
0.00 0.00 610.50 311.25 cl
0.00 0.00 610.50 311.25 cl
0.00 0.00 610.50 311.25 cl
/Font1 findfont 14 s
0 0 0 srgb
438.03 135.48 (ES Cycling) .5 0 t
0.00 0.00 610.50 311.25 cl
0.00 0.00 610.50 311.25 cl
0.00 0.00 610.50 311.25 cl
0.00 0.00 610.50 311.25 cl
0.00 0.00 610.50 311.25 cl
/Font1 findfont 12 s
0 0 0 srgb
241.48 3.60 (Inter Stim) 0 ta
-0.120 (ulus Inter) tb
0.360 (v) tb
-0.300 (al \(ms\)) tb gr
0.00 0.00 610.50 311.25 cl
0.00 0.00 610.50 311.25 cl
/Font1 findfont 12 s
0 0 0 srgb
12.22 84.27 (Soleus H Refle) 90 ta
-0.360 (x Amplitude) tb gr
0.00 0.00 610.50 311.25 cl
0.00 0.00 610.50 311.25 cl
ep
%%Trailer
%%Pages: 1
%%EOF
