%!PS-Adobe-3.0 EPSF-3.0
%%DocumentNeededResources: font Helvetica
%%+ font Helvetica-Bold
%%+ font Helvetica-Oblique
%%+ font Helvetica-BoldOblique
%%+ font Symbol
%%Title: R Graphics Output
%%Creator: R Software
%%Pages: (atend)
%%BoundingBox: 0 0 375 562
%%EndComments
%%BeginProlog
/bp  { gs sRGB gs } def
% begin .ps.prolog
/gs  { gsave } bind def
/gr  { grestore } bind def
/ep  { showpage gr gr } bind def
/m   { moveto } bind def
/l  { rlineto } bind def
/np  { newpath } bind def
/cp  { closepath } bind def
/f   { fill } bind def
/o   { stroke } bind def
/c   { newpath 0 360 arc } bind def
/r   { 4 2 roll moveto 1 copy 3 -1 roll exch 0 exch rlineto 0 rlineto -1 mul 0 exch rlineto closepath } bind def
/p1  { stroke } bind def
/p2  { gsave bg fill grestore newpath } bind def
/p3  { gsave bg fill grestore stroke } bind def
/p6  { gsave bg eofill grestore newpath } bind def
/p7  { gsave bg eofill grestore stroke } bind def
/t   { 5 -2 roll moveto gsave rotate
       1 index stringwidth pop
       mul neg 0 rmoveto show grestore } bind def
/ta  { 4 -2 roll moveto gsave rotate show } bind def
/tb  { 2 -1 roll 0 rmoveto show } bind def
/cl  { grestore gsave newpath 3 index 3 index moveto 1 index
       4 -1 roll lineto  exch 1 index lineto lineto
       closepath clip newpath } bind def
/rgb { setrgbcolor } bind def
/s   { scalefont setfont } bind def
% end   .ps.prolog
/sRGB { [ /CIEBasedABC
          << /DecodeLMN
               [ { dup 0.03928 le
                        {12.92321 div}
                        {0.055 add 1.055 div 2.4 exp }
                     ifelse
                 } bind dup dup
               ]
             /MatrixLMN [0.412457 0.212673 0.019334
                         0.357576 0.715152 0.119192
                         0.180437 0.072175 0.950301]
             /WhitePoint [0.9505 1.0 1.0890]
           >>
         ] setcolorspace } bind def
/srgb { setcolor } bind def
%%IncludeResource: font Helvetica
/Helvetica findfont
dup length dict begin
  {1 index /FID ne {def} {pop pop} ifelse} forall
  /Encoding ISOLatin1Encoding def
  currentdict
  end
/Font1 exch definefont pop
%%IncludeResource: font Helvetica-Bold
/Helvetica-Bold findfont
dup length dict begin
  {1 index /FID ne {def} {pop pop} ifelse} forall
  /Encoding ISOLatin1Encoding def
  currentdict
  end
/Font2 exch definefont pop
%%IncludeResource: font Helvetica-Oblique
/Helvetica-Oblique findfont
dup length dict begin
  {1 index /FID ne {def} {pop pop} ifelse} forall
  /Encoding ISOLatin1Encoding def
  currentdict
  end
/Font3 exch definefont pop
%%IncludeResource: font Helvetica-BoldOblique
/Helvetica-BoldOblique findfont
dup length dict begin
  {1 index /FID ne {def} {pop pop} ifelse} forall
  /Encoding ISOLatin1Encoding def
  currentdict
  end
/Font4 exch definefont pop
%%IncludeResource: font Symbol
/Symbol findfont
dup length dict begin
  {1 index /FID ne {def} {pop pop} ifelse} forall
  currentdict
  end
/Font5 exch definefont pop
%%EndProlog
%%Page: 1 1
bp
0.00 0.00 375.00 562.50 cl
0.00 0.00 375.00 562.50 cl
0.00 0.00 375.00 562.50 cl
15.82 425.83 195.41 562.50 cl
/bg { 1 1 1 srgb } def
1 1 1 srgb
1.06 setlinewidth
[] 0 setdash
1 setlinecap
1 setlinejoin
10.00 setmiterlimit
15.82 425.83 179.59 136.67 r p3
0.00 0.00 375.00 562.50 cl
0.00 0.00 375.00 562.50 cl
0.00 0.00 375.00 562.50 cl
62.60 463.11 181.01 530.85 cl
/bg { 1 1 1 srgb } def
62.60 463.11 118.41 67.74 r p2
0 0 0 srgb
1.06 setlinewidth
[] 0 setdash
0 setlinecap
1 setlinejoin
1.00 setmiterlimit
np
75.12 483.30 m
2.28 0 l
o
np
76.26 483.30 m
0 0 l
o
np
75.12 483.30 m
2.28 0 l
o
np
97.89 478.08 m
2.28 0 l
o
np
99.03 478.08 m
0 -9.37 l
o
np
97.89 468.71 m
2.28 0 l
o
np
120.66 477.79 m
2.28 0 l
o
np
121.80 477.79 m
0 -5.48 l
o
np
120.66 472.31 m
2.28 0 l
o
np
143.44 493.39 m
2.27 0 l
o
np
144.57 493.39 m
0 -6.53 l
o
np
143.44 486.86 m
2.27 0 l
o
np
166.21 491.05 m
2.27 0 l
o
np
167.35 491.05 m
0 -4.16 l
o
np
166.21 486.89 m
2.27 0 l
o
1.49 setlinewidth
[] 0 setdash
np
76.26 483.30 m
22.77 -9.90 l
22.77 1.65 l
22.77 15.08 l
22.78 -1.16 l
o
/bg { 0 0 0 srgb } def
76.26 483.30 2.13 c p2
99.03 473.40 2.13 c p2
121.80 475.05 2.13 c p2
144.57 490.13 2.13 c p2
167.35 488.97 2.13 c p2
0.00 0.00 375.00 562.50 cl
0.00 0.00 375.00 562.50 cl
0 0 0 srgb
1.06 setlinewidth
[] 0 setdash
0 setlinecap
1 setlinejoin
10.00 setmiterlimit
np
62.60 463.11 m
0 67.74 l
o
0.00 0.00 375.00 562.50 cl
/Font1 findfont 10 s
0 0 0 srgb
55.51 462.60 (75) 1 0 t
55.51 479.71 (100) 1 0 t
55.51 496.81 (125) 1 0 t
55.51 513.92 (150) 1 0 t
0.00 0.00 375.00 562.50 cl
0.00 0.00 375.00 562.50 cl
0 0 0 srgb
1.06 setlinewidth
[] 0 setdash
0 setlinecap
1 setlinejoin
10.00 setmiterlimit
np
58.35 466.19 m
4.25 0 l
o
np
58.35 483.30 m
4.25 0 l
o
np
58.35 500.40 m
4.25 0 l
o
np
58.35 517.51 m
4.25 0 l
o
0.00 0.00 375.00 562.50 cl
0.00 0.00 375.00 562.50 cl
0.00 0.00 375.00 562.50 cl
0.00 0.00 375.00 562.50 cl
0.00 0.00 375.00 562.50 cl
0 0 0 srgb
1.06 setlinewidth
[] 0 setdash
0 setlinecap
1 setlinejoin
10.00 setmiterlimit
np
62.60 463.11 m
118.41 0 l
o
0.00 0.00 375.00 562.50 cl
0 0 0 srgb
1.06 setlinewidth
[] 0 setdash
0 setlinecap
1 setlinejoin
10.00 setmiterlimit
np
76.26 458.86 m
0 4.25 l
o
np
99.03 458.86 m
0 4.25 l
o
np
121.80 458.86 m
0 4.25 l
o
np
144.57 458.86 m
0 4.25 l
o
np
167.35 458.86 m
0 4.25 l
o
0.00 0.00 375.00 562.50 cl
0.00 0.00 375.00 562.50 cl
/Font1 findfont 10 s
0 0 0 srgb
76.26 448.85 (0) .5 0 t
99.03 448.85 (25) .5 0 t
121.80 448.85 (50) .5 0 t
144.57 448.85 (75) .5 0 t
167.35 448.85 (100) .5 0 t
0.00 0.00 375.00 562.50 cl
0.00 0.00 375.00 562.50 cl
0.00 0.00 375.00 562.50 cl
0.00 0.00 375.00 562.50 cl
0.00 0.00 375.00 562.50 cl
/Font1 findfont 12 s
0 0 0 srgb
121.80 436.63 ( ) .5 0 t
0.00 0.00 375.00 562.50 cl
0.00 0.00 375.00 562.50 cl
/Font1 findfont 12 s
0 0 0 srgb
35.23 496.98 ( ) .5 90 t
0.00 0.00 375.00 562.50 cl
0.00 0.00 375.00 562.50 cl
/Font1 findfont 14 s
0 0 0 srgb
121.80 534.45 (Cycling) .5 0 t
0.00 0.00 375.00 562.50 cl
0.00 0.00 375.00 562.50 cl
0.00 0.00 375.00 562.50 cl
0.00 0.00 375.00 562.50 cl
0.00 0.00 375.00 562.50 cl
0.00 0.00 375.00 562.50 cl
195.41 425.83 375.00 562.50 cl
/bg { 1 1 1 srgb } def
1 1 1 srgb
1.06 setlinewidth
[] 0 setdash
1 setlinecap
1 setlinejoin
10.00 setmiterlimit
195.41 425.83 179.59 136.67 r p3
0.00 0.00 375.00 562.50 cl
0.00 0.00 375.00 562.50 cl
0.00 0.00 375.00 562.50 cl
242.19 463.11 360.60 530.85 cl
/bg { 1 1 1 srgb } def
242.19 463.11 118.41 67.74 r p2
0 0 0 srgb
1.06 setlinewidth
[] 0 setdash
0 setlinecap
1 setlinejoin
1.00 setmiterlimit
np
254.71 483.30 m
2.28 0 l
o
np
255.85 483.30 m
0 0 l
o
np
254.71 483.30 m
2.28 0 l
o
np
277.49 481.28 m
2.27 0 l
o
np
278.62 481.28 m
0 -8.76 l
o
np
277.49 472.52 m
2.27 0 l
o
np
300.26 483.76 m
2.27 0 l
o
np
301.40 483.76 m
0 -4.80 l
o
np
300.26 478.96 m
2.27 0 l
o
np
323.03 496.97 m
2.27 0 l
o
np
324.17 496.97 m
0 -5.31 l
o
np
323.03 491.66 m
2.27 0 l
o
np
345.80 499.84 m
2.28 0 l
o
np
346.94 499.84 m
0 -6.79 l
o
np
345.80 493.05 m
2.28 0 l
o
1.49 setlinewidth
[] 0 setdash
np
255.85 483.30 m
22.77 -6.40 l
22.78 4.46 l
22.77 12.95 l
22.77 2.13 l
o
/bg { 0 0 0 srgb } def
255.85 483.30 2.13 c p2
278.62 476.90 2.13 c p2
301.40 481.36 2.13 c p2
324.17 494.31 2.13 c p2
346.94 496.44 2.13 c p2
0.00 0.00 375.00 562.50 cl
0.00 0.00 375.00 562.50 cl
0 0 0 srgb
1.06 setlinewidth
[] 0 setdash
0 setlinecap
1 setlinejoin
10.00 setmiterlimit
np
242.19 463.11 m
0 67.74 l
o
0.00 0.00 375.00 562.50 cl
/Font1 findfont 10 s
0 0 0 srgb
235.10 462.60 (75) 1 0 t
235.10 479.71 (100) 1 0 t
235.10 496.81 (125) 1 0 t
235.10 513.92 (150) 1 0 t
0.00 0.00 375.00 562.50 cl
0.00 0.00 375.00 562.50 cl
0 0 0 srgb
1.06 setlinewidth
[] 0 setdash
0 setlinecap
1 setlinejoin
10.00 setmiterlimit
np
237.94 466.19 m
4.25 0 l
o
np
237.94 483.30 m
4.25 0 l
o
np
237.94 500.40 m
4.25 0 l
o
np
237.94 517.51 m
4.25 0 l
o
0.00 0.00 375.00 562.50 cl
0.00 0.00 375.00 562.50 cl
0.00 0.00 375.00 562.50 cl
0.00 0.00 375.00 562.50 cl
0.00 0.00 375.00 562.50 cl
0 0 0 srgb
1.06 setlinewidth
[] 0 setdash
0 setlinecap
1 setlinejoin
10.00 setmiterlimit
np
242.19 463.11 m
118.41 0 l
o
0.00 0.00 375.00 562.50 cl
0 0 0 srgb
1.06 setlinewidth
[] 0 setdash
0 setlinecap
1 setlinejoin
10.00 setmiterlimit
np
255.85 458.86 m
0 4.25 l
o
np
278.62 458.86 m
0 4.25 l
o
np
301.40 458.86 m
0 4.25 l
o
np
324.17 458.86 m
0 4.25 l
o
np
346.94 458.86 m
0 4.25 l
o
0.00 0.00 375.00 562.50 cl
0.00 0.00 375.00 562.50 cl
/Font1 findfont 10 s
0 0 0 srgb
255.85 448.85 (0) .5 0 t
278.62 448.85 (25) .5 0 t
301.40 448.85 (50) .5 0 t
324.17 448.85 (75) .5 0 t
346.94 448.85 (100) .5 0 t
0.00 0.00 375.00 562.50 cl
0.00 0.00 375.00 562.50 cl
0.00 0.00 375.00 562.50 cl
0.00 0.00 375.00 562.50 cl
0.00 0.00 375.00 562.50 cl
/Font1 findfont 12 s
0 0 0 srgb
301.40 436.63 ( ) .5 0 t
0.00 0.00 375.00 562.50 cl
0.00 0.00 375.00 562.50 cl
/Font1 findfont 12 s
0 0 0 srgb
214.82 496.98 ( ) .5 90 t
0.00 0.00 375.00 562.50 cl
0.00 0.00 375.00 562.50 cl
/Font1 findfont 14 s
0 0 0 srgb
301.40 534.45 (ES Cycling) .5 0 t
0.00 0.00 375.00 562.50 cl
0.00 0.00 375.00 562.50 cl
0.00 0.00 375.00 562.50 cl
0.00 0.00 375.00 562.50 cl
0.00 0.00 375.00 562.50 cl
0.00 0.00 375.00 562.50 cl
15.82 289.16 195.41 425.83 cl
/bg { 1 1 1 srgb } def
1 1 1 srgb
1.06 setlinewidth
[] 0 setdash
1 setlinecap
1 setlinejoin
10.00 setmiterlimit
15.82 289.16 179.59 136.67 r p3
0.00 0.00 375.00 562.50 cl
0.00 0.00 375.00 562.50 cl
0.00 0.00 375.00 562.50 cl
62.60 326.44 181.01 394.18 cl
/bg { 1 1 1 srgb } def
62.60 326.44 118.41 67.74 r p2
0 0 0 srgb
1.06 setlinewidth
[] 0 setdash
0 setlinecap
1 setlinejoin
1.00 setmiterlimit
np
75.12 346.62 m
2.28 0 l
o
np
76.26 346.62 m
0 0 l
o
np
75.12 346.62 m
2.28 0 l
o
np
97.89 347.54 m
2.28 0 l
o
np
99.03 347.54 m
0 -5.60 l
o
np
97.89 341.94 m
2.28 0 l
o
np
120.66 351.00 m
2.28 0 l
o
np
121.80 351.00 m
0 -3.45 l
o
np
120.66 347.55 m
2.28 0 l
o
np
143.44 362.80 m
2.27 0 l
o
np
144.57 362.80 m
0 -9.62 l
o
np
143.44 353.18 m
2.27 0 l
o
np
166.21 351.25 m
2.27 0 l
o
np
167.35 351.25 m
0 -7.26 l
o
np
166.21 343.99 m
2.27 0 l
o
1.49 setlinewidth
[] 0 setdash
np
76.26 346.62 m
22.77 -1.88 l
22.77 4.53 l
22.77 8.72 l
22.78 -10.37 l
o
/bg { 0 0 0 srgb } def
76.26 346.62 2.13 c p2
99.03 344.74 2.13 c p2
121.80 349.27 2.13 c p2
144.57 357.99 2.13 c p2
167.35 347.62 2.13 c p2
0.00 0.00 375.00 562.50 cl
0.00 0.00 375.00 562.50 cl
0 0 0 srgb
1.06 setlinewidth
[] 0 setdash
0 setlinecap
1 setlinejoin
10.00 setmiterlimit
np
62.60 326.44 m
0 67.74 l
o
0.00 0.00 375.00 562.50 cl
/Font1 findfont 10 s
0 0 0 srgb
55.51 325.93 (75) 1 0 t
55.51 343.03 (100) 1 0 t
55.51 360.14 (125) 1 0 t
55.51 377.24 (150) 1 0 t
0.00 0.00 375.00 562.50 cl
0.00 0.00 375.00 562.50 cl
0 0 0 srgb
1.06 setlinewidth
[] 0 setdash
0 setlinecap
1 setlinejoin
10.00 setmiterlimit
np
58.35 329.52 m
4.25 0 l
o
np
58.35 346.62 m
4.25 0 l
o
np
58.35 363.73 m
4.25 0 l
o
np
58.35 380.83 m
4.25 0 l
o
0.00 0.00 375.00 562.50 cl
0.00 0.00 375.00 562.50 cl
0.00 0.00 375.00 562.50 cl
0.00 0.00 375.00 562.50 cl
0.00 0.00 375.00 562.50 cl
0 0 0 srgb
1.06 setlinewidth
[] 0 setdash
0 setlinecap
1 setlinejoin
10.00 setmiterlimit
np
62.60 326.44 m
118.41 0 l
o
0.00 0.00 375.00 562.50 cl
0 0 0 srgb
1.06 setlinewidth
[] 0 setdash
0 setlinecap
1 setlinejoin
10.00 setmiterlimit
np
76.26 322.19 m
0 4.25 l
o
np
99.03 322.19 m
0 4.25 l
o
np
121.80 322.19 m
0 4.25 l
o
np
144.57 322.19 m
0 4.25 l
o
np
167.35 322.19 m
0 4.25 l
o
0.00 0.00 375.00 562.50 cl
0.00 0.00 375.00 562.50 cl
/Font1 findfont 10 s
0 0 0 srgb
76.26 312.17 (0) .5 0 t
99.03 312.17 (25) .5 0 t
121.80 312.17 (50) .5 0 t
144.57 312.17 (75) .5 0 t
167.35 312.17 (100) .5 0 t
0.00 0.00 375.00 562.50 cl
0.00 0.00 375.00 562.50 cl
0.00 0.00 375.00 562.50 cl
0.00 0.00 375.00 562.50 cl
0.00 0.00 375.00 562.50 cl
/Font1 findfont 12 s
0 0 0 srgb
121.80 299.96 ( ) .5 0 t
0.00 0.00 375.00 562.50 cl
0.00 0.00 375.00 562.50 cl
/Font1 findfont 12 s
0 0 0 srgb
35.23 360.31 ( ) .5 90 t
0.00 0.00 375.00 562.50 cl
0.00 0.00 375.00 562.50 cl
/Font1 findfont 14 s
0 0 0 srgb
121.80 397.78 ( ) .5 0 t
0.00 0.00 375.00 562.50 cl
0.00 0.00 375.00 562.50 cl
0.00 0.00 375.00 562.50 cl
0.00 0.00 375.00 562.50 cl
0.00 0.00 375.00 562.50 cl
0.00 0.00 375.00 562.50 cl
195.41 289.16 375.00 425.83 cl
/bg { 1 1 1 srgb } def
1 1 1 srgb
1.06 setlinewidth
[] 0 setdash
1 setlinecap
1 setlinejoin
10.00 setmiterlimit
195.41 289.16 179.59 136.67 r p3
0.00 0.00 375.00 562.50 cl
0.00 0.00 375.00 562.50 cl
0.00 0.00 375.00 562.50 cl
242.19 326.44 360.60 394.18 cl
/bg { 1 1 1 srgb } def
242.19 326.44 118.41 67.74 r p2
0 0 0 srgb
1.06 setlinewidth
[] 0 setdash
0 setlinecap
1 setlinejoin
1.00 setmiterlimit
np
254.71 346.62 m
2.28 0 l
o
np
255.85 346.62 m
0 0 l
o
np
254.71 346.62 m
2.28 0 l
o
np
277.49 355.48 m
2.27 0 l
o
np
278.62 355.48 m
0 -23.19 l
o
np
277.49 332.29 m
2.27 0 l
o
np
300.26 377.22 m
2.27 0 l
o
np
301.40 377.22 m
0 -31.11 l
o
np
300.26 346.11 m
2.27 0 l
o
np
323.03 387.76 m
2.27 0 l
o
np
324.17 387.76 m
0 -39.31 l
o
np
323.03 348.45 m
2.27 0 l
o
np
345.80 350.82 m
2.28 0 l
o
np
346.94 350.82 m
0 -5.64 l
o
np
345.80 345.18 m
2.28 0 l
o
1.49 setlinewidth
[] 0 setdash
np
255.85 346.62 m
22.77 -2.74 l
22.78 17.79 l
22.77 6.43 l
22.77 -20.10 l
o
/bg { 0 0 0 srgb } def
255.85 346.62 2.13 c p2
278.62 343.88 2.13 c p2
301.40 361.67 2.13 c p2
324.17 368.10 2.13 c p2
346.94 348.00 2.13 c p2
0.00 0.00 375.00 562.50 cl
0.00 0.00 375.00 562.50 cl
0 0 0 srgb
1.06 setlinewidth
[] 0 setdash
0 setlinecap
1 setlinejoin
10.00 setmiterlimit
np
242.19 326.44 m
0 67.74 l
o
0.00 0.00 375.00 562.50 cl
/Font1 findfont 10 s
0 0 0 srgb
235.10 325.93 (75) 1 0 t
235.10 343.03 (100) 1 0 t
235.10 360.14 (125) 1 0 t
235.10 377.24 (150) 1 0 t
0.00 0.00 375.00 562.50 cl
0.00 0.00 375.00 562.50 cl
0 0 0 srgb
1.06 setlinewidth
[] 0 setdash
0 setlinecap
1 setlinejoin
10.00 setmiterlimit
np
237.94 329.52 m
4.25 0 l
o
np
237.94 346.62 m
4.25 0 l
o
np
237.94 363.73 m
4.25 0 l
o
np
237.94 380.83 m
4.25 0 l
o
0.00 0.00 375.00 562.50 cl
0.00 0.00 375.00 562.50 cl
0.00 0.00 375.00 562.50 cl
0.00 0.00 375.00 562.50 cl
0.00 0.00 375.00 562.50 cl
0 0 0 srgb
1.06 setlinewidth
[] 0 setdash
0 setlinecap
1 setlinejoin
10.00 setmiterlimit
np
242.19 326.44 m
118.41 0 l
o
0.00 0.00 375.00 562.50 cl
0 0 0 srgb
1.06 setlinewidth
[] 0 setdash
0 setlinecap
1 setlinejoin
10.00 setmiterlimit
np
255.85 322.19 m
0 4.25 l
o
np
278.62 322.19 m
0 4.25 l
o
np
301.40 322.19 m
0 4.25 l
o
np
324.17 322.19 m
0 4.25 l
o
np
346.94 322.19 m
0 4.25 l
o
0.00 0.00 375.00 562.50 cl
0.00 0.00 375.00 562.50 cl
/Font1 findfont 10 s
0 0 0 srgb
255.85 312.17 (0) .5 0 t
278.62 312.17 (25) .5 0 t
301.40 312.17 (50) .5 0 t
324.17 312.17 (75) .5 0 t
346.94 312.17 (100) .5 0 t
0.00 0.00 375.00 562.50 cl
0.00 0.00 375.00 562.50 cl
0.00 0.00 375.00 562.50 cl
0.00 0.00 375.00 562.50 cl
0.00 0.00 375.00 562.50 cl
/Font1 findfont 12 s
0 0 0 srgb
301.40 299.96 ( ) .5 0 t
0.00 0.00 375.00 562.50 cl
0.00 0.00 375.00 562.50 cl
/Font1 findfont 12 s
0 0 0 srgb
214.82 360.31 ( ) .5 90 t
0.00 0.00 375.00 562.50 cl
0.00 0.00 375.00 562.50 cl
/Font1 findfont 14 s
0 0 0 srgb
301.40 397.78 ( ) .5 0 t
0.00 0.00 375.00 562.50 cl
0.00 0.00 375.00 562.50 cl
0.00 0.00 375.00 562.50 cl
0.00 0.00 375.00 562.50 cl
0.00 0.00 375.00 562.50 cl
0.00 0.00 375.00 562.50 cl
15.82 152.49 195.41 289.16 cl
/bg { 1 1 1 srgb } def
1 1 1 srgb
1.06 setlinewidth
[] 0 setdash
1 setlinecap
1 setlinejoin
10.00 setmiterlimit
15.82 152.49 179.59 136.67 r p3
0.00 0.00 375.00 562.50 cl
0.00 0.00 375.00 562.50 cl
0.00 0.00 375.00 562.50 cl
62.60 189.77 181.01 257.51 cl
/bg { 1 1 1 srgb } def
62.60 189.77 118.41 67.74 r p2
0 0 0 srgb
1.06 setlinewidth
[] 0 setdash
0 setlinecap
1 setlinejoin
1.00 setmiterlimit
np
75.12 209.95 m
2.28 0 l
o
np
76.26 209.95 m
0 0 l
o
np
75.12 209.95 m
2.28 0 l
o
np
97.89 215.05 m
2.28 0 l
o
np
99.03 215.05 m
0 -11.97 l
o
np
97.89 203.08 m
2.28 0 l
o
np
120.66 220.84 m
2.28 0 l
o
np
121.80 220.84 m
0 -10.90 l
o
np
120.66 209.94 m
2.28 0 l
o
np
143.44 222.34 m
2.27 0 l
o
np
144.57 222.34 m
0 -19.53 l
o
np
143.44 202.81 m
2.27 0 l
o
np
166.21 215.62 m
2.27 0 l
o
np
167.35 215.62 m
0 -12.42 l
o
np
166.21 203.20 m
2.27 0 l
o
1.49 setlinewidth
[] 0 setdash
np
76.26 209.95 m
22.77 -0.89 l
22.77 6.33 l
22.77 -2.81 l
22.78 -3.17 l
o
/bg { 0 0 0 srgb } def
76.26 209.95 2.13 c p2
99.03 209.06 2.13 c p2
121.80 215.39 2.13 c p2
144.57 212.58 2.13 c p2
167.35 209.41 2.13 c p2
0.00 0.00 375.00 562.50 cl
0.00 0.00 375.00 562.50 cl
0 0 0 srgb
1.06 setlinewidth
[] 0 setdash
0 setlinecap
1 setlinejoin
10.00 setmiterlimit
np
62.60 189.77 m
0 67.74 l
o
0.00 0.00 375.00 562.50 cl
/Font1 findfont 10 s
0 0 0 srgb
55.51 189.26 (75) 1 0 t
55.51 206.36 (100) 1 0 t
55.51 223.47 (125) 1 0 t
55.51 240.57 (150) 1 0 t
0.00 0.00 375.00 562.50 cl
0.00 0.00 375.00 562.50 cl
0 0 0 srgb
1.06 setlinewidth
[] 0 setdash
0 setlinecap
1 setlinejoin
10.00 setmiterlimit
np
58.35 192.85 m
4.25 0 l
o
np
58.35 209.95 m
4.25 0 l
o
np
58.35 227.06 m
4.25 0 l
o
np
58.35 244.16 m
4.25 0 l
o
0.00 0.00 375.00 562.50 cl
0.00 0.00 375.00 562.50 cl
0.00 0.00 375.00 562.50 cl
0.00 0.00 375.00 562.50 cl
0.00 0.00 375.00 562.50 cl
0 0 0 srgb
1.06 setlinewidth
[] 0 setdash
0 setlinecap
1 setlinejoin
10.00 setmiterlimit
np
62.60 189.77 m
118.41 0 l
o
0.00 0.00 375.00 562.50 cl
0 0 0 srgb
1.06 setlinewidth
[] 0 setdash
0 setlinecap
1 setlinejoin
10.00 setmiterlimit
np
76.26 185.52 m
0 4.25 l
o
np
99.03 185.52 m
0 4.25 l
o
np
121.80 185.52 m
0 4.25 l
o
np
144.57 185.52 m
0 4.25 l
o
np
167.35 185.52 m
0 4.25 l
o
0.00 0.00 375.00 562.50 cl
0.00 0.00 375.00 562.50 cl
/Font1 findfont 10 s
0 0 0 srgb
76.26 175.50 (0) .5 0 t
99.03 175.50 (25) .5 0 t
121.80 175.50 (50) .5 0 t
144.57 175.50 (75) .5 0 t
167.35 175.50 (100) .5 0 t
0.00 0.00 375.00 562.50 cl
0.00 0.00 375.00 562.50 cl
0.00 0.00 375.00 562.50 cl
0.00 0.00 375.00 562.50 cl
0.00 0.00 375.00 562.50 cl
/Font1 findfont 12 s
0 0 0 srgb
121.80 163.29 ( ) .5 0 t
0.00 0.00 375.00 562.50 cl
0.00 0.00 375.00 562.50 cl
/Font1 findfont 12 s
0 0 0 srgb
35.23 223.64 ( ) .5 90 t
0.00 0.00 375.00 562.50 cl
0.00 0.00 375.00 562.50 cl
/Font1 findfont 14 s
0 0 0 srgb
121.80 261.11 ( ) .5 0 t
0.00 0.00 375.00 562.50 cl
0.00 0.00 375.00 562.50 cl
0.00 0.00 375.00 562.50 cl
0.00 0.00 375.00 562.50 cl
0.00 0.00 375.00 562.50 cl
0.00 0.00 375.00 562.50 cl
195.41 152.49 375.00 289.16 cl
/bg { 1 1 1 srgb } def
1 1 1 srgb
1.06 setlinewidth
[] 0 setdash
1 setlinecap
1 setlinejoin
10.00 setmiterlimit
195.41 152.49 179.59 136.67 r p3
0.00 0.00 375.00 562.50 cl
0.00 0.00 375.00 562.50 cl
0.00 0.00 375.00 562.50 cl
242.19 189.77 360.60 257.51 cl
/bg { 1 1 1 srgb } def
242.19 189.77 118.41 67.74 r p2
0 0 0 srgb
1.06 setlinewidth
[] 0 setdash
0 setlinecap
1 setlinejoin
1.00 setmiterlimit
np
254.71 209.95 m
2.28 0 l
o
np
255.85 209.95 m
0 0 l
o
np
254.71 209.95 m
2.28 0 l
o
np
277.49 218.51 m
2.27 0 l
o
np
278.62 218.51 m
0 -19.43 l
o
np
277.49 199.08 m
2.27 0 l
o
np
300.26 223.19 m
2.27 0 l
o
np
301.40 223.19 m
0 -11.01 l
o
np
300.26 212.18 m
2.27 0 l
o
np
323.03 224.81 m
2.27 0 l
o
np
324.17 224.81 m
0 -27.42 l
o
np
323.03 197.39 m
2.27 0 l
o
np
345.80 216.88 m
2.28 0 l
o
np
346.94 216.88 m
0 -22.44 l
o
np
345.80 194.44 m
2.28 0 l
o
1.49 setlinewidth
[] 0 setdash
np
255.85 209.95 m
22.77 -1.16 l
22.78 8.89 l
22.77 -6.58 l
22.77 -5.44 l
o
/bg { 0 0 0 srgb } def
255.85 209.95 2.13 c p2
278.62 208.79 2.13 c p2
301.40 217.68 2.13 c p2
324.17 211.10 2.13 c p2
346.94 205.66 2.13 c p2
0.00 0.00 375.00 562.50 cl
0.00 0.00 375.00 562.50 cl
0 0 0 srgb
1.06 setlinewidth
[] 0 setdash
0 setlinecap
1 setlinejoin
10.00 setmiterlimit
np
242.19 189.77 m
0 67.74 l
o
0.00 0.00 375.00 562.50 cl
/Font1 findfont 10 s
0 0 0 srgb
235.10 189.26 (75) 1 0 t
235.10 206.36 (100) 1 0 t
235.10 223.47 (125) 1 0 t
235.10 240.57 (150) 1 0 t
0.00 0.00 375.00 562.50 cl
0.00 0.00 375.00 562.50 cl
0 0 0 srgb
1.06 setlinewidth
[] 0 setdash
0 setlinecap
1 setlinejoin
10.00 setmiterlimit
np
237.94 192.85 m
4.25 0 l
o
np
237.94 209.95 m
4.25 0 l
o
np
237.94 227.06 m
4.25 0 l
o
np
237.94 244.16 m
4.25 0 l
o
0.00 0.00 375.00 562.50 cl
0.00 0.00 375.00 562.50 cl
0.00 0.00 375.00 562.50 cl
0.00 0.00 375.00 562.50 cl
0.00 0.00 375.00 562.50 cl
0 0 0 srgb
1.06 setlinewidth
[] 0 setdash
0 setlinecap
1 setlinejoin
10.00 setmiterlimit
np
242.19 189.77 m
118.41 0 l
o
0.00 0.00 375.00 562.50 cl
0 0 0 srgb
1.06 setlinewidth
[] 0 setdash
0 setlinecap
1 setlinejoin
10.00 setmiterlimit
np
255.85 185.52 m
0 4.25 l
o
np
278.62 185.52 m
0 4.25 l
o
np
301.40 185.52 m
0 4.25 l
o
np
324.17 185.52 m
0 4.25 l
o
np
346.94 185.52 m
0 4.25 l
o
0.00 0.00 375.00 562.50 cl
0.00 0.00 375.00 562.50 cl
/Font1 findfont 10 s
0 0 0 srgb
255.85 175.50 (0) .5 0 t
278.62 175.50 (25) .5 0 t
301.40 175.50 (50) .5 0 t
324.17 175.50 (75) .5 0 t
346.94 175.50 (100) .5 0 t
0.00 0.00 375.00 562.50 cl
0.00 0.00 375.00 562.50 cl
0.00 0.00 375.00 562.50 cl
0.00 0.00 375.00 562.50 cl
0.00 0.00 375.00 562.50 cl
/Font1 findfont 12 s
0 0 0 srgb
301.40 163.29 ( ) .5 0 t
0.00 0.00 375.00 562.50 cl
0.00 0.00 375.00 562.50 cl
/Font1 findfont 12 s
0 0 0 srgb
214.82 223.64 ( ) .5 90 t
0.00 0.00 375.00 562.50 cl
0.00 0.00 375.00 562.50 cl
/Font1 findfont 14 s
0 0 0 srgb
301.40 261.11 ( ) .5 0 t
0.00 0.00 375.00 562.50 cl
0.00 0.00 375.00 562.50 cl
0.00 0.00 375.00 562.50 cl
0.00 0.00 375.00 562.50 cl
0.00 0.00 375.00 562.50 cl
0.00 0.00 375.00 562.50 cl
15.82 15.82 195.41 152.49 cl
/bg { 1 1 1 srgb } def
1 1 1 srgb
1.06 setlinewidth
[] 0 setdash
1 setlinecap
1 setlinejoin
10.00 setmiterlimit
15.82 15.82 179.59 136.67 r p3
0.00 0.00 375.00 562.50 cl
0.00 0.00 375.00 562.50 cl
0.00 0.00 375.00 562.50 cl
62.60 53.10 181.01 120.84 cl
/bg { 1 1 1 srgb } def
62.60 53.10 118.41 67.74 r p2
0 0 0 srgb
1.06 setlinewidth
[] 0 setdash
0 setlinecap
1 setlinejoin
1.00 setmiterlimit
np
75.12 73.28 m
2.28 0 l
o
np
76.26 73.28 m
0 0 l
o
np
75.12 73.28 m
2.28 0 l
o
np
97.89 72.82 m
2.28 0 l
o
np
99.03 72.82 m
0 -2.39 l
o
np
97.89 70.43 m
2.28 0 l
o
np
120.66 74.51 m
2.28 0 l
o
np
121.80 74.51 m
0 -3.36 l
o
np
120.66 71.15 m
2.28 0 l
o
np
143.44 74.79 m
2.27 0 l
o
np
144.57 74.79 m
0 -2.21 l
o
np
143.44 72.58 m
2.27 0 l
o
np
166.21 75.11 m
2.27 0 l
o
np
167.35 75.11 m
0 -2.87 l
o
np
166.21 72.24 m
2.27 0 l
o
1.49 setlinewidth
[] 0 setdash
np
76.26 73.28 m
22.77 -1.65 l
22.77 1.20 l
22.77 0.85 l
22.78 0 l
o
/bg { 0 0 0 srgb } def
76.26 73.28 2.13 c p2
99.03 71.63 2.13 c p2
121.80 72.83 2.13 c p2
144.57 73.68 2.13 c p2
167.35 73.68 2.13 c p2
0.00 0.00 375.00 562.50 cl
0.00 0.00 375.00 562.50 cl
0 0 0 srgb
1.06 setlinewidth
[] 0 setdash
0 setlinecap
1 setlinejoin
10.00 setmiterlimit
np
62.60 53.10 m
0 67.74 l
o
0.00 0.00 375.00 562.50 cl
/Font1 findfont 10 s
0 0 0 srgb
55.51 52.59 (75) 1 0 t
55.51 69.69 (100) 1 0 t
55.51 86.80 (125) 1 0 t
55.51 103.90 (150) 1 0 t
0.00 0.00 375.00 562.50 cl
0.00 0.00 375.00 562.50 cl
0 0 0 srgb
1.06 setlinewidth
[] 0 setdash
0 setlinecap
1 setlinejoin
10.00 setmiterlimit
np
58.35 56.18 m
4.25 0 l
o
np
58.35 73.28 m
4.25 0 l
o
np
58.35 90.39 m
4.25 0 l
o
np
58.35 107.49 m
4.25 0 l
o
0.00 0.00 375.00 562.50 cl
0.00 0.00 375.00 562.50 cl
0.00 0.00 375.00 562.50 cl
0.00 0.00 375.00 562.50 cl
0.00 0.00 375.00 562.50 cl
0 0 0 srgb
1.06 setlinewidth
[] 0 setdash
0 setlinecap
1 setlinejoin
10.00 setmiterlimit
np
62.60 53.10 m
118.41 0 l
o
0.00 0.00 375.00 562.50 cl
0 0 0 srgb
1.06 setlinewidth
[] 0 setdash
0 setlinecap
1 setlinejoin
10.00 setmiterlimit
np
76.26 48.85 m
0 4.25 l
o
np
99.03 48.85 m
0 4.25 l
o
np
121.80 48.85 m
0 4.25 l
o
np
144.57 48.85 m
0 4.25 l
o
np
167.35 48.85 m
0 4.25 l
o
0.00 0.00 375.00 562.50 cl
0.00 0.00 375.00 562.50 cl
/Font1 findfont 10 s
0 0 0 srgb
76.26 38.83 (0) .5 0 t
99.03 38.83 (25) .5 0 t
121.80 38.83 (50) .5 0 t
144.57 38.83 (75) .5 0 t
167.35 38.83 (100) .5 0 t
0.00 0.00 375.00 562.50 cl
0.00 0.00 375.00 562.50 cl
0.00 0.00 375.00 562.50 cl
0.00 0.00 375.00 562.50 cl
0.00 0.00 375.00 562.50 cl
/Font1 findfont 12 s
0 0 0 srgb
121.80 26.62 ( ) .5 0 t
0.00 0.00 375.00 562.50 cl
0.00 0.00 375.00 562.50 cl
/Font1 findfont 12 s
0 0 0 srgb
35.23 86.97 ( ) .5 90 t
0.00 0.00 375.00 562.50 cl
0.00 0.00 375.00 562.50 cl
/Font1 findfont 14 s
0 0 0 srgb
121.80 124.44 ( ) .5 0 t
0.00 0.00 375.00 562.50 cl
0.00 0.00 375.00 562.50 cl
0.00 0.00 375.00 562.50 cl
0.00 0.00 375.00 562.50 cl
0.00 0.00 375.00 562.50 cl
0.00 0.00 375.00 562.50 cl
195.41 15.82 375.00 152.49 cl
/bg { 1 1 1 srgb } def
1 1 1 srgb
1.06 setlinewidth
[] 0 setdash
1 setlinecap
1 setlinejoin
10.00 setmiterlimit
195.41 15.82 179.59 136.67 r p3
0.00 0.00 375.00 562.50 cl
0.00 0.00 375.00 562.50 cl
0.00 0.00 375.00 562.50 cl
242.19 53.10 360.60 120.84 cl
/bg { 1 1 1 srgb } def
242.19 53.10 118.41 67.74 r p2
0 0 0 srgb
1.06 setlinewidth
[] 0 setdash
0 setlinecap
1 setlinejoin
1.00 setmiterlimit
np
254.71 73.28 m
2.28 0 l
o
np
255.85 73.28 m
0 0 l
o
np
254.71 73.28 m
2.28 0 l
o
np
277.49 74.55 m
2.27 0 l
o
np
278.62 74.55 m
0 -9.81 l
o
np
277.49 64.74 m
2.27 0 l
o
np
300.26 77.49 m
2.27 0 l
o
np
301.40 77.49 m
0 -4.01 l
o
np
300.26 73.48 m
2.27 0 l
o
np
323.03 74.95 m
2.27 0 l
o
np
324.17 74.95 m
0 -3.24 l
o
np
323.03 71.71 m
2.27 0 l
o
np
345.80 75.49 m
2.28 0 l
o
np
346.94 75.49 m
0 -2.82 l
o
np
345.80 72.67 m
2.28 0 l
o
1.49 setlinewidth
[] 0 setdash
np
255.85 73.28 m
22.77 -3.64 l
22.78 5.85 l
22.77 -2.16 l
22.77 0.75 l
o
/bg { 0 0 0 srgb } def
255.85 73.28 2.13 c p2
278.62 69.64 2.13 c p2
301.40 75.49 2.13 c p2
324.17 73.33 2.13 c p2
346.94 74.08 2.13 c p2
0.00 0.00 375.00 562.50 cl
0.00 0.00 375.00 562.50 cl
0 0 0 srgb
1.06 setlinewidth
[] 0 setdash
0 setlinecap
1 setlinejoin
10.00 setmiterlimit
np
242.19 53.10 m
0 67.74 l
o
0.00 0.00 375.00 562.50 cl
/Font1 findfont 10 s
0 0 0 srgb
235.10 52.59 (75) 1 0 t
235.10 69.69 (100) 1 0 t
235.10 86.80 (125) 1 0 t
235.10 103.90 (150) 1 0 t
0.00 0.00 375.00 562.50 cl
0.00 0.00 375.00 562.50 cl
0 0 0 srgb
1.06 setlinewidth
[] 0 setdash
0 setlinecap
1 setlinejoin
10.00 setmiterlimit
np
237.94 56.18 m
4.25 0 l
o
np
237.94 73.28 m
4.25 0 l
o
np
237.94 90.39 m
4.25 0 l
o
np
237.94 107.49 m
4.25 0 l
o
0.00 0.00 375.00 562.50 cl
0.00 0.00 375.00 562.50 cl
0.00 0.00 375.00 562.50 cl
0.00 0.00 375.00 562.50 cl
0.00 0.00 375.00 562.50 cl
0 0 0 srgb
1.06 setlinewidth
[] 0 setdash
0 setlinecap
1 setlinejoin
10.00 setmiterlimit
np
242.19 53.10 m
118.41 0 l
o
0.00 0.00 375.00 562.50 cl
0 0 0 srgb
1.06 setlinewidth
[] 0 setdash
0 setlinecap
1 setlinejoin
10.00 setmiterlimit
np
255.85 48.85 m
0 4.25 l
o
np
278.62 48.85 m
0 4.25 l
o
np
301.40 48.85 m
0 4.25 l
o
np
324.17 48.85 m
0 4.25 l
o
np
346.94 48.85 m
0 4.25 l
o
0.00 0.00 375.00 562.50 cl
0.00 0.00 375.00 562.50 cl
/Font1 findfont 10 s
0 0 0 srgb
255.85 38.83 (0) .5 0 t
278.62 38.83 (25) .5 0 t
301.40 38.83 (50) .5 0 t
324.17 38.83 (75) .5 0 t
346.94 38.83 (100) .5 0 t
0.00 0.00 375.00 562.50 cl
0.00 0.00 375.00 562.50 cl
0.00 0.00 375.00 562.50 cl
0.00 0.00 375.00 562.50 cl
0.00 0.00 375.00 562.50 cl
/Font1 findfont 12 s
0 0 0 srgb
301.40 26.62 ( ) .5 0 t
0.00 0.00 375.00 562.50 cl
0.00 0.00 375.00 562.50 cl
/Font1 findfont 12 s
0 0 0 srgb
214.82 86.97 ( ) .5 90 t
0.00 0.00 375.00 562.50 cl
0.00 0.00 375.00 562.50 cl
/Font1 findfont 14 s
0 0 0 srgb
301.40 124.44 ( ) .5 0 t
0.00 0.00 375.00 562.50 cl
0.00 0.00 375.00 562.50 cl
0.00 0.00 375.00 562.50 cl
0.00 0.00 375.00 562.50 cl
0.00 0.00 375.00 562.50 cl
/Font1 findfont 12 s
0 0 0 srgb
123.73 3.60 (Inter Stim) 0 ta
-0.120 (ulus Inter) tb
0.360 (v) tb
-0.300 (al \(ms\)) tb gr
0.00 0.00 375.00 562.50 cl
0.00 0.00 375.00 562.50 cl
/Font1 findfont 12 s
0 0 0 srgb
12.22 209.89 (Soleus H Refle) 90 ta
-0.360 (x Amplitude) tb gr
0.00 0.00 375.00 562.50 cl
0.00 0.00 375.00 562.50 cl
ep
%%Trailer
%%Pages: 1
%%EOF
