%!PS-Adobe-3.0 EPSF-3.0
%%DocumentNeededResources: font Helvetica
%%+ font Helvetica-Bold
%%+ font Helvetica-Oblique
%%+ font Helvetica-BoldOblique
%%+ font Symbol
%%Title: R Graphics Output
%%Creator: R Software
%%Pages: (atend)
%%BoundingBox: 0 0 576 374
%%EndComments
%%BeginProlog
/bp  { gs sRGB gs } def
% begin .ps.prolog
/gs  { gsave } bind def
/gr  { grestore } bind def
/ep  { showpage gr gr } bind def
/m   { moveto } bind def
/l  { rlineto } bind def
/np  { newpath } bind def
/cp  { closepath } bind def
/f   { fill } bind def
/o   { stroke } bind def
/c   { newpath 0 360 arc } bind def
/r   { 4 2 roll moveto 1 copy 3 -1 roll exch 0 exch rlineto 0 rlineto -1 mul 0 exch rlineto closepath } bind def
/p1  { stroke } bind def
/p2  { gsave bg fill grestore newpath } bind def
/p3  { gsave bg fill grestore stroke } bind def
/p6  { gsave bg eofill grestore newpath } bind def
/p7  { gsave bg eofill grestore stroke } bind def
/t   { 5 -2 roll moveto gsave rotate
       1 index stringwidth pop
       mul neg 0 rmoveto show grestore } bind def
/ta  { 4 -2 roll moveto gsave rotate show } bind def
/tb  { 2 -1 roll 0 rmoveto show } bind def
/cl  { grestore gsave newpath 3 index 3 index moveto 1 index
       4 -1 roll lineto  exch 1 index lineto lineto
       closepath clip newpath } bind def
/rgb { setrgbcolor } bind def
/s   { scalefont setfont } bind def
% end   .ps.prolog
/sRGB { [ /CIEBasedABC
          << /DecodeLMN
               [ { dup 0.03928 le
                        {12.92321 div}
                        {0.055 add 1.055 div 2.4 exp }
                     ifelse
                 } bind dup dup
               ]
             /MatrixLMN [0.412457 0.212673 0.019334
                         0.357576 0.715152 0.119192
                         0.180437 0.072175 0.950301]
             /WhitePoint [0.9505 1.0 1.0890]
           >>
         ] setcolorspace } bind def
/srgb { setcolor } bind def
%%IncludeResource: font Helvetica
/Helvetica findfont
dup length dict begin
  {1 index /FID ne {def} {pop pop} ifelse} forall
  /Encoding ISOLatin1Encoding def
  currentdict
  end
/Font1 exch definefont pop
%%IncludeResource: font Helvetica-Bold
/Helvetica-Bold findfont
dup length dict begin
  {1 index /FID ne {def} {pop pop} ifelse} forall
  /Encoding ISOLatin1Encoding def
  currentdict
  end
/Font2 exch definefont pop
%%IncludeResource: font Helvetica-Oblique
/Helvetica-Oblique findfont
dup length dict begin
  {1 index /FID ne {def} {pop pop} ifelse} forall
  /Encoding ISOLatin1Encoding def
  currentdict
  end
/Font3 exch definefont pop
%%IncludeResource: font Helvetica-BoldOblique
/Helvetica-BoldOblique findfont
dup length dict begin
  {1 index /FID ne {def} {pop pop} ifelse} forall
  /Encoding ISOLatin1Encoding def
  currentdict
  end
/Font4 exch definefont pop
%%IncludeResource: font Symbol
/Symbol findfont
dup length dict begin
  {1 index /FID ne {def} {pop pop} ifelse} forall
  currentdict
  end
/Font5 exch definefont pop
%%EndProlog
%%Page: 1 1
bp
0.00 0.00 576.00 373.50 cl
0.00 0.00 576.00 373.50 cl
0.00 0.00 576.00 373.50 cl
15.82 194.66 295.91 373.50 cl
/bg { 1 1 1 srgb } def
1 1 1 srgb
1.06 setlinewidth
[] 0 setdash
1 setlinecap
1 setlinejoin
10.00 setmiterlimit
15.82 194.66 280.09 178.84 r p3
0.00 0.00 576.00 373.50 cl
0.00 0.00 576.00 373.50 cl
0.00 0.00 576.00 373.50 cl
62.60 231.94 281.51 341.85 cl
/bg { 1 1 1 srgb } def
62.60 231.94 218.91 109.91 r p2
0 0 0 srgb
1.06 setlinewidth
[] 0 setdash
0 setlinecap
1 setlinejoin
1.00 setmiterlimit
np
85.75 288.63 m
4.21 0 l
o
np
87.86 288.63 m
0 -3.47 l
o
np
85.75 285.16 m
4.21 0 l
o
np
127.85 266.70 m
4.21 0 l
o
np
129.96 266.70 m
0 -5.08 l
o
np
127.85 261.62 m
4.21 0 l
o
np
169.95 271.28 m
4.21 0 l
o
np
172.05 271.28 m
0 -4.88 l
o
np
169.95 266.40 m
4.21 0 l
o
np
212.05 302.68 m
4.21 0 l
o
np
214.15 302.68 m
0 -4.84 l
o
np
212.05 297.84 m
4.21 0 l
o
np
254.14 302.80 m
4.21 0 l
o
np
256.25 302.80 m
0 -5.28 l
o
np
254.14 297.52 m
4.21 0 l
o
1.49 setlinewidth
[] 0 setdash
np
87.86 286.89 m
42.10 -22.73 l
42.09 4.68 l
42.10 31.42 l
42.10 -0.10 l
o
/bg { 0 0 0 srgb } def
87.86 286.89 2.13 c p2
129.96 264.16 2.13 c p2
172.05 268.84 2.13 c p2
214.15 300.26 2.13 c p2
256.25 300.16 2.13 c p2
0.00 0.00 576.00 373.50 cl
0.00 0.00 576.00 373.50 cl
0 0 0 srgb
1.06 setlinewidth
[] 0 setdash
0 setlinecap
1 setlinejoin
10.00 setmiterlimit
np
62.60 231.94 m
0 109.91 l
o
0.00 0.00 576.00 373.50 cl
/Font1 findfont 10 s
0 0 0 srgb
55.51 233.35 (60) 1 0 t
55.51 258.33 (80) 1 0 t
55.51 283.30 (100) 1 0 t
55.51 308.28 (120) 1 0 t
55.51 333.26 (140) 1 0 t
0.00 0.00 576.00 373.50 cl
0.00 0.00 576.00 373.50 cl
0 0 0 srgb
1.06 setlinewidth
[] 0 setdash
0 setlinecap
1 setlinejoin
10.00 setmiterlimit
np
58.35 236.94 m
4.25 0 l
o
np
58.35 261.92 m
4.25 0 l
o
np
58.35 286.89 m
4.25 0 l
o
np
58.35 311.87 m
4.25 0 l
o
np
58.35 336.85 m
4.25 0 l
o
0.00 0.00 576.00 373.50 cl
0.00 0.00 576.00 373.50 cl
0.00 0.00 576.00 373.50 cl
0.00 0.00 576.00 373.50 cl
0.00 0.00 576.00 373.50 cl
0 0 0 srgb
1.06 setlinewidth
[] 0 setdash
0 setlinecap
1 setlinejoin
10.00 setmiterlimit
np
62.60 231.94 m
218.91 0 l
o
0.00 0.00 576.00 373.50 cl
0 0 0 srgb
1.06 setlinewidth
[] 0 setdash
0 setlinecap
1 setlinejoin
10.00 setmiterlimit
np
87.86 227.69 m
0 4.25 l
o
np
129.96 227.69 m
0 4.25 l
o
np
172.05 227.69 m
0 4.25 l
o
np
214.15 227.69 m
0 4.25 l
o
np
256.25 227.69 m
0 4.25 l
o
0.00 0.00 576.00 373.50 cl
0.00 0.00 576.00 373.50 cl
/Font1 findfont 10 s
0 0 0 srgb
87.86 217.67 (0) .5 0 t
129.96 217.67 (25) .5 0 t
172.05 217.67 (50) .5 0 t
214.15 217.67 (75) .5 0 t
256.25 217.67 (100) .5 0 t
0.00 0.00 576.00 373.50 cl
0.00 0.00 576.00 373.50 cl
0.00 0.00 576.00 373.50 cl
0.00 0.00 576.00 373.50 cl
0.00 0.00 576.00 373.50 cl
/Font1 findfont 12 s
0 0 0 srgb
172.05 205.46 ( ) .5 0 t
0.00 0.00 576.00 373.50 cl
0.00 0.00 576.00 373.50 cl
/Font1 findfont 12 s
0 0 0 srgb
35.23 286.89 ( ) .5 90 t
0.00 0.00 576.00 373.50 cl
0.00 0.00 576.00 373.50 cl
/Font1 findfont 14 s
0 0 0 srgb
172.05 345.45 (Cycling) .5 0 t
0.00 0.00 576.00 373.50 cl
0.00 0.00 576.00 373.50 cl
0.00 0.00 576.00 373.50 cl
0.00 0.00 576.00 373.50 cl
0.00 0.00 576.00 373.50 cl
0.00 0.00 576.00 373.50 cl
295.91 194.66 576.00 373.50 cl
/bg { 1 1 1 srgb } def
1 1 1 srgb
1.06 setlinewidth
[] 0 setdash
1 setlinecap
1 setlinejoin
10.00 setmiterlimit
295.91 194.66 280.09 178.84 r p3
0.00 0.00 576.00 373.50 cl
0.00 0.00 576.00 373.50 cl
0.00 0.00 576.00 373.50 cl
342.69 231.94 561.60 341.85 cl
/bg { 1 1 1 srgb } def
342.69 231.94 218.91 109.91 r p2
0 0 0 srgb
1.06 setlinewidth
[] 0 setdash
0 setlinecap
1 setlinejoin
1.00 setmiterlimit
np
365.84 289.19 m
4.21 0 l
o
np
367.95 289.19 m
0 -4.59 l
o
np
365.84 284.60 m
4.21 0 l
o
np
407.94 276.44 m
4.21 0 l
o
np
410.05 276.44 m
0 -5.70 l
o
np
407.94 270.74 m
4.21 0 l
o
np
450.04 279.79 m
4.21 0 l
o
np
452.15 279.79 m
0 -5.37 l
o
np
450.04 274.42 m
4.21 0 l
o
np
492.14 302.11 m
4.21 0 l
o
np
494.24 302.11 m
0 -5.48 l
o
np
492.14 296.63 m
4.21 0 l
o
np
534.24 301.54 m
4.21 0 l
o
np
536.34 301.54 m
0 -5.86 l
o
np
534.24 295.68 m
4.21 0 l
o
1.49 setlinewidth
[] 0 setdash
np
367.95 286.89 m
42.10 -13.30 l
42.10 3.51 l
42.09 22.27 l
42.10 -0.76 l
o
/bg { 0 0 0 srgb } def
367.95 286.89 2.13 c p2
410.05 273.59 2.13 c p2
452.15 277.10 2.13 c p2
494.24 299.37 2.13 c p2
536.34 298.61 2.13 c p2
0.00 0.00 576.00 373.50 cl
0.00 0.00 576.00 373.50 cl
0 0 0 srgb
1.06 setlinewidth
[] 0 setdash
0 setlinecap
1 setlinejoin
10.00 setmiterlimit
np
342.69 231.94 m
0 109.91 l
o
0.00 0.00 576.00 373.50 cl
/Font1 findfont 10 s
0 0 0 srgb
335.60 233.35 (60) 1 0 t
335.60 258.33 (80) 1 0 t
335.60 283.30 (100) 1 0 t
335.60 308.28 (120) 1 0 t
335.60 333.26 (140) 1 0 t
0.00 0.00 576.00 373.50 cl
0.00 0.00 576.00 373.50 cl
0 0 0 srgb
1.06 setlinewidth
[] 0 setdash
0 setlinecap
1 setlinejoin
10.00 setmiterlimit
np
338.44 236.94 m
4.25 0 l
o
np
338.44 261.92 m
4.25 0 l
o
np
338.44 286.89 m
4.25 0 l
o
np
338.44 311.87 m
4.25 0 l
o
np
338.44 336.85 m
4.25 0 l
o
0.00 0.00 576.00 373.50 cl
0.00 0.00 576.00 373.50 cl
0.00 0.00 576.00 373.50 cl
0.00 0.00 576.00 373.50 cl
0.00 0.00 576.00 373.50 cl
0 0 0 srgb
1.06 setlinewidth
[] 0 setdash
0 setlinecap
1 setlinejoin
10.00 setmiterlimit
np
342.69 231.94 m
218.91 0 l
o
0.00 0.00 576.00 373.50 cl
0 0 0 srgb
1.06 setlinewidth
[] 0 setdash
0 setlinecap
1 setlinejoin
10.00 setmiterlimit
np
367.95 227.69 m
0 4.25 l
o
np
410.05 227.69 m
0 4.25 l
o
np
452.15 227.69 m
0 4.25 l
o
np
494.24 227.69 m
0 4.25 l
o
np
536.34 227.69 m
0 4.25 l
o
0.00 0.00 576.00 373.50 cl
0.00 0.00 576.00 373.50 cl
/Font1 findfont 10 s
0 0 0 srgb
367.95 217.67 (0) .5 0 t
410.05 217.67 (25) .5 0 t
452.15 217.67 (50) .5 0 t
494.24 217.67 (75) .5 0 t
536.34 217.67 (100) .5 0 t
0.00 0.00 576.00 373.50 cl
0.00 0.00 576.00 373.50 cl
0.00 0.00 576.00 373.50 cl
0.00 0.00 576.00 373.50 cl
0.00 0.00 576.00 373.50 cl
/Font1 findfont 12 s
0 0 0 srgb
452.15 205.46 ( ) .5 0 t
0.00 0.00 576.00 373.50 cl
0.00 0.00 576.00 373.50 cl
/Font1 findfont 12 s
0 0 0 srgb
315.32 286.89 ( ) .5 90 t
0.00 0.00 576.00 373.50 cl
0.00 0.00 576.00 373.50 cl
/Font1 findfont 14 s
0 0 0 srgb
452.15 345.45 (ES Cycling) .5 0 t
0.00 0.00 576.00 373.50 cl
0.00 0.00 576.00 373.50 cl
0.00 0.00 576.00 373.50 cl
0.00 0.00 576.00 373.50 cl
0.00 0.00 576.00 373.50 cl
0.00 0.00 576.00 373.50 cl
15.82 15.82 295.91 194.66 cl
/bg { 1 1 1 srgb } def
1 1 1 srgb
1.06 setlinewidth
[] 0 setdash
1 setlinecap
1 setlinejoin
10.00 setmiterlimit
15.82 15.82 280.09 178.84 r p3
0.00 0.00 576.00 373.50 cl
0.00 0.00 576.00 373.50 cl
0.00 0.00 576.00 373.50 cl
62.60 53.10 281.51 163.01 cl
/bg { 1 1 1 srgb } def
62.60 53.10 218.91 109.91 r p2
0 0 0 srgb
1.06 setlinewidth
[] 0 setdash
0 setlinecap
1 setlinejoin
1.00 setmiterlimit
np
85.75 111.26 m
4.21 0 l
o
np
87.86 111.26 m
0 -6.42 l
o
np
85.75 104.84 m
4.21 0 l
o
np
127.85 107.90 m
4.21 0 l
o
np
129.96 107.90 m
0 -7.46 l
o
np
127.85 100.44 m
4.21 0 l
o
np
169.95 118.99 m
4.21 0 l
o
np
172.05 118.99 m
0 -7.35 l
o
np
169.95 111.64 m
4.21 0 l
o
np
212.05 124.35 m
4.21 0 l
o
np
214.15 124.35 m
0 -8.72 l
o
np
212.05 115.63 m
4.21 0 l
o
np
254.14 109.30 m
4.21 0 l
o
np
256.25 109.30 m
0 -8.59 l
o
np
254.14 100.71 m
4.21 0 l
o
1.49 setlinewidth
[] 0 setdash
np
87.86 108.05 m
42.10 -3.88 l
42.09 11.15 l
42.10 4.67 l
42.10 -14.99 l
o
/bg { 0 0 0 srgb } def
87.86 108.05 2.13 c p2
129.96 104.17 2.13 c p2
172.05 115.32 2.13 c p2
214.15 119.99 2.13 c p2
256.25 105.00 2.13 c p2
0.00 0.00 576.00 373.50 cl
0.00 0.00 576.00 373.50 cl
0 0 0 srgb
1.06 setlinewidth
[] 0 setdash
0 setlinecap
1 setlinejoin
10.00 setmiterlimit
np
62.60 53.10 m
0 109.91 l
o
0.00 0.00 576.00 373.50 cl
/Font1 findfont 10 s
0 0 0 srgb
55.51 54.50 (60) 1 0 t
55.51 79.48 (80) 1 0 t
55.51 104.46 (100) 1 0 t
55.51 129.44 (120) 1 0 t
55.51 154.42 (140) 1 0 t
0.00 0.00 576.00 373.50 cl
0.00 0.00 576.00 373.50 cl
0 0 0 srgb
1.06 setlinewidth
[] 0 setdash
0 setlinecap
1 setlinejoin
10.00 setmiterlimit
np
58.35 58.09 m
4.25 0 l
o
np
58.35 83.07 m
4.25 0 l
o
np
58.35 108.05 m
4.25 0 l
o
np
58.35 133.03 m
4.25 0 l
o
np
58.35 158.01 m
4.25 0 l
o
0.00 0.00 576.00 373.50 cl
0.00 0.00 576.00 373.50 cl
0.00 0.00 576.00 373.50 cl
0.00 0.00 576.00 373.50 cl
0.00 0.00 576.00 373.50 cl
0 0 0 srgb
1.06 setlinewidth
[] 0 setdash
0 setlinecap
1 setlinejoin
10.00 setmiterlimit
np
62.60 53.10 m
218.91 0 l
o
0.00 0.00 576.00 373.50 cl
0 0 0 srgb
1.06 setlinewidth
[] 0 setdash
0 setlinecap
1 setlinejoin
10.00 setmiterlimit
np
87.86 48.85 m
0 4.25 l
o
np
129.96 48.85 m
0 4.25 l
o
np
172.05 48.85 m
0 4.25 l
o
np
214.15 48.85 m
0 4.25 l
o
np
256.25 48.85 m
0 4.25 l
o
0.00 0.00 576.00 373.50 cl
0.00 0.00 576.00 373.50 cl
/Font1 findfont 10 s
0 0 0 srgb
87.86 38.83 (0) .5 0 t
129.96 38.83 (25) .5 0 t
172.05 38.83 (50) .5 0 t
214.15 38.83 (75) .5 0 t
256.25 38.83 (100) .5 0 t
0.00 0.00 576.00 373.50 cl
0.00 0.00 576.00 373.50 cl
0.00 0.00 576.00 373.50 cl
0.00 0.00 576.00 373.50 cl
0.00 0.00 576.00 373.50 cl
/Font1 findfont 12 s
0 0 0 srgb
172.05 26.62 ( ) .5 0 t
0.00 0.00 576.00 373.50 cl
0.00 0.00 576.00 373.50 cl
/Font1 findfont 12 s
0 0 0 srgb
35.23 108.05 ( ) .5 90 t
0.00 0.00 576.00 373.50 cl
0.00 0.00 576.00 373.50 cl
/Font1 findfont 14 s
0 0 0 srgb
172.05 166.61 ( ) .5 0 t
0.00 0.00 576.00 373.50 cl
0.00 0.00 576.00 373.50 cl
0.00 0.00 576.00 373.50 cl
0.00 0.00 576.00 373.50 cl
0.00 0.00 576.00 373.50 cl
0.00 0.00 576.00 373.50 cl
295.91 15.82 576.00 194.66 cl
/bg { 1 1 1 srgb } def
1 1 1 srgb
1.06 setlinewidth
[] 0 setdash
1 setlinecap
1 setlinejoin
10.00 setmiterlimit
295.91 15.82 280.09 178.84 r p3
0.00 0.00 576.00 373.50 cl
0.00 0.00 576.00 373.50 cl
0.00 0.00 576.00 373.50 cl
342.69 53.10 561.60 163.01 cl
/bg { 1 1 1 srgb } def
342.69 53.10 218.91 109.91 r p2
0 0 0 srgb
1.06 setlinewidth
[] 0 setdash
0 setlinecap
1 setlinejoin
1.00 setmiterlimit
np
365.84 110.57 m
4.21 0 l
o
np
367.95 110.57 m
0 -5.04 l
o
np
365.84 105.53 m
4.21 0 l
o
np
407.94 99.71 m
4.21 0 l
o
np
410.05 99.71 m
0 -6.14 l
o
np
407.94 93.57 m
4.21 0 l
o
np
450.04 110.27 m
4.21 0 l
o
np
452.15 110.27 m
0 -5.04 l
o
np
450.04 105.23 m
4.21 0 l
o
np
492.14 103.40 m
4.21 0 l
o
np
494.24 103.40 m
0 -5.72 l
o
np
492.14 97.68 m
4.21 0 l
o
np
534.24 108.13 m
4.21 0 l
o
np
536.34 108.13 m
0 -5.80 l
o
np
534.24 102.33 m
4.21 0 l
o
1.49 setlinewidth
[] 0 setdash
np
367.95 108.05 m
42.10 -11.41 l
42.10 11.11 l
42.09 -7.21 l
42.10 4.69 l
o
/bg { 0 0 0 srgb } def
367.95 108.05 2.13 c p2
410.05 96.64 2.13 c p2
452.15 107.75 2.13 c p2
494.24 100.54 2.13 c p2
536.34 105.23 2.13 c p2
0.00 0.00 576.00 373.50 cl
0.00 0.00 576.00 373.50 cl
0 0 0 srgb
1.06 setlinewidth
[] 0 setdash
0 setlinecap
1 setlinejoin
10.00 setmiterlimit
np
342.69 53.10 m
0 109.91 l
o
0.00 0.00 576.00 373.50 cl
/Font1 findfont 10 s
0 0 0 srgb
335.60 54.50 (60) 1 0 t
335.60 79.48 (80) 1 0 t
335.60 104.46 (100) 1 0 t
335.60 129.44 (120) 1 0 t
335.60 154.42 (140) 1 0 t
0.00 0.00 576.00 373.50 cl
0.00 0.00 576.00 373.50 cl
0 0 0 srgb
1.06 setlinewidth
[] 0 setdash
0 setlinecap
1 setlinejoin
10.00 setmiterlimit
np
338.44 58.09 m
4.25 0 l
o
np
338.44 83.07 m
4.25 0 l
o
np
338.44 108.05 m
4.25 0 l
o
np
338.44 133.03 m
4.25 0 l
o
np
338.44 158.01 m
4.25 0 l
o
0.00 0.00 576.00 373.50 cl
0.00 0.00 576.00 373.50 cl
0.00 0.00 576.00 373.50 cl
0.00 0.00 576.00 373.50 cl
0.00 0.00 576.00 373.50 cl
0 0 0 srgb
1.06 setlinewidth
[] 0 setdash
0 setlinecap
1 setlinejoin
10.00 setmiterlimit
np
342.69 53.10 m
218.91 0 l
o
0.00 0.00 576.00 373.50 cl
0 0 0 srgb
1.06 setlinewidth
[] 0 setdash
0 setlinecap
1 setlinejoin
10.00 setmiterlimit
np
367.95 48.85 m
0 4.25 l
o
np
410.05 48.85 m
0 4.25 l
o
np
452.15 48.85 m
0 4.25 l
o
np
494.24 48.85 m
0 4.25 l
o
np
536.34 48.85 m
0 4.25 l
o
0.00 0.00 576.00 373.50 cl
0.00 0.00 576.00 373.50 cl
/Font1 findfont 10 s
0 0 0 srgb
367.95 38.83 (0) .5 0 t
410.05 38.83 (25) .5 0 t
452.15 38.83 (50) .5 0 t
494.24 38.83 (75) .5 0 t
536.34 38.83 (100) .5 0 t
0.00 0.00 576.00 373.50 cl
0.00 0.00 576.00 373.50 cl
0.00 0.00 576.00 373.50 cl
0.00 0.00 576.00 373.50 cl
0.00 0.00 576.00 373.50 cl
/Font1 findfont 12 s
0 0 0 srgb
452.15 26.62 ( ) .5 0 t
0.00 0.00 576.00 373.50 cl
0.00 0.00 576.00 373.50 cl
/Font1 findfont 12 s
0 0 0 srgb
315.32 108.05 ( ) .5 90 t
0.00 0.00 576.00 373.50 cl
0.00 0.00 576.00 373.50 cl
/Font1 findfont 14 s
0 0 0 srgb
452.15 166.61 ( ) .5 0 t
0.00 0.00 576.00 373.50 cl
0.00 0.00 576.00 373.50 cl
0.00 0.00 576.00 373.50 cl
0.00 0.00 576.00 373.50 cl
0.00 0.00 576.00 373.50 cl
/Font1 findfont 12 s
0 0 0 srgb
224.23 3.60 (Inter Stim) 0 ta
-0.120 (ulus Inter) tb
0.360 (v) tb
-0.300 (al \(ms\)) tb gr
0.00 0.00 576.00 373.50 cl
0.00 0.00 576.00 373.50 cl
/Font1 findfont 12 s
0 0 0 srgb
12.22 115.39 (Soleus H Refle) 90 ta
-0.360 (x Amplitude) tb gr
0.00 0.00 576.00 373.50 cl
0.00 0.00 576.00 373.50 cl
ep
%%Trailer
%%Pages: 1
%%EOF
