%!PS-Adobe-3.0 EPSF-3.0
%%DocumentNeededResources: font Helvetica
%%+ font Helvetica-Bold
%%+ font Helvetica-Oblique
%%+ font Helvetica-BoldOblique
%%+ font Symbol
%%Title: R Graphics Output
%%Creator: R Software
%%Pages: (atend)
%%BoundingBox: 0 0 470 386
%%EndComments
%%BeginProlog
/bp  { gs sRGB gs } def
% begin .ps.prolog
/gs  { gsave } bind def
/gr  { grestore } bind def
/ep  { showpage gr gr } bind def
/m   { moveto } bind def
/l  { rlineto } bind def
/np  { newpath } bind def
/cp  { closepath } bind def
/f   { fill } bind def
/o   { stroke } bind def
/c   { newpath 0 360 arc } bind def
/r   { 4 2 roll moveto 1 copy 3 -1 roll exch 0 exch rlineto 0 rlineto -1 mul 0 exch rlineto closepath } bind def
/p1  { stroke } bind def
/p2  { gsave bg fill grestore newpath } bind def
/p3  { gsave bg fill grestore stroke } bind def
/p6  { gsave bg eofill grestore newpath } bind def
/p7  { gsave bg eofill grestore stroke } bind def
/t   { 5 -2 roll moveto gsave rotate
       1 index stringwidth pop
       mul neg 0 rmoveto show grestore } bind def
/ta  { 4 -2 roll moveto gsave rotate show } bind def
/tb  { 2 -1 roll 0 rmoveto show } bind def
/cl  { grestore gsave newpath 3 index 3 index moveto 1 index
       4 -1 roll lineto  exch 1 index lineto lineto
       closepath clip newpath } bind def
/rgb { setrgbcolor } bind def
/s   { scalefont setfont } bind def
% end   .ps.prolog
/sRGB { [ /CIEBasedABC
          << /DecodeLMN
               [ { dup 0.03928 le
                        {12.92321 div}
                        {0.055 add 1.055 div 2.4 exp }
                     ifelse
                 } bind dup dup
               ]
             /MatrixLMN [0.412457 0.212673 0.019334
                         0.357576 0.715152 0.119192
                         0.180437 0.072175 0.950301]
             /WhitePoint [0.9505 1.0 1.0890]
           >>
         ] setcolorspace } bind def
/srgb { setcolor } bind def
%%IncludeResource: font Helvetica
/Helvetica findfont
dup length dict begin
  {1 index /FID ne {def} {pop pop} ifelse} forall
  /Encoding ISOLatin1Encoding def
  currentdict
  end
/Font1 exch definefont pop
%%IncludeResource: font Helvetica-Bold
/Helvetica-Bold findfont
dup length dict begin
  {1 index /FID ne {def} {pop pop} ifelse} forall
  /Encoding ISOLatin1Encoding def
  currentdict
  end
/Font2 exch definefont pop
%%IncludeResource: font Helvetica-Oblique
/Helvetica-Oblique findfont
dup length dict begin
  {1 index /FID ne {def} {pop pop} ifelse} forall
  /Encoding ISOLatin1Encoding def
  currentdict
  end
/Font3 exch definefont pop
%%IncludeResource: font Helvetica-BoldOblique
/Helvetica-BoldOblique findfont
dup length dict begin
  {1 index /FID ne {def} {pop pop} ifelse} forall
  /Encoding ISOLatin1Encoding def
  currentdict
  end
/Font4 exch definefont pop
%%IncludeResource: font Symbol
/Symbol findfont
dup length dict begin
  {1 index /FID ne {def} {pop pop} ifelse} forall
  currentdict
  end
/Font5 exch definefont pop
%%EndProlog
%%Page: 1 1
bp
0.00 0.00 470.25 385.50 cl
0.00 0.00 470.25 385.50 cl
0.00 0.00 470.25 385.50 cl
15.82 262.27 243.03 385.50 cl
/bg { 1 1 1 srgb } def
1 1 1 srgb
1.06 setlinewidth
[] 0 setdash
1 setlinecap
1 setlinejoin
10.00 setmiterlimit
15.82 262.27 227.22 123.23 r p3
0.00 0.00 470.25 385.50 cl
0.00 0.00 470.25 385.50 cl
0.00 0.00 470.25 385.50 cl
62.88 299.55 148.37 353.85 cl
/bg { 1 1 1 srgb } def
62.88 299.55 85.49 54.29 r p2
0 0 0 srgb
1.06 setlinewidth
[] 0 setdash
0 setlinecap
1 setlinejoin
1.00 setmiterlimit
np
71.92 326.70 m
1.65 0 l
o
np
72.74 326.70 m
0 0 l
o
np
71.92 326.70 m
1.65 0 l
o
np
88.36 332.12 m
1.65 0 l
o
np
89.18 332.12 m
0 -5.94 l
o
np
88.36 326.18 m
1.65 0 l
o
np
104.80 329.94 m
1.65 0 l
o
np
105.62 329.94 m
0 -3.43 l
o
np
104.80 326.51 m
1.65 0 l
o
np
121.24 329.88 m
1.65 0 l
o
np
122.06 329.88 m
0 -6.75 l
o
np
121.24 323.13 m
1.65 0 l
o
np
137.68 327.72 m
1.65 0 l
o
np
138.51 327.72 m
0 -5.01 l
o
np
137.68 322.71 m
1.65 0 l
o
2.13 setlinewidth
[] 0 setdash
np
72.74 326.70 m
16.44 2.45 l
16.44 -0.92 l
16.44 -1.73 l
16.45 -1.29 l
o
1.06 setlinewidth
[] 0 setdash
10.00 setmiterlimit
np
62.88 326.70 m
85.49 0 l
o
/bg { 0 0 0 srgb } def
72.74 326.70 2.13 c p2
89.18 329.15 2.13 c p2
105.62 328.23 2.13 c p2
122.06 326.50 2.13 c p2
138.51 325.21 2.13 c p2
0.00 0.00 470.25 385.50 cl
0.00 0.00 470.25 385.50 cl
0 0 0 srgb
1.06 setlinewidth
[] 0 setdash
0 setlinecap
1 setlinejoin
10.00 setmiterlimit
np
62.88 299.55 m
0 54.30 l
o
0.00 0.00 470.25 385.50 cl
/Font1 findfont 10 s
0 0 0 srgb
55.79 298.43 (-40) 1 0 t
55.79 310.77 (-20) 1 0 t
55.79 323.11 (0) 1 0 t
55.79 335.45 (20) 1 0 t
55.79 347.79 (40) 1 0 t
0.00 0.00 470.25 385.50 cl
0.00 0.00 470.25 385.50 cl
0 0 0 srgb
1.06 setlinewidth
[] 0 setdash
0 setlinecap
1 setlinejoin
10.00 setmiterlimit
np
58.63 302.02 m
4.25 0 l
o
np
58.63 314.36 m
4.25 0 l
o
np
58.63 326.70 m
4.25 0 l
o
np
58.63 339.04 m
4.25 0 l
o
np
58.63 351.38 m
4.25 0 l
o
0.00 0.00 470.25 385.50 cl
0.00 0.00 470.25 385.50 cl
0.00 0.00 470.25 385.50 cl
0.00 0.00 470.25 385.50 cl
0.00 0.00 470.25 385.50 cl
0 0 0 srgb
1.06 setlinewidth
[] 0 setdash
0 setlinecap
1 setlinejoin
10.00 setmiterlimit
np
62.88 299.55 m
85.49 0 l
o
0.00 0.00 470.25 385.50 cl
0 0 0 srgb
1.06 setlinewidth
[] 0 setdash
0 setlinecap
1 setlinejoin
10.00 setmiterlimit
np
72.74 295.30 m
0 4.25 l
o
np
89.18 295.30 m
0 4.25 l
o
np
105.62 295.30 m
0 4.25 l
o
np
122.06 295.30 m
0 4.25 l
o
np
138.51 295.30 m
0 4.25 l
o
0.00 0.00 470.25 385.50 cl
0.00 0.00 470.25 385.50 cl
/Font1 findfont 10 s
0 0 0 srgb
72.74 285.29 (0) .5 0 t
89.18 285.29 (25) .5 0 t
105.62 285.29 (50) .5 0 t
122.06 285.29 (75) .5 0 t
138.51 285.29 (100) .5 0 t
0.00 0.00 470.25 385.50 cl
0.00 0.00 470.25 385.50 cl
0.00 0.00 470.25 385.50 cl
0.00 0.00 470.25 385.50 cl
0.00 0.00 470.25 385.50 cl
/Font1 findfont 12 s
0 0 0 srgb
105.62 273.07 (CT) .5 0 t
0.00 0.00 470.25 385.50 cl
0.00 0.00 470.25 385.50 cl
/Font1 findfont 12 s
0 0 0 srgb
35.23 326.70 (Non-injured) .5 90 t
0.00 0.00 470.25 385.50 cl
0.00 0.00 470.25 385.50 cl
0.00 0.00 470.25 385.50 cl
0.00 0.00 470.25 385.50 cl
0.00 0.00 470.25 385.50 cl
0.00 0.00 470.25 385.50 cl
/bg { 1 1 1 srgb } def
158.40 308.27 60.19 36.85 r p2
0.00 0.00 470.25 385.50 cl
0.00 0.00 470.25 385.50 cl
/Font2 findfont 10 s
0 0 0 srgb
162.66 333.91 (Time) 0 0 t
0.00 0.00 470.25 385.50 cl
0.00 0.00 470.25 385.50 cl
0.00 0.00 470.25 385.50 cl
0.00 0.00 470.25 385.50 cl
0 0 0 srgb
2.13 setlinewidth
[] 0 setdash
0 setlinecap
1 setlinejoin
10.00 setmiterlimit
np
164.38 321.17 m
13.83 0 l
o
0.00 0.00 470.25 385.50 cl
0.00 0.00 470.25 385.50 cl
/Font1 findfont 10 s
0 0 0 srgb
182.10 317.58 (Bef) 0 ta
-0.300 (ore) tb gr
0.00 0.00 470.25 385.50 cl
0.00 0.00 470.25 385.50 cl
0.00 0.00 470.25 385.50 cl
0.00 0.00 470.25 385.50 cl
0.00 0.00 470.25 385.50 cl
0.00 0.00 470.25 385.50 cl
0.00 0.00 470.25 385.50 cl
0.00 0.00 470.25 385.50 cl
0.00 0.00 470.25 385.50 cl
0.00 0.00 470.25 385.50 cl
/Font1 findfont 14 s
0 0 0 srgb
105.62 357.45 (Cycling) .5 0 t
0.00 0.00 470.25 385.50 cl
0.00 0.00 470.25 385.50 cl
0.00 0.00 470.25 385.50 cl
0.00 0.00 470.25 385.50 cl
0.00 0.00 470.25 385.50 cl
0.00 0.00 470.25 385.50 cl
243.03 262.27 470.25 385.50 cl
/bg { 1 1 1 srgb } def
1 1 1 srgb
1.06 setlinewidth
[] 0 setdash
1 setlinecap
1 setlinejoin
10.00 setmiterlimit
243.03 262.27 227.22 123.23 r p3
0.00 0.00 470.25 385.50 cl
0.00 0.00 470.25 385.50 cl
0.00 0.00 470.25 385.50 cl
290.10 299.55 375.59 353.85 cl
/bg { 1 1 1 srgb } def
290.10 299.55 85.49 54.29 r p2
0 0 0 srgb
1.06 setlinewidth
[] 0 setdash
0 setlinecap
1 setlinejoin
1.00 setmiterlimit
np
299.14 326.70 m
1.64 0 l
o
np
299.96 326.70 m
0 0 l
o
np
299.14 326.70 m
1.64 0 l
o
np
315.58 330.04 m
1.64 0 l
o
np
316.40 330.04 m
0 -5.07 l
o
np
315.58 324.97 m
1.64 0 l
o
np
332.02 332.37 m
1.64 0 l
o
np
332.84 332.37 m
0 -5.15 l
o
np
332.02 327.22 m
1.64 0 l
o
np
348.46 332.46 m
1.64 0 l
o
np
349.28 332.46 m
0 -3.98 l
o
np
348.46 328.48 m
1.64 0 l
o
np
364.90 335.06 m
1.64 0 l
o
np
365.72 335.06 m
0 -4.58 l
o
np
364.90 330.48 m
1.64 0 l
o
2.13 setlinewidth
[] 0 setdash
np
299.96 326.70 m
16.44 0.81 l
16.44 2.28 l
16.44 0.68 l
16.44 2.30 l
o
1.06 setlinewidth
[] 0 setdash
10.00 setmiterlimit
np
290.10 326.70 m
85.49 0 l
o
/bg { 0 0 0 srgb } def
299.96 326.70 2.13 c p2
316.40 327.51 2.13 c p2
332.84 329.79 2.13 c p2
349.28 330.47 2.13 c p2
365.72 332.77 2.13 c p2
0.00 0.00 470.25 385.50 cl
0.00 0.00 470.25 385.50 cl
0 0 0 srgb
1.06 setlinewidth
[] 0 setdash
0 setlinecap
1 setlinejoin
10.00 setmiterlimit
np
290.10 299.55 m
0 54.30 l
o
0.00 0.00 470.25 385.50 cl
/Font1 findfont 10 s
0 0 0 srgb
283.01 298.43 (-40) 1 0 t
283.01 310.77 (-20) 1 0 t
283.01 323.11 (0) 1 0 t
283.01 335.45 (20) 1 0 t
283.01 347.79 (40) 1 0 t
0.00 0.00 470.25 385.50 cl
0.00 0.00 470.25 385.50 cl
0 0 0 srgb
1.06 setlinewidth
[] 0 setdash
0 setlinecap
1 setlinejoin
10.00 setmiterlimit
np
285.84 302.02 m
4.26 0 l
o
np
285.84 314.36 m
4.26 0 l
o
np
285.84 326.70 m
4.26 0 l
o
np
285.84 339.04 m
4.26 0 l
o
np
285.84 351.38 m
4.26 0 l
o
0.00 0.00 470.25 385.50 cl
0.00 0.00 470.25 385.50 cl
0.00 0.00 470.25 385.50 cl
0.00 0.00 470.25 385.50 cl
0.00 0.00 470.25 385.50 cl
0 0 0 srgb
1.06 setlinewidth
[] 0 setdash
0 setlinecap
1 setlinejoin
10.00 setmiterlimit
np
290.10 299.55 m
85.49 0 l
o
0.00 0.00 470.25 385.50 cl
0 0 0 srgb
1.06 setlinewidth
[] 0 setdash
0 setlinecap
1 setlinejoin
10.00 setmiterlimit
np
299.96 295.30 m
0 4.25 l
o
np
316.40 295.30 m
0 4.25 l
o
np
332.84 295.30 m
0 4.25 l
o
np
349.28 295.30 m
0 4.25 l
o
np
365.72 295.30 m
0 4.25 l
o
0.00 0.00 470.25 385.50 cl
0.00 0.00 470.25 385.50 cl
/Font1 findfont 10 s
0 0 0 srgb
299.96 285.29 (0) .5 0 t
316.40 285.29 (25) .5 0 t
332.84 285.29 (50) .5 0 t
349.28 285.29 (75) .5 0 t
365.72 285.29 (100) .5 0 t
0.00 0.00 470.25 385.50 cl
0.00 0.00 470.25 385.50 cl
0.00 0.00 470.25 385.50 cl
0.00 0.00 470.25 385.50 cl
0.00 0.00 470.25 385.50 cl
/Font1 findfont 12 s
0 0 0 srgb
332.84 273.07 (CT) .5 0 t
0.00 0.00 470.25 385.50 cl
0.00 0.00 470.25 385.50 cl
/Font1 findfont 12 s
0 0 0 srgb
262.45 326.70 (Non-injured) .5 90 t
0.00 0.00 470.25 385.50 cl
0.00 0.00 470.25 385.50 cl
0.00 0.00 470.25 385.50 cl
0.00 0.00 470.25 385.50 cl
0.00 0.00 470.25 385.50 cl
0.00 0.00 470.25 385.50 cl
/bg { 1 1 1 srgb } def
385.62 308.27 60.19 36.85 r p2
0.00 0.00 470.25 385.50 cl
0.00 0.00 470.25 385.50 cl
/Font2 findfont 10 s
0 0 0 srgb
389.87 333.91 (Time) 0 0 t
0.00 0.00 470.25 385.50 cl
0.00 0.00 470.25 385.50 cl
0.00 0.00 470.25 385.50 cl
0.00 0.00 470.25 385.50 cl
0 0 0 srgb
2.13 setlinewidth
[] 0 setdash
0 setlinecap
1 setlinejoin
10.00 setmiterlimit
np
391.60 321.17 m
13.83 0 l
o
0.00 0.00 470.25 385.50 cl
0.00 0.00 470.25 385.50 cl
/Font1 findfont 10 s
0 0 0 srgb
409.31 317.58 (Bef) 0 ta
-0.300 (ore) tb gr
0.00 0.00 470.25 385.50 cl
0.00 0.00 470.25 385.50 cl
0.00 0.00 470.25 385.50 cl
0.00 0.00 470.25 385.50 cl
0.00 0.00 470.25 385.50 cl
0.00 0.00 470.25 385.50 cl
0.00 0.00 470.25 385.50 cl
0.00 0.00 470.25 385.50 cl
0.00 0.00 470.25 385.50 cl
0.00 0.00 470.25 385.50 cl
/Font1 findfont 14 s
0 0 0 srgb
332.84 357.45 (ES Cycling) .5 0 t
0.00 0.00 470.25 385.50 cl
0.00 0.00 470.25 385.50 cl
0.00 0.00 470.25 385.50 cl
0.00 0.00 470.25 385.50 cl
0.00 0.00 470.25 385.50 cl
0.00 0.00 470.25 385.50 cl
15.82 139.04 243.03 262.27 cl
/bg { 1 1 1 srgb } def
1 1 1 srgb
1.06 setlinewidth
[] 0 setdash
1 setlinecap
1 setlinejoin
10.00 setmiterlimit
15.82 139.04 227.22 123.23 r p3
0.00 0.00 470.25 385.50 cl
0.00 0.00 470.25 385.50 cl
0.00 0.00 470.25 385.50 cl
62.88 176.33 148.37 230.62 cl
/bg { 1 1 1 srgb } def
62.88 176.33 85.49 54.29 r p2
0 0 0 srgb
1.06 setlinewidth
[] 0 setdash
0 setlinecap
1 setlinejoin
1.00 setmiterlimit
np
71.92 203.47 m
1.65 0 l
o
np
72.74 203.47 m
0 0 l
o
np
71.92 203.47 m
1.65 0 l
o
np
88.36 207.71 m
1.65 0 l
o
np
89.18 207.71 m
0 -7.48 l
o
np
88.36 200.23 m
1.65 0 l
o
np
104.80 205.98 m
1.65 0 l
o
np
105.62 205.98 m
0 -5.79 l
o
np
104.80 200.19 m
1.65 0 l
o
np
121.24 208.07 m
1.65 0 l
o
np
122.06 208.07 m
0 -7.05 l
o
np
121.24 201.02 m
1.65 0 l
o
np
137.68 208.36 m
1.65 0 l
o
np
138.51 208.36 m
0 -6.43 l
o
np
137.68 201.93 m
1.65 0 l
o
2.13 setlinewidth
[] 0 setdash
np
72.74 203.47 m
16.44 0.50 l
16.44 -0.88 l
16.44 1.46 l
16.45 0.60 l
o
1.06 setlinewidth
[] 0 setdash
10.00 setmiterlimit
np
62.88 203.47 m
85.49 0 l
o
/bg { 0 0 0 srgb } def
72.74 203.47 2.13 c p2
89.18 203.97 2.13 c p2
105.62 203.09 2.13 c p2
122.06 204.55 2.13 c p2
138.51 205.15 2.13 c p2
0.00 0.00 470.25 385.50 cl
0.00 0.00 470.25 385.50 cl
0 0 0 srgb
1.06 setlinewidth
[] 0 setdash
0 setlinecap
1 setlinejoin
10.00 setmiterlimit
np
62.88 176.33 m
0 54.29 l
o
0.00 0.00 470.25 385.50 cl
/Font1 findfont 10 s
0 0 0 srgb
55.79 175.20 (-40) 1 0 t
55.79 187.54 (-20) 1 0 t
55.79 199.88 (0) 1 0 t
55.79 212.22 (20) 1 0 t
55.79 224.56 (40) 1 0 t
0.00 0.00 470.25 385.50 cl
0.00 0.00 470.25 385.50 cl
0 0 0 srgb
1.06 setlinewidth
[] 0 setdash
0 setlinecap
1 setlinejoin
10.00 setmiterlimit
np
58.63 178.79 m
4.25 0 l
o
np
58.63 191.13 m
4.25 0 l
o
np
58.63 203.47 m
4.25 0 l
o
np
58.63 215.81 m
4.25 0 l
o
np
58.63 228.15 m
4.25 0 l
o
0.00 0.00 470.25 385.50 cl
0.00 0.00 470.25 385.50 cl
0.00 0.00 470.25 385.50 cl
0.00 0.00 470.25 385.50 cl
0.00 0.00 470.25 385.50 cl
0 0 0 srgb
1.06 setlinewidth
[] 0 setdash
0 setlinecap
1 setlinejoin
10.00 setmiterlimit
np
62.88 176.33 m
85.49 0 l
o
0.00 0.00 470.25 385.50 cl
0 0 0 srgb
1.06 setlinewidth
[] 0 setdash
0 setlinecap
1 setlinejoin
10.00 setmiterlimit
np
72.74 172.07 m
0 4.26 l
o
np
89.18 172.07 m
0 4.26 l
o
np
105.62 172.07 m
0 4.26 l
o
np
122.06 172.07 m
0 4.26 l
o
np
138.51 172.07 m
0 4.26 l
o
0.00 0.00 470.25 385.50 cl
0.00 0.00 470.25 385.50 cl
/Font1 findfont 10 s
0 0 0 srgb
72.74 162.06 (0) .5 0 t
89.18 162.06 (25) .5 0 t
105.62 162.06 (50) .5 0 t
122.06 162.06 (75) .5 0 t
138.51 162.06 (100) .5 0 t
0.00 0.00 470.25 385.50 cl
0.00 0.00 470.25 385.50 cl
0.00 0.00 470.25 385.50 cl
0.00 0.00 470.25 385.50 cl
0.00 0.00 470.25 385.50 cl
/Font1 findfont 12 s
0 0 0 srgb
105.62 149.84 (CT) .5 0 t
0.00 0.00 470.25 385.50 cl
0.00 0.00 470.25 385.50 cl
/Font1 findfont 12 s
0 0 0 srgb
35.23 203.47 (Non-injured) .5 90 t
0.00 0.00 470.25 385.50 cl
0.00 0.00 470.25 385.50 cl
0.00 0.00 470.25 385.50 cl
0.00 0.00 470.25 385.50 cl
0.00 0.00 470.25 385.50 cl
0.00 0.00 470.25 385.50 cl
/bg { 1 1 1 srgb } def
158.40 185.05 60.19 36.85 r p2
0.00 0.00 470.25 385.50 cl
0.00 0.00 470.25 385.50 cl
/Font2 findfont 10 s
0 0 0 srgb
162.66 210.68 (Time) 0 0 t
0.00 0.00 470.25 385.50 cl
0.00 0.00 470.25 385.50 cl
0.00 0.00 470.25 385.50 cl
0.00 0.00 470.25 385.50 cl
0 0 0 srgb
2.13 setlinewidth
[] 0 setdash
0 setlinecap
1 setlinejoin
10.00 setmiterlimit
np
164.38 197.94 m
13.83 0 l
o
0.00 0.00 470.25 385.50 cl
0.00 0.00 470.25 385.50 cl
/Font1 findfont 10 s
0 0 0 srgb
182.10 194.35 (Bef) 0 ta
-0.300 (ore) tb gr
0.00 0.00 470.25 385.50 cl
0.00 0.00 470.25 385.50 cl
0.00 0.00 470.25 385.50 cl
0.00 0.00 470.25 385.50 cl
0.00 0.00 470.25 385.50 cl
0.00 0.00 470.25 385.50 cl
0.00 0.00 470.25 385.50 cl
0.00 0.00 470.25 385.50 cl
0.00 0.00 470.25 385.50 cl
0.00 0.00 470.25 385.50 cl
/Font1 findfont 14 s
0 0 0 srgb
105.62 234.22 (Cycling) .5 0 t
0.00 0.00 470.25 385.50 cl
0.00 0.00 470.25 385.50 cl
0.00 0.00 470.25 385.50 cl
0.00 0.00 470.25 385.50 cl
0.00 0.00 470.25 385.50 cl
0.00 0.00 470.25 385.50 cl
243.03 139.04 470.25 262.27 cl
/bg { 1 1 1 srgb } def
1 1 1 srgb
1.06 setlinewidth
[] 0 setdash
1 setlinecap
1 setlinejoin
10.00 setmiterlimit
243.03 139.04 227.22 123.23 r p3
0.00 0.00 470.25 385.50 cl
0.00 0.00 470.25 385.50 cl
0.00 0.00 470.25 385.50 cl
290.10 176.33 375.59 230.62 cl
/bg { 1 1 1 srgb } def
290.10 176.33 85.49 54.29 r p2
0 0 0 srgb
1.06 setlinewidth
[] 0 setdash
0 setlinecap
1 setlinejoin
1.00 setmiterlimit
np
299.14 202.21 m
1.64 0 l
o
np
299.96 202.21 m
0 0 l
o
np
299.14 202.21 m
1.64 0 l
o
np
315.58 211.21 m
1.64 0 l
o
np
316.40 211.21 m
0 -10.90 l
o
np
315.58 200.31 m
1.64 0 l
o
np
332.02 220.72 m
1.64 0 l
o
np
332.84 220.72 m
0 -15.99 l
o
np
332.02 204.73 m
1.64 0 l
o
np
348.46 228.15 m
1.64 0 l
o
np
349.28 228.15 m
0 -22.00 l
o
np
348.46 206.15 m
1.64 0 l
o
np
364.90 207.33 m
1.64 0 l
o
np
365.72 207.33 m
0 -9.12 l
o
np
364.90 198.21 m
1.64 0 l
o
2.13 setlinewidth
[] 0 setdash
np
299.96 202.21 m
16.44 3.55 l
16.44 6.96 l
16.44 4.43 l
16.44 -14.38 l
o
1.06 setlinewidth
[] 0 setdash
10.00 setmiterlimit
np
290.10 202.21 m
85.49 0 l
o
/bg { 0 0 0 srgb } def
299.96 202.21 2.13 c p2
316.40 205.76 2.13 c p2
332.84 212.72 2.13 c p2
349.28 217.15 2.13 c p2
365.72 202.77 2.13 c p2
0.00 0.00 470.25 385.50 cl
0.00 0.00 470.25 385.50 cl
0 0 0 srgb
1.06 setlinewidth
[] 0 setdash
0 setlinecap
1 setlinejoin
10.00 setmiterlimit
np
290.10 176.33 m
0 54.29 l
o
0.00 0.00 470.25 385.50 cl
/Font1 findfont 10 s
0 0 0 srgb
283.01 183.99 (-25) 1 0 t
283.01 198.62 (0) 1 0 t
283.01 213.26 (25) 1 0 t
0.00 0.00 470.25 385.50 cl
0.00 0.00 470.25 385.50 cl
0 0 0 srgb
1.06 setlinewidth
[] 0 setdash
0 setlinecap
1 setlinejoin
10.00 setmiterlimit
np
285.84 187.58 m
4.26 0 l
o
np
285.84 202.21 m
4.26 0 l
o
np
285.84 216.85 m
4.26 0 l
o
0.00 0.00 470.25 385.50 cl
0.00 0.00 470.25 385.50 cl
0.00 0.00 470.25 385.50 cl
0.00 0.00 470.25 385.50 cl
0.00 0.00 470.25 385.50 cl
0 0 0 srgb
1.06 setlinewidth
[] 0 setdash
0 setlinecap
1 setlinejoin
10.00 setmiterlimit
np
290.10 176.33 m
85.49 0 l
o
0.00 0.00 470.25 385.50 cl
0 0 0 srgb
1.06 setlinewidth
[] 0 setdash
0 setlinecap
1 setlinejoin
10.00 setmiterlimit
np
299.96 172.07 m
0 4.26 l
o
np
316.40 172.07 m
0 4.26 l
o
np
332.84 172.07 m
0 4.26 l
o
np
349.28 172.07 m
0 4.26 l
o
np
365.72 172.07 m
0 4.26 l
o
0.00 0.00 470.25 385.50 cl
0.00 0.00 470.25 385.50 cl
/Font1 findfont 10 s
0 0 0 srgb
299.96 162.06 (0) .5 0 t
316.40 162.06 (25) .5 0 t
332.84 162.06 (50) .5 0 t
349.28 162.06 (75) .5 0 t
365.72 162.06 (100) .5 0 t
0.00 0.00 470.25 385.50 cl
0.00 0.00 470.25 385.50 cl
0.00 0.00 470.25 385.50 cl
0.00 0.00 470.25 385.50 cl
0.00 0.00 470.25 385.50 cl
/Font1 findfont 12 s
0 0 0 srgb
332.84 149.84 (CT) .5 0 t
0.00 0.00 470.25 385.50 cl
0.00 0.00 470.25 385.50 cl
/Font1 findfont 12 s
0 0 0 srgb
262.45 203.47 (Non-injured) .5 90 t
0.00 0.00 470.25 385.50 cl
0.00 0.00 470.25 385.50 cl
0.00 0.00 470.25 385.50 cl
0.00 0.00 470.25 385.50 cl
0.00 0.00 470.25 385.50 cl
0.00 0.00 470.25 385.50 cl
/bg { 1 1 1 srgb } def
385.62 185.05 60.19 36.85 r p2
0.00 0.00 470.25 385.50 cl
0.00 0.00 470.25 385.50 cl
/Font2 findfont 10 s
0 0 0 srgb
389.87 210.68 (Time) 0 0 t
0.00 0.00 470.25 385.50 cl
0.00 0.00 470.25 385.50 cl
0.00 0.00 470.25 385.50 cl
0.00 0.00 470.25 385.50 cl
0 0 0 srgb
2.13 setlinewidth
[] 0 setdash
0 setlinecap
1 setlinejoin
10.00 setmiterlimit
np
391.60 197.94 m
13.83 0 l
o
0.00 0.00 470.25 385.50 cl
0.00 0.00 470.25 385.50 cl
/Font1 findfont 10 s
0 0 0 srgb
409.31 194.35 (Bef) 0 ta
-0.300 (ore) tb gr
0.00 0.00 470.25 385.50 cl
0.00 0.00 470.25 385.50 cl
0.00 0.00 470.25 385.50 cl
0.00 0.00 470.25 385.50 cl
0.00 0.00 470.25 385.50 cl
0.00 0.00 470.25 385.50 cl
0.00 0.00 470.25 385.50 cl
0.00 0.00 470.25 385.50 cl
0.00 0.00 470.25 385.50 cl
0.00 0.00 470.25 385.50 cl
/Font1 findfont 14 s
0 0 0 srgb
332.84 234.22 (ES Cycling) .5 0 t
0.00 0.00 470.25 385.50 cl
0.00 0.00 470.25 385.50 cl
0.00 0.00 470.25 385.50 cl
0.00 0.00 470.25 385.50 cl
0.00 0.00 470.25 385.50 cl
0.00 0.00 470.25 385.50 cl
15.82 15.82 243.03 139.04 cl
/bg { 1 1 1 srgb } def
1 1 1 srgb
1.06 setlinewidth
[] 0 setdash
1 setlinecap
1 setlinejoin
10.00 setmiterlimit
15.82 15.82 227.22 123.23 r p3
0.00 0.00 470.25 385.50 cl
0.00 0.00 470.25 385.50 cl
0.00 0.00 470.25 385.50 cl
62.88 53.10 148.37 107.39 cl
/bg { 1 1 1 srgb } def
62.88 53.10 85.49 54.29 r p2
0 0 0 srgb
1.06 setlinewidth
[] 0 setdash
0 setlinecap
1 setlinejoin
1.00 setmiterlimit
np
71.92 80.25 m
1.65 0 l
o
np
72.74 80.25 m
0 0 l
o
np
71.92 80.25 m
1.65 0 l
o
np
88.36 81.00 m
1.65 0 l
o
np
89.18 81.00 m
0 -5.73 l
o
np
88.36 75.27 m
1.65 0 l
o
np
104.80 77.04 m
1.65 0 l
o
np
105.62 77.04 m
0 -4.05 l
o
np
104.80 72.99 m
1.65 0 l
o
np
121.24 78.99 m
1.65 0 l
o
np
122.06 78.99 m
0 -10.21 l
o
np
121.24 68.78 m
1.65 0 l
o
np
137.68 79.03 m
1.65 0 l
o
np
138.51 79.03 m
0 -2.90 l
o
np
137.68 76.13 m
1.65 0 l
o
2.13 setlinewidth
[] 0 setdash
np
72.74 80.25 m
16.44 -2.12 l
16.44 -3.12 l
16.44 -1.12 l
16.45 3.69 l
o
1.06 setlinewidth
[] 0 setdash
10.00 setmiterlimit
np
62.88 80.25 m
85.49 0 l
o
/bg { 0 0 0 srgb } def
72.74 80.25 2.13 c p2
89.18 78.13 2.13 c p2
105.62 75.01 2.13 c p2
122.06 73.89 2.13 c p2
138.51 77.58 2.13 c p2
0.00 0.00 470.25 385.50 cl
0.00 0.00 470.25 385.50 cl
0 0 0 srgb
1.06 setlinewidth
[] 0 setdash
0 setlinecap
1 setlinejoin
10.00 setmiterlimit
np
62.88 53.10 m
0 54.29 l
o
0.00 0.00 470.25 385.50 cl
/Font1 findfont 10 s
0 0 0 srgb
55.79 51.98 (-40) 1 0 t
55.79 64.32 (-20) 1 0 t
55.79 76.66 (0) 1 0 t
55.79 88.99 (20) 1 0 t
55.79 101.33 (40) 1 0 t
0.00 0.00 470.25 385.50 cl
0.00 0.00 470.25 385.50 cl
0 0 0 srgb
1.06 setlinewidth
[] 0 setdash
0 setlinecap
1 setlinejoin
10.00 setmiterlimit
np
58.63 55.57 m
4.25 0 l
o
np
58.63 67.91 m
4.25 0 l
o
np
58.63 80.25 m
4.25 0 l
o
np
58.63 92.58 m
4.25 0 l
o
np
58.63 104.92 m
4.25 0 l
o
0.00 0.00 470.25 385.50 cl
0.00 0.00 470.25 385.50 cl
0.00 0.00 470.25 385.50 cl
0.00 0.00 470.25 385.50 cl
0.00 0.00 470.25 385.50 cl
0 0 0 srgb
1.06 setlinewidth
[] 0 setdash
0 setlinecap
1 setlinejoin
10.00 setmiterlimit
np
62.88 53.10 m
85.49 0 l
o
0.00 0.00 470.25 385.50 cl
0 0 0 srgb
1.06 setlinewidth
[] 0 setdash
0 setlinecap
1 setlinejoin
10.00 setmiterlimit
np
72.74 48.85 m
0 4.25 l
o
np
89.18 48.85 m
0 4.25 l
o
np
105.62 48.85 m
0 4.25 l
o
np
122.06 48.85 m
0 4.25 l
o
np
138.51 48.85 m
0 4.25 l
o
0.00 0.00 470.25 385.50 cl
0.00 0.00 470.25 385.50 cl
/Font1 findfont 10 s
0 0 0 srgb
72.74 38.83 (0) .5 0 t
89.18 38.83 (25) .5 0 t
105.62 38.83 (50) .5 0 t
122.06 38.83 (75) .5 0 t
138.51 38.83 (100) .5 0 t
0.00 0.00 470.25 385.50 cl
0.00 0.00 470.25 385.50 cl
0.00 0.00 470.25 385.50 cl
0.00 0.00 470.25 385.50 cl
0.00 0.00 470.25 385.50 cl
/Font1 findfont 12 s
0 0 0 srgb
105.62 26.62 (CT) .5 0 t
0.00 0.00 470.25 385.50 cl
0.00 0.00 470.25 385.50 cl
/Font1 findfont 12 s
0 0 0 srgb
35.23 80.25 (Non-injured) .5 90 t
0.00 0.00 470.25 385.50 cl
0.00 0.00 470.25 385.50 cl
0.00 0.00 470.25 385.50 cl
0.00 0.00 470.25 385.50 cl
0.00 0.00 470.25 385.50 cl
0.00 0.00 470.25 385.50 cl
/bg { 1 1 1 srgb } def
158.40 61.82 60.19 36.85 r p2
0.00 0.00 470.25 385.50 cl
0.00 0.00 470.25 385.50 cl
/Font2 findfont 10 s
0 0 0 srgb
162.66 87.46 (Time) 0 0 t
0.00 0.00 470.25 385.50 cl
0.00 0.00 470.25 385.50 cl
0.00 0.00 470.25 385.50 cl
0.00 0.00 470.25 385.50 cl
0 0 0 srgb
2.13 setlinewidth
[] 0 setdash
0 setlinecap
1 setlinejoin
10.00 setmiterlimit
np
164.38 74.71 m
13.83 0 l
o
0.00 0.00 470.25 385.50 cl
0.00 0.00 470.25 385.50 cl
/Font1 findfont 10 s
0 0 0 srgb
182.10 71.12 (Bef) 0 ta
-0.300 (ore) tb gr
0.00 0.00 470.25 385.50 cl
0.00 0.00 470.25 385.50 cl
0.00 0.00 470.25 385.50 cl
0.00 0.00 470.25 385.50 cl
0.00 0.00 470.25 385.50 cl
0.00 0.00 470.25 385.50 cl
0.00 0.00 470.25 385.50 cl
0.00 0.00 470.25 385.50 cl
0.00 0.00 470.25 385.50 cl
0.00 0.00 470.25 385.50 cl
/Font1 findfont 14 s
0 0 0 srgb
105.62 110.99 (Cycling) .5 0 t
0.00 0.00 470.25 385.50 cl
0.00 0.00 470.25 385.50 cl
0.00 0.00 470.25 385.50 cl
0.00 0.00 470.25 385.50 cl
0.00 0.00 470.25 385.50 cl
0.00 0.00 470.25 385.50 cl
243.03 15.82 470.25 139.04 cl
/bg { 1 1 1 srgb } def
1 1 1 srgb
1.06 setlinewidth
[] 0 setdash
1 setlinecap
1 setlinejoin
10.00 setmiterlimit
243.03 15.82 227.22 123.23 r p3
0.00 0.00 470.25 385.50 cl
0.00 0.00 470.25 385.50 cl
0.00 0.00 470.25 385.50 cl
290.10 53.10 375.59 107.39 cl
/bg { 1 1 1 srgb } def
290.10 53.10 85.49 54.29 r p2
0 0 0 srgb
1.06 setlinewidth
[] 0 setdash
0 setlinecap
1 setlinejoin
1.00 setmiterlimit
np
299.14 80.25 m
1.64 0 l
o
np
299.96 80.25 m
0 0 l
o
np
299.14 80.25 m
1.64 0 l
o
np
315.58 85.48 m
1.64 0 l
o
np
316.40 85.48 m
0 -6.63 l
o
np
315.58 78.85 m
1.64 0 l
o
np
332.02 82.62 m
1.64 0 l
o
np
332.84 82.62 m
0 -6.55 l
o
np
332.02 76.07 m
1.64 0 l
o
np
348.46 81.90 m
1.64 0 l
o
np
349.28 81.90 m
0 -6.71 l
o
np
348.46 75.19 m
1.64 0 l
o
np
364.90 82.53 m
1.64 0 l
o
np
365.72 82.53 m
0 -5.64 l
o
np
364.90 76.89 m
1.64 0 l
o
2.13 setlinewidth
[] 0 setdash
np
299.96 80.25 m
16.44 1.91 l
16.44 -2.81 l
16.44 -0.80 l
16.44 1.16 l
o
1.06 setlinewidth
[] 0 setdash
10.00 setmiterlimit
np
290.10 80.25 m
85.49 0 l
o
/bg { 0 0 0 srgb } def
299.96 80.25 2.13 c p2
316.40 82.16 2.13 c p2
332.84 79.35 2.13 c p2
349.28 78.55 2.13 c p2
365.72 79.71 2.13 c p2
0.00 0.00 470.25 385.50 cl
0.00 0.00 470.25 385.50 cl
0 0 0 srgb
1.06 setlinewidth
[] 0 setdash
0 setlinecap
1 setlinejoin
10.00 setmiterlimit
np
290.10 53.10 m
0 54.29 l
o
0.00 0.00 470.25 385.50 cl
/Font1 findfont 10 s
0 0 0 srgb
283.01 51.98 (-40) 1 0 t
283.01 64.32 (-20) 1 0 t
283.01 76.66 (0) 1 0 t
283.01 88.99 (20) 1 0 t
283.01 101.33 (40) 1 0 t
0.00 0.00 470.25 385.50 cl
0.00 0.00 470.25 385.50 cl
0 0 0 srgb
1.06 setlinewidth
[] 0 setdash
0 setlinecap
1 setlinejoin
10.00 setmiterlimit
np
285.84 55.57 m
4.26 0 l
o
np
285.84 67.91 m
4.26 0 l
o
np
285.84 80.25 m
4.26 0 l
o
np
285.84 92.58 m
4.26 0 l
o
np
285.84 104.92 m
4.26 0 l
o
0.00 0.00 470.25 385.50 cl
0.00 0.00 470.25 385.50 cl
0.00 0.00 470.25 385.50 cl
0.00 0.00 470.25 385.50 cl
0.00 0.00 470.25 385.50 cl
0 0 0 srgb
1.06 setlinewidth
[] 0 setdash
0 setlinecap
1 setlinejoin
10.00 setmiterlimit
np
290.10 53.10 m
85.49 0 l
o
0.00 0.00 470.25 385.50 cl
0 0 0 srgb
1.06 setlinewidth
[] 0 setdash
0 setlinecap
1 setlinejoin
10.00 setmiterlimit
np
299.96 48.85 m
0 4.25 l
o
np
316.40 48.85 m
0 4.25 l
o
np
332.84 48.85 m
0 4.25 l
o
np
349.28 48.85 m
0 4.25 l
o
np
365.72 48.85 m
0 4.25 l
o
0.00 0.00 470.25 385.50 cl
0.00 0.00 470.25 385.50 cl
/Font1 findfont 10 s
0 0 0 srgb
299.96 38.83 (0) .5 0 t
316.40 38.83 (25) .5 0 t
332.84 38.83 (50) .5 0 t
349.28 38.83 (75) .5 0 t
365.72 38.83 (100) .5 0 t
0.00 0.00 470.25 385.50 cl
0.00 0.00 470.25 385.50 cl
0.00 0.00 470.25 385.50 cl
0.00 0.00 470.25 385.50 cl
0.00 0.00 470.25 385.50 cl
/Font1 findfont 12 s
0 0 0 srgb
332.84 26.62 (CT) .5 0 t
0.00 0.00 470.25 385.50 cl
0.00 0.00 470.25 385.50 cl
/Font1 findfont 12 s
0 0 0 srgb
262.45 80.25 (Non-injured) .5 90 t
0.00 0.00 470.25 385.50 cl
0.00 0.00 470.25 385.50 cl
0.00 0.00 470.25 385.50 cl
0.00 0.00 470.25 385.50 cl
0.00 0.00 470.25 385.50 cl
0.00 0.00 470.25 385.50 cl
/bg { 1 1 1 srgb } def
385.62 61.82 60.19 36.85 r p2
0.00 0.00 470.25 385.50 cl
0.00 0.00 470.25 385.50 cl
/Font2 findfont 10 s
0 0 0 srgb
389.87 87.46 (Time) 0 0 t
0.00 0.00 470.25 385.50 cl
0.00 0.00 470.25 385.50 cl
0.00 0.00 470.25 385.50 cl
0.00 0.00 470.25 385.50 cl
0 0 0 srgb
2.13 setlinewidth
[] 0 setdash
0 setlinecap
1 setlinejoin
10.00 setmiterlimit
np
391.60 74.71 m
13.83 0 l
o
0.00 0.00 470.25 385.50 cl
0.00 0.00 470.25 385.50 cl
/Font1 findfont 10 s
0 0 0 srgb
409.31 71.12 (Bef) 0 ta
-0.300 (ore) tb gr
0.00 0.00 470.25 385.50 cl
0.00 0.00 470.25 385.50 cl
0.00 0.00 470.25 385.50 cl
0.00 0.00 470.25 385.50 cl
0.00 0.00 470.25 385.50 cl
0.00 0.00 470.25 385.50 cl
0.00 0.00 470.25 385.50 cl
0.00 0.00 470.25 385.50 cl
0.00 0.00 470.25 385.50 cl
0.00 0.00 470.25 385.50 cl
/Font1 findfont 14 s
0 0 0 srgb
332.84 110.99 (ES Cycling) .5 0 t
0.00 0.00 470.25 385.50 cl
0.00 0.00 470.25 385.50 cl
0.00 0.00 470.25 385.50 cl
0.00 0.00 470.25 385.50 cl
0.00 0.00 470.25 385.50 cl
/Font1 findfont 12 s
0 0 0 srgb
171.35 3.60 (Inter Stim) 0 ta
-0.120 (ulus Inter) tb
0.360 (v) tb
-0.300 (al \(ms\)) tb gr
0.00 0.00 470.25 385.50 cl
0.00 0.00 470.25 385.50 cl
/Font1 findfont 12 s
0 0 0 srgb
12.22 121.39 (Soleus H Refle) 90 ta
-0.360 (x Amplitude) tb gr
0.00 0.00 470.25 385.50 cl
0.00 0.00 470.25 385.50 cl
ep
%%Trailer
%%Pages: 1
%%EOF
