%!PS-Adobe-3.0 EPSF-3.0
%%DocumentNeededResources: font Helvetica
%%+ font Helvetica-Bold
%%+ font Helvetica-Oblique
%%+ font Helvetica-BoldOblique
%%+ font Symbol
%%Title: R Graphics Output
%%Creator: R Software
%%Pages: (atend)
%%BoundingBox: 0 0 519 488
%%EndComments
%%BeginProlog
/bp  { gs sRGB gs } def
% begin .ps.prolog
/gs  { gsave } bind def
/gr  { grestore } bind def
/ep  { showpage gr gr } bind def
/m   { moveto } bind def
/l  { rlineto } bind def
/np  { newpath } bind def
/cp  { closepath } bind def
/f   { fill } bind def
/o   { stroke } bind def
/c   { newpath 0 360 arc } bind def
/r   { 4 2 roll moveto 1 copy 3 -1 roll exch 0 exch rlineto 0 rlineto -1 mul 0 exch rlineto closepath } bind def
/p1  { stroke } bind def
/p2  { gsave bg fill grestore newpath } bind def
/p3  { gsave bg fill grestore stroke } bind def
/p6  { gsave bg eofill grestore newpath } bind def
/p7  { gsave bg eofill grestore stroke } bind def
/t   { 5 -2 roll moveto gsave rotate
       1 index stringwidth pop
       mul neg 0 rmoveto show grestore } bind def
/ta  { 4 -2 roll moveto gsave rotate show } bind def
/tb  { 2 -1 roll 0 rmoveto show } bind def
/cl  { grestore gsave newpath 3 index 3 index moveto 1 index
       4 -1 roll lineto  exch 1 index lineto lineto
       closepath clip newpath } bind def
/rgb { setrgbcolor } bind def
/s   { scalefont setfont } bind def
% end   .ps.prolog
/sRGB { [ /CIEBasedABC
          << /DecodeLMN
               [ { dup 0.03928 le
                        {12.92321 div}
                        {0.055 add 1.055 div 2.4 exp }
                     ifelse
                 } bind dup dup
               ]
             /MatrixLMN [0.412457 0.212673 0.019334
                         0.357576 0.715152 0.119192
                         0.180437 0.072175 0.950301]
             /WhitePoint [0.9505 1.0 1.0890]
           >>
         ] setcolorspace } bind def
/srgb { setcolor } bind def
%%IncludeResource: font Helvetica
/Helvetica findfont
dup length dict begin
  {1 index /FID ne {def} {pop pop} ifelse} forall
  /Encoding ISOLatin1Encoding def
  currentdict
  end
/Font1 exch definefont pop
%%IncludeResource: font Helvetica-Bold
/Helvetica-Bold findfont
dup length dict begin
  {1 index /FID ne {def} {pop pop} ifelse} forall
  /Encoding ISOLatin1Encoding def
  currentdict
  end
/Font2 exch definefont pop
%%IncludeResource: font Helvetica-Oblique
/Helvetica-Oblique findfont
dup length dict begin
  {1 index /FID ne {def} {pop pop} ifelse} forall
  /Encoding ISOLatin1Encoding def
  currentdict
  end
/Font3 exch definefont pop
%%IncludeResource: font Helvetica-BoldOblique
/Helvetica-BoldOblique findfont
dup length dict begin
  {1 index /FID ne {def} {pop pop} ifelse} forall
  /Encoding ISOLatin1Encoding def
  currentdict
  end
/Font4 exch definefont pop
%%IncludeResource: font Symbol
/Symbol findfont
dup length dict begin
  {1 index /FID ne {def} {pop pop} ifelse} forall
  currentdict
  end
/Font5 exch definefont pop
%%EndProlog
%%Page: 1 1
bp
0.00 0.00 519.00 488.25 cl
0.00 0.00 519.00 488.25 cl
0.00 0.00 519.00 488.25 cl
15.82 370.14 267.41 488.25 cl
/bg { 1 1 1 srgb } def
1 1 1 srgb
1.06 setlinewidth
[] 0 setdash
1 setlinecap
1 setlinejoin
10.00 setmiterlimit
15.82 370.14 251.59 118.11 r p3
0.00 0.00 519.00 488.25 cl
0.00 0.00 519.00 488.25 cl
0.00 0.00 519.00 488.25 cl
62.88 407.42 172.74 456.60 cl
/bg { 1 1 1 srgb } def
62.88 407.42 109.87 49.17 r p2
0 0 0 srgb
1.06 setlinewidth
[] 0 setdash
0 setlinecap
1 setlinejoin
1.00 setmiterlimit
np
74.50 422.08 m
2.11 0 l
o
np
75.56 422.08 m
0 0 l
o
np
74.50 422.08 m
2.11 0 l
o
np
95.63 426.44 m
2.11 0 l
o
np
96.68 426.44 m
0 -4.78 l
o
np
95.63 421.66 m
2.11 0 l
o
np
116.76 424.68 m
2.11 0 l
o
np
117.81 424.68 m
0 -2.76 l
o
np
116.76 421.92 m
2.11 0 l
o
np
137.88 424.64 m
2.12 0 l
o
np
138.94 424.64 m
0 -5.44 l
o
np
137.88 419.20 m
2.12 0 l
o
np
159.01 422.90 m
2.11 0 l
o
np
160.07 422.90 m
0 -4.04 l
o
np
159.01 418.86 m
2.11 0 l
o
2.13 setlinewidth
[] 0 setdash
np
75.56 422.08 m
21.12 1.97 l
21.13 -0.75 l
21.13 -1.38 l
21.13 -1.04 l
o
1.06 setlinewidth
[] 0 setdash
10.00 setmiterlimit
np
62.88 422.08 m
109.86 0 l
o
/bg { 0 0 0 srgb } def
75.56 422.08 2.13 c p2
96.68 424.05 2.13 c p2
117.81 423.30 2.13 c p2
138.94 421.92 2.13 c p2
160.07 420.88 2.13 c p2
0.00 0.00 519.00 488.25 cl
0.00 0.00 519.00 488.25 cl
0 0 0 srgb
1.06 setlinewidth
[] 0 setdash
0 setlinecap
1 setlinejoin
10.00 setmiterlimit
np
62.88 407.42 m
0 49.18 l
o
0.00 0.00 519.00 488.25 cl
/Font1 findfont 10 s
0 0 0 srgb
55.79 406.07 (-25) 1 0 t
55.79 418.49 (0) 1 0 t
55.79 430.90 (25) 1 0 t
55.79 443.32 (50) 1 0 t
0.00 0.00 519.00 488.25 cl
0.00 0.00 519.00 488.25 cl
0 0 0 srgb
1.06 setlinewidth
[] 0 setdash
0 setlinecap
1 setlinejoin
10.00 setmiterlimit
np
58.63 409.66 m
4.25 0 l
o
np
58.63 422.08 m
4.25 0 l
o
np
58.63 434.49 m
4.25 0 l
o
np
58.63 446.91 m
4.25 0 l
o
0.00 0.00 519.00 488.25 cl
0.00 0.00 519.00 488.25 cl
0.00 0.00 519.00 488.25 cl
0.00 0.00 519.00 488.25 cl
0.00 0.00 519.00 488.25 cl
0 0 0 srgb
1.06 setlinewidth
[] 0 setdash
0 setlinecap
1 setlinejoin
10.00 setmiterlimit
np
62.88 407.42 m
109.86 0 l
o
0.00 0.00 519.00 488.25 cl
0 0 0 srgb
1.06 setlinewidth
[] 0 setdash
0 setlinecap
1 setlinejoin
10.00 setmiterlimit
np
75.56 403.17 m
0 4.25 l
o
np
96.68 403.17 m
0 4.25 l
o
np
117.81 403.17 m
0 4.25 l
o
np
138.94 403.17 m
0 4.25 l
o
np
160.07 403.17 m
0 4.25 l
o
0.00 0.00 519.00 488.25 cl
0.00 0.00 519.00 488.25 cl
/Font1 findfont 10 s
0 0 0 srgb
75.56 393.16 (0) .5 0 t
96.68 393.16 (25) .5 0 t
117.81 393.16 (50) .5 0 t
138.94 393.16 (75) .5 0 t
160.07 393.16 (100) .5 0 t
0.00 0.00 519.00 488.25 cl
0.00 0.00 519.00 488.25 cl
0.00 0.00 519.00 488.25 cl
0.00 0.00 519.00 488.25 cl
0.00 0.00 519.00 488.25 cl
/Font1 findfont 12 s
0 0 0 srgb
117.81 380.94 (CT) .5 0 t
0.00 0.00 519.00 488.25 cl
0.00 0.00 519.00 488.25 cl
/Font1 findfont 12 s
0 0 0 srgb
35.23 432.01 (Non-injured) .5 90 t
0.00 0.00 519.00 488.25 cl
0.00 0.00 519.00 488.25 cl
0.00 0.00 519.00 488.25 cl
0.00 0.00 519.00 488.25 cl
0.00 0.00 519.00 488.25 cl
0.00 0.00 519.00 488.25 cl
/bg { 1 1 1 srgb } def
182.78 413.58 60.19 36.85 r p2
0.00 0.00 519.00 488.25 cl
0.00 0.00 519.00 488.25 cl
/Font2 findfont 10 s
0 0 0 srgb
187.03 439.22 (Time) 0 0 t
0.00 0.00 519.00 488.25 cl
0.00 0.00 519.00 488.25 cl
0.00 0.00 519.00 488.25 cl
0.00 0.00 519.00 488.25 cl
0 0 0 srgb
2.13 setlinewidth
[] 0 setdash
0 setlinecap
1 setlinejoin
10.00 setmiterlimit
np
188.76 426.48 m
13.82 0 l
o
0.00 0.00 519.00 488.25 cl
0.00 0.00 519.00 488.25 cl
/Font1 findfont 10 s
0 0 0 srgb
206.47 422.89 (Bef) 0 ta
-0.300 (ore) tb gr
0.00 0.00 519.00 488.25 cl
0.00 0.00 519.00 488.25 cl
0.00 0.00 519.00 488.25 cl
0.00 0.00 519.00 488.25 cl
0.00 0.00 519.00 488.25 cl
0.00 0.00 519.00 488.25 cl
0.00 0.00 519.00 488.25 cl
0.00 0.00 519.00 488.25 cl
0.00 0.00 519.00 488.25 cl
0.00 0.00 519.00 488.25 cl
/Font1 findfont 14 s
0 0 0 srgb
117.81 460.20 (Cycling) .5 0 t
0.00 0.00 519.00 488.25 cl
0.00 0.00 519.00 488.25 cl
0.00 0.00 519.00 488.25 cl
0.00 0.00 519.00 488.25 cl
0.00 0.00 519.00 488.25 cl
0.00 0.00 519.00 488.25 cl
267.41 370.14 519.00 488.25 cl
/bg { 1 1 1 srgb } def
1 1 1 srgb
1.06 setlinewidth
[] 0 setdash
1 setlinecap
1 setlinejoin
10.00 setmiterlimit
267.41 370.14 251.59 118.11 r p3
0.00 0.00 519.00 488.25 cl
0.00 0.00 519.00 488.25 cl
0.00 0.00 519.00 488.25 cl
314.47 407.42 424.34 456.60 cl
/bg { 1 1 1 srgb } def
314.47 407.42 109.87 49.17 r p2
0 0 0 srgb
1.06 setlinewidth
[] 0 setdash
0 setlinecap
1 setlinejoin
1.00 setmiterlimit
np
326.09 422.08 m
2.11 0 l
o
np
327.15 422.08 m
0 0 l
o
np
326.09 422.08 m
2.11 0 l
o
np
347.22 424.77 m
2.11 0 l
o
np
348.28 424.77 m
0 -4.09 l
o
np
347.22 420.68 m
2.11 0 l
o
np
368.35 426.64 m
2.11 0 l
o
np
369.40 426.64 m
0 -4.15 l
o
np
368.35 422.49 m
2.11 0 l
o
np
389.48 426.71 m
2.11 0 l
o
np
390.53 426.71 m
0 -3.20 l
o
np
389.48 423.51 m
2.11 0 l
o
np
410.60 428.80 m
2.12 0 l
o
np
411.66 428.80 m
0 -3.68 l
o
np
410.60 425.12 m
2.12 0 l
o
2.13 setlinewidth
[] 0 setdash
np
327.15 422.08 m
21.13 0.64 l
21.12 1.85 l
21.13 0.54 l
21.13 1.85 l
o
1.06 setlinewidth
[] 0 setdash
10.00 setmiterlimit
np
314.47 422.08 m
109.87 0 l
o
/bg { 0 0 0 srgb } def
327.15 422.08 2.13 c p2
348.28 422.72 2.13 c p2
369.40 424.57 2.13 c p2
390.53 425.11 2.13 c p2
411.66 426.96 2.13 c p2
0.00 0.00 519.00 488.25 cl
0.00 0.00 519.00 488.25 cl
0 0 0 srgb
1.06 setlinewidth
[] 0 setdash
0 setlinecap
1 setlinejoin
10.00 setmiterlimit
np
314.47 407.42 m
0 49.18 l
o
0.00 0.00 519.00 488.25 cl
/Font1 findfont 10 s
0 0 0 srgb
307.38 406.07 (-25) 1 0 t
307.38 418.49 (0) 1 0 t
307.38 430.90 (25) 1 0 t
307.38 443.32 (50) 1 0 t
0.00 0.00 519.00 488.25 cl
0.00 0.00 519.00 488.25 cl
0 0 0 srgb
1.06 setlinewidth
[] 0 setdash
0 setlinecap
1 setlinejoin
10.00 setmiterlimit
np
310.22 409.66 m
4.25 0 l
o
np
310.22 422.08 m
4.25 0 l
o
np
310.22 434.49 m
4.25 0 l
o
np
310.22 446.91 m
4.25 0 l
o
0.00 0.00 519.00 488.25 cl
0.00 0.00 519.00 488.25 cl
0.00 0.00 519.00 488.25 cl
0.00 0.00 519.00 488.25 cl
0.00 0.00 519.00 488.25 cl
0 0 0 srgb
1.06 setlinewidth
[] 0 setdash
0 setlinecap
1 setlinejoin
10.00 setmiterlimit
np
314.47 407.42 m
109.87 0 l
o
0.00 0.00 519.00 488.25 cl
0 0 0 srgb
1.06 setlinewidth
[] 0 setdash
0 setlinecap
1 setlinejoin
10.00 setmiterlimit
np
327.15 403.17 m
0 4.25 l
o
np
348.28 403.17 m
0 4.25 l
o
np
369.40 403.17 m
0 4.25 l
o
np
390.53 403.17 m
0 4.25 l
o
np
411.66 403.17 m
0 4.25 l
o
0.00 0.00 519.00 488.25 cl
0.00 0.00 519.00 488.25 cl
/Font1 findfont 10 s
0 0 0 srgb
327.15 393.16 (0) .5 0 t
348.28 393.16 (25) .5 0 t
369.40 393.16 (50) .5 0 t
390.53 393.16 (75) .5 0 t
411.66 393.16 (100) .5 0 t
0.00 0.00 519.00 488.25 cl
0.00 0.00 519.00 488.25 cl
0.00 0.00 519.00 488.25 cl
0.00 0.00 519.00 488.25 cl
0.00 0.00 519.00 488.25 cl
/Font1 findfont 12 s
0 0 0 srgb
369.40 380.94 (CT) .5 0 t
0.00 0.00 519.00 488.25 cl
0.00 0.00 519.00 488.25 cl
/Font1 findfont 12 s
0 0 0 srgb
286.82 432.01 (Non-injured) .5 90 t
0.00 0.00 519.00 488.25 cl
0.00 0.00 519.00 488.25 cl
0.00 0.00 519.00 488.25 cl
0.00 0.00 519.00 488.25 cl
0.00 0.00 519.00 488.25 cl
0.00 0.00 519.00 488.25 cl
/bg { 1 1 1 srgb } def
434.37 413.58 60.19 36.85 r p2
0.00 0.00 519.00 488.25 cl
0.00 0.00 519.00 488.25 cl
/Font2 findfont 10 s
0 0 0 srgb
438.62 439.22 (Time) 0 0 t
0.00 0.00 519.00 488.25 cl
0.00 0.00 519.00 488.25 cl
0.00 0.00 519.00 488.25 cl
0.00 0.00 519.00 488.25 cl
0 0 0 srgb
2.13 setlinewidth
[] 0 setdash
0 setlinecap
1 setlinejoin
10.00 setmiterlimit
np
440.35 426.48 m
13.83 0 l
o
0.00 0.00 519.00 488.25 cl
0.00 0.00 519.00 488.25 cl
/Font1 findfont 10 s
0 0 0 srgb
458.06 422.89 (Bef) 0 ta
-0.300 (ore) tb gr
0.00 0.00 519.00 488.25 cl
0.00 0.00 519.00 488.25 cl
0.00 0.00 519.00 488.25 cl
0.00 0.00 519.00 488.25 cl
0.00 0.00 519.00 488.25 cl
0.00 0.00 519.00 488.25 cl
0.00 0.00 519.00 488.25 cl
0.00 0.00 519.00 488.25 cl
0.00 0.00 519.00 488.25 cl
0.00 0.00 519.00 488.25 cl
/Font1 findfont 14 s
0 0 0 srgb
369.40 460.20 (ES Cycling) .5 0 t
0.00 0.00 519.00 488.25 cl
0.00 0.00 519.00 488.25 cl
0.00 0.00 519.00 488.25 cl
0.00 0.00 519.00 488.25 cl
0.00 0.00 519.00 488.25 cl
0.00 0.00 519.00 488.25 cl
15.82 252.03 267.41 370.14 cl
/bg { 1 1 1 srgb } def
1 1 1 srgb
1.06 setlinewidth
[] 0 setdash
1 setlinecap
1 setlinejoin
10.00 setmiterlimit
15.82 252.03 251.59 118.11 r p3
0.00 0.00 519.00 488.25 cl
0.00 0.00 519.00 488.25 cl
0.00 0.00 519.00 488.25 cl
62.88 289.32 172.74 338.49 cl
/bg { 1 1 1 srgb } def
62.88 289.32 109.87 49.17 r p2
0 0 0 srgb
1.06 setlinewidth
[] 0 setdash
0 setlinecap
1 setlinejoin
1.00 setmiterlimit
np
74.50 303.97 m
2.11 0 l
o
np
75.56 303.97 m
0 0 l
o
np
74.50 303.97 m
2.11 0 l
o
np
95.63 309.69 m
2.11 0 l
o
np
96.68 309.69 m
0 -7.42 l
o
np
95.63 302.27 m
2.11 0 l
o
np
116.76 308.12 m
2.11 0 l
o
np
117.81 308.12 m
0 -6.32 l
o
np
116.76 301.80 m
2.11 0 l
o
np
137.88 309.44 m
2.12 0 l
o
np
138.94 309.44 m
0 -9.62 l
o
np
137.88 299.82 m
2.12 0 l
o
np
159.01 307.06 m
2.11 0 l
o
np
160.07 307.06 m
0 -7.69 l
o
np
159.01 299.37 m
2.11 0 l
o
2.13 setlinewidth
[] 0 setdash
np
75.56 303.97 m
21.12 2.01 l
21.13 -1.02 l
21.13 -0.33 l
21.13 -1.41 l
o
1.06 setlinewidth
[] 0 setdash
10.00 setmiterlimit
np
62.88 303.97 m
109.86 0 l
o
/bg { 0 0 0 srgb } def
75.56 303.97 2.13 c p2
96.68 305.98 2.13 c p2
117.81 304.96 2.13 c p2
138.94 304.63 2.13 c p2
160.07 303.22 2.13 c p2
0.00 0.00 519.00 488.25 cl
0.00 0.00 519.00 488.25 cl
0 0 0 srgb
1.06 setlinewidth
[] 0 setdash
0 setlinecap
1 setlinejoin
10.00 setmiterlimit
np
62.88 289.32 m
0 49.17 l
o
0.00 0.00 519.00 488.25 cl
/Font1 findfont 10 s
0 0 0 srgb
55.79 287.96 (-25) 1 0 t
55.79 300.38 (0) 1 0 t
55.79 312.80 (25) 1 0 t
55.79 325.21 (50) 1 0 t
0.00 0.00 519.00 488.25 cl
0.00 0.00 519.00 488.25 cl
0 0 0 srgb
1.06 setlinewidth
[] 0 setdash
0 setlinecap
1 setlinejoin
10.00 setmiterlimit
np
58.63 291.55 m
4.25 0 l
o
np
58.63 303.97 m
4.25 0 l
o
np
58.63 316.39 m
4.25 0 l
o
np
58.63 328.80 m
4.25 0 l
o
0.00 0.00 519.00 488.25 cl
0.00 0.00 519.00 488.25 cl
0.00 0.00 519.00 488.25 cl
0.00 0.00 519.00 488.25 cl
0.00 0.00 519.00 488.25 cl
0 0 0 srgb
1.06 setlinewidth
[] 0 setdash
0 setlinecap
1 setlinejoin
10.00 setmiterlimit
np
62.88 289.32 m
109.86 0 l
o
0.00 0.00 519.00 488.25 cl
0 0 0 srgb
1.06 setlinewidth
[] 0 setdash
0 setlinecap
1 setlinejoin
10.00 setmiterlimit
np
75.56 285.06 m
0 4.26 l
o
np
96.68 285.06 m
0 4.26 l
o
np
117.81 285.06 m
0 4.26 l
o
np
138.94 285.06 m
0 4.26 l
o
np
160.07 285.06 m
0 4.26 l
o
0.00 0.00 519.00 488.25 cl
0.00 0.00 519.00 488.25 cl
/Font1 findfont 10 s
0 0 0 srgb
75.56 275.05 (0) .5 0 t
96.68 275.05 (25) .5 0 t
117.81 275.05 (50) .5 0 t
138.94 275.05 (75) .5 0 t
160.07 275.05 (100) .5 0 t
0.00 0.00 519.00 488.25 cl
0.00 0.00 519.00 488.25 cl
0.00 0.00 519.00 488.25 cl
0.00 0.00 519.00 488.25 cl
0.00 0.00 519.00 488.25 cl
/Font1 findfont 12 s
0 0 0 srgb
117.81 262.83 (CT) .5 0 t
0.00 0.00 519.00 488.25 cl
0.00 0.00 519.00 488.25 cl
/Font1 findfont 12 s
0 0 0 srgb
35.23 313.90 (Non-injured) .5 90 t
0.00 0.00 519.00 488.25 cl
0.00 0.00 519.00 488.25 cl
0.00 0.00 519.00 488.25 cl
0.00 0.00 519.00 488.25 cl
0.00 0.00 519.00 488.25 cl
0.00 0.00 519.00 488.25 cl
/bg { 1 1 1 srgb } def
182.78 295.48 60.19 36.85 r p2
0.00 0.00 519.00 488.25 cl
0.00 0.00 519.00 488.25 cl
/Font2 findfont 10 s
0 0 0 srgb
187.03 321.11 (Time) 0 0 t
0.00 0.00 519.00 488.25 cl
0.00 0.00 519.00 488.25 cl
0.00 0.00 519.00 488.25 cl
0.00 0.00 519.00 488.25 cl
0 0 0 srgb
2.13 setlinewidth
[] 0 setdash
0 setlinecap
1 setlinejoin
10.00 setmiterlimit
np
188.76 308.37 m
13.82 0 l
o
0.00 0.00 519.00 488.25 cl
0.00 0.00 519.00 488.25 cl
/Font1 findfont 10 s
0 0 0 srgb
206.47 304.78 (Bef) 0 ta
-0.300 (ore) tb gr
0.00 0.00 519.00 488.25 cl
0.00 0.00 519.00 488.25 cl
0.00 0.00 519.00 488.25 cl
0.00 0.00 519.00 488.25 cl
0.00 0.00 519.00 488.25 cl
0.00 0.00 519.00 488.25 cl
0.00 0.00 519.00 488.25 cl
0.00 0.00 519.00 488.25 cl
0.00 0.00 519.00 488.25 cl
0.00 0.00 519.00 488.25 cl
/Font1 findfont 14 s
0 0 0 srgb
117.81 342.09 (Cycling) .5 0 t
0.00 0.00 519.00 488.25 cl
0.00 0.00 519.00 488.25 cl
0.00 0.00 519.00 488.25 cl
0.00 0.00 519.00 488.25 cl
0.00 0.00 519.00 488.25 cl
0.00 0.00 519.00 488.25 cl
267.41 252.03 519.00 370.14 cl
/bg { 1 1 1 srgb } def
1 1 1 srgb
1.06 setlinewidth
[] 0 setdash
1 setlinecap
1 setlinejoin
10.00 setmiterlimit
267.41 252.03 251.59 118.11 r p3
0.00 0.00 519.00 488.25 cl
0.00 0.00 519.00 488.25 cl
0.00 0.00 519.00 488.25 cl
314.47 289.32 424.34 338.49 cl
/bg { 1 1 1 srgb } def
314.47 289.32 109.87 49.17 r p2
0 0 0 srgb
1.06 setlinewidth
[] 0 setdash
0 setlinecap
1 setlinejoin
1.00 setmiterlimit
np
326.09 303.97 m
2.11 0 l
o
np
327.15 303.97 m
0 0 l
o
np
326.09 303.97 m
2.11 0 l
o
np
347.22 316.57 m
2.11 0 l
o
np
348.28 316.57 m
0 -14.11 l
o
np
347.22 302.46 m
2.11 0 l
o
np
368.35 327.54 m
2.11 0 l
o
np
369.40 327.54 m
0 -22.02 l
o
np
368.35 305.52 m
2.11 0 l
o
np
389.48 335.29 m
2.11 0 l
o
np
390.53 335.29 m
0 -26.42 l
o
np
389.48 308.87 m
2.11 0 l
o
np
410.60 310.33 m
2.12 0 l
o
np
411.66 310.33 m
0 -6.73 l
o
np
410.60 303.60 m
2.12 0 l
o
2.13 setlinewidth
[] 0 setdash
np
327.15 303.97 m
21.13 5.54 l
21.12 7.02 l
21.13 5.55 l
21.13 -15.11 l
o
1.06 setlinewidth
[] 0 setdash
10.00 setmiterlimit
np
314.47 303.97 m
109.87 0 l
o
/bg { 0 0 0 srgb } def
327.15 303.97 2.13 c p2
348.28 309.51 2.13 c p2
369.40 316.53 2.13 c p2
390.53 322.08 2.13 c p2
411.66 306.97 2.13 c p2
0.00 0.00 519.00 488.25 cl
0.00 0.00 519.00 488.25 cl
0 0 0 srgb
1.06 setlinewidth
[] 0 setdash
0 setlinecap
1 setlinejoin
10.00 setmiterlimit
np
314.47 289.32 m
0 49.17 l
o
0.00 0.00 519.00 488.25 cl
/Font1 findfont 10 s
0 0 0 srgb
307.38 287.96 (-25) 1 0 t
307.38 300.38 (0) 1 0 t
307.38 312.80 (25) 1 0 t
307.38 325.21 (50) 1 0 t
0.00 0.00 519.00 488.25 cl
0.00 0.00 519.00 488.25 cl
0 0 0 srgb
1.06 setlinewidth
[] 0 setdash
0 setlinecap
1 setlinejoin
10.00 setmiterlimit
np
310.22 291.55 m
4.25 0 l
o
np
310.22 303.97 m
4.25 0 l
o
np
310.22 316.39 m
4.25 0 l
o
np
310.22 328.80 m
4.25 0 l
o
0.00 0.00 519.00 488.25 cl
0.00 0.00 519.00 488.25 cl
0.00 0.00 519.00 488.25 cl
0.00 0.00 519.00 488.25 cl
0.00 0.00 519.00 488.25 cl
0 0 0 srgb
1.06 setlinewidth
[] 0 setdash
0 setlinecap
1 setlinejoin
10.00 setmiterlimit
np
314.47 289.32 m
109.87 0 l
o
0.00 0.00 519.00 488.25 cl
0 0 0 srgb
1.06 setlinewidth
[] 0 setdash
0 setlinecap
1 setlinejoin
10.00 setmiterlimit
np
327.15 285.06 m
0 4.26 l
o
np
348.28 285.06 m
0 4.26 l
o
np
369.40 285.06 m
0 4.26 l
o
np
390.53 285.06 m
0 4.26 l
o
np
411.66 285.06 m
0 4.26 l
o
0.00 0.00 519.00 488.25 cl
0.00 0.00 519.00 488.25 cl
/Font1 findfont 10 s
0 0 0 srgb
327.15 275.05 (0) .5 0 t
348.28 275.05 (25) .5 0 t
369.40 275.05 (50) .5 0 t
390.53 275.05 (75) .5 0 t
411.66 275.05 (100) .5 0 t
0.00 0.00 519.00 488.25 cl
0.00 0.00 519.00 488.25 cl
0.00 0.00 519.00 488.25 cl
0.00 0.00 519.00 488.25 cl
0.00 0.00 519.00 488.25 cl
/Font1 findfont 12 s
0 0 0 srgb
369.40 262.83 (CT) .5 0 t
0.00 0.00 519.00 488.25 cl
0.00 0.00 519.00 488.25 cl
/Font1 findfont 12 s
0 0 0 srgb
286.82 313.90 (Non-injured) .5 90 t
0.00 0.00 519.00 488.25 cl
0.00 0.00 519.00 488.25 cl
0.00 0.00 519.00 488.25 cl
0.00 0.00 519.00 488.25 cl
0.00 0.00 519.00 488.25 cl
0.00 0.00 519.00 488.25 cl
/bg { 1 1 1 srgb } def
434.37 295.48 60.19 36.85 r p2
0.00 0.00 519.00 488.25 cl
0.00 0.00 519.00 488.25 cl
/Font2 findfont 10 s
0 0 0 srgb
438.62 321.11 (Time) 0 0 t
0.00 0.00 519.00 488.25 cl
0.00 0.00 519.00 488.25 cl
0.00 0.00 519.00 488.25 cl
0.00 0.00 519.00 488.25 cl
0 0 0 srgb
2.13 setlinewidth
[] 0 setdash
0 setlinecap
1 setlinejoin
10.00 setmiterlimit
np
440.35 308.37 m
13.83 0 l
o
0.00 0.00 519.00 488.25 cl
0.00 0.00 519.00 488.25 cl
/Font1 findfont 10 s
0 0 0 srgb
458.06 304.78 (Bef) 0 ta
-0.300 (ore) tb gr
0.00 0.00 519.00 488.25 cl
0.00 0.00 519.00 488.25 cl
0.00 0.00 519.00 488.25 cl
0.00 0.00 519.00 488.25 cl
0.00 0.00 519.00 488.25 cl
0.00 0.00 519.00 488.25 cl
0.00 0.00 519.00 488.25 cl
0.00 0.00 519.00 488.25 cl
0.00 0.00 519.00 488.25 cl
0.00 0.00 519.00 488.25 cl
/Font1 findfont 14 s
0 0 0 srgb
369.40 342.09 (ES Cycling) .5 0 t
0.00 0.00 519.00 488.25 cl
0.00 0.00 519.00 488.25 cl
0.00 0.00 519.00 488.25 cl
0.00 0.00 519.00 488.25 cl
0.00 0.00 519.00 488.25 cl
0.00 0.00 519.00 488.25 cl
15.82 133.92 267.41 252.03 cl
/bg { 1 1 1 srgb } def
1 1 1 srgb
1.06 setlinewidth
[] 0 setdash
1 setlinecap
1 setlinejoin
10.00 setmiterlimit
15.82 133.92 251.59 118.11 r p3
0.00 0.00 519.00 488.25 cl
0.00 0.00 519.00 488.25 cl
0.00 0.00 519.00 488.25 cl
62.88 171.21 172.74 220.38 cl
/bg { 1 1 1 srgb } def
62.88 171.21 109.87 49.17 r p2
0 0 0 srgb
1.06 setlinewidth
[] 0 setdash
0 setlinecap
1 setlinejoin
1.00 setmiterlimit
np
74.50 185.86 m
2.11 0 l
o
np
75.56 185.86 m
0 0 l
o
np
74.50 185.86 m
2.11 0 l
o
np
95.63 189.34 m
2.11 0 l
o
np
96.68 189.34 m
0 -11.01 l
o
np
95.63 178.33 m
2.11 0 l
o
np
116.76 187.30 m
2.11 0 l
o
np
117.81 187.30 m
0 -7.42 l
o
np
116.76 179.88 m
2.11 0 l
o
np
137.88 188.58 m
2.12 0 l
o
np
138.94 188.58 m
0 -3.09 l
o
np
137.88 185.49 m
2.12 0 l
o
np
159.01 193.15 m
2.11 0 l
o
np
160.07 193.15 m
0 -5.58 l
o
np
159.01 187.57 m
2.11 0 l
o
2.13 setlinewidth
[] 0 setdash
np
75.56 185.86 m
21.12 -2.02 l
21.13 -0.25 l
21.13 3.44 l
21.13 3.33 l
o
1.06 setlinewidth
[] 0 setdash
10.00 setmiterlimit
np
62.88 185.86 m
109.86 0 l
o
/bg { 0 0 0 srgb } def
75.56 185.86 2.13 c p2
96.68 183.84 2.13 c p2
117.81 183.59 2.13 c p2
138.94 187.03 2.13 c p2
160.07 190.36 2.13 c p2
0.00 0.00 519.00 488.25 cl
0.00 0.00 519.00 488.25 cl
0 0 0 srgb
1.06 setlinewidth
[] 0 setdash
0 setlinecap
1 setlinejoin
10.00 setmiterlimit
np
62.88 171.21 m
0 49.17 l
o
0.00 0.00 519.00 488.25 cl
/Font1 findfont 10 s
0 0 0 srgb
55.79 169.85 (-25) 1 0 t
55.79 182.27 (0) 1 0 t
55.79 194.69 (25) 1 0 t
55.79 207.11 (50) 1 0 t
0.00 0.00 519.00 488.25 cl
0.00 0.00 519.00 488.25 cl
0 0 0 srgb
1.06 setlinewidth
[] 0 setdash
0 setlinecap
1 setlinejoin
10.00 setmiterlimit
np
58.63 173.44 m
4.25 0 l
o
np
58.63 185.86 m
4.25 0 l
o
np
58.63 198.28 m
4.25 0 l
o
np
58.63 210.70 m
4.25 0 l
o
0.00 0.00 519.00 488.25 cl
0.00 0.00 519.00 488.25 cl
0.00 0.00 519.00 488.25 cl
0.00 0.00 519.00 488.25 cl
0.00 0.00 519.00 488.25 cl
0 0 0 srgb
1.06 setlinewidth
[] 0 setdash
0 setlinecap
1 setlinejoin
10.00 setmiterlimit
np
62.88 171.21 m
109.86 0 l
o
0.00 0.00 519.00 488.25 cl
0 0 0 srgb
1.06 setlinewidth
[] 0 setdash
0 setlinecap
1 setlinejoin
10.00 setmiterlimit
np
75.56 166.96 m
0 4.25 l
o
np
96.68 166.96 m
0 4.25 l
o
np
117.81 166.96 m
0 4.25 l
o
np
138.94 166.96 m
0 4.25 l
o
np
160.07 166.96 m
0 4.25 l
o
0.00 0.00 519.00 488.25 cl
0.00 0.00 519.00 488.25 cl
/Font1 findfont 10 s
0 0 0 srgb
75.56 156.94 (0) .5 0 t
96.68 156.94 (25) .5 0 t
117.81 156.94 (50) .5 0 t
138.94 156.94 (75) .5 0 t
160.07 156.94 (100) .5 0 t
0.00 0.00 519.00 488.25 cl
0.00 0.00 519.00 488.25 cl
0.00 0.00 519.00 488.25 cl
0.00 0.00 519.00 488.25 cl
0.00 0.00 519.00 488.25 cl
/Font1 findfont 12 s
0 0 0 srgb
117.81 144.72 (CT) .5 0 t
0.00 0.00 519.00 488.25 cl
0.00 0.00 519.00 488.25 cl
/Font1 findfont 12 s
0 0 0 srgb
35.23 195.79 (Non-injured) .5 90 t
0.00 0.00 519.00 488.25 cl
0.00 0.00 519.00 488.25 cl
0.00 0.00 519.00 488.25 cl
0.00 0.00 519.00 488.25 cl
0.00 0.00 519.00 488.25 cl
0.00 0.00 519.00 488.25 cl
/bg { 1 1 1 srgb } def
182.78 177.37 60.19 36.85 r p2
0.00 0.00 519.00 488.25 cl
0.00 0.00 519.00 488.25 cl
/Font2 findfont 10 s
0 0 0 srgb
187.03 203.00 (Time) 0 0 t
0.00 0.00 519.00 488.25 cl
0.00 0.00 519.00 488.25 cl
0.00 0.00 519.00 488.25 cl
0.00 0.00 519.00 488.25 cl
0 0 0 srgb
2.13 setlinewidth
[] 0 setdash
0 setlinecap
1 setlinejoin
10.00 setmiterlimit
np
188.76 190.26 m
13.82 0 l
o
0.00 0.00 519.00 488.25 cl
0.00 0.00 519.00 488.25 cl
/Font1 findfont 10 s
0 0 0 srgb
206.47 186.67 (Bef) 0 ta
-0.300 (ore) tb gr
0.00 0.00 519.00 488.25 cl
0.00 0.00 519.00 488.25 cl
0.00 0.00 519.00 488.25 cl
0.00 0.00 519.00 488.25 cl
0.00 0.00 519.00 488.25 cl
0.00 0.00 519.00 488.25 cl
0.00 0.00 519.00 488.25 cl
0.00 0.00 519.00 488.25 cl
0.00 0.00 519.00 488.25 cl
0.00 0.00 519.00 488.25 cl
/Font1 findfont 14 s
0 0 0 srgb
117.81 223.98 (Cycling) .5 0 t
0.00 0.00 519.00 488.25 cl
0.00 0.00 519.00 488.25 cl
0.00 0.00 519.00 488.25 cl
0.00 0.00 519.00 488.25 cl
0.00 0.00 519.00 488.25 cl
0.00 0.00 519.00 488.25 cl
267.41 133.92 519.00 252.03 cl
/bg { 1 1 1 srgb } def
1 1 1 srgb
1.06 setlinewidth
[] 0 setdash
1 setlinecap
1 setlinejoin
10.00 setmiterlimit
267.41 133.92 251.59 118.11 r p3
0.00 0.00 519.00 488.25 cl
0.00 0.00 519.00 488.25 cl
0.00 0.00 519.00 488.25 cl
314.47 171.21 424.34 220.38 cl
/bg { 1 1 1 srgb } def
314.47 171.21 109.87 49.17 r p2
0 0 0 srgb
1.06 setlinewidth
[] 0 setdash
0 setlinecap
1 setlinejoin
1.00 setmiterlimit
np
326.09 185.86 m
2.11 0 l
o
np
327.15 185.86 m
0 0 l
o
np
326.09 185.86 m
2.11 0 l
o
np
347.22 190.33 m
2.11 0 l
o
np
348.28 190.33 m
0 -10.54 l
o
np
347.22 179.79 m
2.11 0 l
o
np
368.35 194.36 m
2.11 0 l
o
np
369.40 194.36 m
0 -10.09 l
o
np
368.35 184.27 m
2.11 0 l
o
np
389.48 203.81 m
2.11 0 l
o
np
390.53 203.81 m
0 -26.84 l
o
np
389.48 176.97 m
2.11 0 l
o
np
410.60 191.26 m
2.12 0 l
o
np
411.66 191.26 m
0 -17.43 l
o
np
410.60 173.83 m
2.12 0 l
o
2.13 setlinewidth
[] 0 setdash
np
327.15 185.86 m
21.13 -0.80 l
21.12 4.25 l
21.13 1.08 l
21.13 -7.84 l
o
1.06 setlinewidth
[] 0 setdash
10.00 setmiterlimit
np
314.47 185.86 m
109.87 0 l
o
/bg { 0 0 0 srgb } def
327.15 185.86 2.13 c p2
348.28 185.06 2.13 c p2
369.40 189.31 2.13 c p2
390.53 190.39 2.13 c p2
411.66 182.55 2.13 c p2
0.00 0.00 519.00 488.25 cl
0.00 0.00 519.00 488.25 cl
0 0 0 srgb
1.06 setlinewidth
[] 0 setdash
0 setlinecap
1 setlinejoin
10.00 setmiterlimit
np
314.47 171.21 m
0 49.17 l
o
0.00 0.00 519.00 488.25 cl
/Font1 findfont 10 s
0 0 0 srgb
307.38 169.85 (-25) 1 0 t
307.38 182.27 (0) 1 0 t
307.38 194.69 (25) 1 0 t
307.38 207.11 (50) 1 0 t
0.00 0.00 519.00 488.25 cl
0.00 0.00 519.00 488.25 cl
0 0 0 srgb
1.06 setlinewidth
[] 0 setdash
0 setlinecap
1 setlinejoin
10.00 setmiterlimit
np
310.22 173.44 m
4.25 0 l
o
np
310.22 185.86 m
4.25 0 l
o
np
310.22 198.28 m
4.25 0 l
o
np
310.22 210.70 m
4.25 0 l
o
0.00 0.00 519.00 488.25 cl
0.00 0.00 519.00 488.25 cl
0.00 0.00 519.00 488.25 cl
0.00 0.00 519.00 488.25 cl
0.00 0.00 519.00 488.25 cl
0 0 0 srgb
1.06 setlinewidth
[] 0 setdash
0 setlinecap
1 setlinejoin
10.00 setmiterlimit
np
314.47 171.21 m
109.87 0 l
o
0.00 0.00 519.00 488.25 cl
0 0 0 srgb
1.06 setlinewidth
[] 0 setdash
0 setlinecap
1 setlinejoin
10.00 setmiterlimit
np
327.15 166.96 m
0 4.25 l
o
np
348.28 166.96 m
0 4.25 l
o
np
369.40 166.96 m
0 4.25 l
o
np
390.53 166.96 m
0 4.25 l
o
np
411.66 166.96 m
0 4.25 l
o
0.00 0.00 519.00 488.25 cl
0.00 0.00 519.00 488.25 cl
/Font1 findfont 10 s
0 0 0 srgb
327.15 156.94 (0) .5 0 t
348.28 156.94 (25) .5 0 t
369.40 156.94 (50) .5 0 t
390.53 156.94 (75) .5 0 t
411.66 156.94 (100) .5 0 t
0.00 0.00 519.00 488.25 cl
0.00 0.00 519.00 488.25 cl
0.00 0.00 519.00 488.25 cl
0.00 0.00 519.00 488.25 cl
0.00 0.00 519.00 488.25 cl
/Font1 findfont 12 s
0 0 0 srgb
369.40 144.72 (CT) .5 0 t
0.00 0.00 519.00 488.25 cl
0.00 0.00 519.00 488.25 cl
/Font1 findfont 12 s
0 0 0 srgb
286.82 195.79 (Non-injured) .5 90 t
0.00 0.00 519.00 488.25 cl
0.00 0.00 519.00 488.25 cl
0.00 0.00 519.00 488.25 cl
0.00 0.00 519.00 488.25 cl
0.00 0.00 519.00 488.25 cl
0.00 0.00 519.00 488.25 cl
/bg { 1 1 1 srgb } def
434.37 177.37 60.19 36.85 r p2
0.00 0.00 519.00 488.25 cl
0.00 0.00 519.00 488.25 cl
/Font2 findfont 10 s
0 0 0 srgb
438.62 203.00 (Time) 0 0 t
0.00 0.00 519.00 488.25 cl
0.00 0.00 519.00 488.25 cl
0.00 0.00 519.00 488.25 cl
0.00 0.00 519.00 488.25 cl
0 0 0 srgb
2.13 setlinewidth
[] 0 setdash
0 setlinecap
1 setlinejoin
10.00 setmiterlimit
np
440.35 190.26 m
13.83 0 l
o
0.00 0.00 519.00 488.25 cl
0.00 0.00 519.00 488.25 cl
/Font1 findfont 10 s
0 0 0 srgb
458.06 186.67 (Bef) 0 ta
-0.300 (ore) tb gr
0.00 0.00 519.00 488.25 cl
0.00 0.00 519.00 488.25 cl
0.00 0.00 519.00 488.25 cl
0.00 0.00 519.00 488.25 cl
0.00 0.00 519.00 488.25 cl
0.00 0.00 519.00 488.25 cl
0.00 0.00 519.00 488.25 cl
0.00 0.00 519.00 488.25 cl
0.00 0.00 519.00 488.25 cl
0.00 0.00 519.00 488.25 cl
/Font1 findfont 14 s
0 0 0 srgb
369.40 223.98 (ES Cycling) .5 0 t
0.00 0.00 519.00 488.25 cl
0.00 0.00 519.00 488.25 cl
0.00 0.00 519.00 488.25 cl
0.00 0.00 519.00 488.25 cl
0.00 0.00 519.00 488.25 cl
0.00 0.00 519.00 488.25 cl
15.82 15.82 267.41 133.92 cl
/bg { 1 1 1 srgb } def
1 1 1 srgb
1.06 setlinewidth
[] 0 setdash
1 setlinecap
1 setlinejoin
10.00 setmiterlimit
15.82 15.82 251.59 118.11 r p3
0.00 0.00 519.00 488.25 cl
0.00 0.00 519.00 488.25 cl
0.00 0.00 519.00 488.25 cl
62.88 53.10 172.74 102.27 cl
/bg { 1 1 1 srgb } def
62.88 53.10 109.87 49.17 r p2
0 0 0 srgb
1.06 setlinewidth
[] 0 setdash
0 setlinecap
1 setlinejoin
1.00 setmiterlimit
np
74.50 67.75 m
2.11 0 l
o
np
75.56 67.75 m
0 0 l
o
np
74.50 67.75 m
2.11 0 l
o
np
95.63 68.36 m
2.11 0 l
o
np
96.68 68.36 m
0 -4.62 l
o
np
95.63 63.74 m
2.11 0 l
o
np
116.76 65.17 m
2.11 0 l
o
np
117.81 65.17 m
0 -3.26 l
o
np
116.76 61.91 m
2.11 0 l
o
np
137.88 66.74 m
2.12 0 l
o
np
138.94 66.74 m
0 -8.22 l
o
np
137.88 58.52 m
2.12 0 l
o
np
159.01 66.77 m
2.11 0 l
o
np
160.07 66.77 m
0 -2.33 l
o
np
159.01 64.44 m
2.11 0 l
o
2.13 setlinewidth
[] 0 setdash
np
75.56 67.75 m
21.12 -1.70 l
21.13 -2.51 l
21.13 -0.91 l
21.13 2.97 l
o
1.06 setlinewidth
[] 0 setdash
10.00 setmiterlimit
np
62.88 67.75 m
109.86 0 l
o
/bg { 0 0 0 srgb } def
75.56 67.75 2.13 c p2
96.68 66.05 2.13 c p2
117.81 63.54 2.13 c p2
138.94 62.63 2.13 c p2
160.07 65.60 2.13 c p2
0.00 0.00 519.00 488.25 cl
0.00 0.00 519.00 488.25 cl
0 0 0 srgb
1.06 setlinewidth
[] 0 setdash
0 setlinecap
1 setlinejoin
10.00 setmiterlimit
np
62.88 53.10 m
0 49.17 l
o
0.00 0.00 519.00 488.25 cl
/Font1 findfont 10 s
0 0 0 srgb
55.79 51.74 (-25) 1 0 t
55.79 64.16 (0) 1 0 t
55.79 76.58 (25) 1 0 t
55.79 89.00 (50) 1 0 t
0.00 0.00 519.00 488.25 cl
0.00 0.00 519.00 488.25 cl
0 0 0 srgb
1.06 setlinewidth
[] 0 setdash
0 setlinecap
1 setlinejoin
10.00 setmiterlimit
np
58.63 55.33 m
4.25 0 l
o
np
58.63 67.75 m
4.25 0 l
o
np
58.63 80.17 m
4.25 0 l
o
np
58.63 92.59 m
4.25 0 l
o
0.00 0.00 519.00 488.25 cl
0.00 0.00 519.00 488.25 cl
0.00 0.00 519.00 488.25 cl
0.00 0.00 519.00 488.25 cl
0.00 0.00 519.00 488.25 cl
0 0 0 srgb
1.06 setlinewidth
[] 0 setdash
0 setlinecap
1 setlinejoin
10.00 setmiterlimit
np
62.88 53.10 m
109.86 0 l
o
0.00 0.00 519.00 488.25 cl
0 0 0 srgb
1.06 setlinewidth
[] 0 setdash
0 setlinecap
1 setlinejoin
10.00 setmiterlimit
np
75.56 48.85 m
0 4.25 l
o
np
96.68 48.85 m
0 4.25 l
o
np
117.81 48.85 m
0 4.25 l
o
np
138.94 48.85 m
0 4.25 l
o
np
160.07 48.85 m
0 4.25 l
o
0.00 0.00 519.00 488.25 cl
0.00 0.00 519.00 488.25 cl
/Font1 findfont 10 s
0 0 0 srgb
75.56 38.83 (0) .5 0 t
96.68 38.83 (25) .5 0 t
117.81 38.83 (50) .5 0 t
138.94 38.83 (75) .5 0 t
160.07 38.83 (100) .5 0 t
0.00 0.00 519.00 488.25 cl
0.00 0.00 519.00 488.25 cl
0.00 0.00 519.00 488.25 cl
0.00 0.00 519.00 488.25 cl
0.00 0.00 519.00 488.25 cl
/Font1 findfont 12 s
0 0 0 srgb
117.81 26.62 (CT) .5 0 t
0.00 0.00 519.00 488.25 cl
0.00 0.00 519.00 488.25 cl
/Font1 findfont 12 s
0 0 0 srgb
35.23 77.69 (Non-injured) .5 90 t
0.00 0.00 519.00 488.25 cl
0.00 0.00 519.00 488.25 cl
0.00 0.00 519.00 488.25 cl
0.00 0.00 519.00 488.25 cl
0.00 0.00 519.00 488.25 cl
0.00 0.00 519.00 488.25 cl
/bg { 1 1 1 srgb } def
182.78 59.26 60.19 36.85 r p2
0.00 0.00 519.00 488.25 cl
0.00 0.00 519.00 488.25 cl
/Font2 findfont 10 s
0 0 0 srgb
187.03 84.90 (Time) 0 0 t
0.00 0.00 519.00 488.25 cl
0.00 0.00 519.00 488.25 cl
0.00 0.00 519.00 488.25 cl
0.00 0.00 519.00 488.25 cl
0 0 0 srgb
2.13 setlinewidth
[] 0 setdash
0 setlinecap
1 setlinejoin
10.00 setmiterlimit
np
188.76 72.15 m
13.82 0 l
o
0.00 0.00 519.00 488.25 cl
0.00 0.00 519.00 488.25 cl
/Font1 findfont 10 s
0 0 0 srgb
206.47 68.56 (Bef) 0 ta
-0.300 (ore) tb gr
0.00 0.00 519.00 488.25 cl
0.00 0.00 519.00 488.25 cl
0.00 0.00 519.00 488.25 cl
0.00 0.00 519.00 488.25 cl
0.00 0.00 519.00 488.25 cl
0.00 0.00 519.00 488.25 cl
0.00 0.00 519.00 488.25 cl
0.00 0.00 519.00 488.25 cl
0.00 0.00 519.00 488.25 cl
0.00 0.00 519.00 488.25 cl
/Font1 findfont 14 s
0 0 0 srgb
117.81 105.87 (Cycling) .5 0 t
0.00 0.00 519.00 488.25 cl
0.00 0.00 519.00 488.25 cl
0.00 0.00 519.00 488.25 cl
0.00 0.00 519.00 488.25 cl
0.00 0.00 519.00 488.25 cl
0.00 0.00 519.00 488.25 cl
267.41 15.82 519.00 133.92 cl
/bg { 1 1 1 srgb } def
1 1 1 srgb
1.06 setlinewidth
[] 0 setdash
1 setlinecap
1 setlinejoin
10.00 setmiterlimit
267.41 15.82 251.59 118.11 r p3
0.00 0.00 519.00 488.25 cl
0.00 0.00 519.00 488.25 cl
0.00 0.00 519.00 488.25 cl
314.47 53.10 424.34 102.27 cl
/bg { 1 1 1 srgb } def
314.47 53.10 109.87 49.17 r p2
0 0 0 srgb
1.06 setlinewidth
[] 0 setdash
0 setlinecap
1 setlinejoin
1.00 setmiterlimit
np
326.09 67.75 m
2.11 0 l
o
np
327.15 67.75 m
0 0 l
o
np
326.09 67.75 m
2.11 0 l
o
np
347.22 71.96 m
2.11 0 l
o
np
348.28 71.96 m
0 -5.33 l
o
np
347.22 66.63 m
2.11 0 l
o
np
368.35 69.66 m
2.11 0 l
o
np
369.40 69.66 m
0 -5.27 l
o
np
368.35 64.39 m
2.11 0 l
o
np
389.48 69.08 m
2.11 0 l
o
np
390.53 69.08 m
0 -5.40 l
o
np
389.48 63.68 m
2.11 0 l
o
np
410.60 69.59 m
2.12 0 l
o
np
411.66 69.59 m
0 -4.54 l
o
np
410.60 65.05 m
2.12 0 l
o
2.13 setlinewidth
[] 0 setdash
np
327.15 67.75 m
21.13 1.55 l
21.12 -2.27 l
21.13 -0.65 l
21.13 0.94 l
o
1.06 setlinewidth
[] 0 setdash
10.00 setmiterlimit
np
314.47 67.75 m
109.87 0 l
o
/bg { 0 0 0 srgb } def
327.15 67.75 2.13 c p2
348.28 69.30 2.13 c p2
369.40 67.03 2.13 c p2
390.53 66.38 2.13 c p2
411.66 67.32 2.13 c p2
0.00 0.00 519.00 488.25 cl
0.00 0.00 519.00 488.25 cl
0 0 0 srgb
1.06 setlinewidth
[] 0 setdash
0 setlinecap
1 setlinejoin
10.00 setmiterlimit
np
314.47 53.10 m
0 49.17 l
o
0.00 0.00 519.00 488.25 cl
/Font1 findfont 10 s
0 0 0 srgb
307.38 51.74 (-25) 1 0 t
307.38 64.16 (0) 1 0 t
307.38 76.58 (25) 1 0 t
307.38 89.00 (50) 1 0 t
0.00 0.00 519.00 488.25 cl
0.00 0.00 519.00 488.25 cl
0 0 0 srgb
1.06 setlinewidth
[] 0 setdash
0 setlinecap
1 setlinejoin
10.00 setmiterlimit
np
310.22 55.33 m
4.25 0 l
o
np
310.22 67.75 m
4.25 0 l
o
np
310.22 80.17 m
4.25 0 l
o
np
310.22 92.59 m
4.25 0 l
o
0.00 0.00 519.00 488.25 cl
0.00 0.00 519.00 488.25 cl
0.00 0.00 519.00 488.25 cl
0.00 0.00 519.00 488.25 cl
0.00 0.00 519.00 488.25 cl
0 0 0 srgb
1.06 setlinewidth
[] 0 setdash
0 setlinecap
1 setlinejoin
10.00 setmiterlimit
np
314.47 53.10 m
109.87 0 l
o
0.00 0.00 519.00 488.25 cl
0 0 0 srgb
1.06 setlinewidth
[] 0 setdash
0 setlinecap
1 setlinejoin
10.00 setmiterlimit
np
327.15 48.85 m
0 4.25 l
o
np
348.28 48.85 m
0 4.25 l
o
np
369.40 48.85 m
0 4.25 l
o
np
390.53 48.85 m
0 4.25 l
o
np
411.66 48.85 m
0 4.25 l
o
0.00 0.00 519.00 488.25 cl
0.00 0.00 519.00 488.25 cl
/Font1 findfont 10 s
0 0 0 srgb
327.15 38.83 (0) .5 0 t
348.28 38.83 (25) .5 0 t
369.40 38.83 (50) .5 0 t
390.53 38.83 (75) .5 0 t
411.66 38.83 (100) .5 0 t
0.00 0.00 519.00 488.25 cl
0.00 0.00 519.00 488.25 cl
0.00 0.00 519.00 488.25 cl
0.00 0.00 519.00 488.25 cl
0.00 0.00 519.00 488.25 cl
/Font1 findfont 12 s
0 0 0 srgb
369.40 26.62 (CT) .5 0 t
0.00 0.00 519.00 488.25 cl
0.00 0.00 519.00 488.25 cl
/Font1 findfont 12 s
0 0 0 srgb
286.82 77.69 (Non-injured) .5 90 t
0.00 0.00 519.00 488.25 cl
0.00 0.00 519.00 488.25 cl
0.00 0.00 519.00 488.25 cl
0.00 0.00 519.00 488.25 cl
0.00 0.00 519.00 488.25 cl
0.00 0.00 519.00 488.25 cl
/bg { 1 1 1 srgb } def
434.37 59.26 60.19 36.85 r p2
0.00 0.00 519.00 488.25 cl
0.00 0.00 519.00 488.25 cl
/Font2 findfont 10 s
0 0 0 srgb
438.62 84.90 (Time) 0 0 t
0.00 0.00 519.00 488.25 cl
0.00 0.00 519.00 488.25 cl
0.00 0.00 519.00 488.25 cl
0.00 0.00 519.00 488.25 cl
0 0 0 srgb
2.13 setlinewidth
[] 0 setdash
0 setlinecap
1 setlinejoin
10.00 setmiterlimit
np
440.35 72.15 m
13.83 0 l
o
0.00 0.00 519.00 488.25 cl
0.00 0.00 519.00 488.25 cl
/Font1 findfont 10 s
0 0 0 srgb
458.06 68.56 (Bef) 0 ta
-0.300 (ore) tb gr
0.00 0.00 519.00 488.25 cl
0.00 0.00 519.00 488.25 cl
0.00 0.00 519.00 488.25 cl
0.00 0.00 519.00 488.25 cl
0.00 0.00 519.00 488.25 cl
0.00 0.00 519.00 488.25 cl
0.00 0.00 519.00 488.25 cl
0.00 0.00 519.00 488.25 cl
0.00 0.00 519.00 488.25 cl
0.00 0.00 519.00 488.25 cl
/Font1 findfont 14 s
0 0 0 srgb
369.40 105.87 (ES Cycling) .5 0 t
0.00 0.00 519.00 488.25 cl
0.00 0.00 519.00 488.25 cl
0.00 0.00 519.00 488.25 cl
0.00 0.00 519.00 488.25 cl
0.00 0.00 519.00 488.25 cl
/Font1 findfont 12 s
0 0 0 srgb
195.73 3.60 (Inter Stim) 0 ta
-0.120 (ulus Inter) tb
0.360 (v) tb
-0.300 (al \(ms\)) tb gr
0.00 0.00 519.00 488.25 cl
0.00 0.00 519.00 488.25 cl
/Font1 findfont 12 s
0 0 0 srgb
12.22 172.77 (Soleus H Refle) 90 ta
-0.360 (x Amplitude) tb gr
0.00 0.00 519.00 488.25 cl
0.00 0.00 519.00 488.25 cl
ep
%%Trailer
%%Pages: 1
%%EOF
