%!PS-Adobe-3.0 EPSF-3.0
%%DocumentNeededResources: font Helvetica
%%+ font Helvetica-Bold
%%+ font Helvetica-Oblique
%%+ font Helvetica-BoldOblique
%%+ font Symbol
%%Title: R Graphics Output
%%Creator: R Software
%%Pages: (atend)
%%BoundingBox: 0 0 375 562
%%EndComments
%%BeginProlog
/bp  { gs sRGB gs } def
% begin .ps.prolog
/gs  { gsave } bind def
/gr  { grestore } bind def
/ep  { showpage gr gr } bind def
/m   { moveto } bind def
/l  { rlineto } bind def
/np  { newpath } bind def
/cp  { closepath } bind def
/f   { fill } bind def
/o   { stroke } bind def
/c   { newpath 0 360 arc } bind def
/r   { 4 2 roll moveto 1 copy 3 -1 roll exch 0 exch rlineto 0 rlineto -1 mul 0 exch rlineto closepath } bind def
/p1  { stroke } bind def
/p2  { gsave bg fill grestore newpath } bind def
/p3  { gsave bg fill grestore stroke } bind def
/p6  { gsave bg eofill grestore newpath } bind def
/p7  { gsave bg eofill grestore stroke } bind def
/t   { 5 -2 roll moveto gsave rotate
       1 index stringwidth pop
       mul neg 0 rmoveto show grestore } bind def
/ta  { 4 -2 roll moveto gsave rotate show } bind def
/tb  { 2 -1 roll 0 rmoveto show } bind def
/cl  { grestore gsave newpath 3 index 3 index moveto 1 index
       4 -1 roll lineto  exch 1 index lineto lineto
       closepath clip newpath } bind def
/rgb { setrgbcolor } bind def
/s   { scalefont setfont } bind def
% end   .ps.prolog
/sRGB { [ /CIEBasedABC
          << /DecodeLMN
               [ { dup 0.03928 le
                        {12.92321 div}
                        {0.055 add 1.055 div 2.4 exp }
                     ifelse
                 } bind dup dup
               ]
             /MatrixLMN [0.412457 0.212673 0.019334
                         0.357576 0.715152 0.119192
                         0.180437 0.072175 0.950301]
             /WhitePoint [0.9505 1.0 1.0890]
           >>
         ] setcolorspace } bind def
/srgb { setcolor } bind def
%%IncludeResource: font Helvetica
/Helvetica findfont
dup length dict begin
  {1 index /FID ne {def} {pop pop} ifelse} forall
  /Encoding ISOLatin1Encoding def
  currentdict
  end
/Font1 exch definefont pop
%%IncludeResource: font Helvetica-Bold
/Helvetica-Bold findfont
dup length dict begin
  {1 index /FID ne {def} {pop pop} ifelse} forall
  /Encoding ISOLatin1Encoding def
  currentdict
  end
/Font2 exch definefont pop
%%IncludeResource: font Helvetica-Oblique
/Helvetica-Oblique findfont
dup length dict begin
  {1 index /FID ne {def} {pop pop} ifelse} forall
  /Encoding ISOLatin1Encoding def
  currentdict
  end
/Font3 exch definefont pop
%%IncludeResource: font Helvetica-BoldOblique
/Helvetica-BoldOblique findfont
dup length dict begin
  {1 index /FID ne {def} {pop pop} ifelse} forall
  /Encoding ISOLatin1Encoding def
  currentdict
  end
/Font4 exch definefont pop
%%IncludeResource: font Symbol
/Symbol findfont
dup length dict begin
  {1 index /FID ne {def} {pop pop} ifelse} forall
  currentdict
  end
/Font5 exch definefont pop
%%EndProlog
%%Page: 1 1
bp
0.00 0.00 375.00 562.50 cl
0.00 0.00 375.00 562.50 cl
0.00 0.00 375.00 562.50 cl
15.82 425.83 195.41 562.50 cl
/bg { 1 1 1 srgb } def
1 1 1 srgb
1.06 setlinewidth
[] 0 setdash
1 setlinecap
1 setlinejoin
10.00 setmiterlimit
15.82 425.83 179.59 136.67 r p3
0.00 0.00 375.00 562.50 cl
0.00 0.00 375.00 562.50 cl
0.00 0.00 375.00 562.50 cl
62.60 463.11 181.01 530.85 cl
/bg { 1 1 1 srgb } def
62.60 463.11 118.41 67.74 r p2
0 0 0 srgb
1.06 setlinewidth
[] 0 setdash
0 setlinecap
1 setlinejoin
1.00 setmiterlimit
np
75.12 484.25 m
2.28 0 l
o
np
76.26 484.25 m
0 -1.91 l
o
np
75.12 482.34 m
2.28 0 l
o
np
97.89 472.23 m
2.28 0 l
o
np
99.03 472.23 m
0 -2.78 l
o
np
97.89 469.45 m
2.28 0 l
o
np
120.66 474.74 m
2.28 0 l
o
np
121.80 474.74 m
0 -2.67 l
o
np
120.66 472.07 m
2.28 0 l
o
np
143.44 491.94 m
2.27 0 l
o
np
144.57 491.94 m
0 -2.65 l
o
np
143.44 489.29 m
2.27 0 l
o
np
166.21 492.01 m
2.27 0 l
o
np
167.35 492.01 m
0 -2.90 l
o
np
166.21 489.11 m
2.27 0 l
o
1.49 setlinewidth
[] 0 setdash
np
76.26 483.30 m
22.77 -12.46 l
22.77 2.56 l
22.77 17.22 l
22.78 -0.06 l
o
/bg { 0 0 0 srgb } def
76.26 483.30 2.13 c p2
99.03 470.84 2.13 c p2
121.80 473.40 2.13 c p2
144.57 490.62 2.13 c p2
167.35 490.56 2.13 c p2
0.00 0.00 375.00 562.50 cl
0.00 0.00 375.00 562.50 cl
0 0 0 srgb
1.06 setlinewidth
[] 0 setdash
0 setlinecap
1 setlinejoin
10.00 setmiterlimit
np
62.60 463.11 m
0 67.74 l
o
0.00 0.00 375.00 562.50 cl
/Font1 findfont 10 s
0 0 0 srgb
55.51 462.60 (75) 1 0 t
55.51 479.71 (100) 1 0 t
55.51 496.81 (125) 1 0 t
55.51 513.92 (150) 1 0 t
0.00 0.00 375.00 562.50 cl
0.00 0.00 375.00 562.50 cl
0 0 0 srgb
1.06 setlinewidth
[] 0 setdash
0 setlinecap
1 setlinejoin
10.00 setmiterlimit
np
58.35 466.19 m
4.25 0 l
o
np
58.35 483.30 m
4.25 0 l
o
np
58.35 500.40 m
4.25 0 l
o
np
58.35 517.51 m
4.25 0 l
o
0.00 0.00 375.00 562.50 cl
0.00 0.00 375.00 562.50 cl
0.00 0.00 375.00 562.50 cl
0.00 0.00 375.00 562.50 cl
0.00 0.00 375.00 562.50 cl
0 0 0 srgb
1.06 setlinewidth
[] 0 setdash
0 setlinecap
1 setlinejoin
10.00 setmiterlimit
np
62.60 463.11 m
118.41 0 l
o
0.00 0.00 375.00 562.50 cl
0 0 0 srgb
1.06 setlinewidth
[] 0 setdash
0 setlinecap
1 setlinejoin
10.00 setmiterlimit
np
76.26 458.86 m
0 4.25 l
o
np
99.03 458.86 m
0 4.25 l
o
np
121.80 458.86 m
0 4.25 l
o
np
144.57 458.86 m
0 4.25 l
o
np
167.35 458.86 m
0 4.25 l
o
0.00 0.00 375.00 562.50 cl
0.00 0.00 375.00 562.50 cl
/Font1 findfont 10 s
0 0 0 srgb
76.26 448.85 (0) .5 0 t
99.03 448.85 (25) .5 0 t
121.80 448.85 (50) .5 0 t
144.57 448.85 (75) .5 0 t
167.35 448.85 (100) .5 0 t
0.00 0.00 375.00 562.50 cl
0.00 0.00 375.00 562.50 cl
0.00 0.00 375.00 562.50 cl
0.00 0.00 375.00 562.50 cl
0.00 0.00 375.00 562.50 cl
/Font1 findfont 12 s
0 0 0 srgb
121.80 436.63 ( ) .5 0 t
0.00 0.00 375.00 562.50 cl
0.00 0.00 375.00 562.50 cl
/Font1 findfont 12 s
0 0 0 srgb
35.23 496.98 ( ) .5 90 t
0.00 0.00 375.00 562.50 cl
0.00 0.00 375.00 562.50 cl
/Font1 findfont 14 s
0 0 0 srgb
121.80 534.45 (Cycling) .5 0 t
0.00 0.00 375.00 562.50 cl
0.00 0.00 375.00 562.50 cl
0.00 0.00 375.00 562.50 cl
0.00 0.00 375.00 562.50 cl
0.00 0.00 375.00 562.50 cl
0.00 0.00 375.00 562.50 cl
195.41 425.83 375.00 562.50 cl
/bg { 1 1 1 srgb } def
1 1 1 srgb
1.06 setlinewidth
[] 0 setdash
1 setlinecap
1 setlinejoin
10.00 setmiterlimit
195.41 425.83 179.59 136.67 r p3
0.00 0.00 375.00 562.50 cl
0.00 0.00 375.00 562.50 cl
0.00 0.00 375.00 562.50 cl
242.19 463.11 360.60 530.85 cl
/bg { 1 1 1 srgb } def
242.19 463.11 118.41 67.74 r p2
0 0 0 srgb
1.06 setlinewidth
[] 0 setdash
0 setlinecap
1 setlinejoin
1.00 setmiterlimit
np
254.71 484.55 m
2.28 0 l
o
np
255.85 484.55 m
0 -2.51 l
o
np
254.71 482.04 m
2.28 0 l
o
np
277.49 477.57 m
2.27 0 l
o
np
278.62 477.57 m
0 -3.12 l
o
np
277.49 474.45 m
2.27 0 l
o
np
300.26 479.40 m
2.27 0 l
o
np
301.40 479.40 m
0 -2.94 l
o
np
300.26 476.46 m
2.27 0 l
o
np
323.03 491.63 m
2.27 0 l
o
np
324.17 491.63 m
0 -3.00 l
o
np
323.03 488.63 m
2.27 0 l
o
np
345.80 491.32 m
2.28 0 l
o
np
346.94 491.32 m
0 -3.21 l
o
np
345.80 488.11 m
2.28 0 l
o
1.49 setlinewidth
[] 0 setdash
np
255.85 483.30 m
22.77 -7.29 l
22.78 1.92 l
22.77 12.20 l
22.77 -0.42 l
o
/bg { 0 0 0 srgb } def
255.85 483.30 2.13 c p2
278.62 476.01 2.13 c p2
301.40 477.93 2.13 c p2
324.17 490.13 2.13 c p2
346.94 489.71 2.13 c p2
0.00 0.00 375.00 562.50 cl
0.00 0.00 375.00 562.50 cl
0 0 0 srgb
1.06 setlinewidth
[] 0 setdash
0 setlinecap
1 setlinejoin
10.00 setmiterlimit
np
242.19 463.11 m
0 67.74 l
o
0.00 0.00 375.00 562.50 cl
/Font1 findfont 10 s
0 0 0 srgb
235.10 462.60 (75) 1 0 t
235.10 479.71 (100) 1 0 t
235.10 496.81 (125) 1 0 t
235.10 513.92 (150) 1 0 t
0.00 0.00 375.00 562.50 cl
0.00 0.00 375.00 562.50 cl
0 0 0 srgb
1.06 setlinewidth
[] 0 setdash
0 setlinecap
1 setlinejoin
10.00 setmiterlimit
np
237.94 466.19 m
4.25 0 l
o
np
237.94 483.30 m
4.25 0 l
o
np
237.94 500.40 m
4.25 0 l
o
np
237.94 517.51 m
4.25 0 l
o
0.00 0.00 375.00 562.50 cl
0.00 0.00 375.00 562.50 cl
0.00 0.00 375.00 562.50 cl
0.00 0.00 375.00 562.50 cl
0.00 0.00 375.00 562.50 cl
0 0 0 srgb
1.06 setlinewidth
[] 0 setdash
0 setlinecap
1 setlinejoin
10.00 setmiterlimit
np
242.19 463.11 m
118.41 0 l
o
0.00 0.00 375.00 562.50 cl
0 0 0 srgb
1.06 setlinewidth
[] 0 setdash
0 setlinecap
1 setlinejoin
10.00 setmiterlimit
np
255.85 458.86 m
0 4.25 l
o
np
278.62 458.86 m
0 4.25 l
o
np
301.40 458.86 m
0 4.25 l
o
np
324.17 458.86 m
0 4.25 l
o
np
346.94 458.86 m
0 4.25 l
o
0.00 0.00 375.00 562.50 cl
0.00 0.00 375.00 562.50 cl
/Font1 findfont 10 s
0 0 0 srgb
255.85 448.85 (0) .5 0 t
278.62 448.85 (25) .5 0 t
301.40 448.85 (50) .5 0 t
324.17 448.85 (75) .5 0 t
346.94 448.85 (100) .5 0 t
0.00 0.00 375.00 562.50 cl
0.00 0.00 375.00 562.50 cl
0.00 0.00 375.00 562.50 cl
0.00 0.00 375.00 562.50 cl
0.00 0.00 375.00 562.50 cl
/Font1 findfont 12 s
0 0 0 srgb
301.40 436.63 ( ) .5 0 t
0.00 0.00 375.00 562.50 cl
0.00 0.00 375.00 562.50 cl
/Font1 findfont 12 s
0 0 0 srgb
214.82 496.98 ( ) .5 90 t
0.00 0.00 375.00 562.50 cl
0.00 0.00 375.00 562.50 cl
/Font1 findfont 14 s
0 0 0 srgb
301.40 534.45 (ES Cycling) .5 0 t
0.00 0.00 375.00 562.50 cl
0.00 0.00 375.00 562.50 cl
0.00 0.00 375.00 562.50 cl
0.00 0.00 375.00 562.50 cl
0.00 0.00 375.00 562.50 cl
0.00 0.00 375.00 562.50 cl
15.82 289.16 195.41 425.83 cl
/bg { 1 1 1 srgb } def
1 1 1 srgb
1.06 setlinewidth
[] 0 setdash
1 setlinecap
1 setlinejoin
10.00 setmiterlimit
15.82 289.16 179.59 136.67 r p3
0.00 0.00 375.00 562.50 cl
0.00 0.00 375.00 562.50 cl
0.00 0.00 375.00 562.50 cl
62.60 326.44 181.01 394.18 cl
/bg { 1 1 1 srgb } def
62.60 326.44 118.41 67.74 r p2
0 0 0 srgb
1.06 setlinewidth
[] 0 setdash
0 setlinecap
1 setlinejoin
1.00 setmiterlimit
np
75.12 349.20 m
2.28 0 l
o
np
76.26 349.20 m
0 -5.15 l
o
np
75.12 344.05 m
2.28 0 l
o
np
97.89 344.50 m
2.28 0 l
o
np
99.03 344.50 m
0 -5.06 l
o
np
97.89 339.44 m
2.28 0 l
o
np
120.66 350.45 m
2.28 0 l
o
np
121.80 350.45 m
0 -5.09 l
o
np
120.66 345.36 m
2.28 0 l
o
np
143.44 360.29 m
2.27 0 l
o
np
144.57 360.29 m
0 -6.41 l
o
np
143.44 353.88 m
2.27 0 l
o
np
166.21 351.75 m
2.27 0 l
o
np
167.35 351.75 m
0 -6.18 l
o
np
166.21 345.57 m
2.27 0 l
o
1.49 setlinewidth
[] 0 setdash
np
76.26 346.62 m
22.77 -4.65 l
22.77 5.93 l
22.77 9.18 l
22.78 -8.42 l
o
/bg { 0 0 0 srgb } def
76.26 346.62 2.13 c p2
99.03 341.97 2.13 c p2
121.80 347.90 2.13 c p2
144.57 357.08 2.13 c p2
167.35 348.66 2.13 c p2
0.00 0.00 375.00 562.50 cl
0.00 0.00 375.00 562.50 cl
0 0 0 srgb
1.06 setlinewidth
[] 0 setdash
0 setlinecap
1 setlinejoin
10.00 setmiterlimit
np
62.60 326.44 m
0 67.74 l
o
0.00 0.00 375.00 562.50 cl
/Font1 findfont 10 s
0 0 0 srgb
55.51 325.93 (75) 1 0 t
55.51 343.03 (100) 1 0 t
55.51 360.14 (125) 1 0 t
55.51 377.24 (150) 1 0 t
0.00 0.00 375.00 562.50 cl
0.00 0.00 375.00 562.50 cl
0 0 0 srgb
1.06 setlinewidth
[] 0 setdash
0 setlinecap
1 setlinejoin
10.00 setmiterlimit
np
58.35 329.52 m
4.25 0 l
o
np
58.35 346.62 m
4.25 0 l
o
np
58.35 363.73 m
4.25 0 l
o
np
58.35 380.83 m
4.25 0 l
o
0.00 0.00 375.00 562.50 cl
0.00 0.00 375.00 562.50 cl
0.00 0.00 375.00 562.50 cl
0.00 0.00 375.00 562.50 cl
0.00 0.00 375.00 562.50 cl
0 0 0 srgb
1.06 setlinewidth
[] 0 setdash
0 setlinecap
1 setlinejoin
10.00 setmiterlimit
np
62.60 326.44 m
118.41 0 l
o
0.00 0.00 375.00 562.50 cl
0 0 0 srgb
1.06 setlinewidth
[] 0 setdash
0 setlinecap
1 setlinejoin
10.00 setmiterlimit
np
76.26 322.19 m
0 4.25 l
o
np
99.03 322.19 m
0 4.25 l
o
np
121.80 322.19 m
0 4.25 l
o
np
144.57 322.19 m
0 4.25 l
o
np
167.35 322.19 m
0 4.25 l
o
0.00 0.00 375.00 562.50 cl
0.00 0.00 375.00 562.50 cl
/Font1 findfont 10 s
0 0 0 srgb
76.26 312.17 (0) .5 0 t
99.03 312.17 (25) .5 0 t
121.80 312.17 (50) .5 0 t
144.57 312.17 (75) .5 0 t
167.35 312.17 (100) .5 0 t
0.00 0.00 375.00 562.50 cl
0.00 0.00 375.00 562.50 cl
0.00 0.00 375.00 562.50 cl
0.00 0.00 375.00 562.50 cl
0.00 0.00 375.00 562.50 cl
/Font1 findfont 12 s
0 0 0 srgb
121.80 299.96 ( ) .5 0 t
0.00 0.00 375.00 562.50 cl
0.00 0.00 375.00 562.50 cl
/Font1 findfont 12 s
0 0 0 srgb
35.23 360.31 ( ) .5 90 t
0.00 0.00 375.00 562.50 cl
0.00 0.00 375.00 562.50 cl
/Font1 findfont 14 s
0 0 0 srgb
121.80 397.78 ( ) .5 0 t
0.00 0.00 375.00 562.50 cl
0.00 0.00 375.00 562.50 cl
0.00 0.00 375.00 562.50 cl
0.00 0.00 375.00 562.50 cl
0.00 0.00 375.00 562.50 cl
0.00 0.00 375.00 562.50 cl
195.41 289.16 375.00 425.83 cl
/bg { 1 1 1 srgb } def
1 1 1 srgb
1.06 setlinewidth
[] 0 setdash
1 setlinecap
1 setlinejoin
10.00 setmiterlimit
195.41 289.16 179.59 136.67 r p3
0.00 0.00 375.00 562.50 cl
0.00 0.00 375.00 562.50 cl
0.00 0.00 375.00 562.50 cl
242.19 326.44 360.60 394.18 cl
/bg { 1 1 1 srgb } def
242.19 326.44 118.41 67.74 r p2
0 0 0 srgb
1.06 setlinewidth
[] 0 setdash
0 setlinecap
1 setlinejoin
1.00 setmiterlimit
np
254.71 348.44 m
2.28 0 l
o
np
255.85 348.44 m
0 -3.63 l
o
np
254.71 344.81 m
2.28 0 l
o
np
277.49 338.35 m
2.27 0 l
o
np
278.62 338.35 m
0 -4.21 l
o
np
277.49 334.14 m
2.27 0 l
o
np
300.26 346.30 m
2.27 0 l
o
np
301.40 346.30 m
0 -3.87 l
o
np
300.26 342.43 m
2.27 0 l
o
np
323.03 345.30 m
2.27 0 l
o
np
324.17 345.30 m
0 -4.28 l
o
np
323.03 341.02 m
2.27 0 l
o
np
345.80 346.09 m
2.28 0 l
o
np
346.94 346.09 m
0 -4.44 l
o
np
345.80 341.65 m
2.28 0 l
o
1.49 setlinewidth
[] 0 setdash
np
255.85 346.62 m
22.77 -10.37 l
22.78 8.11 l
22.77 -1.20 l
22.77 0.71 l
o
/bg { 0 0 0 srgb } def
255.85 346.62 2.13 c p2
278.62 336.25 2.13 c p2
301.40 344.36 2.13 c p2
324.17 343.16 2.13 c p2
346.94 343.87 2.13 c p2
0.00 0.00 375.00 562.50 cl
0.00 0.00 375.00 562.50 cl
0 0 0 srgb
1.06 setlinewidth
[] 0 setdash
0 setlinecap
1 setlinejoin
10.00 setmiterlimit
np
242.19 326.44 m
0 67.74 l
o
0.00 0.00 375.00 562.50 cl
/Font1 findfont 10 s
0 0 0 srgb
235.10 325.93 (75) 1 0 t
235.10 343.03 (100) 1 0 t
235.10 360.14 (125) 1 0 t
235.10 377.24 (150) 1 0 t
0.00 0.00 375.00 562.50 cl
0.00 0.00 375.00 562.50 cl
0 0 0 srgb
1.06 setlinewidth
[] 0 setdash
0 setlinecap
1 setlinejoin
10.00 setmiterlimit
np
237.94 329.52 m
4.25 0 l
o
np
237.94 346.62 m
4.25 0 l
o
np
237.94 363.73 m
4.25 0 l
o
np
237.94 380.83 m
4.25 0 l
o
0.00 0.00 375.00 562.50 cl
0.00 0.00 375.00 562.50 cl
0.00 0.00 375.00 562.50 cl
0.00 0.00 375.00 562.50 cl
0.00 0.00 375.00 562.50 cl
0 0 0 srgb
1.06 setlinewidth
[] 0 setdash
0 setlinecap
1 setlinejoin
10.00 setmiterlimit
np
242.19 326.44 m
118.41 0 l
o
0.00 0.00 375.00 562.50 cl
0 0 0 srgb
1.06 setlinewidth
[] 0 setdash
0 setlinecap
1 setlinejoin
10.00 setmiterlimit
np
255.85 322.19 m
0 4.25 l
o
np
278.62 322.19 m
0 4.25 l
o
np
301.40 322.19 m
0 4.25 l
o
np
324.17 322.19 m
0 4.25 l
o
np
346.94 322.19 m
0 4.25 l
o
0.00 0.00 375.00 562.50 cl
0.00 0.00 375.00 562.50 cl
/Font1 findfont 10 s
0 0 0 srgb
255.85 312.17 (0) .5 0 t
278.62 312.17 (25) .5 0 t
301.40 312.17 (50) .5 0 t
324.17 312.17 (75) .5 0 t
346.94 312.17 (100) .5 0 t
0.00 0.00 375.00 562.50 cl
0.00 0.00 375.00 562.50 cl
0.00 0.00 375.00 562.50 cl
0.00 0.00 375.00 562.50 cl
0.00 0.00 375.00 562.50 cl
/Font1 findfont 12 s
0 0 0 srgb
301.40 299.96 ( ) .5 0 t
0.00 0.00 375.00 562.50 cl
0.00 0.00 375.00 562.50 cl
/Font1 findfont 12 s
0 0 0 srgb
214.82 360.31 ( ) .5 90 t
0.00 0.00 375.00 562.50 cl
0.00 0.00 375.00 562.50 cl
/Font1 findfont 14 s
0 0 0 srgb
301.40 397.78 ( ) .5 0 t
0.00 0.00 375.00 562.50 cl
0.00 0.00 375.00 562.50 cl
0.00 0.00 375.00 562.50 cl
0.00 0.00 375.00 562.50 cl
0.00 0.00 375.00 562.50 cl
0.00 0.00 375.00 562.50 cl
15.82 152.49 195.41 289.16 cl
/bg { 1 1 1 srgb } def
1 1 1 srgb
1.06 setlinewidth
[] 0 setdash
1 setlinecap
1 setlinejoin
10.00 setmiterlimit
15.82 152.49 179.59 136.67 r p3
0.00 0.00 375.00 562.50 cl
0.00 0.00 375.00 562.50 cl
0.00 0.00 375.00 562.50 cl
62.60 189.77 181.01 257.51 cl
/bg { 1 1 1 srgb } def
62.60 189.77 118.41 67.74 r p2
0 0 0 srgb
1.06 setlinewidth
[] 0 setdash
0 setlinecap
1 setlinejoin
1.00 setmiterlimit
np
75.12 212.13 m
2.28 0 l
o
np
76.26 212.13 m
0 -4.35 l
o
np
75.12 207.78 m
2.28 0 l
o
np
97.89 214.81 m
2.28 0 l
o
np
99.03 214.81 m
0 -6.74 l
o
np
97.89 208.07 m
2.28 0 l
o
np
120.66 220.97 m
2.28 0 l
o
np
121.80 220.97 m
0 -6.47 l
o
np
120.66 214.50 m
2.28 0 l
o
np
143.44 214.37 m
2.27 0 l
o
np
144.57 214.37 m
0 -6.94 l
o
np
143.44 207.43 m
2.27 0 l
o
np
166.21 206.54 m
2.27 0 l
o
np
167.35 206.54 m
0 -7.10 l
o
np
166.21 199.44 m
2.27 0 l
o
1.49 setlinewidth
[] 0 setdash
np
76.26 209.95 m
22.77 1.49 l
22.77 6.29 l
22.77 -6.83 l
22.78 -7.91 l
o
/bg { 0 0 0 srgb } def
76.26 209.95 2.13 c p2
99.03 211.44 2.13 c p2
121.80 217.73 2.13 c p2
144.57 210.90 2.13 c p2
167.35 202.99 2.13 c p2
0.00 0.00 375.00 562.50 cl
0.00 0.00 375.00 562.50 cl
0 0 0 srgb
1.06 setlinewidth
[] 0 setdash
0 setlinecap
1 setlinejoin
10.00 setmiterlimit
np
62.60 189.77 m
0 67.74 l
o
0.00 0.00 375.00 562.50 cl
/Font1 findfont 10 s
0 0 0 srgb
55.51 189.26 (75) 1 0 t
55.51 206.36 (100) 1 0 t
55.51 223.47 (125) 1 0 t
55.51 240.57 (150) 1 0 t
0.00 0.00 375.00 562.50 cl
0.00 0.00 375.00 562.50 cl
0 0 0 srgb
1.06 setlinewidth
[] 0 setdash
0 setlinecap
1 setlinejoin
10.00 setmiterlimit
np
58.35 192.85 m
4.25 0 l
o
np
58.35 209.95 m
4.25 0 l
o
np
58.35 227.06 m
4.25 0 l
o
np
58.35 244.16 m
4.25 0 l
o
0.00 0.00 375.00 562.50 cl
0.00 0.00 375.00 562.50 cl
0.00 0.00 375.00 562.50 cl
0.00 0.00 375.00 562.50 cl
0.00 0.00 375.00 562.50 cl
0 0 0 srgb
1.06 setlinewidth
[] 0 setdash
0 setlinecap
1 setlinejoin
10.00 setmiterlimit
np
62.60 189.77 m
118.41 0 l
o
0.00 0.00 375.00 562.50 cl
0 0 0 srgb
1.06 setlinewidth
[] 0 setdash
0 setlinecap
1 setlinejoin
10.00 setmiterlimit
np
76.26 185.52 m
0 4.25 l
o
np
99.03 185.52 m
0 4.25 l
o
np
121.80 185.52 m
0 4.25 l
o
np
144.57 185.52 m
0 4.25 l
o
np
167.35 185.52 m
0 4.25 l
o
0.00 0.00 375.00 562.50 cl
0.00 0.00 375.00 562.50 cl
/Font1 findfont 10 s
0 0 0 srgb
76.26 175.50 (0) .5 0 t
99.03 175.50 (25) .5 0 t
121.80 175.50 (50) .5 0 t
144.57 175.50 (75) .5 0 t
167.35 175.50 (100) .5 0 t
0.00 0.00 375.00 562.50 cl
0.00 0.00 375.00 562.50 cl
0.00 0.00 375.00 562.50 cl
0.00 0.00 375.00 562.50 cl
0.00 0.00 375.00 562.50 cl
/Font1 findfont 12 s
0 0 0 srgb
121.80 163.29 ( ) .5 0 t
0.00 0.00 375.00 562.50 cl
0.00 0.00 375.00 562.50 cl
/Font1 findfont 12 s
0 0 0 srgb
35.23 223.64 ( ) .5 90 t
0.00 0.00 375.00 562.50 cl
0.00 0.00 375.00 562.50 cl
/Font1 findfont 14 s
0 0 0 srgb
121.80 261.11 ( ) .5 0 t
0.00 0.00 375.00 562.50 cl
0.00 0.00 375.00 562.50 cl
0.00 0.00 375.00 562.50 cl
0.00 0.00 375.00 562.50 cl
0.00 0.00 375.00 562.50 cl
0.00 0.00 375.00 562.50 cl
195.41 152.49 375.00 289.16 cl
/bg { 1 1 1 srgb } def
1 1 1 srgb
1.06 setlinewidth
[] 0 setdash
1 setlinecap
1 setlinejoin
10.00 setmiterlimit
195.41 152.49 179.59 136.67 r p3
0.00 0.00 375.00 562.50 cl
0.00 0.00 375.00 562.50 cl
0.00 0.00 375.00 562.50 cl
242.19 189.77 360.60 257.51 cl
/bg { 1 1 1 srgb } def
242.19 189.77 118.41 67.74 r p2
0 0 0 srgb
1.06 setlinewidth
[] 0 setdash
0 setlinecap
1 setlinejoin
1.00 setmiterlimit
np
254.71 212.09 m
2.28 0 l
o
np
255.85 212.09 m
0 -4.28 l
o
np
254.71 207.81 m
2.28 0 l
o
np
277.49 212.49 m
2.27 0 l
o
np
278.62 212.49 m
0 -5.19 l
o
np
277.49 207.30 m
2.27 0 l
o
np
300.26 214.75 m
2.27 0 l
o
np
301.40 214.75 m
0 -3.65 l
o
np
300.26 211.10 m
2.27 0 l
o
np
323.03 207.14 m
2.27 0 l
o
np
324.17 207.14 m
0 -4.55 l
o
np
323.03 202.59 m
2.27 0 l
o
np
345.80 212.39 m
2.28 0 l
o
np
346.94 212.39 m
0 -4.33 l
o
np
345.80 208.06 m
2.28 0 l
o
1.49 setlinewidth
[] 0 setdash
np
255.85 209.95 m
22.77 -0.06 l
22.78 3.04 l
22.77 -8.06 l
22.77 5.35 l
o
/bg { 0 0 0 srgb } def
255.85 209.95 2.13 c p2
278.62 209.89 2.13 c p2
301.40 212.93 2.13 c p2
324.17 204.87 2.13 c p2
346.94 210.22 2.13 c p2
0.00 0.00 375.00 562.50 cl
0.00 0.00 375.00 562.50 cl
0 0 0 srgb
1.06 setlinewidth
[] 0 setdash
0 setlinecap
1 setlinejoin
10.00 setmiterlimit
np
242.19 189.77 m
0 67.74 l
o
0.00 0.00 375.00 562.50 cl
/Font1 findfont 10 s
0 0 0 srgb
235.10 189.26 (75) 1 0 t
235.10 206.36 (100) 1 0 t
235.10 223.47 (125) 1 0 t
235.10 240.57 (150) 1 0 t
0.00 0.00 375.00 562.50 cl
0.00 0.00 375.00 562.50 cl
0 0 0 srgb
1.06 setlinewidth
[] 0 setdash
0 setlinecap
1 setlinejoin
10.00 setmiterlimit
np
237.94 192.85 m
4.25 0 l
o
np
237.94 209.95 m
4.25 0 l
o
np
237.94 227.06 m
4.25 0 l
o
np
237.94 244.16 m
4.25 0 l
o
0.00 0.00 375.00 562.50 cl
0.00 0.00 375.00 562.50 cl
0.00 0.00 375.00 562.50 cl
0.00 0.00 375.00 562.50 cl
0.00 0.00 375.00 562.50 cl
0 0 0 srgb
1.06 setlinewidth
[] 0 setdash
0 setlinecap
1 setlinejoin
10.00 setmiterlimit
np
242.19 189.77 m
118.41 0 l
o
0.00 0.00 375.00 562.50 cl
0 0 0 srgb
1.06 setlinewidth
[] 0 setdash
0 setlinecap
1 setlinejoin
10.00 setmiterlimit
np
255.85 185.52 m
0 4.25 l
o
np
278.62 185.52 m
0 4.25 l
o
np
301.40 185.52 m
0 4.25 l
o
np
324.17 185.52 m
0 4.25 l
o
np
346.94 185.52 m
0 4.25 l
o
0.00 0.00 375.00 562.50 cl
0.00 0.00 375.00 562.50 cl
/Font1 findfont 10 s
0 0 0 srgb
255.85 175.50 (0) .5 0 t
278.62 175.50 (25) .5 0 t
301.40 175.50 (50) .5 0 t
324.17 175.50 (75) .5 0 t
346.94 175.50 (100) .5 0 t
0.00 0.00 375.00 562.50 cl
0.00 0.00 375.00 562.50 cl
0.00 0.00 375.00 562.50 cl
0.00 0.00 375.00 562.50 cl
0.00 0.00 375.00 562.50 cl
/Font1 findfont 12 s
0 0 0 srgb
301.40 163.29 ( ) .5 0 t
0.00 0.00 375.00 562.50 cl
0.00 0.00 375.00 562.50 cl
/Font1 findfont 12 s
0 0 0 srgb
214.82 223.64 ( ) .5 90 t
0.00 0.00 375.00 562.50 cl
0.00 0.00 375.00 562.50 cl
/Font1 findfont 14 s
0 0 0 srgb
301.40 261.11 ( ) .5 0 t
0.00 0.00 375.00 562.50 cl
0.00 0.00 375.00 562.50 cl
0.00 0.00 375.00 562.50 cl
0.00 0.00 375.00 562.50 cl
0.00 0.00 375.00 562.50 cl
0.00 0.00 375.00 562.50 cl
15.82 15.82 195.41 152.49 cl
/bg { 1 1 1 srgb } def
1 1 1 srgb
1.06 setlinewidth
[] 0 setdash
1 setlinecap
1 setlinejoin
10.00 setmiterlimit
15.82 15.82 179.59 136.67 r p3
0.00 0.00 375.00 562.50 cl
0.00 0.00 375.00 562.50 cl
0.00 0.00 375.00 562.50 cl
62.60 53.10 181.01 120.84 cl
/bg { 1 1 1 srgb } def
62.60 53.10 118.41 67.74 r p2
0 0 0 srgb
1.06 setlinewidth
[] 0 setdash
0 setlinecap
1 setlinejoin
1.00 setmiterlimit
np
75.12 75.20 m
2.28 0 l
o
np
76.26 75.20 m
0 -3.83 l
o
np
75.12 71.37 m
2.28 0 l
o
np
97.89 76.37 m
2.28 0 l
o
np
99.03 76.37 m
0 -4.80 l
o
np
97.89 71.57 m
2.28 0 l
o
np
120.66 80.80 m
2.28 0 l
o
np
121.80 80.80 m
0 -4.33 l
o
np
120.66 76.47 m
2.28 0 l
o
np
143.44 82.63 m
2.27 0 l
o
np
144.57 82.63 m
0 -3.79 l
o
np
143.44 78.84 m
2.27 0 l
o
np
166.21 78.51 m
2.27 0 l
o
np
167.35 78.51 m
0 -3.75 l
o
np
166.21 74.76 m
2.27 0 l
o
1.49 setlinewidth
[] 0 setdash
np
76.26 73.28 m
22.77 0.69 l
22.77 4.67 l
22.77 2.09 l
22.78 -4.10 l
o
/bg { 0 0 0 srgb } def
76.26 73.28 2.13 c p2
99.03 73.97 2.13 c p2
121.80 78.64 2.13 c p2
144.57 80.73 2.13 c p2
167.35 76.63 2.13 c p2
0.00 0.00 375.00 562.50 cl
0.00 0.00 375.00 562.50 cl
0 0 0 srgb
1.06 setlinewidth
[] 0 setdash
0 setlinecap
1 setlinejoin
10.00 setmiterlimit
np
62.60 53.10 m
0 67.74 l
o
0.00 0.00 375.00 562.50 cl
/Font1 findfont 10 s
0 0 0 srgb
55.51 52.59 (75) 1 0 t
55.51 69.69 (100) 1 0 t
55.51 86.80 (125) 1 0 t
55.51 103.90 (150) 1 0 t
0.00 0.00 375.00 562.50 cl
0.00 0.00 375.00 562.50 cl
0 0 0 srgb
1.06 setlinewidth
[] 0 setdash
0 setlinecap
1 setlinejoin
10.00 setmiterlimit
np
58.35 56.18 m
4.25 0 l
o
np
58.35 73.28 m
4.25 0 l
o
np
58.35 90.39 m
4.25 0 l
o
np
58.35 107.49 m
4.25 0 l
o
0.00 0.00 375.00 562.50 cl
0.00 0.00 375.00 562.50 cl
0.00 0.00 375.00 562.50 cl
0.00 0.00 375.00 562.50 cl
0.00 0.00 375.00 562.50 cl
0 0 0 srgb
1.06 setlinewidth
[] 0 setdash
0 setlinecap
1 setlinejoin
10.00 setmiterlimit
np
62.60 53.10 m
118.41 0 l
o
0.00 0.00 375.00 562.50 cl
0 0 0 srgb
1.06 setlinewidth
[] 0 setdash
0 setlinecap
1 setlinejoin
10.00 setmiterlimit
np
76.26 48.85 m
0 4.25 l
o
np
99.03 48.85 m
0 4.25 l
o
np
121.80 48.85 m
0 4.25 l
o
np
144.57 48.85 m
0 4.25 l
o
np
167.35 48.85 m
0 4.25 l
o
0.00 0.00 375.00 562.50 cl
0.00 0.00 375.00 562.50 cl
/Font1 findfont 10 s
0 0 0 srgb
76.26 38.83 (0) .5 0 t
99.03 38.83 (25) .5 0 t
121.80 38.83 (50) .5 0 t
144.57 38.83 (75) .5 0 t
167.35 38.83 (100) .5 0 t
0.00 0.00 375.00 562.50 cl
0.00 0.00 375.00 562.50 cl
0.00 0.00 375.00 562.50 cl
0.00 0.00 375.00 562.50 cl
0.00 0.00 375.00 562.50 cl
/Font1 findfont 12 s
0 0 0 srgb
121.80 26.62 ( ) .5 0 t
0.00 0.00 375.00 562.50 cl
0.00 0.00 375.00 562.50 cl
/Font1 findfont 12 s
0 0 0 srgb
35.23 86.97 ( ) .5 90 t
0.00 0.00 375.00 562.50 cl
0.00 0.00 375.00 562.50 cl
/Font1 findfont 14 s
0 0 0 srgb
121.80 124.44 ( ) .5 0 t
0.00 0.00 375.00 562.50 cl
0.00 0.00 375.00 562.50 cl
0.00 0.00 375.00 562.50 cl
0.00 0.00 375.00 562.50 cl
0.00 0.00 375.00 562.50 cl
0.00 0.00 375.00 562.50 cl
195.41 15.82 375.00 152.49 cl
/bg { 1 1 1 srgb } def
1 1 1 srgb
1.06 setlinewidth
[] 0 setdash
1 setlinecap
1 setlinejoin
10.00 setmiterlimit
195.41 15.82 179.59 136.67 r p3
0.00 0.00 375.00 562.50 cl
0.00 0.00 375.00 562.50 cl
0.00 0.00 375.00 562.50 cl
242.19 53.10 360.60 120.84 cl
/bg { 1 1 1 srgb } def
242.19 53.10 118.41 67.74 r p2
0 0 0 srgb
1.06 setlinewidth
[] 0 setdash
0 setlinecap
1 setlinejoin
1.00 setmiterlimit
np
254.71 74.19 m
2.28 0 l
o
np
255.85 74.19 m
0 -1.81 l
o
np
254.71 72.38 m
2.28 0 l
o
np
277.49 69.14 m
2.27 0 l
o
np
278.62 69.14 m
0 -3.25 l
o
np
277.49 65.89 m
2.27 0 l
o
np
300.26 77.36 m
2.27 0 l
o
np
301.40 77.36 m
0 -1.75 l
o
np
300.26 75.61 m
2.27 0 l
o
np
323.03 76.40 m
2.27 0 l
o
np
324.17 76.40 m
0 -2.37 l
o
np
323.03 74.03 m
2.27 0 l
o
np
345.80 75.67 m
2.28 0 l
o
np
346.94 75.67 m
0 -1.99 l
o
np
345.80 73.68 m
2.28 0 l
o
1.49 setlinewidth
[] 0 setdash
np
255.85 73.28 m
22.77 -5.76 l
22.78 8.96 l
22.77 -1.26 l
22.77 -0.54 l
o
/bg { 0 0 0 srgb } def
255.85 73.28 2.13 c p2
278.62 67.52 2.13 c p2
301.40 76.48 2.13 c p2
324.17 75.22 2.13 c p2
346.94 74.68 2.13 c p2
0.00 0.00 375.00 562.50 cl
0.00 0.00 375.00 562.50 cl
0 0 0 srgb
1.06 setlinewidth
[] 0 setdash
0 setlinecap
1 setlinejoin
10.00 setmiterlimit
np
242.19 53.10 m
0 67.74 l
o
0.00 0.00 375.00 562.50 cl
/Font1 findfont 10 s
0 0 0 srgb
235.10 52.59 (75) 1 0 t
235.10 69.69 (100) 1 0 t
235.10 86.80 (125) 1 0 t
235.10 103.90 (150) 1 0 t
0.00 0.00 375.00 562.50 cl
0.00 0.00 375.00 562.50 cl
0 0 0 srgb
1.06 setlinewidth
[] 0 setdash
0 setlinecap
1 setlinejoin
10.00 setmiterlimit
np
237.94 56.18 m
4.25 0 l
o
np
237.94 73.28 m
4.25 0 l
o
np
237.94 90.39 m
4.25 0 l
o
np
237.94 107.49 m
4.25 0 l
o
0.00 0.00 375.00 562.50 cl
0.00 0.00 375.00 562.50 cl
0.00 0.00 375.00 562.50 cl
0.00 0.00 375.00 562.50 cl
0.00 0.00 375.00 562.50 cl
0 0 0 srgb
1.06 setlinewidth
[] 0 setdash
0 setlinecap
1 setlinejoin
10.00 setmiterlimit
np
242.19 53.10 m
118.41 0 l
o
0.00 0.00 375.00 562.50 cl
0 0 0 srgb
1.06 setlinewidth
[] 0 setdash
0 setlinecap
1 setlinejoin
10.00 setmiterlimit
np
255.85 48.85 m
0 4.25 l
o
np
278.62 48.85 m
0 4.25 l
o
np
301.40 48.85 m
0 4.25 l
o
np
324.17 48.85 m
0 4.25 l
o
np
346.94 48.85 m
0 4.25 l
o
0.00 0.00 375.00 562.50 cl
0.00 0.00 375.00 562.50 cl
/Font1 findfont 10 s
0 0 0 srgb
255.85 38.83 (0) .5 0 t
278.62 38.83 (25) .5 0 t
301.40 38.83 (50) .5 0 t
324.17 38.83 (75) .5 0 t
346.94 38.83 (100) .5 0 t
0.00 0.00 375.00 562.50 cl
0.00 0.00 375.00 562.50 cl
0.00 0.00 375.00 562.50 cl
0.00 0.00 375.00 562.50 cl
0.00 0.00 375.00 562.50 cl
/Font1 findfont 12 s
0 0 0 srgb
301.40 26.62 ( ) .5 0 t
0.00 0.00 375.00 562.50 cl
0.00 0.00 375.00 562.50 cl
/Font1 findfont 12 s
0 0 0 srgb
214.82 86.97 ( ) .5 90 t
0.00 0.00 375.00 562.50 cl
0.00 0.00 375.00 562.50 cl
/Font1 findfont 14 s
0 0 0 srgb
301.40 124.44 ( ) .5 0 t
0.00 0.00 375.00 562.50 cl
0.00 0.00 375.00 562.50 cl
0.00 0.00 375.00 562.50 cl
0.00 0.00 375.00 562.50 cl
0.00 0.00 375.00 562.50 cl
/Font1 findfont 12 s
0 0 0 srgb
123.73 3.60 (Inter Stim) 0 ta
-0.120 (ulus Inter) tb
0.360 (v) tb
-0.300 (al \(ms\)) tb gr
0.00 0.00 375.00 562.50 cl
0.00 0.00 375.00 562.50 cl
/Font1 findfont 12 s
0 0 0 srgb
12.22 209.89 (Soleus H Refle) 90 ta
-0.360 (x Amplitude) tb gr
0.00 0.00 375.00 562.50 cl
0.00 0.00 375.00 562.50 cl
ep
%%Trailer
%%Pages: 1
%%EOF
