%!PS-Adobe-3.0 EPSF-3.0
%%DocumentNeededResources: font Helvetica
%%+ font Helvetica-Bold
%%+ font Helvetica-Oblique
%%+ font Helvetica-BoldOblique
%%+ font Symbol
%%Title: R Graphics Output
%%Creator: R Software
%%Pages: (atend)
%%BoundingBox: 0 0 315 392
%%EndComments
%%BeginProlog
/bp  { gs sRGB gs } def
% begin .ps.prolog
/gs  { gsave } bind def
/gr  { grestore } bind def
/ep  { showpage gr gr } bind def
/m   { moveto } bind def
/l  { rlineto } bind def
/np  { newpath } bind def
/cp  { closepath } bind def
/f   { fill } bind def
/o   { stroke } bind def
/c   { newpath 0 360 arc } bind def
/r   { 4 2 roll moveto 1 copy 3 -1 roll exch 0 exch rlineto 0 rlineto -1 mul 0 exch rlineto closepath } bind def
/p1  { stroke } bind def
/p2  { gsave bg fill grestore newpath } bind def
/p3  { gsave bg fill grestore stroke } bind def
/p6  { gsave bg eofill grestore newpath } bind def
/p7  { gsave bg eofill grestore stroke } bind def
/t   { 5 -2 roll moveto gsave rotate
       1 index stringwidth pop
       mul neg 0 rmoveto show grestore } bind def
/ta  { 4 -2 roll moveto gsave rotate show } bind def
/tb  { 2 -1 roll 0 rmoveto show } bind def
/cl  { grestore gsave newpath 3 index 3 index moveto 1 index
       4 -1 roll lineto  exch 1 index lineto lineto
       closepath clip newpath } bind def
/rgb { setrgbcolor } bind def
/s   { scalefont setfont } bind def
% end   .ps.prolog
/sRGB { [ /CIEBasedABC
          << /DecodeLMN
               [ { dup 0.03928 le
                        {12.92321 div}
                        {0.055 add 1.055 div 2.4 exp }
                     ifelse
                 } bind dup dup
               ]
             /MatrixLMN [0.412457 0.212673 0.019334
                         0.357576 0.715152 0.119192
                         0.180437 0.072175 0.950301]
             /WhitePoint [0.9505 1.0 1.0890]
           >>
         ] setcolorspace } bind def
/srgb { setcolor } bind def
%%IncludeResource: font Helvetica
/Helvetica findfont
dup length dict begin
  {1 index /FID ne {def} {pop pop} ifelse} forall
  /Encoding ISOLatin1Encoding def
  currentdict
  end
/Font1 exch definefont pop
%%IncludeResource: font Helvetica-Bold
/Helvetica-Bold findfont
dup length dict begin
  {1 index /FID ne {def} {pop pop} ifelse} forall
  /Encoding ISOLatin1Encoding def
  currentdict
  end
/Font2 exch definefont pop
%%IncludeResource: font Helvetica-Oblique
/Helvetica-Oblique findfont
dup length dict begin
  {1 index /FID ne {def} {pop pop} ifelse} forall
  /Encoding ISOLatin1Encoding def
  currentdict
  end
/Font3 exch definefont pop
%%IncludeResource: font Helvetica-BoldOblique
/Helvetica-BoldOblique findfont
dup length dict begin
  {1 index /FID ne {def} {pop pop} ifelse} forall
  /Encoding ISOLatin1Encoding def
  currentdict
  end
/Font4 exch definefont pop
%%IncludeResource: font Symbol
/Symbol findfont
dup length dict begin
  {1 index /FID ne {def} {pop pop} ifelse} forall
  currentdict
  end
/Font5 exch definefont pop
%%EndProlog
%%Page: 1 1
bp
0.00 0.00 315.00 392.25 cl
0.00 0.00 315.00 392.25 cl
0.00 0.00 315.00 392.25 cl
15.82 266.77 165.41 392.25 cl
/bg { 1 1 1 srgb } def
1 1 1 srgb
1.06 setlinewidth
[] 0 setdash
1 setlinecap
1 setlinejoin
10.00 setmiterlimit
15.82 266.77 149.59 125.48 r p3
0.00 0.00 315.00 392.25 cl
0.00 0.00 315.00 392.25 cl
0.00 0.00 315.00 392.25 cl
62.60 304.05 151.01 360.60 cl
/bg { 1 1 1 srgb } def
62.60 304.05 88.41 56.54 r p2
0 0 0 srgb
1.06 setlinewidth
[] 0 setdash
0 setlinecap
1 setlinejoin
1.00 setmiterlimit
np
71.95 332.33 m
1.70 0 l
o
np
72.80 332.33 m
0 0 l
o
np
71.95 332.33 m
1.70 0 l
o
np
88.95 327.43 m
1.70 0 l
o
np
89.80 327.43 m
0 -8.80 l
o
np
88.95 318.63 m
1.70 0 l
o
np
105.95 327.16 m
1.70 0 l
o
np
106.80 327.16 m
0 -5.15 l
o
np
105.95 322.01 m
1.70 0 l
o
np
122.96 341.81 m
1.70 0 l
o
np
123.81 341.81 m
0 -6.14 l
o
np
122.96 335.67 m
1.70 0 l
o
np
139.96 339.61 m
1.70 0 l
o
np
140.81 339.61 m
0 -3.91 l
o
np
139.96 335.70 m
1.70 0 l
o
1.49 setlinewidth
[] 0 setdash
np
72.80 332.33 m
17.00 -9.30 l
17.00 1.55 l
17.01 14.16 l
17.00 -1.09 l
o
/bg { 0 0 0 srgb } def
72.80 332.33 2.13 c p2
89.80 323.03 2.13 c p2
106.80 324.58 2.13 c p2
123.81 338.74 2.13 c p2
140.81 337.65 2.13 c p2
0.00 0.00 315.00 392.25 cl
0.00 0.00 315.00 392.25 cl
0 0 0 srgb
1.06 setlinewidth
[] 0 setdash
0 setlinecap
1 setlinejoin
10.00 setmiterlimit
np
62.60 304.05 m
0 56.55 l
o
0.00 0.00 315.00 392.25 cl
/Font1 findfont 10 s
0 0 0 srgb
55.51 303.03 (60) 1 0 t
55.51 315.89 (80) 1 0 t
55.51 328.74 (100) 1 0 t
55.51 341.59 (120) 1 0 t
55.51 354.44 (140) 1 0 t
0.00 0.00 315.00 392.25 cl
0.00 0.00 315.00 392.25 cl
0 0 0 srgb
1.06 setlinewidth
[] 0 setdash
0 setlinecap
1 setlinejoin
10.00 setmiterlimit
np
58.35 306.62 m
4.25 0 l
o
np
58.35 319.48 m
4.25 0 l
o
np
58.35 332.33 m
4.25 0 l
o
np
58.35 345.18 m
4.25 0 l
o
np
58.35 358.03 m
4.25 0 l
o
0.00 0.00 315.00 392.25 cl
0.00 0.00 315.00 392.25 cl
0.00 0.00 315.00 392.25 cl
0.00 0.00 315.00 392.25 cl
0.00 0.00 315.00 392.25 cl
0 0 0 srgb
1.06 setlinewidth
[] 0 setdash
0 setlinecap
1 setlinejoin
10.00 setmiterlimit
np
62.60 304.05 m
88.41 0 l
o
0.00 0.00 315.00 392.25 cl
0 0 0 srgb
1.06 setlinewidth
[] 0 setdash
0 setlinecap
1 setlinejoin
10.00 setmiterlimit
np
72.80 299.80 m
0 4.25 l
o
np
89.80 299.80 m
0 4.25 l
o
np
106.80 299.80 m
0 4.25 l
o
np
123.81 299.80 m
0 4.25 l
o
np
140.81 299.80 m
0 4.25 l
o
0.00 0.00 315.00 392.25 cl
0.00 0.00 315.00 392.25 cl
/Font1 findfont 10 s
0 0 0 srgb
72.80 289.79 (0) .5 0 t
89.80 289.79 (25) .5 0 t
106.80 289.79 (50) .5 0 t
123.81 289.79 (75) .5 0 t
140.81 289.79 (100) .5 0 t
0.00 0.00 315.00 392.25 cl
0.00 0.00 315.00 392.25 cl
0.00 0.00 315.00 392.25 cl
0.00 0.00 315.00 392.25 cl
0.00 0.00 315.00 392.25 cl
/Font1 findfont 12 s
0 0 0 srgb
106.80 277.57 ( ) .5 0 t
0.00 0.00 315.00 392.25 cl
0.00 0.00 315.00 392.25 cl
/Font1 findfont 12 s
0 0 0 srgb
35.23 332.33 ( ) .5 90 t
0.00 0.00 315.00 392.25 cl
0.00 0.00 315.00 392.25 cl
/Font1 findfont 14 s
0 0 0 srgb
106.80 364.20 (Cycling) .5 0 t
0.00 0.00 315.00 392.25 cl
0.00 0.00 315.00 392.25 cl
0.00 0.00 315.00 392.25 cl
0.00 0.00 315.00 392.25 cl
0.00 0.00 315.00 392.25 cl
0.00 0.00 315.00 392.25 cl
165.41 266.77 315.00 392.25 cl
/bg { 1 1 1 srgb } def
1 1 1 srgb
1.06 setlinewidth
[] 0 setdash
1 setlinecap
1 setlinejoin
10.00 setmiterlimit
165.41 266.77 149.59 125.48 r p3
0.00 0.00 315.00 392.25 cl
0.00 0.00 315.00 392.25 cl
0.00 0.00 315.00 392.25 cl
212.19 304.05 300.60 360.60 cl
/bg { 1 1 1 srgb } def
212.19 304.05 88.41 56.54 r p2
0 0 0 srgb
1.06 setlinewidth
[] 0 setdash
0 setlinecap
1 setlinejoin
1.00 setmiterlimit
np
221.54 332.33 m
1.70 0 l
o
np
222.39 332.33 m
0 0 l
o
np
221.54 332.33 m
1.70 0 l
o
np
238.54 330.44 m
1.70 0 l
o
np
239.39 330.44 m
0 -8.24 l
o
np
238.54 322.20 m
1.70 0 l
o
np
255.55 332.76 m
1.70 0 l
o
np
256.40 332.76 m
0 -4.50 l
o
np
255.55 328.26 m
1.70 0 l
o
np
272.55 345.17 m
1.70 0 l
o
np
273.40 345.17 m
0 -4.99 l
o
np
272.55 340.18 m
1.70 0 l
o
np
289.55 347.86 m
1.70 0 l
o
np
290.40 347.86 m
0 -6.37 l
o
np
289.55 341.49 m
1.70 0 l
o
1.49 setlinewidth
[] 0 setdash
np
222.39 332.33 m
17.00 -6.01 l
17.01 4.19 l
17.00 12.16 l
17.00 2.00 l
o
/bg { 0 0 0 srgb } def
222.39 332.33 2.13 c p2
239.39 326.32 2.13 c p2
256.40 330.51 2.13 c p2
273.40 342.67 2.13 c p2
290.40 344.67 2.13 c p2
0.00 0.00 315.00 392.25 cl
0.00 0.00 315.00 392.25 cl
0 0 0 srgb
1.06 setlinewidth
[] 0 setdash
0 setlinecap
1 setlinejoin
10.00 setmiterlimit
np
212.19 304.05 m
0 56.55 l
o
0.00 0.00 315.00 392.25 cl
/Font1 findfont 10 s
0 0 0 srgb
205.10 303.03 (60) 1 0 t
205.10 315.89 (80) 1 0 t
205.10 328.74 (100) 1 0 t
205.10 341.59 (120) 1 0 t
205.10 354.44 (140) 1 0 t
0.00 0.00 315.00 392.25 cl
0.00 0.00 315.00 392.25 cl
0 0 0 srgb
1.06 setlinewidth
[] 0 setdash
0 setlinecap
1 setlinejoin
10.00 setmiterlimit
np
207.94 306.62 m
4.25 0 l
o
np
207.94 319.48 m
4.25 0 l
o
np
207.94 332.33 m
4.25 0 l
o
np
207.94 345.18 m
4.25 0 l
o
np
207.94 358.03 m
4.25 0 l
o
0.00 0.00 315.00 392.25 cl
0.00 0.00 315.00 392.25 cl
0.00 0.00 315.00 392.25 cl
0.00 0.00 315.00 392.25 cl
0.00 0.00 315.00 392.25 cl
0 0 0 srgb
1.06 setlinewidth
[] 0 setdash
0 setlinecap
1 setlinejoin
10.00 setmiterlimit
np
212.19 304.05 m
88.41 0 l
o
0.00 0.00 315.00 392.25 cl
0 0 0 srgb
1.06 setlinewidth
[] 0 setdash
0 setlinecap
1 setlinejoin
10.00 setmiterlimit
np
222.39 299.80 m
0 4.25 l
o
np
239.39 299.80 m
0 4.25 l
o
np
256.40 299.80 m
0 4.25 l
o
np
273.40 299.80 m
0 4.25 l
o
np
290.40 299.80 m
0 4.25 l
o
0.00 0.00 315.00 392.25 cl
0.00 0.00 315.00 392.25 cl
/Font1 findfont 10 s
0 0 0 srgb
222.39 289.79 (0) .5 0 t
239.39 289.79 (25) .5 0 t
256.40 289.79 (50) .5 0 t
273.40 289.79 (75) .5 0 t
290.40 289.79 (100) .5 0 t
0.00 0.00 315.00 392.25 cl
0.00 0.00 315.00 392.25 cl
0.00 0.00 315.00 392.25 cl
0.00 0.00 315.00 392.25 cl
0.00 0.00 315.00 392.25 cl
/Font1 findfont 12 s
0 0 0 srgb
256.40 277.57 ( ) .5 0 t
0.00 0.00 315.00 392.25 cl
0.00 0.00 315.00 392.25 cl
/Font1 findfont 12 s
0 0 0 srgb
184.82 332.33 ( ) .5 90 t
0.00 0.00 315.00 392.25 cl
0.00 0.00 315.00 392.25 cl
/Font1 findfont 14 s
0 0 0 srgb
256.40 364.20 (ES Cycling) .5 0 t
0.00 0.00 315.00 392.25 cl
0.00 0.00 315.00 392.25 cl
0.00 0.00 315.00 392.25 cl
0.00 0.00 315.00 392.25 cl
0.00 0.00 315.00 392.25 cl
0.00 0.00 315.00 392.25 cl
15.82 141.29 165.41 266.77 cl
/bg { 1 1 1 srgb } def
1 1 1 srgb
1.06 setlinewidth
[] 0 setdash
1 setlinecap
1 setlinejoin
10.00 setmiterlimit
15.82 141.29 149.59 125.48 r p3
0.00 0.00 315.00 392.25 cl
0.00 0.00 315.00 392.25 cl
0.00 0.00 315.00 392.25 cl
62.60 178.58 151.01 235.12 cl
/bg { 1 1 1 srgb } def
62.60 178.58 88.41 56.54 r p2
0 0 0 srgb
1.06 setlinewidth
[] 0 setdash
0 setlinecap
1 setlinejoin
1.00 setmiterlimit
np
71.95 206.85 m
1.70 0 l
o
np
72.80 206.85 m
0 0 l
o
np
71.95 206.85 m
1.70 0 l
o
np
88.95 208.01 m
1.70 0 l
o
np
89.80 208.01 m
0 -5.11 l
o
np
88.95 202.90 m
1.70 0 l
o
np
105.95 212.52 m
1.70 0 l
o
np
106.80 212.52 m
0 -4.27 l
o
np
105.95 208.25 m
1.70 0 l
o
np
122.96 218.69 m
1.70 0 l
o
np
123.81 218.69 m
0 -8.90 l
o
np
122.96 209.79 m
1.70 0 l
o
np
139.96 210.12 m
1.70 0 l
o
np
140.81 210.12 m
0 -5.83 l
o
np
139.96 204.29 m
1.70 0 l
o
1.49 setlinewidth
[] 0 setdash
np
72.80 206.85 m
17.00 -1.40 l
17.00 4.93 l
17.01 3.86 l
17.00 -7.03 l
o
/bg { 0 0 0 srgb } def
72.80 206.85 2.13 c p2
89.80 205.45 2.13 c p2
106.80 210.38 2.13 c p2
123.81 214.24 2.13 c p2
140.81 207.21 2.13 c p2
0.00 0.00 315.00 392.25 cl
0.00 0.00 315.00 392.25 cl
0 0 0 srgb
1.06 setlinewidth
[] 0 setdash
0 setlinecap
1 setlinejoin
10.00 setmiterlimit
np
62.60 178.58 m
0 56.54 l
o
0.00 0.00 315.00 392.25 cl
/Font1 findfont 10 s
0 0 0 srgb
55.51 177.56 (60) 1 0 t
55.51 190.41 (80) 1 0 t
55.51 203.26 (100) 1 0 t
55.51 216.11 (120) 1 0 t
55.51 228.96 (140) 1 0 t
0.00 0.00 315.00 392.25 cl
0.00 0.00 315.00 392.25 cl
0 0 0 srgb
1.06 setlinewidth
[] 0 setdash
0 setlinecap
1 setlinejoin
10.00 setmiterlimit
np
58.35 181.15 m
4.25 0 l
o
np
58.35 194.00 m
4.25 0 l
o
np
58.35 206.85 m
4.25 0 l
o
np
58.35 219.70 m
4.25 0 l
o
np
58.35 232.55 m
4.25 0 l
o
0.00 0.00 315.00 392.25 cl
0.00 0.00 315.00 392.25 cl
0.00 0.00 315.00 392.25 cl
0.00 0.00 315.00 392.25 cl
0.00 0.00 315.00 392.25 cl
0 0 0 srgb
1.06 setlinewidth
[] 0 setdash
0 setlinecap
1 setlinejoin
10.00 setmiterlimit
np
62.60 178.58 m
88.41 0 l
o
0.00 0.00 315.00 392.25 cl
0 0 0 srgb
1.06 setlinewidth
[] 0 setdash
0 setlinecap
1 setlinejoin
10.00 setmiterlimit
np
72.80 174.32 m
0 4.26 l
o
np
89.80 174.32 m
0 4.26 l
o
np
106.80 174.32 m
0 4.26 l
o
np
123.81 174.32 m
0 4.26 l
o
np
140.81 174.32 m
0 4.26 l
o
0.00 0.00 315.00 392.25 cl
0.00 0.00 315.00 392.25 cl
/Font1 findfont 10 s
0 0 0 srgb
72.80 164.31 (0) .5 0 t
89.80 164.31 (25) .5 0 t
106.80 164.31 (50) .5 0 t
123.81 164.31 (75) .5 0 t
140.81 164.31 (100) .5 0 t
0.00 0.00 315.00 392.25 cl
0.00 0.00 315.00 392.25 cl
0.00 0.00 315.00 392.25 cl
0.00 0.00 315.00 392.25 cl
0.00 0.00 315.00 392.25 cl
/Font1 findfont 12 s
0 0 0 srgb
106.80 152.09 ( ) .5 0 t
0.00 0.00 315.00 392.25 cl
0.00 0.00 315.00 392.25 cl
/Font1 findfont 12 s
0 0 0 srgb
35.23 206.85 ( ) .5 90 t
0.00 0.00 315.00 392.25 cl
0.00 0.00 315.00 392.25 cl
/Font1 findfont 14 s
0 0 0 srgb
106.80 238.72 ( ) .5 0 t
0.00 0.00 315.00 392.25 cl
0.00 0.00 315.00 392.25 cl
0.00 0.00 315.00 392.25 cl
0.00 0.00 315.00 392.25 cl
0.00 0.00 315.00 392.25 cl
0.00 0.00 315.00 392.25 cl
165.41 141.29 315.00 266.77 cl
/bg { 1 1 1 srgb } def
1 1 1 srgb
1.06 setlinewidth
[] 0 setdash
1 setlinecap
1 setlinejoin
10.00 setmiterlimit
165.41 141.29 149.59 125.48 r p3
0.00 0.00 315.00 392.25 cl
0.00 0.00 315.00 392.25 cl
0.00 0.00 315.00 392.25 cl
212.19 178.58 300.60 235.12 cl
/bg { 1 1 1 srgb } def
212.19 178.58 88.41 56.54 r p2
0 0 0 srgb
1.06 setlinewidth
[] 0 setdash
0 setlinecap
1 setlinejoin
1.00 setmiterlimit
np
221.54 206.85 m
1.70 0 l
o
np
222.39 206.85 m
0 0 l
o
np
221.54 206.85 m
1.70 0 l
o
np
238.54 211.99 m
1.70 0 l
o
np
239.39 211.99 m
0 -14.24 l
o
np
238.54 197.75 m
1.70 0 l
o
np
255.55 226.94 m
1.70 0 l
o
np
256.40 226.94 m
0 -17.43 l
o
np
255.55 209.51 m
1.70 0 l
o
np
272.55 231.44 m
1.70 0 l
o
np
273.40 231.44 m
0 -24.12 l
o
np
272.55 207.32 m
1.70 0 l
o
np
289.55 210.24 m
1.70 0 l
o
np
290.40 210.24 m
0 -8.46 l
o
np
289.55 201.78 m
1.70 0 l
o
1.49 setlinewidth
[] 0 setdash
np
222.39 206.85 m
17.00 -1.98 l
17.01 13.36 l
17.00 1.15 l
17.00 -13.37 l
o
/bg { 0 0 0 srgb } def
222.39 206.85 2.13 c p2
239.39 204.87 2.13 c p2
256.40 218.23 2.13 c p2
273.40 219.38 2.13 c p2
290.40 206.01 2.13 c p2
0.00 0.00 315.00 392.25 cl
0.00 0.00 315.00 392.25 cl
0 0 0 srgb
1.06 setlinewidth
[] 0 setdash
0 setlinecap
1 setlinejoin
10.00 setmiterlimit
np
212.19 178.58 m
0 56.54 l
o
0.00 0.00 315.00 392.25 cl
/Font1 findfont 10 s
0 0 0 srgb
205.10 177.56 (60) 1 0 t
205.10 190.41 (80) 1 0 t
205.10 203.26 (100) 1 0 t
205.10 216.11 (120) 1 0 t
205.10 228.96 (140) 1 0 t
0.00 0.00 315.00 392.25 cl
0.00 0.00 315.00 392.25 cl
0 0 0 srgb
1.06 setlinewidth
[] 0 setdash
0 setlinecap
1 setlinejoin
10.00 setmiterlimit
np
207.94 181.15 m
4.25 0 l
o
np
207.94 194.00 m
4.25 0 l
o
np
207.94 206.85 m
4.25 0 l
o
np
207.94 219.70 m
4.25 0 l
o
np
207.94 232.55 m
4.25 0 l
o
0.00 0.00 315.00 392.25 cl
0.00 0.00 315.00 392.25 cl
0.00 0.00 315.00 392.25 cl
0.00 0.00 315.00 392.25 cl
0.00 0.00 315.00 392.25 cl
0 0 0 srgb
1.06 setlinewidth
[] 0 setdash
0 setlinecap
1 setlinejoin
10.00 setmiterlimit
np
212.19 178.58 m
88.41 0 l
o
0.00 0.00 315.00 392.25 cl
0 0 0 srgb
1.06 setlinewidth
[] 0 setdash
0 setlinecap
1 setlinejoin
10.00 setmiterlimit
np
222.39 174.32 m
0 4.26 l
o
np
239.39 174.32 m
0 4.26 l
o
np
256.40 174.32 m
0 4.26 l
o
np
273.40 174.32 m
0 4.26 l
o
np
290.40 174.32 m
0 4.26 l
o
0.00 0.00 315.00 392.25 cl
0.00 0.00 315.00 392.25 cl
/Font1 findfont 10 s
0 0 0 srgb
222.39 164.31 (0) .5 0 t
239.39 164.31 (25) .5 0 t
256.40 164.31 (50) .5 0 t
273.40 164.31 (75) .5 0 t
290.40 164.31 (100) .5 0 t
0.00 0.00 315.00 392.25 cl
0.00 0.00 315.00 392.25 cl
0.00 0.00 315.00 392.25 cl
0.00 0.00 315.00 392.25 cl
0.00 0.00 315.00 392.25 cl
/Font1 findfont 12 s
0 0 0 srgb
256.40 152.09 ( ) .5 0 t
0.00 0.00 315.00 392.25 cl
0.00 0.00 315.00 392.25 cl
/Font1 findfont 12 s
0 0 0 srgb
184.82 206.85 ( ) .5 90 t
0.00 0.00 315.00 392.25 cl
0.00 0.00 315.00 392.25 cl
/Font1 findfont 14 s
0 0 0 srgb
256.40 238.72 ( ) .5 0 t
0.00 0.00 315.00 392.25 cl
0.00 0.00 315.00 392.25 cl
0.00 0.00 315.00 392.25 cl
0.00 0.00 315.00 392.25 cl
0.00 0.00 315.00 392.25 cl
0.00 0.00 315.00 392.25 cl
15.82 15.82 165.41 141.29 cl
/bg { 1 1 1 srgb } def
1 1 1 srgb
1.06 setlinewidth
[] 0 setdash
1 setlinecap
1 setlinejoin
10.00 setmiterlimit
15.82 15.82 149.59 125.48 r p3
0.00 0.00 315.00 392.25 cl
0.00 0.00 315.00 392.25 cl
0.00 0.00 315.00 392.25 cl
62.60 53.10 151.01 109.64 cl
/bg { 1 1 1 srgb } def
62.60 53.10 88.41 56.54 r p2
0 0 0 srgb
1.06 setlinewidth
[] 0 setdash
0 setlinecap
1 setlinejoin
1.00 setmiterlimit
np
71.95 81.37 m
1.70 0 l
o
np
72.80 81.37 m
0 0 l
o
np
71.95 81.37 m
1.70 0 l
o
np
88.95 80.93 m
1.70 0 l
o
np
89.80 80.93 m
0 -2.24 l
o
np
88.95 78.69 m
1.70 0 l
o
np
105.95 82.53 m
1.70 0 l
o
np
106.80 82.53 m
0 -3.16 l
o
np
105.95 79.37 m
1.70 0 l
o
np
122.96 82.78 m
1.70 0 l
o
np
123.81 82.78 m
0 -2.07 l
o
np
122.96 80.71 m
1.70 0 l
o
np
139.96 83.08 m
1.70 0 l
o
np
140.81 83.08 m
0 -2.68 l
o
np
139.96 80.40 m
1.70 0 l
o
1.49 setlinewidth
[] 0 setdash
np
72.80 81.37 m
17.00 -1.56 l
17.00 1.14 l
17.01 0.80 l
17.00 -0.01 l
o
/bg { 0 0 0 srgb } def
72.80 81.37 2.13 c p2
89.80 79.81 2.13 c p2
106.80 80.95 2.13 c p2
123.81 81.75 2.13 c p2
140.81 81.74 2.13 c p2
0.00 0.00 315.00 392.25 cl
0.00 0.00 315.00 392.25 cl
0 0 0 srgb
1.06 setlinewidth
[] 0 setdash
0 setlinecap
1 setlinejoin
10.00 setmiterlimit
np
62.60 53.10 m
0 56.54 l
o
0.00 0.00 315.00 392.25 cl
/Font1 findfont 10 s
0 0 0 srgb
55.51 52.08 (60) 1 0 t
55.51 64.93 (80) 1 0 t
55.51 77.78 (100) 1 0 t
55.51 90.63 (120) 1 0 t
55.51 103.48 (140) 1 0 t
0.00 0.00 315.00 392.25 cl
0.00 0.00 315.00 392.25 cl
0 0 0 srgb
1.06 setlinewidth
[] 0 setdash
0 setlinecap
1 setlinejoin
10.00 setmiterlimit
np
58.35 55.67 m
4.25 0 l
o
np
58.35 68.52 m
4.25 0 l
o
np
58.35 81.37 m
4.25 0 l
o
np
58.35 94.22 m
4.25 0 l
o
np
58.35 107.07 m
4.25 0 l
o
0.00 0.00 315.00 392.25 cl
0.00 0.00 315.00 392.25 cl
0.00 0.00 315.00 392.25 cl
0.00 0.00 315.00 392.25 cl
0.00 0.00 315.00 392.25 cl
0 0 0 srgb
1.06 setlinewidth
[] 0 setdash
0 setlinecap
1 setlinejoin
10.00 setmiterlimit
np
62.60 53.10 m
88.41 0 l
o
0.00 0.00 315.00 392.25 cl
0 0 0 srgb
1.06 setlinewidth
[] 0 setdash
0 setlinecap
1 setlinejoin
10.00 setmiterlimit
np
72.80 48.85 m
0 4.25 l
o
np
89.80 48.85 m
0 4.25 l
o
np
106.80 48.85 m
0 4.25 l
o
np
123.81 48.85 m
0 4.25 l
o
np
140.81 48.85 m
0 4.25 l
o
0.00 0.00 315.00 392.25 cl
0.00 0.00 315.00 392.25 cl
/Font1 findfont 10 s
0 0 0 srgb
72.80 38.83 (0) .5 0 t
89.80 38.83 (25) .5 0 t
106.80 38.83 (50) .5 0 t
123.81 38.83 (75) .5 0 t
140.81 38.83 (100) .5 0 t
0.00 0.00 315.00 392.25 cl
0.00 0.00 315.00 392.25 cl
0.00 0.00 315.00 392.25 cl
0.00 0.00 315.00 392.25 cl
0.00 0.00 315.00 392.25 cl
/Font1 findfont 12 s
0 0 0 srgb
106.80 26.62 ( ) .5 0 t
0.00 0.00 315.00 392.25 cl
0.00 0.00 315.00 392.25 cl
/Font1 findfont 12 s
0 0 0 srgb
35.23 81.37 ( ) .5 90 t
0.00 0.00 315.00 392.25 cl
0.00 0.00 315.00 392.25 cl
/Font1 findfont 14 s
0 0 0 srgb
106.80 113.24 ( ) .5 0 t
0.00 0.00 315.00 392.25 cl
0.00 0.00 315.00 392.25 cl
0.00 0.00 315.00 392.25 cl
0.00 0.00 315.00 392.25 cl
0.00 0.00 315.00 392.25 cl
0.00 0.00 315.00 392.25 cl
165.41 15.82 315.00 141.29 cl
/bg { 1 1 1 srgb } def
1 1 1 srgb
1.06 setlinewidth
[] 0 setdash
1 setlinecap
1 setlinejoin
10.00 setmiterlimit
165.41 15.82 149.59 125.48 r p3
0.00 0.00 315.00 392.25 cl
0.00 0.00 315.00 392.25 cl
0.00 0.00 315.00 392.25 cl
212.19 53.10 300.60 109.64 cl
/bg { 1 1 1 srgb } def
212.19 53.10 88.41 56.54 r p2
0 0 0 srgb
1.06 setlinewidth
[] 0 setdash
0 setlinecap
1 setlinejoin
1.00 setmiterlimit
np
221.54 81.37 m
1.70 0 l
o
np
222.39 81.37 m
0 0 l
o
np
221.54 81.37 m
1.70 0 l
o
np
238.54 82.56 m
1.70 0 l
o
np
239.39 82.56 m
0 -9.21 l
o
np
238.54 73.35 m
1.70 0 l
o
np
255.55 85.32 m
1.70 0 l
o
np
256.40 85.32 m
0 -3.76 l
o
np
255.55 81.56 m
1.70 0 l
o
np
272.55 82.94 m
1.70 0 l
o
np
273.40 82.94 m
0 -3.04 l
o
np
272.55 79.90 m
1.70 0 l
o
np
289.55 83.44 m
1.70 0 l
o
np
290.40 83.44 m
0 -2.64 l
o
np
289.55 80.80 m
1.70 0 l
o
1.49 setlinewidth
[] 0 setdash
np
222.39 81.37 m
17.00 -3.42 l
17.01 5.49 l
17.00 -2.02 l
17.00 0.70 l
o
/bg { 0 0 0 srgb } def
222.39 81.37 2.13 c p2
239.39 77.95 2.13 c p2
256.40 83.44 2.13 c p2
273.40 81.42 2.13 c p2
290.40 82.12 2.13 c p2
0.00 0.00 315.00 392.25 cl
0.00 0.00 315.00 392.25 cl
0 0 0 srgb
1.06 setlinewidth
[] 0 setdash
0 setlinecap
1 setlinejoin
10.00 setmiterlimit
np
212.19 53.10 m
0 56.54 l
o
0.00 0.00 315.00 392.25 cl
/Font1 findfont 10 s
0 0 0 srgb
205.10 52.08 (60) 1 0 t
205.10 64.93 (80) 1 0 t
205.10 77.78 (100) 1 0 t
205.10 90.63 (120) 1 0 t
205.10 103.48 (140) 1 0 t
0.00 0.00 315.00 392.25 cl
0.00 0.00 315.00 392.25 cl
0 0 0 srgb
1.06 setlinewidth
[] 0 setdash
0 setlinecap
1 setlinejoin
10.00 setmiterlimit
np
207.94 55.67 m
4.25 0 l
o
np
207.94 68.52 m
4.25 0 l
o
np
207.94 81.37 m
4.25 0 l
o
np
207.94 94.22 m
4.25 0 l
o
np
207.94 107.07 m
4.25 0 l
o
0.00 0.00 315.00 392.25 cl
0.00 0.00 315.00 392.25 cl
0.00 0.00 315.00 392.25 cl
0.00 0.00 315.00 392.25 cl
0.00 0.00 315.00 392.25 cl
0 0 0 srgb
1.06 setlinewidth
[] 0 setdash
0 setlinecap
1 setlinejoin
10.00 setmiterlimit
np
212.19 53.10 m
88.41 0 l
o
0.00 0.00 315.00 392.25 cl
0 0 0 srgb
1.06 setlinewidth
[] 0 setdash
0 setlinecap
1 setlinejoin
10.00 setmiterlimit
np
222.39 48.85 m
0 4.25 l
o
np
239.39 48.85 m
0 4.25 l
o
np
256.40 48.85 m
0 4.25 l
o
np
273.40 48.85 m
0 4.25 l
o
np
290.40 48.85 m
0 4.25 l
o
0.00 0.00 315.00 392.25 cl
0.00 0.00 315.00 392.25 cl
/Font1 findfont 10 s
0 0 0 srgb
222.39 38.83 (0) .5 0 t
239.39 38.83 (25) .5 0 t
256.40 38.83 (50) .5 0 t
273.40 38.83 (75) .5 0 t
290.40 38.83 (100) .5 0 t
0.00 0.00 315.00 392.25 cl
0.00 0.00 315.00 392.25 cl
0.00 0.00 315.00 392.25 cl
0.00 0.00 315.00 392.25 cl
0.00 0.00 315.00 392.25 cl
/Font1 findfont 12 s
0 0 0 srgb
256.40 26.62 ( ) .5 0 t
0.00 0.00 315.00 392.25 cl
0.00 0.00 315.00 392.25 cl
/Font1 findfont 12 s
0 0 0 srgb
184.82 81.37 ( ) .5 90 t
0.00 0.00 315.00 392.25 cl
0.00 0.00 315.00 392.25 cl
/Font1 findfont 14 s
0 0 0 srgb
256.40 113.24 ( ) .5 0 t
0.00 0.00 315.00 392.25 cl
0.00 0.00 315.00 392.25 cl
0.00 0.00 315.00 392.25 cl
0.00 0.00 315.00 392.25 cl
0.00 0.00 315.00 392.25 cl
/Font1 findfont 12 s
0 0 0 srgb
93.73 3.60 (Inter Stim) 0 ta
-0.120 (ulus Inter) tb
0.360 (v) tb
-0.300 (al \(ms\)) tb gr
0.00 0.00 315.00 392.25 cl
0.00 0.00 315.00 392.25 cl
/Font1 findfont 12 s
0 0 0 srgb
12.22 124.77 (Soleus H Refle) 90 ta
-0.360 (x Amplitude) tb gr
0.00 0.00 315.00 392.25 cl
0.00 0.00 315.00 392.25 cl
ep
%%Trailer
%%Pages: 1
%%EOF
